<?xml version="1.0" encoding="utf-8"?>
<!-- Generator: Adobe Illustrator 23.0.5, SVG Export Plug-In . SVG Version: 6.00 Build 0)  -->
<svg version="1.1" id="Capa_1" xmlns="http://www.w3.org/2000/svg" xmlns:xlink="http://www.w3.org/1999/xlink" x="0px" y="0px"
	 viewBox="0 0 25.2 25.2" style="enable-background:new 0 0 25.2 25.2;" xml:space="preserve">
<style type="text/css">
	.st0{fill:#B7B7B7;}
</style>
<g>
	<path class="st0" d="M13.8,10.2c-0.1-0.3-0.3-0.6-0.6-0.7l-0.8-0.4c-0.2-0.1-0.2-0.3-0.2-0.5c0.1-0.1,0.2-0.2,0.3-0.2h0.1
		c0.2,0,0.4,0.2,0.4,0.4v0.1h0.8V8.8c0-0.5-0.3-1-0.8-1.1V7.2h-0.8v0.5c-0.6,0.2-1,0.9-0.8,1.5c0.1,0.3,0.3,0.6,0.6,0.7l0.8,0.4
		c0.2,0.1,0.2,0.3,0.2,0.5c-0.1,0.1-0.2,0.2-0.3,0.2h-0.1c-0.2,0-0.4-0.2-0.4-0.4v-0.1h-0.8v0.1c0,0.5,0.3,1,0.8,1.1v0.5H13v-0.5
		C13.6,11.5,14,10.9,13.8,10.2z"/>
</g>
<g>
	<path class="st0" d="M17.2,6.8V3.5h-0.8v3.5c0,0.1,0,0.2,0.1,0.2c1.4,2.1,0.8,4.9-1.3,6.3s-4.9,0.8-6.3-1.3
		c-1.3-1.9-0.9-4.4,0.8-5.9C9.6,6.2,9.7,6.1,9.7,6V1.8H8.9v4c-2.2,2.1-2.2,5.5-0.2,7.6s5.5,2.2,7.6,0.2C18.2,11.8,18.5,9,17.2,6.8z"
		/>
</g>
<g>
	<path class="st0" d="M14.7,1.4v3.3c-0.7-0.3-1.4-0.4-2.1-0.4c-0.1,0-0.3,0-0.4,0V2.2h-0.8v2.6c0,0.1,0.1,0.2,0.1,0.3
		c0.1,0.1,0.2,0.1,0.3,0.1c1-0.2,2.1,0,3,0.5c0.2,0.1,0.5,0,0.6-0.2c0-0.1,0.1-0.1,0.1-0.2v-4L14.7,1.4L14.7,1.4z"/>
</g>
<g>
	<rect x="13" y="0.5" class="st0" width="0.8" height="1.7"/>
</g>
<g>
	<path class="st0" d="M16.9,15.3c-1.2,1-2.8,1.5-4.3,1.5c-0.7,0-1.3-0.1-2-0.3l-0.2,0.8c0.7,0.2,1.5,0.3,2.2,0.3
		c1.7,0,3.4-0.6,4.8-1.6L16.9,15.3z"/>
</g>
<g>
	<path class="st0" d="M7.8,3.4C7.4,3.7,7,4.1,6.7,4.4L7.3,5c0.3-0.3,0.6-0.6,0.9-0.9L7.8,3.4z"/>
</g>
<g>
	<rect x="8.9" y="0.1" class="st0" width="0.8" height="0.8"/>
</g>
<g>
	<rect x="16.3" y="1.8" class="st0" width="0.8" height="0.8"/>
</g>
<g>
	<rect x="14.7" y="9.3" class="st0" width="0.8" height="0.8"/>
</g>
<g>
	<rect x="9.7" y="9.3" class="st0" width="0.8" height="0.8"/>
</g>
<g>
	<path class="st0" d="M9.1,15.8l-0.4,0.7c0.3,0.2,0.6,0.3,0.9,0.4l0.3-0.8C9.6,16.1,9.3,16,9.1,15.8z"/>
</g>
<g>
	<path class="st0" d="M24.6,10.9l-2.4-6.4c-0.1-0.4-0.4-0.7-0.8-0.8c-0.4-0.2-0.8-0.2-1.2,0c-0.4,0.1-0.7,0.4-0.8,0.8
		c-0.2,0.4-0.2,0.8,0,1.2l1.1,2.7c-0.1,0-0.1,0-0.2,0c-0.8,0-1.5,0.7-1.5,1.5v3.2c0,0.3-0.1,0.6-0.2,0.9c-0.7,1.3-1,2.8-1,4.3v1.1
		c-0.2,0-0.4,0.2-0.4,0.4V23c0,0.2,0.2,0.4,0.4,0.4v1.7h0.8v-1.7h4.2v1.7h0.8v-1.7c0.2,0,0.4-0.2,0.4-0.4v-3.3
		c0-0.2-0.2-0.4-0.4-0.4h-0.2l1.3-3.1C25.2,14.5,25.3,12.6,24.6,10.9z M23,22.6h-5v-2.5h5V22.6z M23.8,15.8l-1.4,3.4h-3.9v-1.1
		c0-1.4,0.3-2.7,0.9-4c0.2-0.4,0.3-0.9,0.3-1.3V9.7c0-0.3,0.3-0.6,0.6-0.6c0.3,0,0.5,0.2,0.6,0.5c0,0.1,0,0.1,0,0.2v5h0.8v-5
		c0,0,0,0,0,0c0,0,0,0,0,0c0-0.3-0.1-0.7-0.2-1l-1.5-3.5c-0.1-0.2-0.1-0.4,0-0.5c0.1-0.2,0.2-0.3,0.4-0.4c0.2-0.1,0.4-0.1,0.6,0
		c0.2,0.1,0.3,0.2,0.4,0.4l2.4,6.4C24.4,12.7,24.4,14.3,23.8,15.8z"/>
</g>
<g>
	<rect x="21.3" y="20.9" class="st0" width="0.8" height="0.8"/>
</g>
<g>
	<path class="st0" d="M7.6,19.3v-1.1c0-1.5-0.4-3-1-4.3c-0.1-0.3-0.2-0.6-0.2-0.9V9.7c0-0.8-0.7-1.5-1.5-1.5c-0.1,0-0.1,0-0.2,0
		l1.1-2.7c0.2-0.4,0.2-0.8,0-1.2C5.7,4,5.4,3.7,5.1,3.6c-0.4-0.2-0.8-0.1-1.2,0C3.5,3.7,3.2,4.1,3,4.4l-2.4,6.4
		c-0.7,1.7-0.6,3.6,0.1,5.3l1.3,3.1H1.8c-0.2,0-0.4,0.2-0.4,0.4V23c0,0.2,0.2,0.4,0.4,0.4v1.7h0.8v-1.7h4.2v1.7h0.8v-1.7
		C7.8,23.4,8,23.2,8,23v-3.3C8,19.4,7.8,19.3,7.6,19.3z M1.4,15.8c-0.6-1.5-0.6-3.2-0.1-4.7l2.4-6.4C3.9,4.6,4,4.4,4.2,4.3
		c0.2-0.1,0.4-0.1,0.6,0c0.2,0.1,0.3,0.2,0.4,0.4c0.1,0.2,0.1,0.4,0,0.5L3.7,8.7C3.5,9,3.5,9.3,3.5,9.7c0,0,0,0,0,0c0,0,0,0,0,0v5
		h0.8v-5c0-0.1,0-0.1,0-0.2C4.4,9.2,4.7,9,5.1,9.1c0.3,0.1,0.5,0.3,0.5,0.6v3.2c0,0.5,0.1,0.9,0.3,1.3c0.6,1.2,0.9,2.6,0.9,4v1.1
		H2.8L1.4,15.8z M7.2,22.6h-5v-2.5h5V22.6z"/>
</g>
<g>
	<rect x="3" y="20.9" class="st0" width="0.8" height="0.8"/>
</g>
</svg>
