<?xml version="1.0" encoding="utf-8"?>
<!-- Generator: Adobe Illustrator 17.0.0, SVG Export Plug-In . SVG Version: 6.00 Build 0)  -->
<!DOCTYPE svg PUBLIC "-//W3C//DTD SVG 1.1//EN" "http://www.w3.org/Graphics/SVG/1.1/DTD/svg11.dtd">
<svg version="1.1" id="Layer_1" xmlns="http://www.w3.org/2000/svg" xmlns:xlink="http://www.w3.org/1999/xlink" x="0px" y="0px"
	 width="20px" height="20px" viewBox="0 0 20 20" enable-background="new 0 0 20 20" xml:space="preserve">
<g>
	<g>
		<defs>
			<rect id="SVGID_1_" width="20" height="20"/>
		</defs>
		<clipPath id="SVGID_2_">
			<use xlink:href="#SVGID_1_"  overflow="visible"/>
		</clipPath>
		<path clip-path="url(#SVGID_2_)" fill="#B7B7B7" d="M17.071,12.929c-1.089-1.089-2.385-1.895-3.8-2.383
			c1.515-1.043,2.51-2.79,2.51-4.765C15.781,2.594,13.188,0,10,0S4.219,2.594,4.219,5.781c0,1.975,0.996,3.721,2.51,4.765
			c-1.415,0.488-2.711,1.294-3.8,2.383C1.04,14.818,0,17.329,0,20h1.563c0-4.653,3.785-8.438,8.438-8.438s8.438,3.785,8.438,8.438
			H20C20,17.329,18.959,14.818,17.071,12.929 M10,10c-2.326,0-4.219-1.892-4.219-4.219c0-2.326,1.893-4.219,4.219-4.219
			s4.219,1.892,4.219,4.219S12.326,10,10,10"/>
	</g>
</g>
</svg>
