<?xml version="1.0" encoding="utf-8"?>
<!-- Generator: Adobe Illustrator 17.0.0, SVG Export Plug-In . SVG Version: 6.00 Build 0)  -->
<!DOCTYPE svg PUBLIC "-//W3C//DTD SVG 1.1//EN" "http://www.w3.org/Graphics/SVG/1.1/DTD/svg11.dtd">
<svg version="1.1" id="Layer_1" xmlns="http://www.w3.org/2000/svg" xmlns:xlink="http://www.w3.org/1999/xlink" x="0px" y="0px"
	 width="25px" height="25px" viewBox="0 0 25 25" enable-background="new 0 0 25 25" xml:space="preserve">
<g>
	<path fill="#FFFFFF" d="M6.841,15.66c0.229-0.132,0.307-0.425,0.175-0.654c-0.132-0.229-0.425-0.307-0.654-0.175
		c-0.229,0.132-0.308,0.425-0.175,0.654C6.318,15.714,6.612,15.793,6.841,15.66z"/>
	<path fill="#FFFFFF" d="M4.878,18.966l2.412,4.178c0.52,0.902,1.691,1.237,2.617,0.701c0.916-0.529,1.231-1.7,0.701-2.617
		l-1.437-2.489l1.244-0.718c0.229-0.132,0.308-0.425,0.175-0.654l-0.623-1.079c0.074-0.014,0.563-0.11,9.173-1.799
		c1.064-0.058,1.702-1.222,1.165-2.153l-1.592-2.757l1.017-1.541c0.1-0.152,0.106-0.346,0.015-0.503l-0.958-1.659
		c-0.091-0.157-0.263-0.249-0.444-0.239l-1.842,0.111l-1.767-3.061c-0.256-0.443-0.714-0.712-1.226-0.718c-0.006,0-0.012,0-0.018,0
		c-0.495,0-0.944,0.246-1.21,0.662l-6.256,7.97L1.958,12.95c-1.6,0.923-2.154,2.975-1.227,4.579
		C1.577,18.996,3.362,19.573,4.878,18.966z M9.778,21.707c0.265,0.458,0.108,1.043-0.351,1.308c-0.46,0.266-1.047,0.103-1.308-0.351
		l-2.395-4.148l1.659-0.958C10.155,22.359,9.734,21.63,9.778,21.707z M8.692,17.909L8.213,17.08l0.829-0.479l0.479,0.829
		L8.692,17.909z M18.107,6.611l0.662,1.146l-0.59,0.894l-1.141-1.976L18.107,6.611z M13.082,3.157
		c0.129-0.21,0.332-0.232,0.415-0.23c0.082,0.001,0.285,0.026,0.408,0.239l5.57,9.648c0.181,0.314-0.039,0.709-0.403,0.718
		c-0.065,0.001-0.095,0.013-0.263,0.045L12.918,3.371C13.042,3.212,13.057,3.197,13.082,3.157z M12.28,4.183l5.536,9.589
		l-8.355,1.639l-2.54-4.4L12.28,4.183z M1.56,17.05c-0.21-0.364-0.321-0.777-0.321-1.195c0-0.854,0.459-1.65,1.198-2.076
		l3.733-2.155l2.395,4.147l-3.733,2.155C3.687,18.587,2.22,18.193,1.56,17.05z"/>
	<path fill="#FFFFFF" d="M5.357,15.964c-0.132-0.229-0.425-0.308-0.654-0.175l-0.829,0.479c-0.229,0.132-0.522,0.053-0.654-0.175
		c-0.132-0.229-0.425-0.308-0.654-0.175c-0.229,0.132-0.308,0.425-0.175,0.654c0.394,0.683,1.273,0.924,1.963,0.526l0.829-0.479
		C5.411,16.486,5.489,16.193,5.357,15.964z"/>
	<path fill="#FFFFFF" d="M24.09,2.994l-2.669,1.485c-0.231,0.129-0.314,0.42-0.186,0.651c0.128,0.231,0.42,0.314,0.651,0.186
		l2.668-1.485c0.231-0.129,0.314-0.42,0.186-0.651C24.612,2.948,24.321,2.865,24.09,2.994z"/>
	<path fill="#FFFFFF" d="M23.81,7.954l-1.85-0.496c-0.256-0.068-0.518,0.083-0.587,0.339c-0.068,0.256,0.083,0.518,0.339,0.586
		l1.851,0.496c0.257,0.069,0.518-0.085,0.586-0.339C24.217,8.285,24.065,8.022,23.81,7.954z"/>
	<path fill="#FFFFFF" d="M19.16,1.254l-0.496,1.851c-0.068,0.256,0.083,0.518,0.339,0.587c0.255,0.068,0.518-0.083,0.587-0.339
		l0.496-1.851c0.068-0.256-0.083-0.518-0.339-0.587C19.491,0.847,19.228,0.998,19.16,1.254z"/>
</g>
</svg>
