<?xml version="1.0" encoding="utf-8"?>
<!-- Generator: Adobe Illustrator 17.0.0, SVG Export Plug-In . SVG Version: 6.00 Build 0)  -->
<!DOCTYPE svg PUBLIC "-//W3C//DTD SVG 1.0//EN" "http://www.w3.org/TR/2001/REC-SVG-20010904/DTD/svg10.dtd">
<svg version="1.0" id="Layer_1" xmlns="http://www.w3.org/2000/svg" xmlns:xlink="http://www.w3.org/1999/xlink" x="0px" y="0px"
	 width="200px" height="200px" viewBox="0 0 200 200" enable-background="new 0 0 200 200" xml:space="preserve">
<g>
	<path fill="#5071E6" d="M44.242,18.667C18.303,36.424,1.212,66.242,1.212,100c0,12.303,4.635,31.241,8.817,42.089
		c0.303-0.182,0.727-0.303,1.152-0.364C7.059,130.998,2.424,112.182,2.424,100c0-33.091,16.667-62.424,42-80
		C44.364,19.515,44.303,19.091,44.242,18.667z"/>
	<path fill="#5071E6" d="M151.2,182.993c-13.576,7.212-35.139,14.28-51.503,14.28c-34.182,0-64.242-17.697-81.636-44.424
		c-0.364,0.182-0.848,0.303-1.273,0.303c17.515,27.273,48.121,45.333,82.909,45.333c16.545,0,38.23-7.128,51.988-14.341
		C151.442,183.781,151.261,183.417,151.2,182.993z"/>
	<path fill="#5071E6" d="M180.606,46.061c0.545-0.061,1.091-0.061,1.515,0.121c-17.576-26.848-48-44.667-82.424-44.667
		C82,1.515,62.646,7.711,48.282,15.893c0.498,0.151,0.655,0.513,0.812,0.904c14-7.818,33.452-14.07,50.603-14.07
		C133.394,2.727,163.152,19.939,180.606,46.061z"/>
	<path fill="#5071E6" d="M187.52,54.666c-0.424,0.182-0.788,0.303-1.212,0.303c5.394,12.121,10.661,30.971,10.661,45.092
		c0,32.303-15.818,60.97-40.121,78.667c0.242,0.364,0.424,0.727,0.485,1.152c24.727-18,40.848-47.091,40.848-79.879
		C198.182,85.818,192.914,66.847,187.52,54.666z"/>
</g>
<circle fill="#FFFFFF" stroke="#5071E6" stroke-miterlimit="10" stroke-dasharray="3,3,0,0" cx="28.485" cy="33.333" r="24.242"/>
<circle fill="#FBB314" cx="9.697" cy="16.97" r="7.273"/>
<circle fill="#FFFFFF" stroke="#5071E6" stroke-miterlimit="10" stroke-dasharray="3,3,0,0" cx="171.515" cy="33.333" r="24.242"/>
<circle fill="#FFFFFF" stroke="#5071E6" stroke-miterlimit="10" stroke-dasharray="3,3,0,0" cx="100.364" cy="56.667" r="20.242"/>
<circle fill="#FBB314" cx="190.303" cy="16.97" r="7.273"/>
<circle fill="#FFFFFF" stroke="#5071E6" stroke-miterlimit="10" stroke-dasharray="3,3,0,0" cx="28.485" cy="166.667" r="24.242"/>
<circle fill="#FBB314" cx="9.697" cy="150.303" r="7.273"/>
<circle fill="#FFFFFF" stroke="#5071E6" stroke-miterlimit="10" stroke-dasharray="3,3,0,0" cx="171.515" cy="166.667" r="24.242"/>
<circle fill="#FBB314" cx="190.303" cy="150.303" r="7.273"/>
<g>
	<path fill="#EBE7F2" stroke="#5071E6" stroke-width="0.75" stroke-miterlimit="10" d="M19.758,174.545
		c-0.061,0-0.182-0.061-0.242-0.121c-3.939-3.818-4.061-10.061-0.242-14s10.061-4.061,14.061-0.303
		c0.121,0.121,0.242,0.242,0.364,0.364c0.121,0.121,0.121,0.364,0,0.485c-0.121,0.121-0.364,0.121-0.485,0l0,0
		c-1.758-1.879-4.182-2.909-6.727-2.909c-5.091,0-9.212,4.121-9.212,9.212c0,2.485,1.03,4.909,2.848,6.667
		c0.121,0.121,0.121,0.364,0,0.485C19.939,174.485,19.879,174.545,19.758,174.545L19.758,174.545z"/>
	<g>
		<path fill="#A58BC9" stroke="#5071E6" stroke-width="0.75" stroke-miterlimit="10" d="M36,168.667h-2.727
			c-0.182,0-0.364-0.182-0.364-0.364s0.182-0.364,0.364-0.364H36c0.182,0,0.364,0.182,0.364,0.364S36.182,168.667,36,168.667z"/>
		<path fill="#A58BC9" stroke="#5071E6" stroke-width="0.75" stroke-miterlimit="10" d="M42.727,168.667H40
			c-0.182,0-0.364-0.182-0.364-0.364s0.182-0.364,0.364-0.364h2.727c0.182,0,0.364,0.182,0.364,0.364S42.909,168.667,42.727,168.667
			z"/>
		<path fill="#A58BC9" stroke="#5071E6" stroke-width="0.75" stroke-miterlimit="10" d="M31.394,178.424
			c-0.182,0-0.364-0.182-0.364-0.364v-5.576c0-1.212-0.97-2.242-2.242-2.242h-4.727c-1.212,0-2.242,0.97-2.242,2.242v5.576
			c0,0.182-0.182,0.364-0.364,0.364c-0.182,0-0.364-0.182-0.364-0.364v-5.576c0-1.576,1.273-2.909,2.909-2.909h4.727
			c1.576,0,2.909,1.273,2.909,2.909v5.576C31.758,178.242,31.576,178.424,31.394,178.424L31.394,178.424L31.394,178.424z"/>
		<path fill="#A58BC9" stroke="#5071E6" stroke-width="0.75" stroke-miterlimit="10" d="M26.424,168.667
			c-2.121,0-3.879-1.758-3.879-3.879c0-2.121,1.758-3.879,3.879-3.879s3.879,1.758,3.879,3.879
			C30.303,166.909,28.606,168.667,26.424,168.667z M26.424,161.515c-1.758,0-3.212,1.455-3.212,3.212
			c0,1.758,1.455,3.212,3.212,3.212c1.758,0,3.212-1.455,3.212-3.212l0,0C29.636,162.97,28.182,161.515,26.424,161.515
			L26.424,161.515z"/>
	</g>
	<path fill="#846F75" stroke="#5071E6" stroke-width="0.75" stroke-miterlimit="10" d="M32.242,177.273
		c-5.515,3.212-12.606,1.333-15.758-4.182c-3.152-5.515-1.333-12.606,4.121-15.758s12.606-1.333,15.758,4.182
		c0.303,0.485,0.545,0.97,0.727,1.455c0.061,0.182,0.242,0.242,0.424,0.182c0.182-0.061,0.242-0.242,0.182-0.424l0,0
		c-2.485-6.303-9.576-9.273-15.818-6.788s-9.333,9.697-6.788,15.939s9.636,9.273,15.939,6.727c0.545-0.242,1.03-0.485,1.576-0.788
		c0.182-0.121,0.242-0.303,0.121-0.485C32.606,177.212,32.424,177.152,32.242,177.273L32.242,177.273L32.242,177.273z"/>
	<path fill="#846F75" stroke="#5071E6" stroke-width="0.75" stroke-miterlimit="10" d="M42.727,164.848H40
		c-0.182,0-0.364,0.182-0.364,0.364v8.485c0,0.909-0.788,1.636-1.697,1.636c-0.909,0-1.636-0.727-1.636-1.636v-8.485
		c0-0.182-0.182-0.364-0.364-0.364h-2.727c-0.182,0-0.364,0.182-0.364,0.364v8.485c0,2.788,2.303,5.091,5.091,5.03
		c2.788,0,5.03-2.242,5.03-5.03v-8.485C43.091,165.03,42.909,164.848,42.727,164.848L42.727,164.848z M42.424,173.697
		c0,2.424-2,4.364-4.424,4.364s-4.364-1.939-4.364-4.364v-8.182h2.061v8.121c0,1.273,1.091,2.364,2.364,2.303
		c1.273,0,2.303-1.03,2.303-2.303v-8.121h2.061V173.697z"/>
	<path fill="#A58BC9" stroke="#5071E6" stroke-width="0.75" stroke-miterlimit="10" d="M34.424,164.424
		c-0.182,0-0.364-0.182-0.364-0.364c0-0.061,0-0.121,0.061-0.182l0.545-0.788H34c-0.182,0-0.364-0.182-0.364-0.364
		c0-0.061,0-0.121,0.061-0.182l0.909-1.333c0.121-0.182,0.303-0.182,0.485-0.061c0.182,0.121,0.182,0.303,0.061,0.485l-0.545,0.788
		h0.667c0.182,0,0.364,0.182,0.364,0.364c0,0.061,0,0.121-0.061,0.182l-0.909,1.273C34.606,164.364,34.545,164.424,34.424,164.424
		L34.424,164.424z"/>
	<path fill="#A58BC9" stroke="#5071E6" stroke-width="0.75" stroke-miterlimit="10" d="M41.152,164.424
		c-0.182,0-0.364-0.182-0.364-0.364c0-0.061,0-0.121,0.061-0.182l0.545-0.788h-0.667c-0.182,0-0.364-0.182-0.364-0.364
		c0-0.061,0-0.121,0.061-0.182l0.909-1.333c0.121-0.182,0.303-0.182,0.485-0.061c0.182,0.121,0.182,0.303,0.061,0.485l-0.545,0.788
		H42c0.182,0,0.364,0.182,0.364,0.364c0,0.061,0,0.121-0.061,0.182l-0.909,1.273C41.394,164.364,41.273,164.424,41.152,164.424
		L41.152,164.424z"/>
</g>
<g>
	<path fill="#5071E6" stroke="#5071E6" stroke-width="0.5" stroke-miterlimit="10" d="M182.061,157.273H170.97v-2
		c0-0.182-0.182-0.364-0.364-0.364h-2.242c-0.182,0-0.364,0.182-0.364,0.364v2h-4.364c-0.182,0-0.364,0.182-0.364,0.364v3.03
		c-0.242,0.121-0.485,0.303-0.667,0.485v-1.03c0-0.667-0.667-1.152-1.576-1.333V158c0-0.182-0.182-0.364-0.364-0.364
		c-0.606,0-1.273,0.242-1.758,0.667c-0.545,0.485-0.848,1.152-0.848,1.879v1.515c0,0.485,0.727,0.485,0.727,0v-1.515
		c0-0.788,0.606-1.636,1.515-1.758v13.636c-0.545,0.061-1.152,0.303-1.515,0.667c0-0.485,0-9.152,0-9.152
		c0-0.485-0.727-0.485-0.727,0v11.03v0.061c0.061,1.03,0.97,1.818,2.242,1.818c0.606,0,1.152-0.182,1.576-0.485v1.333
		c0,1.212,1.212,1.879,2.303,1.879c1.152,0,2.303-0.667,2.303-1.879v-5.03h10.121l-7.273,6.242
		c-0.242,0.182-0.121,0.606,0.242,0.606h10.667c0.182,0,0.364-0.182,0.364-0.364v-1.697c0-0.485-0.727-0.485-0.727,0v1.394h-9.394
		l9.394-8v4.667c0,0.485,0.727,0.485,0.727,0v-2.848h1.455c0.182,0,0.364-0.182,0.364-0.364v-4.97v-9.333
		C182.424,157.394,182.242,157.273,182.061,157.273z M181.697,158v8.606h-8.303V158H181.697z M170.303,155.636v9.091h-1.515v-0.909
		h0.242c0.485,0,0.485-0.727,0-0.727h-0.242v-0.909h0.606c0.485,0,0.485-0.727,0-0.727h-0.606v-0.909h0.242
		c0.182,0,0.364-0.182,0.364-0.364c0-0.182-0.182-0.364-0.364-0.364h-0.242v-0.909h0.606c0.485,0,0.485-0.727,0-0.727h-0.606v-0.909
		h0.242c0.485,0,0.485-0.727,0-0.727h-0.242v-0.909L170.303,155.636L170.303,155.636z M163.818,161.273
		c0.182-0.061,0.303-0.121,0.485-0.182v13.636c-0.424,0.061-1.03,0.182-1.515,0.667c0-0.485,0-0.848,0-0.848v-11.697
		C162.727,162.242,163.152,161.576,163.818,161.273L163.818,161.273z M165.879,176.242
		C165.879,176.242,165.818,176.242,165.879,176.242c-0.424-0.242-0.97-0.364-1.515-0.364v-0.424c0.182,0,0.303,0,0.303,0
		c0.242,0,0.364-0.121,0.364-0.364v-12.848c0.485,0.121,0.909,0.364,0.909,0.606L165.879,176.242z M162,160.121v11.697v1.697
		c-0.424-0.242-0.909-0.364-1.515-0.364v-0.424c0.182,0,0.303,0,0.303,0c0.242,0,0.364-0.121,0.364-0.364v-12.909
		C161.697,159.636,162,159.879,162,160.121z M162,174.727c0,0.545-0.727,1.03-1.576,1.03c-0.909,0-1.576-0.485-1.576-1.152
		s0.242-1.333,0.909-1.636v0.606c0,0.242,0.182,0.364,0.364,0.364c0.485-0.061,1.03,0,1.455,0.242
		C161.879,174.242,162.061,174.424,162,174.727z M164.303,178.424L164.303,178.424c-0.909,0-1.576-0.485-1.576-1.152
		s0.242-1.333,0.909-1.636v0.606c0,0.242,0.182,0.364,0.364,0.364c0.606-0.061,1.879,0.061,1.879,0.848
		C165.879,178,165.152,178.424,164.303,178.424L164.303,178.424z M166.606,162.848c0-0.667-0.667-1.152-1.576-1.333v-0.788
		c0-0.242-0.121-0.364-0.364-0.364c-0.182,0-0.364,0-0.545,0.061V158h4v7.091c0,0.182,0.182,0.364,0.364,0.364h2.242
		c0.182,0,0.364-0.182,0.364-0.364V158h1.697v8.97v4.606h-6.121L166.606,162.848z M180.424,169.394
		c-0.121-0.061-0.303-0.061-0.364,0.061l-2.485,2.121h-4.121v-4.242h8.303v4.242h-1.152v-1.879
		C180.606,169.576,180.545,169.455,180.424,169.394L180.424,169.394z"/>
	<path fill="#5071E6" stroke="#5071E6" stroke-width="0.5" stroke-miterlimit="10" d="M175.091,165.091h3.273
		c0.121,0,0.182-0.061,0.242-0.121l1.636-1.636c0.061-0.061,0.121-0.182,0.121-0.242v-3.273c0-0.182-0.182-0.364-0.364-0.364h-3.273
		c-0.121,0-0.182,0.061-0.242,0.121l-1.636,1.636c-0.061,0.061-0.121,0.182-0.121,0.242v3.273
		C174.727,164.909,174.909,165.091,175.091,165.091L175.091,165.091z M175.455,161.818H178v2.545h-2.545V161.818z M178.727,163.879
		v-2.242l0.909-0.909v2.242L178.727,163.879z M176.909,160.182h2.242l-0.909,0.909H176L176.909,160.182z"/>
	<path fill="#5071E6" stroke="#5071E6" stroke-width="0.5" stroke-miterlimit="10" d="M176.788,169.758h-1.152
		c-0.485,0-0.485,0.727,0,0.727h1.152C177.212,170.485,177.212,169.758,176.788,169.758z"/>
	<path fill="#5071E6" stroke="#5071E6" stroke-width="0.5" stroke-miterlimit="10" d="M178.606,168.364h-3.03
		c-0.485,0-0.485,0.727,0,0.727h3.03C179.091,169.091,179.091,168.364,178.606,168.364z"/>
	<path fill="#5071E6" stroke="#5071E6" stroke-width="0.5" stroke-miterlimit="10" d="M178.303,173.152L174,176.788
		c-0.242,0.182-0.121,0.606,0.242,0.606h4.303c0.182,0,0.364-0.182,0.364-0.364v-3.636
		C178.848,173.152,178.545,172.97,178.303,173.152z M178.182,176.727h-2.97l2.97-2.545V176.727z"/>
</g>
<g>
	<path fill="#5071E6" stroke="#5071E6" stroke-width="0.25" stroke-miterlimit="10" d="M181.758,35.03
		c-0.667-0.545-1.394-0.848-2.121-0.909v-0.788h-0.788v0.788c-1.03,0.121-2,0.667-2.606,1.515l-4.667-2.182
		c-0.061-0.364-0.364-0.667-0.727-0.848V31.03h-0.788v1.576c-0.364,0.121-0.667,0.424-0.727,0.848l-4.606,2.182
		c-0.606-0.848-1.576-1.394-2.667-1.515v-0.727h-0.788v0.727c-0.788,0.061-1.576,0.424-2.182,0.97l0.485,0.545
		c0.545-0.485,1.273-0.788,2.061-0.788c1.697,0,3.03,1.333,3.03,3.03c0,0.909-0.424,1.758-1.091,2.364v-1.758l-1.212-0.303
		c0.364-0.242,0.667-0.667,0.667-1.152c0-0.727-0.606-1.333-1.333-1.333s-1.333,0.606-1.333,1.333c0,0.485,0.242,0.909,0.667,1.152
		l-1.212,0.303v1.818c-0.727-0.545-1.152-1.394-1.152-2.364c0-0.606,0.182-1.152,0.485-1.697l-0.606-0.424
		c-0.424,0.606-0.606,1.333-0.606,2.121c0,2.121,1.697,3.818,3.818,3.818c2.121,0,3.818-1.697,3.818-3.818
		c0-0.606-0.121-1.152-0.364-1.636l4.303-2c0.121,0.242,0.364,0.424,0.606,0.545v4.303c-1.939,0.182-3.394,1.818-3.394,3.758
		c0,1.03,0.424,2,1.091,2.727c0.727,0.727,1.697,1.152,2.667,1.152c0.97,0,1.939-0.424,2.667-1.152
		c0.727-0.727,1.091-1.697,1.091-2.727c0-1.939-1.515-3.576-3.394-3.758v-4.303c0.242-0.121,0.485-0.303,0.606-0.545l4.364,2.061
		c-0.364,0.667-0.485,1.515-0.303,2.364l0.727-0.182c-0.303-1.576,0.667-3.152,2.182-3.576s3.091,0.424,3.636,1.879
		c0.424,1.212,0.061,2.545-0.909,3.394v-1.758l-1.212-0.303c0.364-0.242,0.667-0.667,0.667-1.152c0-0.727-0.606-1.333-1.333-1.333
		s-1.333,0.606-1.333,1.333c0,0.485,0.242,0.909,0.667,1.152l-1.212,0.303v1.818c-0.364-0.303-0.667-0.667-0.909-1.091l-0.667,0.303
		c0.606,1.333,2,2.242,3.455,2.242C182.727,41.697,184.364,37.273,181.758,35.03z M161.758,36.424c0.303,0,0.606,0.242,0.606,0.606
		s-0.242,0.606-0.606,0.606c-0.303,0-0.606-0.242-0.606-0.606S161.394,36.424,161.758,36.424z M160.606,40.727V39.03l1.152-0.303
		l1.152,0.303v1.636c-0.364,0.182-0.788,0.242-1.152,0.242C161.333,40.909,160.909,40.848,160.606,40.727L160.606,40.727z
		 M169.333,45.758v-1.697l1.152-0.303l1.152,0.303v1.697c-0.364,0.182-0.788,0.242-1.152,0.242
		C170.061,45.939,169.697,45.879,169.333,45.758L169.333,45.758z M170.485,42.545c-0.303,0-0.606-0.242-0.606-0.606
		s0.242-0.606,0.606-0.606c0.303,0,0.606,0.242,0.606,0.606S170.848,42.545,170.485,42.545L170.485,42.545z M173.515,42.848
		c0,0.97-0.424,1.818-1.091,2.364v-1.818l-1.212-0.303c0.364-0.242,0.667-0.667,0.667-1.152c0-0.727-0.606-1.333-1.333-1.333
		s-1.333,0.606-1.333,1.333c0,0.485,0.242,0.909,0.667,1.152l-1.212,0.303v1.879c-0.727-0.545-1.152-1.455-1.152-2.424
		c0-1.697,1.333-3.03,3.03-3.03C172.121,39.818,173.515,41.212,173.515,42.848L173.515,42.848z M170.485,34.061
		c-0.182,0-0.364-0.182-0.364-0.364s0.182-0.364,0.364-0.364c0.182,0,0.364,0.182,0.364,0.364
		C170.848,33.939,170.667,34.061,170.485,34.061z M179.333,36.424c0.303,0,0.606,0.242,0.606,0.606s-0.242,0.606-0.606,0.606
		c-0.303,0-0.606-0.242-0.606-0.606S178.97,36.424,179.333,36.424z M178.182,40.727v-1.636l1.152-0.303l1.152,0.303v1.636
		C179.697,41.03,178.848,40.97,178.182,40.727z"/>
	<path fill="#5071E6" stroke="#5071E6" stroke-width="0.25" stroke-miterlimit="10" d="M164.364,24.182h0.788v0.788h-0.788V24.182z"
		/>
	<path fill="#5071E6" stroke="#5071E6" stroke-width="0.25" stroke-miterlimit="10" d="M162.848,24.182h0.727v0.788h-0.727V24.182z"
		/>
	<path fill="#5071E6" stroke="#5071E6" stroke-width="0.25" stroke-miterlimit="10" d="M161.333,24.182h0.788v0.788h-0.788V24.182z"
		/>
	<path fill="#5071E6" stroke="#5071E6" stroke-width="0.25" stroke-miterlimit="10" d="M161.333,25.697h0.788v0.788h-0.788V25.697z"
		/>
	<path fill="#5071E6" stroke="#5071E6" stroke-width="0.25" stroke-miterlimit="10" d="M161.333,27.212h0.788V28h-0.788V27.212z"/>
	<path fill="#5071E6" stroke="#5071E6" stroke-width="0.25" stroke-miterlimit="10" d="M161.333,28.788h0.788v0.788h-0.788V28.788z"
		/>
	<path fill="#5071E6" stroke="#5071E6" stroke-width="0.25" stroke-miterlimit="10" d="M161.333,30.303h0.788v0.788h-0.788V30.303z"
		/>
	<path fill="#5071E6" stroke="#5071E6" stroke-width="0.25" stroke-miterlimit="10" d="M161.333,31.818h0.788v0.788h-0.788V31.818z"
		/>
	<path fill="#5071E6" stroke="#5071E6" stroke-width="0.25" stroke-miterlimit="10" d="M170.061,28.303v2h0.788v-2
		c1.758-0.182,3.212-1.576,3.394-3.394h0.848v-0.788h-0.848c-0.121-0.97-0.606-1.879-1.333-2.545l-0.485,0.606
		c0.727,0.606,1.091,1.455,1.091,2.364c0,0.909-0.424,1.758-1.091,2.364v-1.758l-1.212-0.303c0.364-0.242,0.667-0.667,0.667-1.152
		c0-0.727-0.606-1.333-1.333-1.333s-1.333,0.606-1.333,1.333c0,0.485,0.242,0.909,0.667,1.152l-1.212,0.303v1.818
		c-0.727-0.545-1.152-1.394-1.152-2.364c0-1.697,1.333-3.03,3.03-3.03c0.485,0,0.909,0.121,1.333,0.303l0.364-0.667
		c-0.545-0.242-1.091-0.364-1.697-0.364c-2,0-3.576,1.515-3.758,3.455H166v0.788h0.788
		C166.848,26.727,168.303,28.121,170.061,28.303z M170.485,23.03c0.303,0,0.606,0.242,0.606,0.606s-0.242,0.606-0.606,0.606
		c-0.303,0-0.606-0.242-0.606-0.606S170.182,23.03,170.485,23.03L170.485,23.03z M169.333,25.697l1.152-0.303l1.152,0.303v1.636
		c-0.364,0.182-0.788,0.242-1.152,0.242c-0.364,0-0.788-0.061-1.091-0.242v-1.636H169.333z"/>
	<path fill="#5071E6" stroke="#5071E6" stroke-width="0.25" stroke-miterlimit="10" d="M175.879,24.182h0.788v0.788h-0.788V24.182z"
		/>
	<path fill="#5071E6" stroke="#5071E6" stroke-width="0.25" stroke-miterlimit="10" d="M177.394,24.182h0.727v0.788h-0.727V24.182z"
		/>
	<path fill="#5071E6" stroke="#5071E6" stroke-width="0.25" stroke-miterlimit="10" d="M178.909,24.182h0.788v0.788h-0.788V24.182z"
		/>
	<path fill="#5071E6" stroke="#5071E6" stroke-width="0.25" stroke-miterlimit="10" d="M178.909,25.697h0.788v0.788h-0.788V25.697z"
		/>
	<path fill="#5071E6" stroke="#5071E6" stroke-width="0.25" stroke-miterlimit="10" d="M178.909,27.212h0.788V28h-0.788V27.212z"/>
	<path fill="#5071E6" stroke="#5071E6" stroke-width="0.25" stroke-miterlimit="10" d="M178.909,28.788h0.788v0.788h-0.788V28.788z"
		/>
	<path fill="#5071E6" stroke="#5071E6" stroke-width="0.25" stroke-miterlimit="10" d="M178.909,30.303h0.788v0.788h-0.788V30.303z"
		/>
	<path fill="#5071E6" stroke="#5071E6" stroke-width="0.25" stroke-miterlimit="10" d="M178.909,31.818h0.788v0.788h-0.788V31.818z"
		/>
</g>
<g id="Outline">
	<polygon fill="#5071E6" stroke="#5071E6" stroke-width="0.25" stroke-miterlimit="10" points="20.788,27.818 20.303,27.333 
		19.697,27.879 20.788,28.97 22.727,27.091 22.121,26.485 	"/>
	
		<rect x="24.061" y="26.364" fill="#5071E6" stroke="#5071E6" stroke-width="0.25" stroke-miterlimit="10" width="6.061" height="0.788"/>
	
		<rect x="24.061" y="28" fill="#5071E6" stroke="#5071E6" stroke-width="0.25" stroke-miterlimit="10" width="6.061" height="0.788"/>
	
		<rect x="24.061" y="36.061" fill="#5071E6" stroke="#5071E6" stroke-width="0.25" stroke-miterlimit="10" width="7.273" height="0.788"/>
	
		<rect x="24.061" y="37.697" fill="#5071E6" stroke="#5071E6" stroke-width="0.25" stroke-miterlimit="10" width="7.273" height="0.788"/>
	<polygon fill="#5071E6" stroke="#5071E6" stroke-width="0.25" stroke-miterlimit="10" points="22.121,35.818 21.212,36.727 
		20.303,35.818 19.697,36.364 20.667,37.273 19.697,38.242 20.303,38.788 21.212,37.879 22.121,38.788 22.727,38.242 21.758,37.273 
		22.727,36.364 	"/>
	
		<rect x="24.061" y="40.909" fill="#5071E6" stroke="#5071E6" stroke-width="0.25" stroke-miterlimit="10" width="6.848" height="0.788"/>
	
		<rect x="24.061" y="42.545" fill="#5071E6" stroke="#5071E6" stroke-width="0.25" stroke-miterlimit="10" width="6.848" height="0.788"/>
	<polygon fill="#5071E6" stroke="#5071E6" stroke-width="0.25" stroke-miterlimit="10" points="22.121,40.667 21.212,41.576 
		20.303,40.667 19.697,41.212 20.667,42.121 19.697,43.091 20.303,43.636 21.212,42.727 22.121,43.636 22.727,43.091 21.758,42.121 
		22.727,41.212 	"/>
	<polygon fill="#5071E6" stroke="#5071E6" stroke-width="0.25" stroke-miterlimit="10" points="20.788,32.667 20.303,32.182 
		19.697,32.727 20.788,33.818 22.727,31.939 22.121,31.333 	"/>
	
		<rect x="24.061" y="31.212" fill="#5071E6" stroke="#5071E6" stroke-width="0.25" stroke-miterlimit="10" width="8.909" height="0.788"/>
	
		<rect x="24.061" y="32.848" fill="#5071E6" stroke="#5071E6" stroke-width="0.25" stroke-miterlimit="10" width="8.909" height="0.788"/>
	<path fill="#5071E6" stroke="#5071E6" stroke-width="0.25" stroke-miterlimit="10" d="M38.182,36.909h-2v-0.545
		c1.515,0.424,3.091-0.364,3.515-1.879s-0.364-3.091-1.879-3.515c-0.242-0.061-0.545-0.121-0.848-0.121h-0.788v-3.394l-4.303-4.303
		H17.576v23.455h14.545v0.788h9.697v-6.848C41.818,38.545,40.182,36.909,38.182,36.909z M36.97,38.788l-0.545-1.091h1.091
		L36.97,38.788z M37.758,44l-0.788,0.788L36.182,44l0.788-5.091L37.758,44z M36.97,35.697c-1.091,0-2-0.909-2-2v-0.424h1.212
		c1.03,0,2,0.424,2.667,1.152C38.545,35.212,37.758,35.697,36.97,35.697z M38.97,33.455c-0.788-0.667-1.758-1.03-2.788-1.03H34.97
		v-0.788h2C38,31.636,38.848,32.424,38.97,33.455L38.97,33.455z M32.121,24.545l2.667,2.667h-2.667V24.545z M18.364,45.758V23.939
		h12.909V28h4.061v2.848h-1.212v2.848c0,0.909,0.424,1.818,1.212,2.303v0.909c-1.818,0.182-3.212,1.758-3.212,3.636v5.273H18.364
		V45.758z M41.03,46.606h-8.121v-6.061c0-1.455,1.152-2.667,2.606-2.788l0.606,1.273l-0.848,5.333L36.909,46l1.636-1.636
		l-0.848-5.333l0.606-1.273c1.455,0.121,2.606,1.333,2.606,2.788v6.061H41.03z"/>
</g>
<g id="data_analysis-finance-arrow-graph-money">
	<path fill="#5071E6" stroke="#5071E6" stroke-width="0.25" stroke-miterlimit="10" d="M109.939,47.576H99.333
		c-0.182,0-0.364,0.182-0.364,0.364v4.545h-8.061c-0.97,0-1.758,0.788-1.758,1.758v9.212c0,0.97,0.788,1.758,1.758,1.758h4.242
		v1.394h-0.364c-0.606,0-1.03,0.485-1.03,1.03v0.727c0,0.182,0.182,0.364,0.364,0.364h6.364c0.182,0,0.364-0.182,0.364-0.364v-0.727
		c0-0.606-0.485-1.03-1.03-1.03h-0.364v-1.394h4.242c0.97,0,1.758-0.788,1.758-1.758v-6.667H110c0.182,0,0.364-0.182,0.364-0.364
		v-8.485C110.303,47.758,110.121,47.576,109.939,47.576z M99.697,67.394c0.182,0,0.364,0.182,0.364,0.364v0.364h-5.636v-0.364
		c0-0.182,0.182-0.364,0.364-0.364H99.697z M95.818,66.667v-1.394h2.848v1.394H95.818z M104.667,63.455
		c0,0.606-0.485,1.03-1.03,1.03H90.909c-0.606,0-1.03-0.485-1.03-1.03v-0.364h14.848v0.364H104.667z M104.667,62.424H89.818v-8.121
		c0-0.606,0.485-1.03,1.03-1.03h8.121v3.152c0,0.182,0.182,0.364,0.364,0.364h5.273v5.636H104.667z M109.576,56.061h-9.879v-7.758
		h9.879V56.061z"/>
	<path fill="#5071E6" stroke="#5071E6" stroke-width="0.25" stroke-miterlimit="10" d="M94.424,53.939
		c-2.182,0-3.879,1.758-3.879,3.879c0,2.182,1.758,3.879,3.879,3.879c2.121,0,3.879-1.758,3.879-3.879S96.545,53.939,94.424,53.939z
		 M94.424,61.03c-1.758,0-3.152-1.455-3.152-3.152c0-1.697,1.455-3.152,3.152-3.152c1.697,0,3.152,1.455,3.152,3.152
		C97.576,59.576,96.121,60.97,94.424,61.03z"/>
	<path fill="#5071E6" stroke="#5071E6" stroke-width="0.25" stroke-miterlimit="10" d="M94.424,56.788
		c0.182,0,0.364,0.182,0.364,0.364h0.727c0-0.485-0.303-0.848-0.727-0.97v-0.424h-0.727v0.424c-0.545,0.182-0.848,0.788-0.606,1.333
		c0.182,0.424,0.545,0.727,1.03,0.727c0.182,0,0.364,0.182,0.364,0.364c0,0.182-0.182,0.364-0.364,0.364
		c-0.182,0-0.364-0.182-0.364-0.364h-0.788c0,0.485,0.303,0.848,0.727,0.97V60h0.727v-0.424c0.545-0.182,0.848-0.788,0.606-1.333
		c-0.182-0.424-0.545-0.727-1.03-0.727c-0.182,0-0.364-0.182-0.364-0.364C94.061,56.909,94.182,56.788,94.424,56.788L94.424,56.788z
		"/>
	<path fill="#5071E6" stroke="#5071E6" stroke-width="0.25" stroke-miterlimit="10" d="M110.182,59.697l-1.758-2.121
		c-0.121-0.182-0.364-0.182-0.485-0.061c0,0,0,0-0.061,0.061l-1.758,2.121c-0.121,0.182-0.061,0.364,0.061,0.485
		c0.061,0.061,0.121,0.061,0.182,0.061h0.727v8.121c0,0.182,0.182,0.364,0.364,0.364h1.394c0.182,0,0.364-0.182,0.364-0.364v-8.061
		h0.727c0.182,0,0.364-0.182,0.364-0.364C110.303,59.879,110.242,59.758,110.182,59.697z M108.909,59.576
		c-0.182,0-0.364,0.182-0.364,0.364v8.121h-0.727v-8.121c0-0.182-0.182-0.364-0.364-0.364h-0.303l1.03-1.212l1.03,1.212H108.909z"/>
	<path fill="#5071E6" stroke="#5071E6" stroke-width="0.25" stroke-miterlimit="10" d="M98.182,49.394l-2.121-1.758
		c-0.182-0.121-0.364-0.061-0.485,0.061c-0.061,0.061-0.061,0.121-0.061,0.182v0.727h-6c-0.182,0-0.364,0.182-0.364,0.364v1.394
		c0,0.182,0.182,0.364,0.364,0.364h6v0.727c0,0.121,0.061,0.242,0.182,0.364c0.061,0,0.061,0.061,0.121,0.061
		c0.061,0,0.182-0.061,0.182-0.061l2.121-1.758C98.303,49.758,98.303,49.576,98.182,49.394
		C98.182,49.455,98.182,49.455,98.182,49.394z M96.182,50.727v-0.303c0-0.182-0.182-0.364-0.364-0.364h-6v-0.727h6
		c0.182,0,0.364-0.182,0.364-0.364v-0.303l1.212,0.97L96.182,50.727z"/>
	<path fill="#5071E6" stroke="#5071E6" stroke-width="0.25" stroke-miterlimit="10" d="M101.091,55.333h1.394
		c0.182,0,0.364-0.182,0.364-0.364v-2.848c0-0.182-0.182-0.364-0.364-0.364h-1.394c-0.182,0-0.364,0.182-0.364,0.364v2.848
		C100.727,55.152,100.909,55.333,101.091,55.333z M101.455,52.545h0.727v2.121h-0.727V52.545z"/>
	<path fill="#5071E6" stroke="#5071E6" stroke-width="0.25" stroke-miterlimit="10" d="M103.939,55.333h1.394
		c0.182,0,0.364-0.182,0.364-0.364v-4.242c0-0.182-0.182-0.364-0.364-0.364h-1.394c-0.182,0-0.364,0.182-0.364,0.364v4.242
		C103.576,55.152,103.697,55.333,103.939,55.333z M104.242,51.091h0.727v3.515h-0.727V51.091z"/>
	<path fill="#5071E6" stroke="#5071E6" stroke-width="0.25" stroke-miterlimit="10" d="M106.788,55.333h1.394
		c0.182,0,0.364-0.182,0.364-0.364v-5.636c0-0.182-0.182-0.364-0.364-0.364h-1.394c-0.182,0-0.364,0.182-0.364,0.364v5.636
		C106.364,55.152,106.545,55.333,106.788,55.333z M107.091,49.697h0.727v4.97h-0.727V49.697z"/>
	<path fill="#5071E6" stroke="#5071E6" stroke-width="0.25" stroke-miterlimit="10" d="M98.97,57.455h1.394v0.727H98.97V57.455z"/>
	<path fill="#5071E6" stroke="#5071E6" stroke-width="0.25" stroke-miterlimit="10" d="M101.091,57.455h2.121v0.727h-2.121V57.455z"
		/>
	<path fill="#5071E6" stroke="#5071E6" stroke-width="0.25" stroke-miterlimit="10" d="M98.97,58.909h1.394v0.727H98.97V58.909z"/>
	<path fill="#5071E6" stroke="#5071E6" stroke-width="0.25" stroke-miterlimit="10" d="M101.091,58.909h2.121v0.727h-2.121V58.909z"
		/>
	<path fill="#5071E6" stroke="#5071E6" stroke-width="0.25" stroke-miterlimit="10" d="M98.97,60.303h1.394v0.727H98.97V60.303z"/>
	<path fill="#5071E6" stroke="#5071E6" stroke-width="0.25" stroke-miterlimit="10" d="M101.091,60.303h2.121v0.727h-2.121V60.303z"
		/>
</g>
<text transform="matrix(1 0 0 1 5.7021 19.9702)" fill="#FFFFFF" font-family="'PTSans-Bold'" font-size="7.2727">01</text>
<text transform="matrix(1 0 0 1 186.3082 152.6973)" fill="#FFFFFF" font-family="'PTSans-Bold'" font-size="7.2727">03</text>
<text transform="matrix(1 0 0 1 186.3082 19.3644)" fill="#FFFFFF" font-family="'PTSans-Bold'" font-size="7.2727">02</text>
<text transform="matrix(1 0 0 1 5.7021 152.6973)" fill="#FFFFFF" font-family="'PTSans-Bold'" font-size="7.2727">04</text>
</svg>
