<?xml version="1.0" encoding="utf-8"?>
<!-- Generator: Adobe Illustrator 17.0.0, SVG Export Plug-In . SVG Version: 6.00 Build 0)  -->
<!DOCTYPE svg PUBLIC "-//W3C//DTD SVG 1.1//EN" "http://www.w3.org/Graphics/SVG/1.1/DTD/svg11.dtd">
<svg version="1.1" id="Layer_1" xmlns="http://www.w3.org/2000/svg" xmlns:xlink="http://www.w3.org/1999/xlink" x="0px" y="0px"
	 width="20px" height="14.519px" viewBox="0 0 20 14.519" enable-background="new 0 0 20 14.519" xml:space="preserve">
<g>
	<g>
		<defs>
			<rect id="SVGID_1_" y="0.856" width="19.986" height="13.662"/>
		</defs>
		<clipPath id="SVGID_2_">
			<use xlink:href="#SVGID_1_"  overflow="visible"/>
		</clipPath>
		<path clip-path="url(#SVGID_2_)" fill="#B7B7B7" d="M16.891,10.078l-3.236-3.805l2.875-1.64c0.281-0.16,0.378-0.518,0.218-0.799
			s-0.518-0.379-0.799-0.219c-0.24,0.137-5.688,3.245-5.956,3.398C9.724,6.86,4.275,3.751,4.038,3.616
			C3.757,3.456,3.4,3.554,3.239,3.835c-0.16,0.281-0.062,0.638,0.218,0.799l2.875,1.64l-3.236,3.805
			c-0.209,0.246-0.18,0.616,0.067,0.825c0.246,0.209,0.616,0.18,0.825-0.067l3.38-3.974l2.336,1.333c0.18,0.103,0.4,0.103,0.58,0
			l2.336-1.333L16,10.837c0.209,0.246,0.579,0.276,0.825,0.067C17.07,10.694,17.1,10.325,16.891,10.078"/>
	</g>
	<g>
		<defs>
			<rect id="SVGID_3_" y="0.856" width="19.986" height="13.662"/>
		</defs>
		<clipPath id="SVGID_4_">
			<use xlink:href="#SVGID_3_"  overflow="visible"/>
		</clipPath>
		<path clip-path="url(#SVGID_4_)" fill="#B7B7B7" d="M18.229,0.856H1.757C0.788,0.856,0,1.645,0,2.613v10.149
			c0,0.968,0.788,1.757,1.757,1.757H18.23c0.968,0,1.757-0.788,1.757-1.757V2.613C19.986,1.645,19.198,0.856,18.229,0.856
			 M18.815,12.762c0,0.323-0.263,0.586-0.586,0.586H1.757c-0.323,0-0.586-0.263-0.586-0.586V2.613c0-0.323,0.263-0.586,0.586-0.586
			H18.23c0.323,0,0.586,0.263,0.586,0.586L18.815,12.762L18.815,12.762z"/>
	</g>
</g>
</svg>
