<?xml version="1.0" encoding="iso-8859-1"?>
<!-- Generator: Adobe Illustrator 17.0.0, SVG Export Plug-In . SVG Version: 6.00 Build 0)  -->
<!DOCTYPE svg PUBLIC "-//W3C//DTD SVG 1.1//EN" "http://www.w3.org/Graphics/SVG/1.1/DTD/svg11.dtd">
<svg version="1.1" id="Layer_1" xmlns="http://www.w3.org/2000/svg" xmlns:xlink="http://www.w3.org/1999/xlink" x="0px" y="0px"
	 width="400px" height="239.25px" viewBox="0 0 400 239.25" style="enable-background:new 0 0 400 239.25;" xml:space="preserve">
<g>
	<path style="fill:#FFFFFF;" d="M320.063,86.79c-8.2,0-10.659,4.592-18.449,4.592c-8.363,0-18.777-15.907-32.634-12.217
		c-11.397,2.952-17.219-7.708-25.009-5.822c-8.61,2.132-12.791,10.577-20.663,10.577c-19.679,0-18.859-30.256-34.274-22.631
		c-15.661,7.708-23.943-12.627-38.456-13.939c-14.841-1.476-22.549,14.841-37.39,14.841c-14.513,0-15.743-5.658-33.454-5.658v56.495
		h240.329V86.79L320.063,86.79z"/>
	<g>
		<path style="fill:#FFFFFF;" d="M335.068,124.016H64.893V17.586h270.175V124.016z M65.713,123.196H334.33V18.406H65.713V123.196z"
			/>
	</g>
	<g>
		<path style="fill:#F3756E;" d="M79.898,104.255l-0.082-1.312c8.855-0.328,16.153-6.15,22.549-11.315
			c5.658-4.51,10.905-8.692,16.563-8.774c5.166-0.082,9.348,1.558,13.283,3.28c4.182,1.722,8.2,3.362,13.283,3.116
			c5.412-0.246,10.413-5.002,15.743-10.085c6.314-5.904,12.791-12.053,20.991-12.053c2.788,0,5.248,0.41,7.544,0.902
			c7.052,1.312,13.119,2.46,26.977-11.397c3.034-3.034,13.857-12.955,24.435-12.955c6.068,0,12.135,2.87,18.039,5.658
			c5.904,2.788,12.053,5.658,17.793,5.412c7.38-0.328,12.463-3.854,17.711-7.626c6.232-4.428,13.283-9.429,25.419-9.921l0.082,1.312
			c-11.725,0.492-18.367,5.166-24.763,9.675c-5.494,3.854-10.659,7.544-18.367,7.79c-6.15,0.328-12.381-2.706-18.449-5.576
			c-5.74-2.788-11.643-5.494-17.465-5.494c-10.167,0-20.581,9.593-23.533,12.627c-14.431,14.431-20.745,13.201-28.124,11.807
			c-2.214-0.41-4.592-0.902-7.216-0.902c-7.708,0-13.939,5.986-20.089,11.725c-5.494,5.248-10.741,10.167-16.645,10.413
			c-5.33,0.246-9.593-1.558-13.775-3.198c-3.936-1.558-7.954-3.28-12.791-3.198c-5.166,0.082-10.249,4.182-15.743,8.446
			C96.625,97.942,89.164,103.846,79.898,104.255z"/>
	</g>
	<g>
		<path style="fill:#EBD26B;" d="M79.898,89.66l-0.082-1.312c7.708-0.328,14.349-4.674,20.663-8.938
			c6.478-4.346,13.119-8.774,21.073-9.102c7.708-0.328,14.841,2.87,21.811,6.068c6.806,3.116,13.857,6.314,21.237,5.904
			c11.397-0.492,19.925-8.856,28.206-16.891c8.446-8.2,17.301-16.727,29.19-17.219c9.348-0.41,18.285,3.362,27.059,6.888
			c8.938,3.69,18.121,7.462,27.796,7.052c9.921-0.41,15.743-3.28,21.483-5.986c5.822-2.788,11.725-5.658,21.893-6.068l0.082,1.312
			c-9.839,0.41-15.415,3.116-21.319,5.986c-5.822,2.788-11.807,5.74-21.975,6.15c-10.003,0.41-19.351-3.362-28.37-7.134
			c-8.938-3.69-17.465-7.134-26.485-6.806c-11.397,0.492-20.007,8.856-28.288,16.891c-8.446,8.2-17.301,16.645-29.108,17.219
			c-7.708,0.328-14.841-2.87-21.811-6.068c-6.806-3.116-13.857-6.314-21.155-5.904c-7.544,0.328-13.775,4.51-20.335,8.938
			C94.74,84.823,87.934,89.332,79.898,89.66z"/>
	</g>
	<path style="fill:#FBB994;" d="M275.294,211.506c5.904,0.492,4.1-5.904,4.346-9.839c0.082-2.132,0.738-4.428-1.722-5.33
		c-1.558-0.574-3.772-0.164-4.92,1.066c-1.722,1.886-0.328,5.166-0.984,7.216c-0.656,1.968-3.444,2.214-4.018,4.018
		C267.176,211.178,273.736,211.424,275.294,211.506z"/>
	<path style="fill:#F6A086;" d="M263.568,211.506c5.904,0.492,3.444-5.904,3.28-9.839c-0.164-2.132,0.246-4.428-2.378-5.33
		c-1.558-0.574-3.772-0.164-4.838,1.066c-1.558,1.886,0.328,5.166-0.246,7.216c-0.41,1.968-3.198,2.214-3.444,4.018
		C255.451,211.178,262.01,211.424,263.568,211.506z"/>
	<path style="fill:#492B19;" d="M269.39,126.066c-1.968-4.592-9.183-4.51-10.003-0.902c-0.328,1.476,0,4.592-0.738,7.052
		c-1.394,4.756-6.478,21.483-7.298,24.517c-0.902,3.608-0.41,6.724,0.574,10.331c2.05,7.38,6.314,28.534,7.052,32.388
		c0.41,1.968,1.23,2.214,3.69,2.214c1.886,0,5.002-0.902,5.002-2.214c-0.082-7.052-0.82-15.251-1.722-21.483
		c-0.492-3.116-1.476-6.888-1.804-8.774c-0.41-2.788-0.164-5.084,2.624-10.249c1.64-3.198,3.444-7.544,4.018-11.069
		C272.014,139.842,270.374,128.444,269.39,126.066z"/>
	<path style="fill:#AE2226;" d="M270.046,211.752c0.164-2.296-0.328-6.15-1.968-8.036c-1.066-1.312-2.05,1.886-3.69,1.886
		c-2.624,0-4.346-3.034-6.314-2.706c-2.788,0.574-2.46,3.444-7.708,5.248c-1.558,0.492-6.888,1.558-7.872,2.87
		c-0.82,1.066,1.394,2.214,2.87,2.214c2.87,0,17.629,0,22.303,0C269.308,213.31,270.046,212.9,270.046,211.752z"/>
	<path style="fill:#E62E2D;" d="M281.033,204.864c-0.328-1.394-2.05,1.312-3.198,0.82c-2.132-0.902-4.1-3.362-6.56-2.46
		c-1.394,0.492-1.312,2.378-3.608,3.854c-2.214,1.476-8.282,2.46-8.282,5.166c0,0.738,0.656,1.066,2.788,1.066
		c3.116,0,15.497,0,18.531,0C282.919,213.31,281.935,208.636,281.033,204.864z"/>
	<path style="fill:#694119;" d="M286.527,138.858c0-3.116,1.886-7.872,1.886-11.069c0-4.756-1.722-8.938-3.444-11.725
		c-1.066-1.722-1.558-1.312-4.592-0.246c-3.444,1.23-7.134,2.378-10.249,4.182c-2.132,1.148-5.576,1.722-5.986,4.182
		c-0.574,2.952-0.082,7.626,0.82,10.495c0.902,2.87,2.214,3.362,3.116,5.904c1.23,3.608,4.592,26.485,4.264,35.094
		c-0.328,7.708-0.82,14.185-1.066,21.729c-0.164,3.116,0.328,3.69,3.034,4.428c1.64,0.41,5.986,0.492,6.642-0.902
		c0.984-2.296,0.492-5.248,0.41-7.298c-0.328-8.036,3.28-23.779,4.018-31.404C286.281,152.797,286.609,147.139,286.527,138.858z"/>
	<path style="fill:#F6A086;" d="M233.066,142.137c0.082-0.902,0.82-3.362,1.886-5.74c0.574-1.312,0.164-2.132-1.394-3.034
		c-0.902-0.574-2.378-1.066-3.936,2.952c-0.328,0.902-0.41,1.23-0.902,2.214c-0.574,1.148-3.362,1.886-4.346,3.362
		c-0.902,1.148-4.592,0.902-5.248,1.476c-0.574,0.492,0.082,0.82,0.574,0.82c1.558,0,9.675,0,10.987,0
		C232.492,144.269,232.902,143.859,233.066,142.137z"/>
	<path style="fill:#492B19;" d="M273.49,119.425c0.328,2.87,0.328,6.15,1.148,8.938c0.738,2.46,2.706,4.018,4.018,6.232
		c0.328,0.574-0.574,1.066-0.902,0.492c-1.394-2.214-3.362-3.854-4.1-6.478c-0.738-2.952-0.902-6.15-1.23-9.183
		C272.342,118.687,273.408,118.769,273.49,119.425z"/>
	<path style="fill:#E62E2D;" d="M246.841,104.747c0.164-4.756-3.854-8.364-5.494-13.119c-0.328-0.984-1.476-5.904-2.788-4.592
		c-0.738,0.82-0.656,5.33-0.656,6.314c-0.164,5.248-0.246,10.823-1.394,16.071c-1.148,5.002-3.198,9.757-4.592,14.595
		c-0.82,2.624-1.066,5.412-1.722,8.118c-0.656,2.624-0.492,3.198,0.82,3.772c4.264,2.05,4.428,1.23,6.396-3.198
		C241.101,124.098,246.595,114.505,246.841,104.747z"/>
	<path style="fill:#F6A086;" d="M251.515,84.003c0.492-1.558,0.82-3.526,0.656-4.51c-0.328-1.886-2.378-5.33-2.706-7.626
		c-0.328-2.132-0.738-5.166-3.608-4.51c-2.214,0.492-2.624,2.788-2.788,4.756c-0.082,1.148,0.082,2.46-0.41,3.608
		s-1.558,1.558-2.378,2.46c-0.902,0.902-0.574,1.558,0.082,2.706c0.41,0.738,0.902,1.476,1.23,2.46
		c0.574,2.05-0.82,4.018,0.82,5.904C245.857,93.35,249.875,88.512,251.515,84.003z"/>
	<path style="fill:#EE4544;" d="M283.575,113.357c0-1.804-0.902-2.542-1.886-3.69c-4.592-5.084-8.773-16.727-11.151-20.991
		c-1.722-3.116-4.182-5.412-7.298-7.298c-3.116-1.804-6.478-3.034-9.757-4.592c-1.394-0.738-2.87-1.64-2.542-0.328
		c0.328,0.984,0.82,2.46,0.41,4.592c-0.82,4.674-5.002,7.544-7.052,7.872c-2.132,0.328-2.542-2.214-2.542-3.362
		c0-0.738,0-1.558-0.246-2.214c-0.328-0.82-1.968,1.23-2.46,2.214c-1.476,3.116-0.082,7.134,1.23,10.413
		c1.558,3.854,3.362,6.642,6.478,9.593c2.132,2.05,5.412,5.74,6.97,8.774c1.394,2.87,2.214,6.396,4.1,9.183
		c1.64,2.542,4.018,2.378,7.79,0.82c3.362-1.394,5.166-3.444,9.266-5.494C278.655,117.047,283.575,116.637,283.575,113.357z"/>
	<path style="fill:#FBB994;" d="M238.642,106.715c-0.328-0.902-2.05-1.148-2.87-1.558c-2.296-0.984-4.1-3.444-6.478-4.346
		c-1.476-0.574-2.87-0.082-4.51-0.492c-0.738-0.246-2.378-1.148-1.722,0.656c0.656,1.804,3.854,0.656,4.592,2.542
		c-2.132-0.246-3.854,0.574-6.314,0.82c-0.656,0.082-4.182-0.246-2.46,1.476c0.574,0.574,1.23,0.492,1.886,0.656
		c1.23,0.164,1.558,0.492,2.378,1.394c1.066,1.23,1.476,1.886,2.87,2.788c1.148,0.656,2.788,0.328,4.018-0.082
		c0.902-0.246,2.05-0.656,3.034-0.656c0.82,0,3.362,1.558,4.018,1.476C239.38,111.225,239.216,108.273,238.642,106.715z"/>
	<path style="fill:#AE2226;" d="M267.586,94.088c-0.082-2.788-0.492-6.068-2.788-8.036c-2.624-2.296-6.232-2.46-8.938-0.328
		c-3.28,2.542-2.952,6.478-2.296,10.167c0.902,5.002,0.82,12.791,0.164,13.529c-0.492,0.574-7.708-1.23-11.561-2.378
		c-1.804-0.574-3.116-1.476-4.1-1.394c-0.738,0.082-0.984,1.148-1.476,2.296c-0.656,1.558-1.476,2.624-0.984,3.69
		c0.328,0.902,8.692,4.182,12.217,5.166c3.28,0.902,6.806,1.558,10.167,1.804c2.706,0.246,3.772-1.066,4.674-3.362
		c1.476-3.444,2.706-7.134,3.526-10.823C267.176,101.058,267.75,97.45,267.586,94.088z"/>
	<path style="fill:#FBB994;" d="M247.169,63.012c-3.198-4.592-11.643-4.674-14.513,0.246c-1.476,2.542-2.788,5.986-1.558,8.938
		c0.738,1.558,0.492,2.624,0.82,3.936c0.328,1.312,1.148,1.722,1.64,2.952c1.066,2.46,0.82,4.756,4.182,4.1
		c2.542-0.492,4.838-1.722,5.822-4.182c0.984-2.87,1.558-4.92,3.444-7.298C249.055,69.161,248.973,65.554,247.169,63.012z"/>
	<path style="fill:#CAB24B;" d="M231.262,67.112c2.542,0.164,7.134-3.116,9.511-0.984c0.902,0.82,0.738,1.804,1.066,2.788
		c0.574,1.722,0.902,2.624,2.46,2.788c0.328,0.082,1.968,1.722,2.542,1.886c1.148,0.328,2.132-1.066,2.542-2.132
		c0.738-2.132,0.246-3.854,0.902-6.56c0.82-3.198,0.328-5.494-0.984-6.314c-1.23-0.82-1.64-0.656-2.952-0.902
		c-1.066-0.328-1.558-1.64-3.936-2.05c-5.658-0.902-8.856,3.116-10.823,4.592c-1.968,1.558-2.788,1.558-2.788,2.624
		C228.802,64.816,229.294,67.03,231.262,67.112z"/>
	<path style="fill:#FBB994;" d="M247.333,69.243c-0.492-0.902-2.214-0.656-2.788,0.082c-0.656,0.82-0.738,4.428-0.082,5.166
		C246.595,76.951,248.317,70.883,247.333,69.243z"/>
	<path style="fill:#E62E2D;" d="M268.242,94.006c-0.082-3.034-0.492-6.396-2.952-8.528c-1.476-1.312-3.28-2.05-5.166-2.05
		c-1.64,0-3.28,0.574-4.592,1.558c-3.444,2.706-3.28,6.724-2.624,10.741c0.902,4.838,0.738,11.643,0.328,12.955c0,0-0.082,0-0.164,0
		c-1.722,0-7.544-1.476-10.823-2.46c-0.738-0.246-1.312-0.492-1.886-0.738c-0.902-0.328-1.558-0.656-2.214-0.656
		c-0.082,0-0.164,0-0.246,0c-0.984,0.082-1.394,1.066-1.722,2.05c-0.082,0.246-0.164,0.41-0.246,0.574
		c-0.164,0.328-0.328,0.738-0.492,1.066c-0.41,0.902-0.902,1.804-0.656,2.706c0.246,0,0.41-0.082,0.656-0.164
		c-0.246-0.984,0.492-1.968,1.066-3.362c0.41-1.148,0.738-2.132,1.476-2.296c0.082,0,0.082,0,0.164,0
		c0.902,0,2.214,0.902,4.018,1.394c3.28,0.984,9.101,2.542,10.987,2.542c0.328,0,0.492-0.082,0.574-0.164
		c0.656-0.738,0.738-8.528-0.164-13.529c-0.656-3.608-0.902-7.626,2.296-10.167c1.23-0.984,2.788-1.476,4.182-1.476
		c1.64,0,3.362,0.574,4.674,1.804c2.214,2.05,2.706,5.248,2.788,8.036c0.164,3.362-0.41,6.97-1.23,10.167
		c-0.902,3.608-2.132,7.38-3.526,10.823c-0.902,2.132-1.886,3.362-4.1,3.362c-0.246,0-0.41,0-0.656,0
		c-0.902-0.082-1.886-0.246-2.87-0.328c0.164,0.246,0.246,0.41,0.328,0.656c0.902,0.164,1.64,0.246,2.542,0.328
		c0.246,0,0.41,0,0.656,0c2.542,0,3.69-1.476,4.674-3.772c1.558-3.526,2.788-7.298,3.526-10.905
		C267.914,100.484,268.324,96.958,268.242,94.006z"/>
	<path style="fill:#F2A286;" d="M193.298,139.432c-3.034-1.394-3.69-5.412-4.1-8.938c-0.328-2.624-1.23-8.856-2.214-8.774
		c-1.64,0.164-2.296,0.328-4.674,1.394c-0.82,0.328,0.082,5.084,0.492,7.298c0.574,2.952,2.132,5.576,2.87,8.364
		c0.656,2.214,0.902,5.576,3.362,5.576C192.642,144.269,198.136,141.645,193.298,139.432z"/>
	<polygon style="fill:#4C4B4C;" points="190.51,213.31 191.904,213.31 188.788,172.476 186.329,172.476 	"/>
	<path style="fill:#A36E33;" d="M167.962,98.434c-1.558-2.296-7.626,2.132-9.511,3.936c-2.132,2.132-3.116,5.248-0.902,7.462
		c1.886,1.968,5.084,1.64,7.134,0.246C167.552,108.027,168.699,99.5,167.962,98.434z"/>
	<path style="fill:#91C2B8;" d="M176.817,118.113c0.328,2.05,0.328,4.838,1.558,4.838c1.394,0,6.724-0.41,8.364-0.574
		c1.804-0.246,1.722-0.492-0.328-5.084c-1.968-4.346-4.346-8.446-7.954-10.495C176.161,105.567,176.161,113.193,176.817,118.113z"/>
	<path style="fill:#FBB994;" d="M189.69,209.374c-1.148-0.902-3.854-2.624-4.264-4.018c-0.328-1.148-0.492-2.378-1.312-3.198
		c-0.574-0.574-1.968-1.722-2.46-0.984c-0.492,0.738-0.082,2.46-0.738,3.936c-1.312,3.362-2.132,5.494,1.476,6.97
		c0.902,0.328,7.134,0.902,8.364,0.574C192.396,212.08,191.248,210.522,189.69,209.374z"/>
	<path style="fill:#FBB994;" d="M218.225,211.096c-1.394-0.984-3.69-2.46-4.838-3.772c-1.394-1.558-2.132-2.788-2.87-4.592
		c-0.41-1.148-1.148-2.952-2.788-2.542c-1.886,0.492-1.23,2.624-1.476,4.018c-0.328,1.558-1.558,3.362-0.902,4.92
		c0.82,1.804,3.116,1.066,4.674,1.558c1.804,0.574,3.362,1.804,5.248,1.968C216.175,212.654,220.193,212.572,218.225,211.096z"/>
	<path style="fill:#223E38;" d="M205.925,202.65c-2.132-11.479-8.364-16.153-9.757-23.615c-0.984-5.412,1.476-8.938-3.28-10.659
		c-2.788-0.984-20.417-0.246-27.878-0.246c-3.034,0-5.904-0.328-8.118-3.526c-3.116-4.674,0-13.447,0-13.447
		s41.818,2.132,45.344,8.61c3.772,6.806,6.642,27.55,8.036,42.392C210.517,203.06,206.253,203.962,205.925,202.65z"/>
	<path style="fill:#E15635;" d="M186.411,172.476h-34.274c0,0-1.476-4.018,1.148-5.658c6.314-4.1,26.157-5.986,31.65-3.854
		C188.132,164.276,186.411,172.476,186.411,172.476z"/>
	<polygon style="fill:#4C4B4C;" points="150.742,213.31 149.267,213.31 154.842,172.476 157.384,172.476 	"/>
	<path style="fill:#A23C24;" d="M180.343,137.3c0.328,6.56-2.05,9.265-12.053,9.265s-16.481,1.312-18.203-9.757
		c-1.968-12.217,7.872-5.412,19.023-5.084C179.113,132.134,180.097,131.97,180.343,137.3z"/>
	<path style="fill:#AEDDD5;" d="M179.113,107.371c-4.838-3.116-13.857-4.346-18.449,0.164c-5.084,5.084,0.328,12.299,2.542,22.631
		c1.722,7.79-3.526,13.119-6.314,19.351c-2.624,5.904,24.271,3.444,25.255,1.722c1.722-2.952-2.296-13.529-0.082-21.647
		c0.902-3.116,3.526-3.608,4.1-6.806c0.328-1.804-0.246-4.92-2.132-8.364C182.229,110.651,181.245,108.683,179.113,107.371z"/>
	<path style="fill:#2B4A43;" d="M181.409,202.24c-0.246-11.315-2.132-16.481-0.902-24.517c0.984-5.904,5.002-9.757,4.018-12.053
		c-1.148-2.624-10.577,2.788-20.007,2.624c-2.87-0.082-5.576-0.328-7.708-3.526c-4.018-6.068,0-15.169,0-15.169
		s13.201-0.328,23.779,0.41c6.478,0.41,12.381,2.132,13.693,4.592c3.608,6.806-7.134,38.456-9.101,48.377
		C184.935,204.372,181.409,203.552,181.409,202.24z"/>
	<path style="fill:#F6A086;" d="M175.833,94.252c-3.28-1.558-5.658-2.542-5.412,0.246c0.246,3.608-1.476,7.298-1.558,10.167
		c-0.164,2.46,5.412,10.413,9.101,10.413c2.214,0-1.968-7.38-1.558-10.659C176.817,100.648,180.179,96.302,175.833,94.252z"/>
	<path style="fill:#FBB994;" d="M184.771,92.366c-0.328,1.066-0.82,1.558-1.066,2.05c-0.328,0.656-0.328,2.132-0.902,3.28
		c-1.64,2.952-3.28,4.838-4.838,4.674c-1.558-0.246-2.952-1.23-4.182-2.788c-2.132-2.706-3.772-7.954-3.526-10.003
		c0.574-5.002,4.592-6.642,7.708-6.478C183.377,83.347,186.738,86.79,184.771,92.366z"/>
	<path style="fill:#91C2B8;" d="M164.846,115.735c-0.082,2.132,0.246,4.838-1.066,5.084c-1.394,0.328-7.626,0.82-9.101,1.148
		c-1.312,0.328-0.492-1.312,1.394-6.396c1.886-5.084,4.592-9.757,7.298-9.757C166.076,105.813,165.01,110.733,164.846,115.735z"/>
	<path style="fill:#A36E33;" d="M183.869,82.363c-2.132-0.492-3.362-2.214-5.33-3.034c-3.362-1.476-7.052-1.148-9.429,1.722
		c-2.542,3.034-1.968,7.708-1.722,11.397c0.082,1.148-0.164,3.362,0.656,3.936c0.656,0.41,2.706,0.41,3.936,0.082
		c3.772-1.066,3.772-2.214,7.298-5.822c2.706-2.706,4.592-3.28,4.592-3.28s2.132,2.46,0.984,4.592
		C187.968,89.578,189.198,83.675,183.869,82.363z"/>
	<path style="fill:#FBB994;" d="M193.544,142.547c-0.574-1.23-5.74-1.23-8.938-2.542c-2.624-0.984-4.838,0.574-7.708,0.328
		c-2.952-0.328-8.364-0.984-12.135-1.64c-2.87-0.492-5.986-0.574-9.593-0.41c1.968-4.182,3.936-6.724,5.658-11.151
		c0.902-2.296,1.312-3.034,1.558-4.182c0.328-1.23-3.608-3.526-7.052-2.542c-1.312,0.328-1.148,0.41-2.05,2.952
		c-1.558,4.674-4.346,9.921-4.756,14.021s-0.902,6.15,1.312,6.888c1.722,0.656,30.666,0.082,35.012,0.082
		C187.312,144.269,194.118,143.859,193.544,142.547z"/>
	<path style="fill:#2B4A43;" d="M179.933,213.31h0.902c0.082-0.328,0.246-0.738,0.574-0.902c1.23-0.574,4.592,0.902,7.872,0.902
		c2.214,0,0.738,0,3.362,0c1.476,0,1.64-0.492,1.476-1.066c-0.492-1.476-5.248-3.362-4.592-2.952
		c0.902,0.656,1.886,2.542-2.296,1.558c-1.64-0.328-4.92-1.148-5.986-2.542c-0.984-1.312-0.492-3.116-1.558-1.23
		c-0.82,1.312-0.82,2.132-0.328,3.116C179.851,211.342,179.933,212.736,179.933,213.31z"/>
	<path style="fill:#2B4A43;" d="M205.105,211.834c0.164,0.902,0,1.312,0,1.476h0.656c0.328-0.246,0.492-1.722,1.558-1.722
		c2.624-0.082,4.428,1.722,7.216,1.722c2.05,0,6.232,0,8.282,0c1.23,0,0.492-0.984-1.23-1.804c-1.558-0.738-4.592-1.722-5.248-2.05
		c-1.148-0.574,0.164,1.312-1.558,1.312c-0.984,0-4.1-0.902-6.806-2.296s-1.722-2.542-2.378-2.46
		c-0.82,0.082-1.64,2.132-1.394,3.362C204.45,210.112,204.941,210.932,205.105,211.834z"/>
	<path style="fill:#855728;" d="M170.093,97.286c0.082,0.984-0.902,2.788-2.378,2.132c-0.656-0.328-2.214-1.23-2.214-2.214
		c0-0.902,0.656-1.558,1.394-1.722C167.716,95.154,170.093,96.466,170.093,97.286z"/>
	<g>
		<polygon style="fill:#DBDADA;" points="197.234,119.015 196.004,119.015 189.034,142.547 190.346,142.547 		"/>
		<polygon style="fill:#B3B3B3;" points="218.635,142.547 190.264,142.547 197.234,119.015 225.604,119.015 		"/>
		<rect x="189.034" y="142.547" style="fill:#878787;" width="28.288" height="1.722"/>
		<path style="fill:#EDEDED;" d="M209.779,130.74c-0.328,1.066-1.394,1.968-2.46,1.968s-1.558-0.902-1.312-1.968
			c0.328-1.066,1.394-1.968,2.46-1.968C209.533,128.772,210.107,129.674,209.779,130.74z"/>
		<rect x="165.584" y="142.547" style="fill:#DBDADA;" width="23.451" height="1.722"/>
	</g>
	<path style="fill:#F6A086;" d="M116.714,71.703c0-1.066,0.984-2.05,0.656-2.952c-0.328-0.902-1.394-0.492-2.132-0.82
		c-2.296-0.82-3.034-2.788-3.608-5.002c-0.328-1.23-1.066-4.018-2.788-3.608c-1.148,0.328-0.41,1.148-0.328,2.132
		c0.164,1.476,0,2.87-0.41,4.264c-0.656,1.968-2.132,3.854-0.574,5.822c0.82,0.984,1.968,1.722,2.87,2.624
		c0.82,0.738,1.394,1.558,2.132,2.296c0.902,0.902,4.018,2.87,5.084,1.312C118.6,76.213,116.632,73.425,116.714,71.703z"/>
	<path style="fill:#3B251A;" d="M106.957,55.386c-0.082-2.296,0.738-4.674-2.214-4.92c-2.952-0.164-4.346,2.788-3.444,5.822
		c0.492,1.804,2.05,4.264,4.018,4.756C108.679,61.782,107.039,57.108,106.957,55.386z"/>
	<path style="fill:#F6A5BA;" d="M141.231,107.781c2.132-0.492,2.87-2.132,2.706-3.608c-0.082-0.902-0.41-4.182-4.428-4.018
		c-1.23,0.082-2.132-0.328-3.198-0.328c-1.558-0.164-2.296-0.902-2.788-2.214c-1.148-3.362-2.132-6.97-3.116-10.331
		c-0.328-0.902-2.87-10.085-4.018-8.446c-0.656,0.902-0.082,4.018-0.246,5.248c-0.246,2.132-0.574,4.264-0.574,6.478
		c-0.082,4.018,1.558,7.708,2.214,11.561c0.41,2.378,1.722,5.74,4.428,6.396C135.409,109.093,140.001,108.027,141.231,107.781z"/>
	<path style="fill:#E26990;" d="M128.932,93.596c0.902-2.132-0.164-4.838-0.328-7.052c-0.246-2.624-0.164-5.74-1.722-7.872
		c-1.23-1.64-3.034-1.64-4.756-2.542c-1.968-0.984-1.722-3.526-3.608-4.756c-2.87-1.886-1.558,1.64-1.394,3.034
		c0.41,3.444-1.968,0.902-2.87-0.328c-1.312-1.722-2.132-2.788-4.428-3.28c-1.886-0.41-4.428-0.738-6.314-0.082
		c-1.804,0.574-4.1,1.968-5.74,3.034c-2.132,1.394-1.886,3.772-1.804,5.986c0.246,5.822,2.706,11.233,3.69,16.891
		c0.738,4.018-0.164,9.183,2.132,12.791c2.542,4.018,7.79,3.444,11.971,3.444c3.936,0,13.529,1.722,14.103-3.936
		c0.246-2.214-0.656-4.346-0.902-6.56C126.554,98.926,127.456,96.63,128.932,93.596z"/>
	<path style="fill:#FBB994;" d="M115.812,207.98c-1.148-1.558-2.378-3.28-3.198-5.084c-0.82-1.804-0.82-3.608-1.23-5.576
		c-0.41-1.64-1.476-3.034-1.558-4.756c-0.246-2.296,0.41-5.002,0.656-7.38c0.41-4.592-0.246-9.102,0-13.775
		c0.164-3.362,3.69-7.708,1.558-11.479c-1.23-2.214-7.216-2.132-8.364,1.23c-0.328,0.82,0.082,2.214,0.082,3.198
		c-0.082,1.148-0.328,2.296-0.574,3.362c-0.574,2.132-1.148,4.018-1.23,6.232c-0.082,4.51,1.066,8.938,2.132,13.201
		c0.492,1.968,1.23,3.936,1.558,5.986c0.328,2.214-0.902,4.428-0.492,6.56c0.328,2.788,1.394,6.806,3.034,8.938
		c0.902,1.23,2.296,1.722,3.936,1.64C112.533,210.112,116.632,209.046,115.812,207.98z"/>
	<path style="fill:#FBB994;" d="M129.506,159.766c-1.394-2.05-4.592-2.214-6.642-1.558c-3.28,1.148-2.788,5.822-2.542,7.298
		c0.738,4.346-2.05,8.528-1.558,12.873c0.41,4.182,1.968,7.708,1.722,13.611c-0.246,5.658-2.952,6.642-1.558,9.921
		c1.23,2.952,3.69,8.855,7.38,9.102c2.706,0.246,2.214-1.148,1.558-2.87c-0.902-2.132-1.476-4.428-1.886-6.724
		c-0.82-4.756-0.902-9.266,0.246-14.021c0.902-4.182,2.132-8.2,2.296-12.545c0.164-2.296,0.082-5.33,0.984-7.544
		C130.572,164.85,130.9,161.734,129.506,159.766z"/>
	<path style="fill:#FBB994;" d="M123.766,56.78c-0.328-2.788-0.738-5.986-3.526-7.708c-2.132-1.394-5.412-1.968-7.872-1.066
		c-2.378,0.82-4.346,2.788-4.756,5.33c-0.082,0.574,0,1.148-0.082,1.64c-0.082,0.574-0.328,0.738-0.328,1.23
		c-0.164,1.148,0.246,2.952,0.902,4.018c0.328,0.574,0.82,0.738,1.394,0.984c0.41,0.246,0.492,0.328,0.656,0.82
		c0.41,1.312,0.082,2.624,0.738,4.018c1.066,2.296,4.674,4.018,7.298,4.1c1.64,0.082,1.968-1.476,2.706-2.788
		c0.574-0.984,1.148-2.132,1.64-3.28c0.574-1.394,0.164-2.706,0.41-4.1C123.028,58.912,123.93,57.682,123.766,56.78z"/>
	<path style="fill:#3B251A;" d="M123.356,52.926c0.246-0.656,0.574-2.87-0.902-4.592c-0.902-0.902-1.886-1.804-3.362-2.706
		c-2.378-1.394-6.232-2.214-8.938-1.312c-6.806,2.214-7.38,10.085-3.69,15.743c0.656,0.902,2.132,2.05,2.624,1.312
		c0.246-0.41-1.476-2.87-1.64-3.608c-0.328-1.066-0.492-2.46,1.066-2.378c1.476,0.082,1.394,2.05,2.788,2.132
		c1.23,0.164,2.132-1.64,2.87-2.46c1.148-1.312,2.132-2.214,4.018-2.296c1.066-0.082,2.132-0.246,3.198-0.328
		c0.492,0,1.23,0.164,1.558,0.328C123.028,52.926,123.192,53.664,123.356,52.926z"/>
	<path style="fill:#518BA3;" d="M130.9,154.191c0.328-2.46,0.902-4.838,0.902-7.38c0.082-4.674-0.328-9.429-1.312-14.021
		c0-0.082-0.082-0.164-0.082-0.246s0-0.082,0-0.164c-0.41-1.722-0.984-3.526-0.984-5.248c0-1.968,0.328-3.854,0.41-5.822
		c0.164-3.854-0.902-8.938-2.132-11.315c-0.082-0.164-0.328-0.328-0.656-0.328c-3.854,0.328-7.134,0.984-11.069,0.902
		c-3.526-0.164-7.216-1.558-10.823-0.984c-0.164,0-0.246,0.164-0.328,0.246c-1.968,1.558-3.28,3.526-3.69,5.904
		c-0.41,2.378,0.164,4.1-0.246,6.97c-0.246,1.558-1.558,4.674-1.804,9.593c-0.328,5.658,2.706,15.825,2.788,19.351
		c0.082,2.87,0.656,5.822,1.066,8.692v0.082c0,5.74,8.364,4.838,12.135,4.428c3.526-0.328,7.052-0.82,10.577-1.148
		c1.148-0.164,3.198,0,4.1-0.82c0.656-0.41,0.574-1.148,0.656-1.886c0-0.082,0.082-0.164,0.082-0.246
		C130.654,158.618,130.572,156.323,130.9,154.191z"/>
	<path style="fill:#F6A5BA;" d="M111.959,71.621c-0.492-0.492-1.968-0.82-3.772-1.558c-1.558-0.738-2.788-2.46-3.444-1.968
		c-1.312,1.066-3.69,2.542-1.312,4.018c1.148,0.738,2.46,2.378,3.28,3.444c0.738,0.984,2.132,2.87,2.788,2.624
		c0.902-0.41,1.394-3.526,1.722-4.51C111.385,73.507,112.533,72.277,111.959,71.621z"/>
	<path style="fill:#F2A286;" d="M134.097,102.37c-0.246-0.328-0.492-0.492-0.902-0.738l-6.396-0.328
		c-0.328,0.656-0.41,1.148-0.738,1.804c-0.328,0.574-0.902,1.312-0.902,1.23c2.296,0.082,3.526-1.23,4.264-1.64
		c0.574-0.41,2.788,0.082,4.1,0.41C134.097,103.19,134.507,102.944,134.097,102.37z"/>
	<path style="fill:#FBB994;" d="M135.491,96.958c-0.492-0.492-1.23-1.148-1.722-1.558c-0.656-0.574-2.132-1.148-2.542-1.23
		c-0.492-0.082-1.558,0.328-2.214,0.574c-0.902,0.328-3.116,0.902-3.526,1.64c-0.656,1.23-1.23,1.968-1.968,3.116
		c-0.738,1.23-1.886,1.476-2.624,2.132c-0.328,0.246-0.164,1.394-0.246,2.132c-0.164,0.902,0.41,2.378,0.738,2.296
		c2.788-0.82,4.018-1.066,4.756-2.788c0.328-0.656,0.492-1.23,0.738-1.886l6.396,0.328c-0.492-0.328-1.066-0.41-1.558-0.574
		s-3.526-0.328-3.936-0.738c-0.328-0.328,1.968-2.952,2.542-2.706c0.656,0.328,1.968,0.984,2.296,0.902
		c0.328-0.082,0.328-0.246,0.246-0.492c-0.082-0.246-0.328-0.41-0.41-0.656c0.328-0.082,0.82,0,1.148,0
		c0.738,0.082,0.984,0.656,1.886,0.41C135.573,97.778,135.655,97.286,135.491,96.958z"/>
	<path style="fill:#F6A5BA;" d="M121.224,106.797c-0.328-0.902-0.82-1.804-0.902-2.788c-0.082-0.41,0.328-2.132,0.164-2.378
		c-0.738-0.738-4.346,0.738-5.248,0.902c-2.788,0.574-10.167,1.476-10.823,0.082s0-11.807-0.328-14.267
		c-0.328-3.444-0.328-8.856-3.034-11.397c-0.738-0.738-2.952-2.214-4.1-1.722c-1.394,0.574-1.558,7.298-1.64,8.528
		c-0.656,4.182-1.148,7.134-0.656,11.479c0.492,4.51,0.902,8.774,1.066,13.283c0.082,2.788-0.164,3.69,3.034,4.018
		c2.132,0.246,4.428,0.164,6.478-0.246c2.378-0.41,4.592-0.902,6.97-1.312c2.132-0.328,4.018-0.574,6.15-0.902
		C120.568,109.503,122.372,109.421,121.224,106.797z"/>
	<path style="fill:#878787;" d="M144.347,103.518c1.476,0.492,8.446-1.476,10.495-2.05c0.164-0.082,0.164-0.328,0-0.328
		l-15.415-4.592c-0.164-0.082-0.328-0.082-0.492,0l-14.759,4.264c-0.246,0.082-0.164,0.328,0.082,0.328l9.184,0.328
		c3.116-0.164,4.838,0.328,7.134,0.492C142.707,102.37,142.789,102.944,144.347,103.518z"/>
	<path style="fill:#B3B3B3;" d="M158.614,82.117l-15.251-5.494c-0.246-0.082-0.41,0.082-0.41,0.328l-3.362,20.089
		c0,0.164,0.082,0.328,0.246,0.328l15.579,4.592c0.246,0.082,0.328-0.082,0.41-0.328l3.034-19.187
		C158.942,82.281,158.778,82.117,158.614,82.117z"/>
	<path style="fill:#FBB994;" d="M148.037,96.548c-0.082-0.574-0.902-4.51-1.722-3.69c-0.41,0.328-0.164,2.05-0.082,2.706
		c0.082,0.82-0.164,0.902-0.41,0.738s-0.492-0.656-0.984-0.82c-0.902-0.328-0.41,2.05-0.41,2.624c0,0.738-0.82,1.312-1.394,1.23
		c-0.574-0.164-0.738-1.476-1.23-1.64c-1.148-0.41-0.574,1.066-0.902,1.886c-0.328,0.492-2.87,0.082-4.182,0.164
		c-0.902,0.082-1.64,0.328-0.656,0.902c0.902,0.492,4.346,0.738,4.018,1.476c-0.082,0.164-0.492,0.082-0.656,0.328
		c-0.246,0.328-0.328,1.394-0.164,2.132c0.082,0.574,0.41,1.722,0.738,1.804c0.328,0,0.902-0.246,1.23-0.328
		c2.46-0.492,3.608-0.902,4.756-3.198c0.574-1.066,1.558-1.722,2.132-2.788C148.447,98.762,148.201,97.696,148.037,96.548z"/>
	<path style="fill:#F37D8F;" d="M131.556,210.604c-0.82-0.902-3.034-2.952-3.854-3.116c-0.41-0.082,0.656,1.804-0.164,2.296
		c-1.312,0.82-3.526-0.656-4.51-1.558c-0.902-0.902-2.132-3.034-3.116-5.166c-0.656-1.312-0.656-2.624-0.902-3.772
		c-0.164-0.656,0.082-1.886-0.082-2.05c-0.574-0.656-2.132,2.706-2.132,3.936c-0.164,2.378,1.476,6.478,1.886,8.2
		c0.328,1.476,0.574,2.706,0.738,3.854h1.558c-0.082-2.296-0.41-5.412-0.246-5.412c0.328,0,1.312,1.394,1.558,2.132
		c0.574,1.558,0.82,2.624,2.46,3.362h5.904C132.375,213.31,133.687,213.064,131.556,210.604z"/>
	<path style="fill:#F37D8F;" d="M118.026,211.752c-0.164-1.558-2.132-4.756-2.542-4.182c-0.164,0.328-1.066,1.066-2.05,1.394
		c-1.148,0.328-3.28,0.41-4.264-0.164c-1.64-0.902-2.05-3.526-2.624-5.248c-0.328-0.984-0.902-2.132-1.23-3.198
		c-0.246-0.656,0.082-2.87-0.082-2.952c-0.492-0.328-1.066,2.46-0.984,3.608c0.164,1.558,0.656,2.952,0.984,4.428
		c0.738,2.788,1.23,5.084,1.394,7.954h1.476c0.082-0.902,0.082-1.968,0.164-2.05c0.41-0.164,1.23,1.64,2.296,2.05h6.396
		C117.698,213.146,118.19,212.818,118.026,211.752z"/>
	<path style="fill:#F6A1B2;" d="M121.798,106.469L121.798,106.469c-0.328-0.902-0.738-1.722-0.82-2.624
		c0-0.082,0.082-0.492,0.082-0.82c0.164-1.066,0.246-1.64-0.164-2.05c-0.328-0.328-0.656-0.41-1.148-0.41
		c-0.984,0-2.542,0.492-3.608,0.902c-0.41,0.164-0.902,0.328-0.984,0.328c-1.558,0.328-4.838,0.82-7.462,0.82
		c-2.296,0-2.706-0.41-2.706-0.41c-0.328-0.738-0.246-5.248-0.246-8.364c0.082-2.542,0.082-4.592,0-5.74
		c-0.082-0.41-0.082-0.902-0.164-1.476c-0.328-3.526-0.656-7.954-3.116-10.331c-0.246-0.246-0.574-0.492-1.066-0.902
		c-0.328-0.246-0.656,0.328-0.328,0.492c0.41,0.328,0.738,0.574,0.902,0.82c2.706,2.624,2.788,7.872,3.034,11.397
		c0.246,2.542-0.328,12.873,0.328,14.267c0.328,0.574,1.558,0.82,3.28,0.82c2.542,0,5.904-0.41,7.626-0.82
		c0.738-0.164,3.28-1.148,4.592-1.148c0.328,0,0.574,0.082,0.738,0.246c0.246,0.246-0.164,1.968-0.164,2.378
		c0.082,0.984,0.492,1.968,0.902,2.788c0.41,0.902,0.41,1.558,0.246,1.968c-0.246,0.328,0.328,0.738,0.492,0.328
		C122.372,108.437,122.29,107.617,121.798,106.469z"/>
	<g>
		
			<rect x="94.317" y="111.385" transform="matrix(-0.1495 0.9888 -0.9888 -0.1495 244.4487 15.1259)" style="fill:#C7C6C6;" width="42.803" height="2.624"/>
		<path style="fill:#9C9C9B;" d="M125.652,138.94c-2.296-5.494-4.51-10.905-6.888-17.055c-0.902-2.296-1.148-4.92-0.82-7.544v-0.164
			l-1.148-0.246v0.164c-0.41,2.788-0.164,5.658,0.902,8.118c2.378,6.15,4.592,11.561,6.888,17.055
			c0.492,1.148,0.492,2.132,0.082,2.788s-1.23,0.902-2.378,0.902h-18.777v1.148h18.777c1.558,0,2.788-0.492,3.362-1.558
			C126.062,141.973,126.39,140.743,125.652,138.94z"/>
	</g>
	<polygon style="fill:#E0E0DF;" points="383.282,213.31 384.676,213.31 376.558,146.811 373.606,146.811 	"/>
	<g>
		<path style="fill:#9C9C9B;" d="M85.884,142.301c-0.082,0-0.082,0-0.164,0c-0.328-0.082-0.41-0.328-0.328-0.656l2.788-11.807
			c0.082-0.328,0.328-0.41,0.656-0.328c0.328,0.082,0.41,0.328,0.328,0.656l-2.788,11.807
			C86.294,142.137,86.13,142.301,85.884,142.301z"/>
	</g>
	<g>
		<path style="fill:#4C4B4C;" d="M25.289,173.05c-4.264,0-7.134-0.902-8.118-2.46c-0.41-0.738-0.41-1.558,0-2.296
			c0.574-1.148,1.312-2.378,2.05-3.69c0.574-0.902,1.066-1.968,1.64-2.952c1.148-2.132,0.41-6.314-0.984-14.841l0.984-0.246
			c1.558,8.938,2.214,13.037,0.902,15.497c-0.492,0.984-1.066,2.05-1.64,2.952c-0.738,1.312-1.476,2.542-2.05,3.69
			c-0.246,0.492-0.246,0.902,0,1.312c0.738,1.23,3.362,1.968,7.134,1.968L25.289,173.05L25.289,173.05z"/>
	</g>
	<path style="fill:#F6A086;" d="M96.707,209.456c-0.902-1.804-4.1-2.788-5.248-4.756c-1.148-2.132-2.624-6.068-4.756-7.872
		c-1.476-1.23-2.788-0.984-4.182-0.41c-2.296,0.902-1.148,3.28-0.656,5.33c0.984,3.936,0.656,9.921,6.478,9.839
		C89.902,211.506,97.937,211.998,96.707,209.456z"/>
	<path style="fill:#373636;" d="M81.292,160.258c-1.394-4.346-5.248-6.15-10.823-7.462c-5.248-1.148-23.287-5.002-29.354-1.558
		c-4.838,2.788-4.592,9.184-0.902,12.463c3.854,3.444,11.397,3.69,18.941,4.674c1.558,0.246,8.118,0.328,9.511,1.312
		c2.132,1.476,6.314,16.399,8.282,20.663c0.574,1.312,2.706,8.692,3.28,10.167c0.574,1.558,2.788,1.312,4.182,0.902
		c2.542-0.574,5.658-1.558,5.33-3.526C89,193.385,83.014,165.752,81.292,160.258z"/>
	<polygon style="fill:#4C4B4C;" points="63.417,213.31 64.811,213.31 57.596,172.476 55.136,172.476 	"/>
	<path style="fill:#FBB994;" d="M48.986,186.169c-2.46-0.984-4.018,2.706-6.396,2.952c-2.952,0.41-5.248-1.148-5.74,0.82
		c-0.574,2.46,0.738,5.576,1.394,7.872c0.41,1.64,0.328,4.838,2.05,5.822c3.854,1.968,6.232-5.412,7.708-7.298
		c1.558-2.132,5.248-4.674,5.002-6.97C53.004,188.219,50.708,186.907,48.986,186.169z"/>
	<path style="fill:#E15635;" d="M59.399,172.476H21.518c0,0-1.558-2.378,1.23-4.1c6.97-4.1,28.862-5.986,34.93-3.854
		C61.449,165.834,59.399,172.476,59.399,172.476z"/>
	<path style="fill:#434343;" d="M65.795,151.813c-7.134-2.214-23.123-5.002-26.239-5.166c-2.87-0.164-5.904,2.214-8.364,3.608
		c-3.28,1.968-7.79,5.002-5.822,9.511c1.312,2.788,3.198,6.97,8.282,7.626c7.216,0.902,25.747-3.198,27.304-2.132
		c1.886,1.394-0.656,2.788-1.804,3.854c-2.788,2.624-10.167,12.053-12.791,14.513c-2.214,2.214-0.902,4.838,0.41,7.216
		c0.984,1.722,3.526,4.1,5.904,2.214c0.902-0.738,11.397-11.807,12.791-13.283c2.624-2.624,6.232-6.806,8.938-9.102
		c2.624-2.132,5.248-7.216,4.592-10.823C78.504,156.159,68.829,152.797,65.795,151.813z"/>
	<path style="fill:#1F2020;" d="M41.524,190.679c0.492-1.722-0.984-2.132-2.378-2.05c-1.148,0.082-4.346-0.082-5.248,0.328
		c-1.968,0.902-1.066,6.232-0.574,7.954c0.574,1.886,0.656,0.164,1.394,1.558c0.574,1.148,0.984,5.576,0.984,6.806
		c-0.082,3.116,0.82,4.428,2.952,6.478c1.558,1.476,7.052,4.674,9.101,2.214c0.82-0.902-0.328-1.722-0.984-2.87
		c-0.902-1.558-1.558-2.788-1.558-4.592c0-1.558,1.23-4.182,1.066-5.658c-0.164-1.558-1.722-0.574-3.034-1.312
		C39.393,197.32,40.541,194.041,41.524,190.679z"/>
	<polygon style="fill:#4C4B4C;" points="19.468,213.31 17.992,213.31 25.289,172.476 27.749,172.476 	"/>
	<path style="fill:#333333;" d="M43.41,148.205c-0.164-0.656-1.148-0.328-0.984,0.328c0.738,2.706-1.066,3.526-3.198,4.428
		c-1.476,0.656-2.788,1.558-3.936,2.706c-0.492,0.492,0.328,1.23,0.738,0.738c0.902-0.902,1.968-1.722,3.198-2.296
		c0.902-0.492,2.05-0.82,2.87-1.394C43.656,151.567,43.902,149.927,43.41,148.205z"/>
	<path style="fill:#A23C24;" d="M24.633,138.12c0.82,6.478,0.328,10.249-3.608,10.741c-3.936,0.41-6.478,0.902-8.282-10.003
		c-2.05-12.053,2.624-11.397,6.888-10.577C23.813,129.1,23.977,132.708,24.633,138.12z"/>
	<path style="fill:#F6A086;" d="M86.704,139.596c-1.148-0.328-2.87-1.886-4.428-3.28c-2.788-2.542-3.854-2.132-5.248-1.722
		c-1.558,0.328-2.378,0.82-3.936,1.066c-1.066,0.246-2.788,0.082-4.018,0c-4.264-0.328-7.708-1.066-11.889-1.476
		c-3.28-0.328-5.33,0.574-3.28,3.608c4.182,5.904,11.069,3.772,17.301,3.444c2.542-0.082,7.708,0,10.249-0.082
		C83.014,141.317,91.706,141.317,86.704,139.596z"/>
	<path style="fill:#F6A086;" d="M52.102,96.384c-0.82-0.902-1.804-1.558-2.542-2.542c-0.902-1.066-1.312-2.132-2.624-2.706
		c-0.82-0.328-2.542-0.902-3.444-0.574c-0.984,0.41-0.82,0.328-0.738,1.558c0.082,2.706-0.082,4.674-1.722,6.97
		c-1.23,1.722-2.788,3.854-0.41,5.248c1.886,1.066,3.198,0.984,4.592,2.788c1.64,2.132,3.034,1.23,4.182-0.984
		c0.574-1.066,0.902-2.132,1.804-3.116c0.738-0.738,1.968-0.902,2.542-1.558C54.808,99.992,53.004,97.368,52.102,96.384z"/>
	<path style="fill:#4B4B4B;" d="M49.068,145.663c-0.574-2.624-0.984-4.182-0.328-6.97c0.574-2.542,0.902-4.346,0.246-6.888
		c-1.312-5.248,0.328-10.413,0.902-15.825c0.41-5.084,0.082-9.183-4.018-11.971c-1.558-1.066-3.608-2.378-5.494-2.624
		c-2.132-0.328-3.936,1.23-5.412,2.788c-7.544,7.626-8.938,19.515-9.348,29.928c-0.246,5.33-2.132,10.495-1.968,15.825
		c0.082,2.788-0.656,8.036,2.706,7.708c4.1-0.492,7.544-3.936,10.495-6.232c2.132-1.64,5.576-2.706,8.118-3.034
		C46.608,148.369,49.724,148.779,49.068,145.663z"/>
	<path style="fill:#FBB994;" d="M93.592,136.808c-0.164-1.23-4.756-1.804-5.494-1.722c-1.558,0.082-3.362,0.41-4.838,1.066
		c-4.018,1.886-8.036,1.804-12.545,1.312c-2.132-0.328-4.346-0.328-6.478-0.246c-2.05,0.164-4.182,0.902-5.822-0.574
		c-2.132-2.05-3.28-12.053-5.494-15.989c-0.902-1.476-4.92-1.558-7.544-0.41c-1.394,0.574-3.116,2.05-2.706,3.854
		c0.738,3.444,5.576,11.233,6.478,12.955c1.066,2.05,4.92,9.511,6.232,9.757c1.558,0.41,6.15-0.164,8.118-0.656
		c4.674-1.148,8.036-1.968,12.627-2.87c1.968-0.41,4.264-0.41,6.232,0.082c2.05,0.492,4.018,1.804,6.068,0.82
		c1.64-0.82,1.558-2.87,2.788-3.854c0.738-0.574,1.476-0.246,2.05-1.23C93.51,138.53,93.592,137.382,93.592,136.808z"/>
	<path style="fill:#5E5F5F;" d="M53.824,117.867c-0.328-3.198-3.034-10.741-6.888-12.627c-6.396-3.198-8.446,4.674-8.446,8.692
		c0,2.706,1.722,8.856,3.69,10.987c0.738,0.82,3.198-1.148,4.592-1.722c4.1-1.64,5.986-0.82,6.888-1.148
		C54.48,121.639,54.07,120.245,53.824,117.867z"/>
	<path style="fill:#1F2020;" d="M83.096,213.31c1.23,0,3.116,0,5.248,0c0.902,0,1.804,0,2.706,0c5.822,0,12.463,0,14.349,0
		c1.558,0,3.526-1.148,2.706-2.214c-1.148-1.394-6.56-2.378-8.2-2.87c-5.494-1.804-5.494-4.756-8.364-5.248
		c-2.05-0.328-3.362,2.706-5.986,2.706c-1.64,0-2.952-3.116-3.936-1.886c-1.394,1.968-1.476,5.74-1.066,8.036
		C80.8,212.9,81.62,213.31,83.096,213.31z"/>
	<path style="fill:#FBB994;" d="M63.007,87.036c-0.82-3.28-4.428-5.986-7.216-7.134c-3.28-1.394-12.955-0.902-13.201,8.364
		c0,1.066,0.246,2.624,0.984,3.362c1.23,1.066,3.034,0.82,4.1,2.132c0.902,1.23,0.574,2.788,0.902,4.264
		c0.328,1.394,1.312,2.788,2.46,3.69c0.902,0.738,2.46,1.23,3.69,1.476c1.558,0.246,2.296-1.558,2.87-2.87
		c0.656-1.394,2.214-1.394,2.624-2.46c0.328-0.902,0.328-1.968,0.574-2.952c0.328-1.23,0.738-1.886,1.312-2.952
		C63.089,90.398,63.335,88.594,63.007,87.036z"/>
	<path style="fill:#571F0D;" d="M65.877,85.315c0.41-1.394-5.822-10.659-14.513-9.839c-2.788,0.328-3.444,1.394-5.494,1.64
		c-5.084,0.656-5.166,4.182-4.51,7.462c0.574,2.788,0.082,4.346,0.41,6.642c0.246,1.066,0.328,1.968,1.968,2.378
		c0.656,0.246,3.28,0.574,4.838-1.558c0.574-0.82,1.722-0.902,2.788-0.82c0.902,0.164,1.312-0.328,1.558-1.394
		c0.328-0.984,0.492-3.69,0.492-3.69s5.494,2.214,8.446,2.378C64.401,88.594,65.303,87.2,65.877,85.315z"/>
	<path style="fill:#FBB994;" d="M49.56,87.61c-1.148-0.328-2.132,0.164-2.46,1.148c-0.41,1.64,0.41,4.346,1.64,4.756
		C51.282,94.416,51.774,88.184,49.56,87.61z"/>
	<path style="fill:#333333;" d="M53.332,122.131c-0.164,0-0.328,0-0.574,0c-0.246,0-0.492,0-0.902,0
		c-1.148,0-2.788,0.164-5.166,1.066c-1.23,0.492-3.198,1.968-4.182,1.968c-0.246,0-0.328-0.082-0.492-0.246
		c-1.968-2.132-3.69-8.364-3.69-10.987c0-1.886,0.492-4.674,1.722-6.724c0.328-0.574-0.492-0.328-0.82,0.246
		c-0.984,2.05-1.558,4.592-1.558,6.478c0,2.788,1.722,9.102,3.854,11.397c0.164,0.164,0.41,0.328,0.902,0.328
		c0.82,0,1.804-0.574,2.87-1.148c0.574-0.328,1.066-0.656,1.558-0.82c2.214-0.902,3.854-0.984,4.92-0.984c0.164,0,0.328,0,0.492,0
		c0.164,0,0.328,0,0.328,0c0.246,0,0.41,0,0.656-0.082C53.742,122.622,53.578,122.049,53.332,122.131z"/>
	<polygon style="fill:#E0E0DF;" points="68.173,213.31 66.697,213.31 74.815,146.811 77.766,146.811 	"/>
	<path style="fill:#F6A086;" d="M318.833,205.356c0.902,1.886,4.346,4.264,5.576,2.87c0.902-1.066,3.034-5.166,3.444-6.724
		c0.574-1.968-3.936-3.362-5.658-2.624C320.555,199.616,317.849,203.47,318.833,205.356z"/>
	<polygon style="fill:#4C4B4C;" points="328.017,213.31 326.705,213.31 333.92,172.476 336.462,172.476 	"/>
	<path style="fill:#E15635;" d="M369.752,172.476h-47.147c0,0-2.05-2.378,1.558-4.1c8.691-4.1,35.914-5.986,43.54-3.854
		C372.212,165.834,369.752,172.476,369.752,172.476z"/>
	<polygon style="fill:#4C4B4C;" points="372.048,213.31 373.524,213.31 366.309,172.476 363.767,172.476 	"/>
	<path style="fill:#2B2C2B;" d="M316.537,201.748c-1.066-0.492-3.69,0.902-4.92,1.066c-1.886,0.246-3.772-0.164-5.658-0.328
		c-1.066-0.082-2.706-0.164-3.772,0.328c-1.476,0.656-1.148,1.558,0.246,1.886c2.05,0.41,4.182,0.164,6.314,0.328
		c1.476,0.164,2.87,0.492,4.346,0.492c1.23,0,2.214-0.164,2.87-0.902C316.537,204.044,317.931,202.322,316.537,201.748z"/>
	<path style="fill:#FBB994;" d="M324.655,204.536c-0.738-2.214-1.312-7.216-4.1-7.708c-1.394-0.246-5.904,0-5.494,2.542
		c0.328,2.378,0.164,4.592,0.246,5.084c0.164,1.804,3.608,2.378,4.92,2.624C322.031,207.488,325.721,207.98,324.655,204.536z"/>
	<path style="fill:#1C3456;" d="M360.159,148.861c-6.396-1.968-22.631-0.656-28.698,1.476c-6.232,2.132-13.283,4.346-17.629,6.478
		c-7.954,3.936-6.15,8.036-5.412,13.775c0.82,6.806,3.69,14.595,4.182,21.483c0.246,2.87,0.164,7.626,0.902,8.528
		c0.656,0.902,2.624-0.902,5.412-0.984c2.542-0.082,4.92,0.984,5.412-0.82c0.328-1.312-0.328-5.166-0.574-6.478
		c-0.82-6.724-1.558-13.529-2.296-20.171c-0.328-2.952,1.64-2.952,4.346-3.034c3.28-0.082,6.396,0.082,9.511-1.148
		c5.33-2.132,11.397-5.248,15.743-7.79C353.845,158.701,366.637,150.829,360.159,148.861z"/>
	<path style="fill:#21201F;" d="M327.115,211.67c-0.164-0.902,0-1.804-0.328-2.788c-0.328-0.902-0.984-3.034-1.804-3.608
		c-0.738-0.492-1.64,0.164-3.526-0.328c-2.296-0.492-3.198-2.05-4.592-2.788c-2.46-1.312-3.69,1.476-6.232,1.804
		c-2.624,0.328-5.248-0.328-7.872-0.164c-1.968,0.164-4.018,1.722-2.788,4.018c0.902,1.722,5.494,4.1,6.888,4.592
		c2.46,0.902,5.248,0.574,7.708,0.41c0.574,0,2.952-0.41,3.362,0c0.738,0.738-0.328,1.394,0.902,1.722
		C321.621,215.441,327.689,215.851,327.115,211.67z"/>
	<path style="fill:#D6D5D4;" d="M299.974,207.98c0.902,1.722,5.494,4.1,6.888,4.592c2.46,0.902,5.248,0.574,7.708,0.41
		c0.574,0,2.952-0.41,3.362,0c0.738,0.738-0.328,1.394,0.902,1.722c2.46,0.656,7.544,1.066,8.282-1.804
		c-0.082-0.902-0.492-2.132-1.804-2.788c-1.476-0.738-3.362-0.574-5.002-0.656c-1.722-0.082-3.526-0.41-5.248-0.82
		c-2.87-0.656-5.74-1.722-8.61-2.624c-1.558-0.41-4.838-1.886-6.478-0.164c-0.164,0.164-0.328,0.328-0.41,0.574
		C299.564,206.914,299.646,207.406,299.974,207.98z"/>
	<path style="fill:#39538B;" d="M323.343,199.862c0.492-0.164,0.902-0.328,0.984-0.902c0.328-1.312-0.328-5.166-0.574-6.478
		c-0.164-1.23-0.328-2.46-0.41-3.69c1.312-4.1,6.56-21.565,7.544-24.845c0.82-2.624,2.788-4.018,4.182-4.92
		c0.902-0.574,5.658-3.28,10.167-4.674c3.28-0.984,7.708-5.986,14.185-7.134c8.61-1.558,10.167,4.592,10.331,9.839
		c0.082,2.952-1.886,8.118-7.544,9.757c-6.478,1.886-17.629,1.476-20.089,4.592c-1.23,1.64-2.46,7.626-4.018,11.397
		c-1.476,3.526-8.528,19.433-10.249,21.155c-0.82,0.902-2.05,0.41-3.034,0.082c-0.246-0.082-0.328-0.164-0.656-0.328
		C324.081,202.404,323.753,201.01,323.343,199.862z"/>
	<path style="fill:#A23C24;" d="M344.17,139.186c0,10.741,19.843,9.347,23.779,8.61c3.854-0.738,6.888-3.28,6.888-10.823
		c0.082-8.364-3.526-8.61-7.626-9.02C363.275,127.542,344.17,125.246,344.17,139.186z"/>
	<path style="fill:#374586;" d="M327.935,103.682c-1.558-2.952-0.656-6.888-2.952-6.068c-0.984,0.328-3.362,2.05-3.444,3.362
		c-0.164,1.148,1.394,4.182,2.296,5.494C324.081,106.961,328.509,104.747,327.935,103.682z"/>
	<path style="fill:#5AA956;" d="M330.067,121.803c-0.902-4.182,0.492-8.61-2.132-10.003c-1.64-0.902-3.854,3.69-4.674,5.576
		c-1.148,2.378-2.624,6.97-5.084,9.429c-0.902,0.902-5.248,3.854-5.986,4.756c-2.05,2.214-4.592,5.904-5.002,8.118
		c-0.492,2.952,0.328,4.51,4.756,4.51c3.854,0,9.758-5.248,11.315-6.314c2.132-1.394,4.92-3.772,6.56-6.314
		C332.198,128.034,330.887,125.164,330.067,121.803z"/>
	<path style="fill:#F6A086;" d="M327.525,104.911c-0.328-0.574-1.148,0.738-1.886,1.066c-1.558,0.738-1.886,0.41-2.624-0.328
		c-0.984-0.984-1.722-1.886-1.23-3.362c0.41-1.312,1.558-1.968,0.902-3.444c-0.41-0.902-2.952,0.328-4.1,0.902
		c-1.722,0.984-3.198,1.886-3.69,3.444c-0.41,1.476-0.82,3.034-1.148,5.576c-0.328,2.05-1.64,6.396-2.132,8.364
		c-0.82,2.952-2.132,7.134-2.952,9.593c-1.312,4.018-1.886,5.248-2.624,9.593c-0.246,1.312-0.082,4.51,0.574,6.068
		c0.738,1.804,1.64,1.968,3.362,1.968c1.148,0,4.838-2.132,5.494-3.854c0.738-1.804,0.984-5.904,1.23-10.085
		c0.246-4.674,0.082-7.544,0.574-12.299c0.328-2.788,0.902-7.708,4.1-8.692c1.722-0.492,4.756-1.64,5.248-2.132
		C326.787,106.797,328.099,105.731,327.525,104.911z"/>
	<path style="fill:#F6A086;" d="M344.088,104.583c-0.574-3.116-2.788-5.166-3.854-8.036c-0.492-1.312-0.902-3.034-2.378-3.362
		c-1.23-0.328-2.214,0.656-2.788,1.804c-1.312,2.378-0.246,5.166-3.198,7.38c-1.558,1.23-4.1,0.246-4.51,1.476
		c-0.41,1.722,1.558,1.804,2.624,1.886c1.148,0.082,1.722,0.82,2.296,2.132c0.656,1.312,0.328,4.428,0.656,5.904
		c0.574,2.46,2.706,4.592,5.248,4.346c2.378-0.246,4.018-1.722,4.756-4.1C343.76,111.225,344.58,107.371,344.088,104.583z"/>
	<path style="fill:#6BBF6A;" d="M365.079,137.054c-2.542-5.576-2.46-10.003-2.624-13.775c-0.164-3.69-0.656-7.872-1.394-11.479
		c-0.574-3.034-1.886-5.494-4.1-7.462c-2.132-1.886-4.592-2.132-7.216-2.296c-3.608-0.328-7.872-2.214-7.134-0.902
		c0.656,1.066,0.902,3.526,0.656,5.084c-0.328,2.788-2.132,7.298-3.936,9.429c-1.722,2.05-4.264,1.476-5.412-0.738
		c-0.984-1.886-0.738-4.592-1.312-6.478c-0.738-2.542-3.362,0.328-5.494,2.788c-1.886,2.132-1.968,4.592-1.476,7.216
		c1.148,6.806,4.51,12.053,7.298,18.203c1.558,3.198,2.296,5.494,3.28,8.938c0.82,2.952,1.23,4.018,2.132,5.166
		c1.64,2.132,5.904,2.788,10.003,1.23c4.346-1.722,7.626-3.198,13.283-2.296c2.952,0.41,5.986,1.394,7.134,0.328
		c0.82-0.902,0.902-1.558,0.41-3.362C368.769,144.761,365.653,138.202,365.079,137.054z"/>
	<path style="fill:#FBB994;" d="M335.314,81.133c-4.51-1.968-12.791,0.328-13.365,6.478c-0.164,1.558-0.164,3.69,0.328,5.248
		c0.574,1.64,1.312,2.296,1.312,4.182c0,0.492-0.246,1.066-0.082,1.558c0.328,0.902,1.312,0.738,1.722,1.394
		c0.492,0.82,0.902,2.296,1.148,3.28c1.148,3.936,4.92,1.804,6.478,0.656c1.23-0.902,2.05-2.05,2.87-3.362
		c0.984-1.558,0.492-3.034,0.902-4.674c0.328-1.312,1.394-1.968,2.296-2.706c1.23-0.984,1.804-2.46,1.804-4.182
		C340.972,85.233,338.102,82.445,335.314,81.133z"/>
	<path style="fill:#9F6D33;" d="M342.612,86.544c0.082-1.558,0.082-5.494-2.624-6.478c-1.148-0.41-2.378-0.82-3.362-1.558
		c-3.034-2.214-8.036-1.968-11.315,0c-2.132,1.23-6.724,5.33-5.74,8.938c0.492,1.886,4.428,0.492,7.462-1.558
		c0.902-0.574,1.558-1.148,2.46-1.558c1.066-0.492,1.066-0.656,1.64,0.328c0.902,1.558,1.148,2.788,1.394,4.264
		c0.246,1.066,0.328,3.28,1.394,3.936c1.066,0.574,2.132-1.148,3.28-0.902c1.968,0.328,1.558,5.494,3.854,4.592
		c0.984-0.41,1.066-1.968,0.902-2.87C341.628,90.398,342.448,88.758,342.612,86.544z"/>
	<path style="fill:#FBB994;" d="M339.168,89.906c-0.738-1.23-2.46-1.066-3.034,0.164c-0.574,1.148-0.164,3.362,0.164,4.592
		c0.328,1.558,1.394,1.476,2.214,0C339.25,93.514,339.988,91.218,339.168,89.906z"/>
	<path style="fill:#3D7337;" d="M349.91,121.639c0,0.574-0.492,5.412-1.476,6.478c-1.066,1.148-15.907,1.886-16.563,1.64
		c-1.64-0.492-2.952-4.264-2.788-5.248c0.328-1.394,8.856-0.246,12.791-0.738C345.974,123.524,349.91,120.327,349.91,121.639z"/>
	<path style="fill:#5AA956;" d="M360.077,108.355c-1.23-2.87-3.28-4.1-5.904-2.132c-2.542,1.968-3.772,5.412-4.428,9.183
		c-0.738,4.592-0.902,9.02-1.066,13.611c-0.082,1.558-0.246,3.526,0.246,5.084c0.492,1.886,1.476,1.886,3.034,1.804
		c4.182-0.164,5.084,5.002,6.068,5.084c0.656,0.082,0.984-1.886,0.984-2.542c0-1.64-0.246-3.444,0.328-5.248
		c0.492-1.722,1.558-3.936,2.132-5.74C363.767,119.261,361.963,112.701,360.077,108.355z"/>
	<path style="fill:#3D7337;" d="M361.963,125.41c-0.164,0.656-0.328,1.312-0.492,1.968c-0.492,1.804-1.558,4.018-2.132,5.74
		c-0.492,1.804-0.246,3.69-0.328,5.248c0,0.656-0.328,2.542-0.984,2.542l0,0c-0.902-0.082-1.886-5.084-5.904-5.084
		c-0.082,0-0.082,0-0.164,0c-0.246,0-0.41,0-0.574,0c-1.23,0-2.05-0.246-2.46-1.804c-0.328-1.476-0.328-3.526-0.246-5.084
		c0.246-4.592,0.328-8.938,1.066-13.611c0.574-3.608,1.804-7.052,4.182-8.938c0.41-0.328-0.082-0.738-0.328-0.492
		c-2.214,1.804-3.69,5.002-4.428,9.429c-0.656,4.018-0.82,7.954-0.984,11.725c0,0.656-0.082,1.312-0.082,1.968v0.164
		c-0.082,1.558-0.164,3.526,0.246,5.084c0.492,1.886,1.558,2.296,3.034,2.296c0.246,0,0.41,0,0.656,0c0.082,0,0.082,0,0.164,0
		c2.378,0,3.526,2.05,4.346,3.444c0.492,0.902,0.902,1.558,1.558,1.558h0.082c1.476,0,1.558-3.116,1.558-3.116
		c0-0.41,0-0.902,0-1.394c-0.082-1.23-0.082-2.542,0.328-3.772c0.246-0.902,0.656-1.886,0.984-2.788
		c0.328-0.984,0.82-2.05,1.066-2.87c0.246-0.656,0.328-1.312,0.492-1.968C362.619,125.328,361.963,124.754,361.963,125.41z"/>
	<path style="fill:#FBB994;" d="M357.453,137.792c-1.558-2.788-4.838-3.608-7.134-3.444c-3.362,0.164-8.446,1.804-11.643,2.378
		c-3.526,0.656-7.052,1.312-10.577,1.23c-2.624-0.082-5.248-2.05-7.79-0.902c-1.148,0.41-1.722,1.066-3.28,2.214
		c-1.558,1.148-2.788,1.558-3.444,2.05c-1.558,0.984-1.64,3.034-0.082,3.034c1.64,0,4.592,0,6.314,0c3.28,0,5.986-1.23,9.183-1.148
		c3.362,0.082,8.282,1.148,13.037,1.148c3.69,0,6.888,0,10.495,0C355.239,144.269,360.159,142.465,357.453,137.792z"/>
	<rect x="63.663" y="144.269" style="fill:#DFA365;" width="323.964" height="2.542"/>
	<rect x="289.807" y="144.269" style="fill:#DFA365;" width="97.821" height="2.542"/>
	
		<rect x="302.797" y="91.468" transform="matrix(-0.9888 0.1495 -0.1495 -0.9888 621.674 179.0085)" style="fill:#9C9C9B;" width="2.624" height="42.803"/>
	<polygon style="fill:#C7C6C6;" points="288.167,134.184 305.96,134.184 299.646,91.874 281.771,91.874 	"/>
	<polygon style="fill:#DBDADA;" points="299.646,91.874 281.771,91.874 284.313,91.464 302.188,91.464 	"/>
	<path style="fill:#DBDADA;" d="M291.939,114.259v0.164c0.164,2.542-0.328,5.248-1.394,7.544c-3.034,6.15-5.904,11.561-8.773,17.055
		c-0.984,1.968-0.738,3.198-0.328,3.936c0.574,0.902,1.804,1.558,3.362,1.558h8.773l0,0c-1.558,0-2.87-0.492-3.608-1.558
		c-0.574-0.738-1.066-1.968-0.41-3.936c1.886-5.494,3.69-10.905,5.576-17.055c0.738-2.296,0.984-5.084,0.328-7.626L291.939,114.259
		L291.939,114.259z"/>
	<path style="fill:#B3B3B3;" d="M312.93,143.121h-19.515c-1.148,0-2.132-0.328-2.624-0.902c-0.492-0.656-0.574-1.558-0.246-2.788
		c1.886-5.494,3.444-10.987,5.33-17.137c0.738-2.46,0.902-5.248,0.328-7.954h-0.902c0.656,2.542,0.328,5.33-0.328,7.626
		c-1.886,6.15-3.608,11.561-5.576,17.055c-0.656,1.968-0.164,3.198,0.41,3.936c0.82,0.902,2.05,1.558,3.608,1.558h19.515V143.121
		L312.93,143.121z"/>
	<polygon style="fill:#E0E0DF;" points="294.235,213.31 292.841,213.31 300.876,146.811 303.992,146.811 	"/>
	<polygon style="fill:#E0E0DF;" points="157.056,213.31 158.532,213.31 150.414,146.811 147.463,146.811 	"/>
</g>
</svg>
