<?xml version="1.0" encoding="iso-8859-1"?>
<!-- Generator: Adobe Illustrator 17.0.0, SVG Export Plug-In . SVG Version: 6.00 Build 0)  -->
<!DOCTYPE svg PUBLIC "-//W3C//DTD SVG 1.1//EN" "http://www.w3.org/Graphics/SVG/1.1/DTD/svg11.dtd">
<svg version="1.1" id="Layer_1" xmlns="http://www.w3.org/2000/svg" xmlns:xlink="http://www.w3.org/1999/xlink" x="0px" y="0px"
	 width="400px" height="239.25px" viewBox="0 0 400 239.25" style="enable-background:new 0 0 400 239.25;" xml:space="preserve">
<g>
	<path style="fill:#FFFFFF;" d="M261.528,97.753c-5.965-3.148-9.693-9.279-9.693-15.989c0-6.793,3.728-12.924,9.693-15.989
		l0.166-0.083l0.166,0.083c5.965,3.148,9.693,9.279,9.693,15.989c0,6.793-3.728,12.924-9.693,15.989l-0.166,0.083L261.528,97.753z
		 M252.498,81.764c0,6.379,3.562,12.261,9.196,15.244c5.716-2.982,9.196-8.782,9.196-15.244c0-6.379-3.562-12.261-9.196-15.244
		C256.06,69.502,252.498,75.384,252.498,81.764z"/>
	<circle style="fill:#FFFFFF;" cx="210.66" cy="55.087" r="1.243"/>
	<circle style="fill:#FFFFFF;" cx="218.282" cy="55.087" r="1.243"/>
	<circle style="fill:#FFFFFF;" cx="225.904" cy="55.087" r="1.243"/>
	<circle style="fill:#FFFFFF;" cx="233.526" cy="55.087" r="1.243"/>
	<path style="fill:#FFFFFF;" d="M292.264,52.85c9.693,0,17.564-7.87,17.564-17.564s-7.87-17.564-17.564-17.564
		c-9.693,0-17.564,7.87-17.564,17.564h0.663c0-9.279,7.539-16.818,16.818-16.818c9.279,0,16.818,7.539,16.818,16.818
		s-7.539,16.818-16.818,16.818c-8.202,0-15.41-6.131-16.652-14.25l-0.663,0.083c0.663,4.06,2.734,7.87,5.882,10.604
		C283.98,51.359,288.039,52.85,292.264,52.85z"/>
	<g>
		<path style="fill:#FFFFFF;" d="M298.478,40.009h5.219v-0.746l-2.071-2.071c-0.663-0.663-1.077-1.077-1.243-1.408
			c-0.166-0.249-0.331-0.58-0.497-0.828c-0.083-0.249-0.166-0.58-0.166-0.828c0-0.414,0.166-0.746,0.414-0.994
			c0.249-0.249,0.58-0.414,1.077-0.414c0.331,0,0.663,0.083,0.911,0.166c0.331,0.083,0.663,0.331,0.994,0.58l0.497-0.58
			c-0.746-0.58-1.491-0.911-2.403-0.911c-0.746,0-1.326,0.166-1.74,0.58c-0.414,0.414-0.663,0.911-0.663,1.574
			c0,0.497,0.166,0.994,0.414,1.491c0.249,0.497,0.828,1.077,1.574,1.905l1.74,1.657v0.083h-4.06V40.009L298.478,40.009z"/>
		<path style="fill:#FFFFFF;" d="M291.601,38.186v-0.828h1.16v-5.385h0.994l3.811,5.385v0.828h-3.894v1.823h-0.828v-1.823H291.601
			L291.601,38.186z M296.738,37.358l-2.485-3.562c-0.166-0.166-0.331-0.497-0.497-0.828h-0.083c0.083,0.663,0.083,1.243,0.083,1.74
			v2.651C293.755,37.358,296.738,37.358,296.738,37.358z"/>
		<path style="fill:#FFFFFF;" d="M284.145,40.009l-3.314-7.125h4.308v-0.828h-5.302v0.746l3.231,7.208H284.145L284.145,40.009z"/>
	</g>
	<polygon style="fill:#FFFFFF;" points="275.115,35.866 277.766,33.215 277.269,32.718 275.115,34.872 272.961,32.635 
		272.464,33.132 	"/>
	
		<rect x="287.93" y="27.991" transform="matrix(-0.9435 0.3313 -0.3313 -0.9435 572.1795 -25.4841)" style="fill:#FFFFFF;" width="0.663" height="16.072"/>
	<path style="fill:#FFFFFF;" d="M233.94,108.855h27.837c14.912,0,27.008-12.096,27.008-27.008s-12.096-27.008-27.008-27.008h-9.279
		v0.663h9.279c14.498,0,26.345,11.847,26.345,26.345s-11.847,26.345-26.345,26.345H233.94V108.855z"/>
	<rect x="176.444" y="54.755" style="fill:#FFFFFF;" width="27.588" height="0.663"/>
	<path style="fill:#FFFFFF;" d="M104.781,121.447v-0.663c2.651,0,4.722-2.154,4.722-4.722h0.663c0,2.651,2.154,4.722,4.722,4.722
		v0.663c-2.651,0-4.722,2.154-4.722,4.722h-0.663C109.504,123.601,107.432,121.447,104.781,121.447z M109.918,117.968
		c-0.58,1.408-1.74,2.568-3.148,3.148c1.408,0.58,2.568,1.74,3.148,3.148c0.58-1.408,1.74-2.568,3.148-3.148
		C111.575,120.536,110.415,119.376,109.918,117.968z"/>
	<path style="fill:#FFFFFF;" d="M251.835,28.824v-0.663c2.651,0,4.722-2.154,4.722-4.722h0.663c0,2.651,2.154,4.722,4.722,4.722
		v0.663c-2.651,0-4.722,2.154-4.722,4.722h-0.663C256.557,30.978,254.486,28.824,251.835,28.824z M256.889,25.345
		c-0.58,1.408-1.74,2.568-3.148,3.148c1.408,0.58,2.568,1.74,3.148,3.148c0.58-1.408,1.74-2.568,3.148-3.148
		C258.628,27.913,257.469,26.753,256.889,25.345z"/>
	<path style="fill:#FFFFFF;" d="M159.626,51.607c1.243-1.491,1.905-3.397,1.905-5.302V28.99c0-2.237,0.828-4.391,2.32-6.048
		c1.74-1.988,4.225-3.065,6.793-3.065h24.191c5.054,0,9.113,4.06,9.113,9.113v12.013c0,5.054-4.06,9.113-9.113,9.113h-24.274
		c-1.243,0-2.403-0.249-3.562-0.746c-1.74,1.823-4.142,2.817-6.628,2.817h-1.243L159.626,51.607z M167.082,48.542
		c1.16,0.497,2.32,0.746,3.562,0.746h24.191c4.639,0,8.368-3.728,8.368-8.368V28.907c0-4.639-3.728-8.368-8.368-8.368h-24.108
		c-2.403,0-4.722,1.077-6.296,2.817c-1.408,1.574-2.154,3.562-2.154,5.634v17.315c0,1.905-0.58,3.728-1.657,5.219
		c2.32-0.083,4.557-1.077,6.131-2.817l0.166-0.166L167.082,48.542z"/>
	<path style="fill:#FFFFFF;" d="M188.871,108.358c-1.243,0.58-2.568,0.828-3.894,0.828h-26.263c-5.468,0-9.859-4.391-9.859-9.859
		v-13.09c0-5.468,4.391-9.859,9.859-9.859h26.263c2.817,0,5.468,1.243,7.373,3.314c1.574,1.74,2.485,4.142,2.485,6.545v18.806
		c0,2.071,0.746,4.142,2.071,5.799l0.497,0.58h-1.326C193.345,111.423,190.777,110.263,188.871,108.358z M184.977,76.958
		l-26.263-0.083c-5.054,0-9.196,4.142-9.196,9.196v13.09c0,5.054,4.142,9.196,9.196,9.196h26.263c1.408,0,2.651-0.249,3.894-0.828
		l0.249-0.083l0.166,0.166c1.657,1.905,4.142,3.065,6.711,3.065c-1.16-1.657-1.823-3.645-1.823-5.716V86.154
		c0-2.237-0.828-4.474-2.32-6.131C190.114,78.035,187.546,76.958,184.977,76.958L184.977,76.958z"/>
	<rect x="190.28" y="28.824" style="fill:#FFFFFF;" width="8.616" height="0.663"/>
	<rect x="181.746" y="32.304" style="fill:#FFFFFF;" width="17.149" height="0.663"/>
	<rect x="169.568" y="32.304" style="fill:#FFFFFF;" width="8.285" height="0.663"/>
	<rect x="190.28" y="35.783" style="fill:#FFFFFF;" width="8.616" height="0.663"/>
	<rect x="172.136" y="35.783" style="fill:#FFFFFF;" width="14.747" height="0.663"/>
	<rect x="166.42" y="28.824" style="fill:#FFFFFF;" width="18.806" height="0.663"/>
	<rect x="170.893" y="88.971" style="fill:#FFFFFF;" width="18.641" height="0.663"/>
	<g>
		<rect x="181.332" y="92.451" style="fill:#FFFFFF;" width="8.202" height="0.663"/>
		<rect x="164.1" y="92.451" style="fill:#FFFFFF;" width="14.001" height="0.663"/>
	</g>
	<rect x="169.071" y="85.492" style="fill:#FFFFFF;" width="20.463" height="0.663"/>
	<path style="fill:#FFFFFF;" d="M232.283,68.094l-1.906-1.077l3.728-6.711l2.071,0.746c0.663,0.249,1.326,0.166,1.988-0.083
		c0.58-0.249,1.077-0.663,1.326-1.16l2.817-5.054c0.331-0.58,0.414-1.16,0.331-1.74l0,0c-0.083-0.663-0.414-1.326-0.994-1.74
		l-1.74-1.326l3.728-6.711l1.906,1.077c1.574,0.828,2.651,2.32,2.9,4.06c0.166,0.746,0.083,1.574-0.083,2.32l0,0l0,0
		c-1.491,6.048-4.639,11.681-8.948,16.238c-0.497,0.58-1.16,0.994-1.906,1.326c-0.746,0.331-1.491,0.497-2.237,0.497
		C234.271,68.757,233.36,68.508,232.283,68.094z M247.941,48.459c-0.249-1.491-1.243-2.817-2.568-3.562l-1.326-0.746l-3.065,5.551
		l1.243,0.994c0.663,0.497,1.077,1.326,1.243,2.154l0,0c0.083,0.746-0.083,1.491-0.414,2.154l-2.817,5.054
		c-0.414,0.663-0.994,1.16-1.657,1.491c-0.746,0.331-1.657,0.414-2.485,0.083l-1.491-0.58l-3.065,5.551l1.326,0.746
		c1.326,0.746,2.982,0.828,4.391,0.249c0.58-0.249,1.16-0.663,1.657-1.16l0,0c4.225-4.474,7.291-9.942,8.782-15.989l0,0
		C247.858,49.785,247.858,49.039,247.941,48.459z"/>
	<path style="fill:#FFFFFF;" d="M293.341,102.972h9.362v9.279h-9.362V102.972z M302.04,103.635h-7.953v7.953h7.953V103.635z"/>
	<polygon style="fill:#FFFFFF;" points="297.898,110.346 301.377,106.866 300.88,106.369 297.898,109.352 291.27,102.641 
		290.773,103.138 	"/>
	<path style="fill:#FFFFFF;" d="M293.341,117.139h9.362v9.362h-9.362V117.139z M302.04,117.885h-7.953v7.87h7.953V117.885z"/>
	<polygon style="fill:#FFFFFF;" points="297.898,124.513 301.377,121.116 300.88,120.619 297.898,123.519 291.27,116.891 
		290.773,117.388 	"/>
	<path style="fill:#FFFFFF;" d="M293.341,131.306h9.362v9.362h-9.362V131.306z M302.04,132.052h-7.953v7.953h7.953V132.052z"/>
	<path style="fill:#FFFFFF;" d="M245.704,81.846c0-8.782,7.125-15.989,15.99-15.989c8.782,0,15.99,7.125,15.99,15.989
		c0,8.782-7.125,15.989-15.99,15.989C252.912,97.836,245.704,90.628,245.704,81.846z M246.367,81.846
		c0,8.45,6.876,15.327,15.327,15.327c8.45,0,15.327-6.876,15.327-15.327s-6.876-15.327-15.327-15.327
		C253.243,66.52,246.367,73.396,246.367,81.846z"/>
	<rect x="261.445" y="66.188" style="fill:#FFFFFF;" width="0.663" height="31.233"/>
	<rect x="246.036" y="81.432" style="fill:#FFFFFF;" width="31.316" height="0.663"/>
	<path style="fill:#FFFFFF;" d="M261.528,97.753c-5.965-3.148-9.693-9.279-9.693-15.989c0-6.793,3.728-12.924,9.693-15.989
		l0.166-0.083l0.166,0.083c5.965,3.148,9.693,9.279,9.693,15.989c0,6.793-3.728,12.924-9.693,15.989l-0.166,0.083L261.528,97.753z
		 M252.498,81.764c0,6.379,3.562,12.261,9.196,15.244c5.716-2.982,9.196-8.782,9.196-15.244c0-6.379-3.562-12.261-9.196-15.244
		C256.06,69.502,252.498,75.384,252.498,81.764z"/>
	<path style="fill:#FFFFFF;" d="M261.694,75.964c4.391,0,8.533-1.574,11.847-4.474l-0.497-0.497
		c-3.148,2.734-7.208,4.308-11.35,4.308c-4.225,0-8.202-1.491-11.35-4.308l-0.497,0.497C253.16,74.39,257.386,75.964,261.694,75.964
		z"/>
	<path style="fill:#FFFFFF;" d="M250.344,92.534c3.148-2.734,7.208-4.308,11.35-4.308c4.225,0,8.202,1.491,11.35,4.308l0.497-0.497
		c-3.314-2.9-7.456-4.474-11.847-4.474s-8.533,1.574-11.847,4.474L250.344,92.534z"/>
	<g>
		<rect x="222.093" y="35.949" style="fill:#FFFFFF;" width="0.663" height="3.48"/>
		<rect x="220.684" y="37.358" style="fill:#FFFFFF;" width="3.48" height="0.663"/>
	</g>
	<g>
		<rect x="303.946" y="68.342" style="fill:#FFFFFF;" width="0.663" height="3.48"/>
		<rect x="302.537" y="69.751" style="fill:#FFFFFF;" width="3.48" height="0.663"/>
	</g>
	<g>
		<rect x="91.277" y="142.905" style="fill:#FFFFFF;" width="0.663" height="3.48"/>
		<rect x="89.786" y="144.313" style="fill:#FFFFFF;" width="3.48" height="0.663"/>
	</g>
	<g>
		<g>
			<rect x="229.632" y="11.675" style="fill:#FFFFFF;" width="0.663" height="1.905"/>
			<rect x="229.632" y="16.977" style="fill:#FFFFFF;" width="0.663" height="1.905"/>
		</g>
		<g>
			
				<rect x="230.784" y="13.073" transform="matrix(-0.7071 0.7071 -0.7071 -0.7071 405.0767 -140.9801)" style="fill:#FFFFFF;" width="1.906" height="0.663"/>
			
				<rect x="227.048" y="16.798" transform="matrix(-0.7071 0.7071 -0.7071 -0.7071 401.3344 -131.9794)" style="fill:#FFFFFF;" width="1.906" height="0.663"/>
		</g>
		<g>
			<rect x="231.62" y="14.906" style="fill:#FFFFFF;" width="1.906" height="0.663"/>
			<rect x="226.318" y="14.906" style="fill:#FFFFFF;" width="1.906" height="0.663"/>
		</g>
		<g>
			
				<rect x="231.451" y="16.245" transform="matrix(-0.7071 0.7071 -0.7071 -0.7071 407.8376 -134.5372)" style="fill:#FFFFFF;" width="0.663" height="1.905"/>
			
				<rect x="227.622" y="12.428" transform="matrix(-0.7071 0.7071 -0.7071 -0.7071 398.6017 -138.3454)" style="fill:#FFFFFF;" width="0.663" height="1.905"/>
		</g>
	</g>
	<g>
		<g>
			<rect x="273.541" y="125.01" style="fill:#FFFFFF;" width="0.663" height="1.905"/>
			<rect x="273.541" y="130.312" style="fill:#FFFFFF;" width="0.663" height="1.905"/>
		</g>
		<g>
			
				<rect x="274.673" y="126.33" transform="matrix(-0.7071 0.7071 -0.7071 -0.7071 560.0868 21.3282)" style="fill:#FFFFFF;" width="1.906" height="0.663"/>
			
				<rect x="270.938" y="130.058" transform="matrix(-0.7071 0.7071 -0.7071 -0.7071 556.3459 30.3319)" style="fill:#FFFFFF;" width="1.906" height="0.663"/>
		</g>
		<g>
			<rect x="275.529" y="128.241" style="fill:#FFFFFF;" width="1.906" height="0.663"/>
			<rect x="270.227" y="128.241" style="fill:#FFFFFF;" width="1.906" height="0.663"/>
		</g>
		<g>
			
				<rect x="275.285" y="129.516" transform="matrix(-0.7071 0.7071 -0.7071 -0.7071 562.7623 27.8342)" style="fill:#FFFFFF;" width="0.663" height="1.905"/>
			
				<rect x="271.56" y="125.785" transform="matrix(-0.7071 0.7071 -0.7071 -0.7071 553.7651 24.0991)" style="fill:#FFFFFF;" width="0.663" height="1.905"/>
		</g>
	</g>
	<g>
		<g>
			<circle style="fill:#FFFFFF;" cx="132.452" cy="55.667" r="31.565"/>
			<g>
				<g>
					<g>
						<g>
							<g>
								<g>
									<g>
										<g>
											<g>
												<defs>
													<circle id="SVGID_1_" cx="132.452" cy="55.667" r="31.565"/>
												</defs>
												<clipPath id="SVGID_2_">
													<use xlink:href="#SVGID_1_"  style="overflow:visible;"/>
												</clipPath>
												<g style="clip-path:url(#SVGID_2_);">
													<g>
														<path style="fill:#571F0D;" d="M130.878,38.103c0,0,10.107-2.485,11.847,9.362c0,0-0.497,24.771-5.799,27.588
															l-4.142-6.296L130.878,38.103z"/>
														<polyline style="fill:#F8C0A2;" points="147.779,90.794 147.033,83.835 142.56,84.58 144.382,92.617 														
															"/>
														<path style="fill:#571F0D;" d="M132.204,79.113c0,0-9.859-10.439-10.273-22.203c0,0-0.166-17.398,9.279-18.723
															L132.204,79.113z"/>
														<polygon style="fill:#A95E55;" points="147.033,83.835 142.56,84.58 142.808,85.657 147.116,84.912 														"/>
														<polygon style="fill:#A95E55;" points="122.428,84.332 122.179,85.492 117.871,84.663 117.954,83.586 														
															"/>
														<path style="fill:#CE7C59;" d="M125.825,55.998c-1.988-0.083-3.645-1.243-3.645-2.734
															c0-1.491,1.574-2.734,3.645-2.734V55.998z"/>
														<path style="fill:#D38069;" d="M128.558,67.431L128.558,67.431c0,0,0.331,1.823,0.828,4.557h6.379
															c0.58-2.982,1.077-4.225,1.16-4.391l-4.391-2.651L128.558,67.431z"/>
														<path style="fill:#F8C0A2;" d="M131.541,69.999h2.403c1.16,0,2.071-0.911,2.071-2.071v-7.456
															c0-1.16-0.911-2.071-2.071-2.071h-2.403c-1.16,0-2.071,0.911-2.071,2.071v7.456
															C129.47,69.005,130.381,69.999,131.541,69.999z"/>
														<path style="fill:#CE7C59;" d="M136.098,63.951c0,0-3.397,1.243-6.628,0v-1.823h6.628V63.951z"/>
														<path style="fill:#A4594D;" d="M139.909,51.027c2.071,0.083,3.811,1.243,3.811,2.734s-1.657,2.734-3.811,2.734V51.027
															z"/>
														<path style="fill:#F8C0A2;" d="M125.245,57.489c-0.249-1.408-0.497-2.734-0.497-4.142
															c0-5.302-1.408-12.013,4.888-14.581c3.48-1.408,8.285-0.331,10.19,2.9c0.911,1.574,0.911,3.397,0.994,5.219
															c0.166,2.485,0.166,4.888,0,7.373c0,0.083,0,0.166,0,0.166c-0.083,2.485-1.574,5.302-3.48,6.876
															c-1.657,1.326-4.142,2.403-6.296,1.574c-1.16-0.414-2.32-1.16-3.231-1.905
															C126.653,60.058,125.493,58.898,125.245,57.489z"/>
														<line style="fill:none;" x1="139.743" y1="96.676" x2="125.41" y2="96.676"/>
														<path style="fill:#F8C0A2;" d="M136.098,66.023c0,0-0.249,0.994,1.243,1.823l-9.113-0.166c0,0,1.16-0.663,1.243-1.657
															H136.098L136.098,66.023z"/>
														<polygon style="fill:#F8C0A2;" points="137.257,67.845 139.577,69.254 139.66,72.982 137.175,78.615 129.387,79.113 
															125.576,75.384 126.404,68.839 128.227,67.68 														"/>
														<path style="fill:#F8C0A2;" d="M147.116,84.912l-0.083-1.077c0,0-0.166-10.687-3.48-12.179
															c0,0-2.568,4.474-1.574,11.516l0.663,1.491l0.249,1.077L147.116,84.912z"/>
														<path style="fill:#F8C0A2;" d="M117.871,84.663l0.083-1.077c0,0,0.497-10.024,4.474-12.344
															c0,0,2.154,6.462,0.828,11.847l-1.077,2.485L117.871,84.663z"/>
														<path style="fill:#AFA6BE;" d="M139.577,69.254c0,0-0.497,8.533-4.722,8.699h-3.977c0,0-4.474,0.166-4.474-9.113
															c0,0-1.905,0.663-3.977,2.403c0,0,1.988,6.793,0.828,11.847l2.237,13.67h14.333l2.237-13.587
															c0,0-0.994-5.882,1.574-11.516C143.554,71.573,142.394,70.165,139.577,69.254z"/>
														<path style="fill:#571F0D;" d="M130.298,43.323c0,0-1.905,4.142-5.634,7.291c0,0-1.077-5.551,1.243-8.699
															C125.825,41.914,128.724,40.589,130.298,43.323z"/>
														<path style="fill:#571F0D;" d="M130.298,43.323c1.243-0.331,2.403-0.663,3.728-0.746
															c1.326-0.083,2.568,0.166,3.645,0.828c1.243,0.828,1.988,2.32,2.403,3.728c1.326,4.308,0.994,9.113,0.083,13.504
															c-0.414,1.988-0.994,3.894-1.905,5.716c-0.414,0.911-0.994,1.823-1.574,2.651c-0.166,0.249-1.657,2.237-1.988,2.154
															c1.657,0.58,3.562,0.249,5.219-0.414c0.663-0.249,1.243-0.58,1.657-1.16c0.249-0.414,0.414-0.911,0.58-1.326
															c1.905-6.711,2.817-14.001,0.58-20.795c-0.828-2.485-2.32-4.971-4.722-5.799c-1.243-0.414-2.651-0.331-3.977,0
															S131.458,42.66,130.298,43.323z"/>
														<path style="fill:#571F0D;" d="M131.375,72.153c0,0,8.45,0.497,10.107-2.568l-0.58-16.652
															C140.903,52.933,138.831,70.745,131.375,72.153z"/>
														<path style="fill:#571F0D;" d="M130.298,43.323l3.645-1.243l6.959,1.905l-0.994-2.817l-1.988-1.74
															c0,0-2.403-1.574-5.716-1.408c0,0-4.805,0.083-6.628,3.977l2.403,1.574L130.298,43.323z"/>
														<path style="fill:#571F0D;" d="M136.76,38.6l7.208,19.8C143.968,58.401,146.205,42.328,136.76,38.6z"/>
														<path style="fill:#571F0D;" d="M138.831,44.234c0,0,3.231,7.539,1.16,14.25c0,0,2.651-5.219,2.485-5.468
															c-0.083-0.249-1.988-6.876-1.988-6.876L138.831,44.234z"/>
														<path style="fill:#571F0D;" d="M126.819,44.234l4.142-3.231l6.959,0.663l1.74,4.474
															c-3.48-5.468-8.865-1.574-8.865-1.574c-0.828,3.645-6.214,6.131-6.214,6.131L126.819,44.234z"/>
													</g>
													<line style="fill:none;" x1="123.588" y1="54.507" x2="125.907" y2="59.478"/>
													<path style="fill:#171717;" d="M129.221,63.289c0.166,0,0.331-0.083,0.497-0.166c0.58-0.331,0.746-1.077,0.414-1.657
														l-5.716-9.61c-0.331-0.58-1.077-0.746-1.657-0.414c-0.58,0.331-0.746,1.077-0.414,1.657l5.716,9.61
														C128.31,63.123,128.807,63.372,129.221,63.289z"/>
													<path style="fill:#F8C0A2;" d="M122.345,58.649l-4.888,23.529c-0.331,1.657,0.663,3.314,2.403,3.728
														c1.657,0.331,3.314-0.663,3.728-2.403c0-0.166,0.083-0.249,0.083-0.414v-0.414l2.568-23.694
														c0.083-1.077-0.663-1.988-1.74-2.071c-0.994-0.083-1.823,0.58-1.988,1.491L122.345,58.649z"/>
													<path style="fill:#F2B191;" d="M121.599,62.377l-1.491-2.32c-1.077-1.657-0.911-3.894,0.497-5.302l0,0
														c1.16-1.16,2.9-1.657,4.474-1.16l1.408,0.414l-0.58,6.876L121.599,62.377z"/>
												</g>
											</g>
										</g>
									</g>
								</g>
							</g>
						</g>
					</g>
				</g>
			</g>
			<path style="opacity:0.2;fill:#FFFFFF;enable-background:new    ;" d="M109.918,78.201c-5.965-6.048-9.279-14.001-9.279-22.534
				s3.231-16.569,9.279-22.534c6.048-5.965,14.001-9.279,22.534-9.279s16.487,3.231,22.534,9.279
				c5.965,6.048,9.279,14.001,9.279,22.534s-3.231,16.487-9.279,22.534c-6.048,5.965-14.001,9.279-22.534,9.279
				S115.966,84.166,109.918,78.201z M101.136,55.667c0,17.315,14.084,31.316,31.316,31.316c17.315,0,31.316-14.001,31.316-31.316
				s-14.084-31.316-31.316-31.316S101.136,38.352,101.136,55.667z"/>
			<path style="opacity:0.5;fill:#FFFFFF;enable-background:new    ;" d="M118.203,87.977l0.331-0.663
				c-5.137-2.32-9.859-5.468-13.835-9.527l-0.497,0.497C108.261,82.426,112.983,85.657,118.203,87.977z"/>
			<path style="opacity:0.5;fill:#FFFFFF;enable-background:new    ;" d="M107.184,77.373l0.414-0.331
				c-5.137-5.965-7.953-13.504-7.953-21.457c0-8.782,3.397-16.984,9.61-23.197s14.415-9.61,23.197-9.61
				c4.308,0,8.533,0.828,12.51,2.485l0.166-0.497c-3.977-1.657-8.285-2.485-12.676-2.485c-8.947,0-17.315,3.48-23.611,9.776
				c-6.296,6.296-9.776,14.664-9.776,23.611C99.065,63.62,101.965,71.325,107.184,77.373z"/>
		</g>
		<g>
			<g>
				<g>
					
						<linearGradient id="SVGID_3_" gradientUnits="userSpaceOnUse" x1="1514.1851" y1="2285.9478" x2="1643.2062" y2="2285.9478" gradientTransform="matrix(0.3929 0 0 0.3929 -408.7885 -708.6428)">
						<stop  offset="0" style="stop-color:#E89456"/>
						<stop  offset="0.2531" style="stop-color:#E29054"/>
						<stop  offset="0.5386" style="stop-color:#D58950"/>
						<stop  offset="0.8386" style="stop-color:#BE7D4C"/>
						<stop  offset="1" style="stop-color:#AF7447"/>
					</linearGradient>
					<path style="fill:url(#SVGID_3_);" d="M186.717,194.27c0,0-3.728-10.356,6.711-9.693s43.329,3.645,43.329,3.645v5.965
						L186.717,194.27z"/>
					<path style="fill:#E89456;" d="M236.84,188.305l17.149-71.331h-37.198c0,0-7.291,8.947-1.988,18.558
						c0,0-9.527,15.327-1.906,25.931c0,0-7.788,12.841-2.9,24.357L236.84,188.305z"/>
					<path style="fill:#AF7447;" d="M234.686,188.222c0,0-2.154-18.061,4.805-24.688c0,0-2.32-20.96,5.302-27.919
						c0,0-1.326-16.155,9.113-18.558l-17.149,71.331L234.686,188.222z"/>
					<path style="fill:#AF7447;" d="M215.796,135.614c0,0,14.167-1.574,28.334,0C244.13,135.614,223.667,137.271,215.796,135.614z"
						/>
					<path style="fill:#AF7447;" d="M213.477,161.462c0,0,15.99-0.911,25.351,1.823C238.828,163.285,221.43,163.202,213.477,161.462
						z"/>
					<path style="fill:#AF7447;" d="M222.01,135.697c0,0-1.74-5.137,0.828-10.024c0,0-1.408,7.622,0.331,10.024
						c0,0-2.568,5.219-2.32,9.03C220.85,144.727,219.442,141.413,222.01,135.697z"/>
					<path style="fill:#AF7447;" d="M233.111,135.697c0,0-1.326-5.302,1.657-9.859c0,0-2.071,7.456-0.497,9.942
						c0,0-2.982,4.971-3.065,8.782C231.206,144.562,230.046,141.165,233.111,135.697z"/>
					<path style="fill:#AF7447;" d="M220.353,161.711c0,0-2.485-5.137,0.083-10.024c0,0-0.663,7.622,1.077,10.024
						c0,0-2.568,5.219-2.32,9.03C219.193,170.741,217.785,167.51,220.353,161.711z"/>
					<path style="fill:#AF7447;" d="M229.798,161.794c0,0-1.823-5.302,1.16-9.859c0,0-1.574,7.456,0,9.942
						c0,0-2.982,4.971-3.065,8.782C227.892,170.658,226.732,167.262,229.798,161.794z"/>
					<polygon style="fill:#CAD8D7;" points="214.719,194.187 214.719,221.527 219.027,221.527 220.519,194.187 					"/>
					<polygon style="fill:#98A3A2;" points="196.079,221.444 235.183,219.29 235.183,223.101 196.079,223.101 					"/>
					<circle style="fill:#2A3937;" cx="199.476" cy="225.669" r="2.734"/>
					<circle style="fill:#2A3937;" cx="231.703" cy="225.669" r="2.734"/>
					<circle style="fill:#2A3937;" cx="220.519" cy="225.669" r="2.734"/>
					<polygon style="fill:#98A3A2;" points="214.719,194.187 214.719,200.235 220.022,204.626 220.519,194.187 					"/>
				</g>
				<g>
					<g>
						<path style="fill:#40342B;" d="M185.971,218.958c0,0,0.911,4.557,0.249,7.705h-21.209c0,0-0.828-4.639,8.45-4.639l5.965-3.977
							L185.971,218.958z"/>
						<path style="fill:#261E18;" d="M186.22,228.486h-7.042l-0.083-1.243c0,0-2.982,1.16-6.959,1.16
							c-1.988,0-7.125,0.083-7.125,0.083v-1.74h21.209V228.486L186.22,228.486z"/>
						<path style="fill:#5F5046;" d="M172.882,222.024c0,0-0.331,3.314-7.622,3.148
							C165.177,225.172,166.254,222.189,172.882,222.024z"/>
						<path style="fill:#352B25;" d="M179.344,226.663c0,0,0.166-5.385,6.959-5.385c0,0,0.331,3.645-0.166,5.385H179.344z"/>
					</g>
					<path style="fill:#363534;" d="M198.73,171.984c0,0-25.6,0.58-26.014,7.953c-0.414,7.291,3.562,39.518,3.562,39.518
						s4.391,2.32,10.522-0.414l-1.077-29.411c0,0,0.083-2.734,3.148-3.065c3.065-0.414,28.996,3.645,26.18-13.67L198.73,171.984z"/>
					<g>
						<path style="fill:#40342B;" d="M204.198,218.958c0,0,0.911,4.557,0.249,7.705h-21.209c0,0-0.746-4.639,8.533-4.639
							l5.965-3.977L204.198,218.958z"/>
						<path style="fill:#261E18;" d="M204.446,228.486h-7.042l-0.083-1.243c0,0-2.982,1.16-6.959,1.16
							c-1.988,0-7.125,0.083-7.125,0.083v-1.74h21.209V228.486L204.446,228.486z"/>
						<path style="fill:#5F5046;" d="M191.108,222.024c0,0-0.331,3.314-7.622,3.148
							C183.403,225.172,184.397,222.189,191.108,222.024z"/>
						<path style="fill:#352B25;" d="M197.57,226.663c0,0,0.166-5.385,6.959-5.385c0,0,0.331,3.645-0.166,5.385H197.57z"/>
					</g>
					<path style="fill:#4D4B49;" d="M227.726,172.813c0,0,1.906,13.918-2.9,14.581l-17.066,0.497l-2.485,33.47
						c0,0-3.894,2.154-11.267-1.408l0.58-34.547c0,0-0.58-10.687,17.564-11.35L227.726,172.813z"/>
					<path style="fill:#D5D6D5;" d="M222.176,120.205c-3.977-0.911-8.948-1.408-14.001-0.58c0,3.314,0.166,17.646,3.397,28.996
						C211.571,148.621,220.767,127.909,222.176,120.205z"/>
					<polygon style="fill:#CA4A49;" points="211.24,124.264 212.98,127.495 208.589,147.13 211.571,151.024 214.719,148.207 
						215.051,127.578 216.625,125.093 214.305,121.779 					"/>
					<g>
						<path style="fill:#F4AA84;" d="M211.406,118.133l-0.166,4.142l8.119,0.249l0.166-5.551
							C216.128,118.382,212.731,118.299,211.406,118.133z"/>
						<path style="fill:#D87C60;" d="M219.525,116.808l0.166-4.888l-8.119-0.249l-0.166,6.379
							C212.731,118.299,216.128,118.382,219.525,116.808z"/>
					</g>
					<g>
						<path style="fill:#363534;" d="M200.718,121.364c0,0,3.728,4.059,2.485,12.261s-7.622,17.564-9.196,18.061
							c-1.574,0.497-15.658,4.888-15.658,4.888s-6.711-1.657-3.397-7.705l15.161-6.131
							C190.114,142.739,195.416,126.087,200.718,121.364z"/>
						<path style="fill:#F1F3F2;" d="M176.113,149.367c0,0,1.988,0.746,2.32,2.817c0.249,1.491,0,3.065,0,3.065l-2.568,0.828
							c0,0-2.32-0.249-2.817-2.32c-0.497-2.071-0.497-3.48,0.58-3.894L176.113,149.367z"/>
						<path style="fill:#F4AA84;" d="M174.456,151.189c0,0,0.746,1.243,0.828,2.32c0,1.077-0.083,1.657-0.331,1.823
							c0,0-2.154,0.911-4.474,0.828c-2.32-0.083-2.32-0.249-3.065,0c-0.746,0.249-1.243,1.408-2.071,1.657
							c-1.574,0.497-3.48-1.077-3.48-1.077s1.823-2.237,4.225-3.645C168.574,151.687,174.456,151.189,174.456,151.189z"/>
					</g>
					<path style="fill:#4D4B49;" d="M231.62,123.436c0,0-4.639-2.485-10.273-3.728c-1.491,7.622-9.859,28.996-9.859,28.996
						c-3.231-11.35-2.568-26.014-2.651-29.328c-2.568,0.414-5.716,0.828-8.285,2.071c0,0-3.48,15.41-1.905,50.62
						c0,0,11.433,4.142,29.742,0.58c0,0-1.74-24.606,0.663-34.299C229.218,138.348,230.875,129.484,231.62,123.436z"/>
					<path style="fill:#F1F3F2;" d="M211.406,117.802c0,0,0.414,2.817,2.983,3.977c0,0,4.805-0.828,5.136-3.977l2.403,2.403
						c0,0-1.491,4.557-5.219,5.882l-2.32-3.562l-3.148,2.982c0,0-2.982-3.562-2.651-5.799L211.406,117.802z"/>
					<path style="fill:#403F3E;" d="M206.435,130.146l-1.408,1.326c0,0,3.811,14.912,6.545,20.298c0,0,7.87-13.173,10.356-18.889
						l-1.16-1.905l2.568-0.828c0,0,1.077-5.468,0.746-9.859c-0.828-0.249-1.74-0.497-2.651-0.663
						c-1.491,7.622-9.859,28.996-9.859,28.996c-3.231-11.35-2.568-26.014-2.651-29.328c-0.746,0.083-1.574,0.331-2.403,0.497
						l-1.823,8.616L206.435,130.146z"/>
					<g>
						<path style="fill:#575554;" d="M231.869,123.436c0,0,5.634,4.557,3.645,12.593c-1.988,8.036-4.888,22.452-6.545,22.783
							c-1.574,0.331-25.683-0.911-25.683-0.911s-2.734-4.888,0.166-7.456l19.386,0.331
							C222.838,150.775,226.898,122.69,231.869,123.436z"/>
						<path style="fill:#F1F3F2;" d="M204.115,150.941c0,0,2.071,1.491,1.574,3.48c-0.497,1.988-1.74,2.9-1.74,2.9l-2.651-0.166
							c0,0-1.823-1.16-1.657-3.314c0.166-2.071,0.663-2.982,1.823-2.982L204.115,150.941z"/>
						<path style="fill:#F4AA84;" d="M202.458,151.852c0,0,0.414,0.58,0.331,1.657c-0.083,1.16-0.663,2.071-0.911,2.071
							c0,0-1.491,1.077-3.894,0.746c-2.403-0.331-2.237-0.663-3.065-0.497c-0.746,0.166-1.74,0.911-2.651,1.16
							c-1.657,0.414-3.48-1.408-3.48-1.408s2.071-2.154,4.722-3.397C196.245,151.107,202.458,151.852,202.458,151.852z"/>
					</g>
					<g>
						<g>
							<path style="fill:#562A15;" d="M219.939,93.776c0,0,7.373,0.58,6.545,8.947c0.331-0.331,0.58-0.663,0.746-1.077
								c0.414-0.994,1.077-3.065,0.58-5.716C225.489,93.694,219.939,93.776,219.939,93.776z"/>
							<path style="fill:#6B391B;" d="M227.726,95.93c-0.331-1.823-1.16-3.977-2.982-6.296c-4.308-5.551-15.244-4.06-18.475-1.408
								c-3.314,2.734-0.994,5.054-0.994,5.054s0.663,0.083,1.326,0.497l4.888,3.645l8.368-3.728
								C219.939,93.776,225.489,93.694,227.726,95.93z"/>
						</g>
						<path style="fill:#A5846C;" d="M219.939,93.776l-8.368,3.728l-4.888-3.645c-0.746-0.414-1.326-0.497-1.326-0.497
							c-0.414,1.574-0.331,5.716-0.331,5.716l18.475,5.965c0,0,1.823-0.994,2.982-2.237
							C227.312,94.356,219.939,93.776,219.939,93.776z"/>
						<g>
							<path style="fill:#A5846C;" d="M222.838,107.529c-0.083-0.994-0.166-1.988,0.166-4.391l0,0
								c-0.249-0.663-0.497-1.243-0.746-1.988c-0.083-0.331-0.166-0.746-0.331-1.077c0.663,7.622-4.474,8.782-4.474,8.782
								c-5.799,1.657-10.522,0.414-12.013-0.083c0.331,1.988,0.994,3.811,1.988,5.219c0.331,0.497,0.746,0.911,1.243,1.326
								C211.903,116.228,219.442,116.559,222.838,107.529z"/>
							<path style="fill:#91715B;" d="M222.838,107.529c-3.397,9.03-10.936,8.699-14.167,7.788c0.911,0.746,2.071,1.326,3.48,1.408
								c9.279,0.828,11.019-5.054,11.184-7.705C223.17,108.855,222.921,108.44,222.838,107.529z"/>
							<path style="fill:#F4AA84;" d="M217.536,108.855c0,0,5.136-1.16,4.474-8.782c-1.906-2.734-2.071-6.296-2.071-6.296
								c-8.202,1.905-13.256,0.083-13.256,0.083c-0.166,2.485-1.657,5.137-1.657,5.137c0,3.231-0.166,6.131,0.497,9.776
								C207.015,109.269,211.654,110.429,217.536,108.855z"/>
							<path style="fill:#F4AA84;" d="M223.998,100.818l-0.911,2.237c-0.746,4.971-0.166,5.716,0.331,5.882
								c0.414-0.994,0.414-1.077,0.414-1.077s3.148,0.497,3.562-4.639C227.644,99.659,223.998,100.818,223.998,100.818z"/>
						</g>
						<path style="fill:#935D42;" d="M208.92,86.9c0,0,3.48,2.651,10.273,2.485c0,0-6.462,3.148-14.415,0.58
							C204.861,89.965,205.689,87.977,208.92,86.9z"/>
					</g>
				</g>
				<g>
					<polygon style="fill:#E2DCDC;" points="129.304,157.237 125.079,127.578 166.751,127.578 168.822,157.237 					"/>
					<polygon style="fill:#C9C1C1;" points="166.751,127.578 168.905,127.578 170.231,155.332 187.711,154.338 187.711,157.154 
						168.822,157.237 					"/>
					
						<ellipse transform="matrix(-0.1255 -0.9921 0.9921 -0.1255 28.5304 297.8701)" style="fill:#FFFFFF;" cx="145.547" cy="136.361" rx="3.645" ry="2.651"/>
				</g>
				<g>
					<rect x="104.036" y="157.154" style="fill:#C49061;" width="169.257" height="5.385"/>
					<polygon style="fill:#9D8A79;" points="260.12,162.457 269.978,227.989 264.676,227.989 250.095,162.457 					"/>
					<polygon style="fill:#9D8A79;" points="115.469,162.457 105.61,227.989 110.912,227.989 125.493,162.457 					"/>
					<rect x="111.575" y="162.457" style="fill:#61554C;" width="154.178" height="3.728"/>
				</g>
			</g>
			<path style="fill:#191A33;" d="M211.406,113.163h1.408c2.237,0.083,4.391-0.828,5.882-2.485l6.214-6.628
				c0.166-0.249,0.166-0.58,0-0.746c-0.249-0.166-0.58-0.166-0.746,0l-6.214,6.628c-1.326,1.408-3.148,2.154-5.054,2.154h-1.408
				c-0.331,0-0.497,0.249-0.497,0.497C210.908,112.914,211.074,113.163,211.406,113.163z"/>
			<path style="fill:#191A33;" d="M215.631,86.734c4.805,0.083,8.616,4.142,8.533,8.865l-0.166,7.042
				c0,0.331,0.249,0.497,0.497,0.497c0.331,0,0.497-0.249,0.497-0.497l0.166-7.042c0.083-5.385-4.142-10.273-9.527-9.942
				c-1.326,0.083-5.137,0.746-5.137,0.746"/>
			<circle style="fill:#191A33;" cx="224.495" cy="103.718" r="2.9"/>
			<circle style="fill:#C9B4A7;" cx="224.495" cy="103.718" r="1.823"/>
		</g>
	</g>
</g>
</svg>
