<?xml version="1.0" encoding="iso-8859-1"?>
<!-- Generator: Adobe Illustrator 17.0.0, SVG Export Plug-In . SVG Version: 6.00 Build 0)  -->
<!DOCTYPE svg PUBLIC "-//W3C//DTD SVG 1.1//EN" "http://www.w3.org/Graphics/SVG/1.1/DTD/svg11.dtd">
<svg version="1.1" id="Layer_1" xmlns="http://www.w3.org/2000/svg" xmlns:xlink="http://www.w3.org/1999/xlink" x="0px" y="0px"
	 width="400px" height="239.25px" viewBox="0 0 400 239.25" style="enable-background:new 0 0 400 239.25;" xml:space="preserve">
<g id="People_1_">
	<g>
		<g id="gear-5-icon_2_">
			<path style="fill:#DADCE1;" d="M343.023,105.441l-5.765-0.412l-1.318-4.694c-0.988-0.329-1.73-0.741-2.553-1.235l-4.612,1.73
				l-3.788-4.365l2.388-4.2c-0.412-0.988-0.659-1.73-0.988-2.8l-4.447-1.977l0.412-5.765l4.694-1.318
				c0.329-0.988,0.741-1.73,1.235-2.553l-1.73-4.612l4.365-3.789l4.2,2.388c0.988-0.412,1.812-0.659,2.8-0.988l1.977-4.447
				l5.765,0.412l1.318,4.694c0.988,0.329,1.73,0.741,2.553,1.235l4.612-1.73l3.789,4.365l-2.388,4.2
				c0.412,0.988,0.659,1.73,0.988,2.8l4.447,1.977l-0.412,5.765l-4.694,1.318c-0.329,0.988-0.741,1.73-1.235,2.553l1.73,4.612
				L352,102.394l-4.2-2.388c-0.988,0.412-1.73,0.659-2.8,0.988L343.023,105.441z M338.164,103.959l4.2,0.329l1.812-4.2l0.247-0.082
				c1.153-0.247,2.059-0.577,3.047-1.071l0.247-0.082l4.036,2.306l3.294-2.883l-1.647-4.283l0.165-0.247
				c0.576-0.988,1.153-1.812,1.4-2.883l0.082-0.247l4.447-1.235l0.329-4.2l-4.2-1.812l-0.082-0.247
				c-0.247-1.153-0.576-2.059-1.071-3.047l-0.082-0.247l2.306-4.036l-2.883-3.294l-4.283,1.647l-0.247-0.165
				c-0.988-0.577-1.812-1.153-2.883-1.4l-0.247-0.082l-1.235-4.447l-4.283-0.247l-1.894,4.2l-0.247,0.082
				c-1.071,0.247-2.059,0.577-3.047,1.071l-0.247,0.082l-4.036-2.306l-3.294,2.883l1.647,4.283l-0.165,0.247
				c-0.576,0.988-1.153,1.812-1.4,2.883l-0.082,0.247l-4.447,1.235l-0.329,4.2l4.2,1.894l0.082,0.247
				c0.247,1.071,0.576,2.059,1.071,3.047l0.082,0.247l-2.306,4.036l2.883,3.294l4.283-1.647l0.247,0.165
				c0.988,0.577,1.812,1.153,2.883,1.4l0.247,0.082L338.164,103.959z M341.541,94.323c-0.165,0-0.412,0-0.576,0
				c-2.224-0.165-4.2-1.153-5.6-2.883c-1.4-1.73-2.141-3.789-1.977-6.012c0.165-2.224,1.153-4.2,2.883-5.6
				c1.647-1.4,3.788-2.141,6.012-1.977c4.612,0.329,7.989,4.283,7.659,8.895c-0.165,2.224-1.153,4.2-2.883,5.6
				C345.412,93.581,343.517,94.323,341.541,94.323z M341.458,78.757c-1.729,0-3.377,0.577-4.777,1.73
				c-1.482,1.235-2.306,3.047-2.471,4.942l0,0c-0.165,1.894,0.494,3.789,1.73,5.271c1.235,1.482,3.047,2.306,4.942,2.471
				c1.894,0.165,3.789-0.494,5.271-1.73c1.483-1.235,2.306-3.047,2.471-4.942c0.247-3.953-2.8-7.412-6.671-7.659
				C341.953,78.757,341.623,78.757,341.458,78.757z"/>
		</g>
		<g id="gear-5-icon_1_">
			<path style="fill:#DADCE1;" d="M313.127,85.51l-3.212-2.224l1.318-3.294c-0.329-0.577-0.576-1.153-0.824-1.73l-3.377-0.988
				l-0.329-4.365l3.294-1.4c0.165-0.577,0.329-1.235,0.576-1.812l-1.73-3.13l2.965-3.294l3.294,1.235
				c0.576-0.329,1.153-0.577,1.73-0.824l0.988-3.377l4.365-0.329l1.4,3.294c0.576,0.165,1.235,0.329,1.812,0.577l3.13-1.73
				l3.294,2.965l-1.4,3.459l-1.071-0.412l1.153-2.883l-2.141-1.812l-2.965,1.565l-0.247-0.082c-0.659-0.329-1.4-0.577-2.141-0.741
				l-0.247-0.082l-1.318-3.047l-2.883,0.165l-0.988,3.212l-0.247,0.082c-0.659,0.247-1.4,0.577-1.977,1.071l-0.247,0.165
				l-3.13-1.235l-1.812,2.141l1.565,2.965l-0.082,0.247c-0.329,0.659-0.576,1.4-0.741,2.141l-0.082,0.247l-3.047,1.318l0.165,2.883
				l3.212,0.988l0.082,0.247c0.247,0.659,0.576,1.4,1.071,1.977l0.165,0.247l-1.153,3.047l1.812,1.318l3.294-1.894l0.576,0.988
				L313.127,85.51z M320.127,79.827c-1.318,0-2.471-0.494-3.459-1.318c-1.153-0.988-1.73-2.224-1.812-3.624s0.329-2.883,1.318-3.871
				c0.988-1.153,2.224-1.73,3.624-1.812c2.965-0.165,5.436,1.977,5.683,5.024c0.082,1.4-0.329,2.883-1.318,3.871
				c-0.988,1.153-2.224,1.73-3.624,1.812C320.374,79.827,320.21,79.827,320.127,79.827z M320.127,70.191c-0.082,0-0.165,0-0.329,0
				c-1.153,0.082-2.141,0.577-2.965,1.4c-0.741,0.824-1.153,1.977-1.071,3.13l0,0c0.082,1.153,0.576,2.141,1.4,2.965
				c0.824,0.741,1.977,1.153,3.13,1.153c1.153-0.082,2.141-0.577,2.965-1.4c0.741-0.824,1.153-1.977,1.071-3.13
				C324.163,71.921,322.351,70.191,320.127,70.191z"/>
		</g>
	</g>
	<g>
		<g>
			
				<rect x="182.253" y="46.667" transform="matrix(-0.1417 0.9899 -0.9899 -0.1417 256.7668 -125.5895)" style="fill:#DADCE1;" width="1.153" height="3.706"/>
		</g>
		<g>
			
				<rect x="185.119" y="44.659" transform="matrix(-0.1416 0.9899 -0.9899 -0.1416 258.1804 -133.4067)" style="fill:#DADCE1;" width="3.624" height="1.153"/>
		</g>
		<g>
			
				<rect x="189.764" y="47.896" transform="matrix(-0.1417 0.9899 -0.9899 -0.1417 266.4373 -131.7619)" style="fill:#DADCE1;" width="1.153" height="3.459"/>
		</g>
		<g>
			
				<rect x="183.838" y="52.417" transform="matrix(-0.1417 0.9899 -0.9899 -0.1417 264.51 -123.3551)" style="fill:#DADCE1;" width="3.788" height="1.153"/>
		</g>
	</g>
	<g>
		<path style="fill:#DADCE1;" d="M202.272,31.4l-7.083-1.071l1.071-6.836l7.083,1.071L202.272,31.4z M196.589,29.341L201.283,30
			l0.659-4.447l-4.694-0.659L196.589,29.341z"/>
	</g>
	<g>
		<g>
			
				<rect x="128.811" y="41.401" transform="matrix(-0.1417 0.9899 -0.9899 -0.1417 189.6433 -79.7326)" style="fill:#DADCE1;" width="1.153" height="1.894"/>
		</g>
		<g>
			
				<rect x="130.496" y="40.072" transform="matrix(-0.1416 0.9899 -0.9899 -0.1416 190.2956 -83.714)" style="fill:#DADCE1;" width="1.894" height="1.153"/>
		</g>
		<g>
			
				<rect x="132.727" y="42.05" transform="matrix(-0.1417 0.9899 -0.9899 -0.1417 194.7161 -82.9157)" style="fill:#DADCE1;" width="1.153" height="1.812"/>
		</g>
		<g>
			
				<rect x="129.973" y="44.11" transform="matrix(-0.1416 0.9899 -0.9899 -0.1416 193.7415 -78.6271)" style="fill:#DADCE1;" width="1.977" height="1.153"/>
		</g>
	</g>
	<g>
		<polygon style="fill:#DADCE1;" points="145.691,23.082 142.232,19.541 138.691,23.082 137.785,22.258 142.232,17.893 
			146.515,22.258 		"/>
	</g>
	<g>
		<path style="fill:#DADCE1;" d="M55.837,75.545c-1.071,0-1.482-0.329-1.894-0.659c-0.412-0.247-0.741-0.494-1.482-0.494
			s-1.153,0.247-1.482,0.494c-0.412,0.329-1.071,0.659-1.894,0.659c-1.071,0-1.482-0.329-1.894-0.659
			c-0.412-0.247-0.741-0.494-1.482-0.494c-0.659,0-1.153,0.247-1.482,0.494c-0.412,0.329-1.071,0.659-1.894,0.659h-0.329V31.071
			h0.741v43.733c0.494-0.082,0.824-0.247,1.153-0.494c0.412-0.329,1.071-0.659,1.894-0.659c1.071,0,1.482,0.329,1.894,0.659
			c0.412,0.247,0.741,0.494,1.482,0.494c0.741,0,1.153-0.247,1.482-0.494c0.412-0.329,1.071-0.659,1.894-0.659
			c1.071,0,1.482,0.329,1.894,0.659c0.412,0.247,0.741,0.494,1.482,0.494c0.741,0,1.153-0.247,1.482-0.494
			c0.412-0.329,1.071-0.659,1.894-0.659v0.741c-0.741,0-1.153,0.247-1.482,0.494C57.402,75.133,56.908,75.545,55.837,75.545z"/>
	</g>
	<g>
		<rect x="75.851" y="30.988" style="fill:#DADCE1;" width="0.741" height="30.143"/>
	</g>
	<g>
		<polygon style="fill:#DADCE1;" points="69.921,80.486 38.295,80.486 38.295,30.577 48.837,30.577 48.837,31.318 39.036,31.318 
			39.036,79.91 69.921,79.91 		"/>
	</g>
	<g>
		<polygon style="fill:#DADCE1;" points="80.051,78.427 79.31,78.427 79.31,31.318 69.18,31.318 69.18,30.577 80.051,30.577 		"/>
	</g>
	<g>
		<path style="fill:#DADCE1;" d="M66.626,33.789H51.72v-3.871c0-2.141,1.73-3.871,3.871-3.871h7.248c2.141,0,3.871,1.73,3.871,3.871
			L66.626,33.789L66.626,33.789z M52.378,32.965h13.424v-3.212c0-1.73-1.4-3.212-3.212-3.212h-7.248c-1.73,0-3.212,1.4-3.212,3.212
			L52.378,32.965L52.378,32.965z"/>
	</g>
	<g>
		<polygon style="fill:#DADCE1;" points="48.672,45.731 46.201,43.26 46.613,42.766 48.672,44.825 52.955,40.46 53.367,41.036 		"/>
	</g>
	<g>
		<polygon style="fill:#DADCE1;" points="48.672,56.602 46.201,54.131 46.613,53.72 48.672,55.696 52.955,51.413 53.367,51.908 		
			"/>
	</g>
	<g>
		<rect x="56.661" y="42.931" style="fill:#DADCE1;" width="14.413" height="0.741"/>
	</g>
	<g>
		<rect x="56.661" y="53.967" style="fill:#DADCE1;" width="6.836" height="0.741"/>
	</g>
	<g>
		<path style="fill:#DADCE1;" d="M49.825,67.391c-1.482,0-2.635-1.153-2.635-2.635c0-1.482,1.153-2.635,2.635-2.635
			s2.635,1.153,2.635,2.635C52.461,66.156,51.225,67.391,49.825,67.391z M49.825,62.861c-1.153,0-1.894,0.824-1.894,1.894
			c0,1.071,0.824,1.894,1.894,1.894s1.894-0.824,1.894-1.894C51.719,63.685,50.814,62.861,49.825,62.861z"/>
	</g>
	<g>
		<g>
			<rect x="331.575" y="11.964" style="fill:#DADCE1;" width="1.153" height="33.85"/>
		</g>
		<g>
			<g>
				<polygon style="fill:#DADCE1;" points="329.104,16.74 328.199,16.164 332.069,10.893 335.776,16.164 334.87,16.74 
					331.987,12.787 				"/>
			</g>
		</g>
	</g>
	<g>
		<g>
			<path style="fill:#DADCE1;" d="M55.261,126.031c-1.482,0-3.047-0.165-4.447-0.494c-5.271-1.153-9.636-4.283-12.436-8.895
				c-5.765-9.307-3.047-21.66,6.259-27.508c9.307-5.765,21.66-3.047,27.508,6.259c2.883,4.447,3.706,9.801,2.553,15.072
				c-1.153,5.271-4.283,9.636-8.895,12.436C62.591,125.042,58.967,126.031,55.261,126.031z M55.179,87.075
				c-3.459,0-7.001,1.071-10.048,2.965c-8.895,5.518-11.53,17.213-5.93,26.108c2.635,4.283,6.918,7.33,11.777,8.401
				c4.942,1.153,10.048,0.247,14.33-2.388c8.895-5.518,11.53-17.213,5.93-26.108c-2.635-4.283-6.918-7.33-11.777-8.401
				C57.979,87.24,56.579,87.075,55.179,87.075z"/>
		</g>
		<g>
			<path style="fill:#DADCE1;" d="M53.12,116.724c-2.965-0.659-5.436-2.388-7.001-4.942c-1.647-2.471-2.141-5.436-1.565-8.236
				l1.071,0.247c-0.577,2.471-0.082,5.189,1.4,7.412c1.482,2.224,3.706,3.789,6.424,4.447L53.12,116.724z"/>
		</g>
		<g>
			<path style="fill:#DADCE1;" d="M52.131,121.254c-4.036-0.988-7.577-3.377-9.801-6.918c-2.306-3.541-3.13-7.659-2.141-11.777
				l1.071,0.247c-0.824,3.706-0.165,7.659,2.059,10.954c2.141,3.294,5.518,5.6,9.224,6.506L52.131,121.254z"/>
		</g>
		<g>
			<path style="fill:#DADCE1;" d="M56.002,121.748c-0.741,0-1.4-0.082-2.141-0.165l0.165-1.071c0.741,0.082,1.482,0.165,2.224,0.165
				v1.071C56.167,121.748,56.085,121.748,56.002,121.748z M58.72,121.583l-0.165-1.071c0.741-0.165,1.4-0.329,2.141-0.577
				l0.329,1.071C60.202,121.254,59.461,121.419,58.72,121.583z M63.085,119.936l-0.494-0.988c0.659-0.329,1.235-0.741,1.812-1.235
				l0.659,0.824C64.485,119.195,63.909,119.524,63.085,119.936z M66.791,116.971l-0.741-0.659c0.494-0.577,0.988-1.153,1.318-1.73
				l0.988,0.577C67.862,115.736,67.368,116.395,66.791,116.971z M69.427,112.936l-0.988-0.412c0.247-0.659,0.494-1.4,0.659-2.059
				l1.071,0.247C70.003,111.453,69.756,112.277,69.427,112.936z"/>
		</g>
		<g>
			<path style="fill:#DADCE1;" d="M70.333,109.477l-1.071-0.247c0.824-3.706,0.082-7.659-2.059-10.954
				c-2.141-3.294-5.518-5.6-9.307-6.506l0.247-1.071c3.953,0.988,7.659,3.459,9.883,7.001
				C70.497,101.323,71.239,105.523,70.333,109.477z"/>
		</g>
		<g>
			<path style="fill:#DADCE1;" d="M41.425,101.405l-1.071-0.247c0.165-0.741,0.412-1.482,0.741-2.224l1.071,0.412
				C41.919,99.923,41.589,100.582,41.425,101.405z M43.072,97.37l-0.988-0.577c0.412-0.659,0.988-1.318,1.4-1.894l0.741,0.659
				C43.978,96.052,43.484,96.711,43.072,97.37z M46.037,94.075l-0.659-0.824c0.577-0.494,1.318-0.988,1.977-1.318l0.494,0.988
				C47.19,93.17,46.531,93.499,46.037,94.075z M49.908,91.934l-0.329-1.071c0.741-0.247,1.482-0.412,2.306-0.577l0.165,1.071
				C51.308,91.44,50.566,91.605,49.908,91.934z M56.414,91.44c-0.741-0.165-1.482-0.165-2.224-0.165v-1.071
				c0.741,0,1.565,0.082,2.306,0.247L56.414,91.44z"/>
		</g>
		<g>
			
				<rect x="62.294" y="124.016" transform="matrix(-0.8475 0.5309 -0.5309 -0.8475 182.9174 199.2598)" style="fill:#DADCE1;" width="1.071" height="3.789"/>
		</g>
		<g>
			
				<rect x="69.637" y="119.261" transform="matrix(-0.8317 0.5552 -0.5552 -0.8317 195.8245 183.0358)" style="fill:#DADCE1;" width="1.071" height="3.871"/>
		</g>
		<g>
			<path style="fill:#DADCE1;" d="M64.485,134.596l-3.212-5.106l12.436-7.742l3.212,5.106L64.485,134.596z M62.756,129.819
				l2.059,3.294l10.707-6.753l-2.059-3.294L62.756,129.819z"/>
		</g>
		<g>
			
				<rect x="69.839" y="130.985" transform="matrix(-0.8539 0.5204 -0.5204 -0.8539 202.3622 219.4955)" style="fill:#DADCE1;" width="1.071" height="14.33"/>
		</g>
		<g>
			
				<rect x="81.851" y="125.132" transform="matrix(-0.8596 0.5109 -0.5109 -0.8596 225.3239 220.3946)" style="fill:#DADCE1;" width="1.071" height="32.037"/>
		</g>
	</g>
	<g>
		<g>
			<g style="opacity:0.1;">
				<path style="fill:#101011;" d="M299.867,159.798l-55.098,32.285c1.4-2.635,0.659-5.518-2.553-7.33
					c-5.024-2.883-13.836-2.471-19.519,0.988l-14.907,8.565c-5.765,3.294-6.506,8.483-1.565,11.283
					c3.377,1.977,8.565,2.306,13.342,1.318l-6.589,3.789l30.555,17.46l87.795-49.58L299.867,159.798z"/>
				<path style="fill:#101011;" d="M229.697,181.788l33.438-19.272c13.013-7.577,14.578-18.86,3.459-25.367
					c-11.118-6.424-30.885-5.518-43.897,1.977l-22.402,12.93c-0.247-0.082-0.494-0.165-0.741-0.165l44.309-25.119l-31.461-18.695
					l-86.889,50.898l30.555,17.46l9.059-5.189c0.494,1.153,1.4,2.059,2.883,2.965c2.883,1.647,6.918,2.141,10.871,1.73
					c0.988,3.047,3.212,5.6,6.918,7.742C196.836,190.271,216.684,189.365,229.697,181.788z"/>
			</g>
			<g>
				<polygon style="fill:#3A3938;" points="132.431,136.49 124.607,159.221 125.595,159.798 136.879,140.361 				"/>
				<polygon style="fill:#3A3938;" points="238.674,106.841 244.028,126.443 242.875,127.101 234.145,110.135 				"/>
				<polygon style="fill:#3A3938;" points="153.845,153.621 155.08,176.682 156.645,176.682 159.445,153.621 				"/>
				<polygon style="fill:#DB6930;" points="125.595,129.902 155.986,147.444 244.028,96.381 212.896,78.345 				"/>
				<polygon style="fill:#C1522B;" points="125.595,129.902 121.148,97.37 125.595,99.758 129.878,132.455 				"/>
				<polygon style="fill:#DB6930;" points="121.148,97.37 209.19,46.143 213.555,48.696 125.595,99.758 				"/>
				<polygon style="fill:#F27E55;" points="213.555,48.696 217.838,81.31 129.878,132.455 125.595,99.758 				"/>
				<polygon style="fill:#C1522B;" points="125.595,129.902 125.595,139.949 155.986,157.492 155.986,147.444 				"/>
				<polygon style="fill:#B33927;" points="155.986,157.492 244.028,106.429 244.028,96.381 155.986,147.444 				"/>
			</g>
			<g>
				<g>
					<path style="fill:#E9DAD8;" d="M186.047,106.265c-0.165,1.894-1.812,3.377-3.706,3.294l0,0
						c-1.894-0.165-3.377-1.812-3.294-3.706l-0.659-16.389c0.165-2.388-1.071-5.436,5.6-4.942l0,0
						c1.894,0.165,3.377,1.812,3.294,3.706L186.047,106.265z"/>
					<g>
						<path style="fill:#F2B37D;" d="M190.412,117.548l1.153,1.153c0,0,0.988,2.635,2.059,3.871c0,0,1.4,3.13,1.482,0.494
							c0,0,0-0.329-0.412-1.482c0,0,2.306,1.482,2.388,3.377c0.082,1.894,1.153,1.73,1.647,0.165
							c0.577-1.565,1.153-3.13-1.153-5.765c-2.388-2.8-2.471-2.635-3.541-3.13l-1.071-1.071L190.412,117.548z"/>
						<path style="fill:#D54A29;" d="M191.73,113.018l2.553,2.965c0,0-0.988,2.883-3.13,2.8l-2.553-2.8
							C188.682,115.901,191.318,114.912,191.73,113.018z"/>
						<path style="fill:#E9DAD8;" d="M188.435,116.312l-8.648-7.989c-1.235-1.482,4.036-5.847,5.271-4.365l7.083,9.142
							C193.459,114.418,189.671,117.712,188.435,116.312z"/>
					</g>
				</g>
				<path style="fill:#181314;" d="M196.918,151.068c0,0,3.212,4.694,5.765,5.683c2.8,1.071,3.294,3.953-1.071,3.624
					c-4.2-0.412-6.012-0.577-8.648-3.294v0.824l-3.624-1.73l0.247-5.271l3.953-2.8L196.918,151.068z"/>
				<g>
					<path style="fill:#191818;" d="M195.848,127.184c-1.153,1.812-2.553,1.153-6.095,2.8c-3.541,1.482-31.626-3.459-31.626-3.459
						c-1.812-1.153,0.412-7.083,1.482-8.895l1.071-1.73c1.153-1.812,3.953-3.789,5.765-2.8l29.155,7.165
						c1.812,1.153,2.388,3.377,1.318,5.271L195.848,127.184z"/>
					<path style="fill:#191818;" d="M197.495,150.327c0,2.141-7.989,2.059-7.989,0c0,0-3.624-21.166-1.73-22.649
						c2.224-1.73,2.553-7.495,4.694-7.495h1.235c2.141,0,4.036,2.388,3.788,3.789C196.095,131.302,197.495,150.327,197.495,150.327z
						"/>
				</g>
				<g>
					<path style="fill:#181314;" d="M178.141,164.904c0,0,2.306,4.036,5.106,5.106c2.8,1.071,3.294,3.953-1.071,3.624
						c-4.2-0.412-5.765-1.071-8.401-3.541v0.824l-3.624-1.73l0.247-5.271l4.612-1.977L178.141,164.904z"/>
					<g>
						<path style="fill:#2D2E2D;" d="M171.305,141.185c-8.812-0.577-22.319-12.93-22.319-12.93
							c-3.624-2.388-3.459-8.236-2.388-10.048l5.189,0.988c1.153-1.812,7.495-1.565,9.307-0.494l17.872,15.978
							C182.588,142.091,174.105,141.35,171.305,141.185z"/>
						<path style="fill:#2D2E2D;" d="M178.141,164.739c-0.165,2.059-8.071,1.565-7.906-0.494c0,0-4.036-21.331,0-25.614
							c1.482-1.565,10.048-3.706,9.389-0.247C177.811,147.279,178.141,164.739,178.141,164.739z"/>
					</g>
				</g>
				<path style="fill:#C03B28;" d="M145.856,118.371c0,0,13.013-29.237,19.519-34.344c1.318-0.494,7.824-3.459,16.06-2.635
					c4.118,0.412,6.095,8.483,3.047,14.907c-3.13,6.506-11.366,15.978-14.413,23.555
					C169.905,119.854,162.081,126.69,145.856,118.371z"/>
				<path style="fill:#E3A174;" d="M178.305,81.639l3.294-6.095l4.2-0.659l1.894,5.847l-3.871,7.906l-3.706,2.553
					C180.117,91.275,176.164,86.581,178.305,81.639z"/>
				<g>
					<path style="fill:#E9DAD8;" d="M178.552,81.063c0,0-1.153,6.836,1.647,9.718c0,0,3.706-2.635,4.694-6.506l0.329,0.824
						c0,0-0.329,4.859-3.294,9.801c-0.082,0.247-1.894-3.541-1.894-3.541s-4.942,2.059-4.942,1.894
						c0.082-4.942,0.659-10.048,2.059-12.024L178.552,81.063z"/>
				</g>
				<path style="fill:#F2B37D;" d="M198.236,73.321c0,0-1.071,4.447-1.812,6.918c-0.988,2.388-2.635,11.201-7.742,8.648
					c0,0-4.2-1.977-3.541-7.33l-3.212-3.13c0,0-0.165-9.636,4.859-10.789C191.647,66.32,196.177,66.897,198.236,73.321z"/>
				<path style="fill:#B7A031;" d="M183.906,79.91c0,0-2.224-2.224,0.824-4.365c0,0,1.812-0.329,2.141,2.306l-0.082,0.824
					l0.577,0.082c0,0,0.741-2.883,1.894-3.789c1.153-1.071,5.93,1.318,8.895-0.741s-0.329-8.318-6.918-8.895
					c-4.2-0.412-9.471-0.659-10.13,7.165c0,0.082-1.647,7.083-1.647,7.083l1.565,1.565L183.906,79.91z"/>
				<path style="fill:#87772E;" d="M195.024,84.357c0,0-8.318,1.235-7.659-5.024l-0.494-0.165l-2.059,4.283
					c0,0,0.659,5.436,6.177,5.93C196.424,90.122,194.859,86.498,195.024,84.357z"/>
				<path style="fill:#E9DAD8;" d="M180.941,111.288c0.824,2.553,1.647,4.612,0,5.847l-1.235,3.294
					c-4.118-1.153-4.859-4.283-6.424-7.248l-7.495-14.825c-0.577-0.247-4.365-8.236-3.294-10.048l0.247-0.165
					c1.647-1.318,9.718,4.365,11.53,6.671L180.941,111.288z"/>
				<g>
					<path style="fill:#F2B37D;" d="M196.671,125.701l1.647,0.988c0,0,1.318,2.141,2.965,2.635c1.565,0.412,4.2,0.247,5.106-1.071
						c0.824-1.318,0.494-2.8-0.329-3.871c0,0-1.482-0.659-2.059-0.165c0,0-1.977-0.247-1.153-0.988c0,0,2.059-0.247,2.306-0.988
						c0,0-0.247-1.235-0.659-1.153c-0.494,0.247-1.235,0.412-2.553,0.412c-1.318,0-2.471,0.165-3.047,0.659l-1.071-0.329
						L196.671,125.701z"/>
					<path style="fill:#D54A29;" d="M195.848,120.513l2.883,1.235c0,0,1.235,3.294-1.235,5.024l-2.635-1.235
						C194.777,125.619,196.836,122.242,195.848,120.513z"/>
					<path style="fill:#E9DAD8;" d="M194.777,126.031l-14.989-5.436c-1.647-0.247-0.082-8.401,1.565-8.071l14.742,7.824
						C197.742,120.513,196.424,126.195,194.777,126.031z"/>
				</g>
			</g>
			<g>
				<g>
					<path style="fill:#931E20;" d="M231.015,81.475c-1.812,0.329-3.706-0.659-4.2-2.306l-8.483-15.895
						c-0.494-1.647,0.988-4.777,2.883-5.106l0,0c1.812-0.329,3.706,0.659,4.2,2.306l7.001,17.625
						C232.909,79.827,232.992,81.145,231.015,81.475L231.015,81.475z"/>
					<path style="fill:#E9A776;" d="M228.627,137.726c0,0,1.812,6.506,5.6,7.742c3.788,1.318,0.494,3.294-0.247,3.294
						c-0.741,0-4.447,0.412-6.918-2.059c-2.306-2.471-4.447-3.953-4.447-3.953s0.741-4.2,1.977-6.671l1.153-0.659L228.627,137.726z"
						/>
					<path style="fill:#7E1D1F;" d="M234.062,148.927c-0.741,0.082-4.447,0.412-6.918-2.059c-2.306-2.388-4.447-3.953-4.447-3.953
						s-0.576-2.965,0.824-4.777c0.247,1.4-0.329,3.212,4.447,6.506c3.13,2.059,4.447,1.235,5.189,0.412
						c0.329,0.247,0.741,0.412,1.153,0.577C238.015,146.95,234.886,148.844,234.062,148.927z"/>
					<path style="fill:#E9A776;" d="M228.627,137.726c-0.165,2.141-4.036,1.153-3.871-1.071c0,0-4.118-21.496,0-26.602
						c1.483-3.541,0.824-2.471,2.965-2.306l1.647-0.577c3.294-0.659,4.447,3.047,2.635,8.565
						C228.462,126.195,228.627,137.726,228.627,137.726z"/>
					<path style="fill:#F2B37D;" d="M223.109,139.62c-0.329,2.059-4.283,1.565-3.953-0.494c0,0-7.248-21.66-1.647-27.92
						c1.153-1.235,1.4-1.812,3.13-1.812h0.741c2.059,0.329,4.612,1.4,3.047,5.847C221.379,123.313,223.109,139.62,223.109,139.62z"
						/>
					<path style="fill:#343433;" d="M197.248,88.722c0,0-9.471,9.554-1.565,17.707c5.189,5.436,19.766,10.789,19.766,10.789
						s12.107-8.977,16.307-9.389c0,0-7.495-6.918-17.954-11.942c0,0,0.412-4.283-0.329-6.753c-0.741-2.388-5.847-2.224-5.847-2.224
						L197.248,88.722z"/>
					<path style="fill:#B02427;" d="M221.05,56.108c0,0,2.965,2.388,3.541,9.801c0.824,9.471-0.412,10.954-4.859,13.342
						c0,0-6.012,11.201-5.765,13.425c0,0-8.648,2.635-16.637-3.953c0,0,4.365-4.694,5.6-9.801
						c1.894-7.906-0.247-18.201,3.377-20.013C214.214,54.955,221.05,56.108,221.05,56.108z"/>
					<path style="fill:#DA9F75;" d="M213.967,56.273l3.377-5.847l1.894-4.942l3.541,5.024l-1.565,8.812l-2.471,5.189
						C218.908,64.344,213.473,61.626,213.967,56.273z"/>
					<g>
						<path style="fill:#FFFFFF;" d="M214.296,56.19c0,0,0.659,6.095,4.365,7.659c0,0,2.224-3.871,1.483-7.742l0.659,0.577
							c0,0,3.13,2.141-1.977,11.613c0,0-6.918-6.918-5.765-11.695L214.296,56.19z"/>
					</g>
					<path style="fill:#F2B37D;" d="M223.109,139.62c0,0,2.224,7.33,6.012,8.648c3.788,1.318,0.494,3.294-0.247,3.294
						c-0.741,0.082-4.447,0.412-6.918-2.059c-2.306-2.471-4.447-3.953-4.447-3.953s0.494-4.365,1.482-6.506l1.565-0.824
						L223.109,139.62z"/>
					<path style="fill:#A62525;" d="M228.874,151.644c-0.741,0.082-4.447,0.412-6.918-2.059c-2.306-2.471-4.447-3.953-4.447-3.953
						s-0.576-2.965,0.824-4.777c0.247,1.4-0.329,3.212,4.447,6.506c3.13,2.059,4.447,1.235,5.189,0.412
						c0.329,0.247,0.741,0.412,1.153,0.577C232.992,149.668,229.697,151.48,228.874,151.644z"/>
					<path style="fill:#775321;" d="M217.508,40.13c0.165-0.988-0.247-2.224-0.494-3.13c-0.494-1.482-1.4-2.471-3.047-2.553
						c-3.294-0.247-5.683,2.141-6.918,5.106c-2.8,6.918,0.412,14.083,2.635,20.507c0.412,1.318,0.741,2.553,1.071,3.953
						c0.165,0.988,0.329,1.73,0.412,2.635c0.082,0.824,0.165,1.565,0.247,2.388c0,0.412,0,0.824,0.082,1.235
						c0,0.165,0.165,1.153,0,1.235c0,0,5.683-4.859,4.612-10.295c-1.153-5.518-2.471-8.401-1.153-10.954
						C216.437,47.625,216.026,47.131,217.508,40.13z"/>
					<path style="fill:#F2B37D;" d="M228.462,42.766c0,0,0.247,4.612,0,7.165c-0.165,2.553-2.635,9.883-4.365,9.718
						c0,0-5.93-0.494-6.589-6.589l-3.377-1.153c0,0-2.635-9.224,1.812-11.695C220.308,37.824,224.756,37.001,228.462,42.766z"/>
					<path style="fill:#9F6D33;" d="M227.391,43.013c0,0-3.871,4.694-8.483,5.847c0,0-0.741-2.224-2.306-0.659
						c-1.565,1.565-0.494,4.118,0.988,4.859c0,0-1.647,1.812-2.8,2.553c0,0-8.483-12.93,2.883-17.79
						c8.895-3.789,14.083,5.353,10.871,12.024C228.462,49.849,229.038,44.742,227.391,43.013z"/>
				</g>
				<g>
					<path style="fill:#F2B37D;" d="M237.11,67.721c0.494-0.494,1.318-1.4,1.977-1.647c0.988-0.412,1.482-0.412,2.306-1.071
						c0.576-0.329,1.482-0.824,1.812-1.482c0.247-0.577,1.071,0.659,0.165,1.4c-0.329,0.247-0.494,0.577-0.659,0.824
						c0.988,0.247,1.812,0.329,2.635-0.659c3.624-4.2,3.706-0.329,3.706-0.329c-1.318,3.294-2.306,3.294-3.459,3.871
						c-1.73,0.741-5.93,0.988-5.93,0.988l-1.153,1.812l-2.883-1.318c0.247-0.494,0.494-1.071,0.741-1.482
						C236.698,68.297,236.862,67.968,237.11,67.721z"/>
					<path style="fill:#FFFFFF;" d="M233.898,71.18l2.471-2.965c0,0,1.894-0.412,3.459,2.224l-2.388,3.377
						C237.439,73.897,237.192,71.015,233.898,71.18z"/>
					<path style="fill:#931E20;" d="M237.851,73.486l-5.106,8.071c-1.235,1.4-3.294,0.824-4.447-0.247l0,0
						c-1.318-1.153-1.235-1.894-0.082-3.294l5.847-7.659C235.38,69.038,239.169,72.086,237.851,73.486z"/>
				</g>
				<path style="fill:#CB464A;" d="M217.426,86.169c0.824,1.4,2.224,1.318,3.871,0.329l0.741-0.577
					c1.647-1.071,1.071-2.224,0.082-3.624L211.99,63.52c-0.824-1.4-4.942-4.283-6.589-3.294l-0.741,1.153
					c-1.647,3.294-0.247,5.847,0.577,7.412L217.426,86.169z"/>
				<g>
					<path style="fill:#F2B37D;" d="M236.862,92.428c0.082,0,0.247,0,0.329-0.082c0.329,0,0.659-0.082,0.988,0
						c1.071,0,1.894,0.082,2.883,0.247c0.412,0.082,0.824-0.165,1.235-0.082c0.494,0.082,0.329,0.494,0.165,0.824
						c0.824,0.412,4.2,2.635,2.471,4.365c-1.153,1.153-4.942,0.988-6.259,0.247c-2.388-1.235-2.388-1.235-3.294-2.224l-1.235-0.659
						l1.4-3.294L236.862,92.428z"/>
					<g>
						<path style="fill:#FFFFFF;" d="M234.721,90.781l-2.388,3.871l3.294,1.812c0,0,2.388-1.482,2.306-3.953L234.721,90.781z"/>
						<path style="fill:#CB464A;" d="M217.426,84.11c-0.988,1.4,1.153,3.541,2.141,4.2l13.589,7.083
							c1.153,0.741,3.871-3.459,2.883-4.118l-13.013-7.906c-1.153-0.659-3.788-1.4-4.777,0L217.426,84.11z"/>
					</g>
				</g>
			</g>
			<g>
				<g>
					<g>
						<polygon style="fill:#3A3938;" points="191.153,150.656 192.471,172.893 193.377,172.893 195.93,151.15 						"/>
						<polygon style="fill:#3A3938;" points="208.366,160.869 211.084,183.847 211.661,183.847 213.637,160.869 						"/>
						<path style="fill:#686869;" d="M209.355,162.186c-1.235-0.741-1.235-1.894,0-2.635s2.059-0.741,3.377,0
							c1.235,0.741,1.235,1.894,0,2.635C211.414,163.01,210.59,163.01,209.355,162.186z"/>
						<path style="fill:#686869;" d="M192.059,152.139c-1.318-0.741-1.318-1.894,0-2.635c1.235-0.741,1.812-0.741,3.13,0
							c1.318,0.741,1.318,1.894,0,2.635C193.789,152.797,193.377,152.797,192.059,152.139z"/>
					</g>
					<g>
						<polygon style="fill:#3A3938;" points="242.133,121.089 243.534,143.326 244.357,143.326 246.993,121.583 						"/>
						<polygon style="fill:#3A3938;" points="259.346,131.137 262.064,154.28 262.723,154.28 264.7,131.219 						"/>
						<path style="fill:#686869;" d="M260.417,132.619c-1.235-0.741-1.235-1.894,0-2.635s2.059-0.741,3.377,0
							c1.235,0.741,1.235,1.894,0,2.635C262.476,133.278,261.653,133.278,260.417,132.619z"/>
						<path style="fill:#686869;" d="M243.122,122.407c-1.318-0.741-1.318-1.894,0-2.635c1.235-0.741,1.812-0.741,3.13,0
							c1.318,0.741,1.318,1.894,0,2.635C244.934,123.148,244.357,123.148,243.122,122.407z"/>
					</g>
				</g>
				<g>
					<path style="opacity:0.3;fill:#50A19B;enable-background:new    ;" d="M191.977,141.926
						c-13.013,7.577-14.578,18.86-3.459,25.367c11.118,6.424,30.885,5.518,43.897-1.977l33.52-19.272
						c13.013-7.577,14.578-18.86,3.459-25.367c-11.118-6.424-30.885-5.518-43.897,1.977L191.977,141.926z"/>
					<path style="opacity:0.3;fill:#50A19B;enable-background:new    ;" d="M191.977,139.373
						c-13.013,7.577-14.578,18.86-3.459,25.367c11.118,6.424,30.885,5.518,43.897-1.977l33.438-19.272
						c13.013-7.577,14.578-18.86,3.459-25.367c-11.118-6.424-30.885-5.518-43.897,1.977L191.977,139.373z"/>
				</g>
			</g>
			<g>
				<polygon style="fill:#AAABAB;" points="183,153.621 197.577,145.303 218.579,157.492 204.413,165.892 				"/>
				<polygon style="fill:#FFFFFF;" points="185.306,153.621 197.577,146.62 216.273,157.492 204.413,164.657 				"/>
				<polygon style="fill:#646767;" points="183,153.621 204.413,165.892 204.413,166.634 183,154.362 				"/>
				<polygon style="fill:#646767;" points="204.413,165.892 218.579,157.492 218.579,158.068 204.413,166.634 				"/>
				<polygon style="fill:#646767;" points="188.682,150.409 191.071,151.562 195.106,149.174 192.965,147.938 				"/>
			</g>
			<g>
				<polygon style="fill:#979372;" points="207.131,148.515 214.049,144.726 200.789,137.067 193.953,141.102 				"/>
				<polygon style="fill:#DDE9F7;" points="212.814,144.726 202.025,138.467 196.507,141.679 207.131,147.773 				"/>
				<polygon style="fill:#413E34;" points="214.049,144.726 213.884,145.632 207.213,149.421 207.131,148.515 				"/>
				<polygon style="fill:#7C7853;" points="193.953,141.102 194.036,141.761 207.213,149.421 207.131,148.515 				"/>
				<path style="fill:#FFFFFF;" d="M199.224,139.785c0.329-0.165,0.329-0.494,0-0.659c-0.329-0.165-0.988-0.165-1.235,0
					c-0.247,0.165-0.329,0.494,0,0.659C198.401,139.949,198.895,139.949,199.224,139.785z"/>
			</g>
			<g>
				<polygon style="fill:#979372;" points="267.994,128.254 274.748,124.384 261.488,116.807 254.817,120.677 				"/>
				<polygon style="fill:#DDE9F7;" points="273.43,124.384 262.641,118.207 257.123,121.419 267.994,127.431 				"/>
				<polygon style="fill:#413E34;" points="274.748,124.384 274.665,125.372 267.994,129.16 267.994,128.254 				"/>
				<polygon style="fill:#7C7853;" points="254.817,120.677 254.817,121.583 267.994,129.16 267.994,128.254 				"/>
				<path style="fill:#FFFFFF;" d="M259.841,119.524c0.329-0.165,0.329-0.494,0-0.659c-0.329-0.165-0.988-0.165-1.235,0
					c-0.247,0.165-0.329,0.494,0,0.659C259.017,119.689,259.511,119.607,259.841,119.524z"/>
			</g>
			<g>
				<path style="fill:#B99C64;" d="M219.814,155.021c-1.647,0-3.212-0.329-4.283-1.071c-1.153-0.577-1.647-1.4-1.647-2.224
					c0-0.824,0.576-1.647,1.647-2.224c1.153-0.659,2.635-1.071,4.283-1.071c1.647,0,3.212,0.329,4.283,1.071
					c1.153,0.577,1.647,1.4,1.647,2.224c0,0.824-0.576,1.647-1.647,2.224C223.026,154.692,221.544,155.021,219.814,155.021z"/>
				<path style="fill:#ECDAB3;" d="M219.814,154.692c-1.565,0-3.047-0.329-4.036-1.071c-1.071-0.577-1.565-1.318-1.565-2.141
					s0.576-1.565,1.565-2.141c1.153-0.659,2.553-1.071,4.036-1.071c1.565,0,3.047,0.329,4.036,1.071
					c1.071,0.577,1.565,1.318,1.565,2.141s-0.576,1.565-1.565,2.141C222.944,154.362,221.461,154.692,219.814,154.692z"/>
				<path style="fill:#B99C64;" d="M219.814,153.374c-1.071,0-1.894-0.247-2.635-0.659c-0.659-0.412-1.071-0.988-1.071-1.4
					c0-0.494,0.329-1.071,1.071-1.4c0.659-0.412,1.647-0.577,2.635-0.577s1.894,0.247,2.635,0.577
					c0.659,0.412,1.071,0.988,1.071,1.4c0,0.494-0.329,1.071-1.071,1.4C221.791,153.209,220.885,153.374,219.814,153.374z"/>
				<path style="fill:#B99C64;" d="M225.415,147.197c-0.576-0.412-1.235-0.412-1.482-0.412c-0.082,0-0.576,0.329,0,0.659h0.082
					c0,0,0.494,0,0.824,0.247c0.329,0.165,0.412,0.494,0.412,1.071s-0.165,0.824-0.412,1.071c-0.329,0.247-1.318,0.329-1.318,0.329
					h-0.165c0,0-0.576,0.247,0,0.659h0.082c0.247,0,1.318-0.165,1.812-0.494c0.494-0.329,0.741-0.824,0.741-1.482
					C226.238,147.938,225.991,147.444,225.415,147.197z"/>
				<path style="fill:#EDEAE1;" d="M217.343,152.221c-0.741-0.412-1.153-1.071-1.153-1.482c0-0.494-1.153-1.977-0.576-3.871
					c0.412-1.565,8.318-1.318,8.565,0.247c0.247,1.812-0.659,3.212-0.659,3.706s-0.329,1.153-1.153,1.482
					C221.05,152.88,218.743,152.88,217.343,152.221z"/>
				<path style="fill:#C9C3B7;" d="M216.932,148.679c-1.647-1.071-1.647-2.471,0-3.459c1.647-0.988,4.365-1.071,6.012,0
					c1.647,1.071,1.647,2.471,0,3.459C221.297,149.668,218.579,149.668,216.932,148.679z"/>
				<path style="fill:#ECDAB3;" d="M219.814,149.174c-1.153,0-2.141-0.247-2.965-0.659c-0.741-0.412-1.153-1.071-1.153-1.565
					c0-0.494,0.412-1.153,1.153-1.565c0.741-0.412,1.812-0.659,2.965-0.659s2.141,0.247,2.965,0.659
					c0.741,0.412,1.153,1.071,1.153,1.565s-0.412,1.153-1.153,1.482C222.038,148.927,220.967,149.174,219.814,149.174z"/>
				<path style="fill:#9E6A32;" d="M219.814,149.174c1.153,0,2.141-0.247,2.965-0.659c0.247-0.165,0.494-0.329,0.659-0.494
					c-0.165-0.165-0.412-0.329-0.659-0.494c-0.741-0.412-1.812-0.659-2.965-0.659s-2.141,0.247-2.965,0.659
					c-0.247,0.165-0.494,0.329-0.659,0.494c0.165,0.165,0.412,0.329,0.659,0.494C217.673,148.927,218.826,149.174,219.814,149.174z"
					/>
			</g>
			<g>
				<path style="fill:#B99C64;" d="M259.264,135.667c-1.647,0-3.212-0.329-4.283-1.071c-1.153-0.577-1.647-1.4-1.647-2.224
					c0-0.824,0.576-1.647,1.647-2.224c1.153-0.659,2.635-1.071,4.283-1.071s3.212,0.329,4.283,1.071
					c1.153,0.577,1.647,1.4,1.647,2.224c0,0.824-0.576,1.647-1.647,2.224C262.394,135.255,260.911,135.667,259.264,135.667z"/>
				<path style="fill:#ECDAB3;" d="M259.264,135.173c-1.565,0-3.047-0.329-4.036-1.071c-1.071-0.577-1.565-1.318-1.565-2.141
					s0.576-1.565,1.565-2.141c1.153-0.659,2.553-1.071,4.036-1.071c1.565,0,3.047,0.329,4.036,1.071
					c1.071,0.577,1.565,1.318,1.565,2.141s-0.576,1.565-1.565,2.141C262.311,134.843,260.829,135.173,259.264,135.173z"/>
				<path style="fill:#B99C64;" d="M259.264,134.02c-1.071,0-1.894-0.247-2.635-0.659c-0.659-0.412-1.071-0.988-1.071-1.4
					c0-0.494,0.329-1.071,1.071-1.4c0.659-0.412,1.647-0.577,2.635-0.577s1.894,0.247,2.635,0.577
					c0.659,0.412,1.071,0.988,1.071,1.4c0,0.494-0.329,1.071-1.071,1.4C261.241,133.772,260.335,134.02,259.264,134.02z"/>
				<path style="fill:#B99C64;" d="M264.782,127.678c-0.576-0.412-1.235-0.412-1.482-0.412c-0.082,0-0.576,0.329,0,0.659h0.082
					c0,0,0.494,0,0.824,0.247c0.329,0.165,0.412,0.494,0.412,1.071s-0.165,0.824-0.412,1.071c-0.329,0.247-1.318,0.329-1.318,0.329
					h-0.082c0,0-0.576,0.247,0,0.659h0.082c0.247,0,1.318-0.165,1.812-0.494s0.741-0.824,0.741-1.482
					C265.606,128.501,265.276,128.007,264.782,127.678z"/>
				<path style="fill:#EDEAE1;" d="M256.793,132.619c-0.741-0.412-1.153-1.071-1.153-1.482c0-0.412-1.153-1.977-0.576-3.871
					c0.412-1.565,8.318-1.318,8.565,0.247c0.247,1.812-0.659,3.212-0.659,3.706s-0.329,1.153-1.153,1.482
					C260.417,133.443,258.111,133.443,256.793,132.619z"/>
				<path style="fill:#C9C3B7;" d="M256.217,129.243c-1.647-1.071-1.647-2.471,0-3.459c1.647-0.988,4.365-1.071,6.012,0
					s1.647,2.471,0,3.459C260.664,130.231,257.864,130.231,256.217,129.243z"/>
				<path style="fill:#ECDAB3;" d="M259.264,129.655c-1.153,0-2.141-0.247-2.965-0.659c-0.824-0.412-1.153-1.071-1.153-1.565
					s0.412-1.153,1.153-1.482c0.741-0.329,1.812-0.659,2.965-0.659s2.141,0.247,2.965,0.659c0.824,0.412,1.153,1.071,1.153,1.565
					s-0.412,1.153-1.153,1.565C261.405,129.49,260.417,129.655,259.264,129.655z"/>
				<path style="fill:#9E6A32;" d="M259.264,129.737c1.153,0,2.141-0.247,2.965-0.659c0.247-0.165,0.494-0.329,0.659-0.494
					c-0.165-0.165-0.412-0.329-0.659-0.494c-0.741-0.412-1.812-0.659-2.965-0.659s-2.141,0.247-2.965,0.659
					c-0.247,0.165-0.494,0.329-0.659,0.494c0.165,0.165,0.412,0.329,0.659,0.494C257.123,129.49,258.111,129.737,259.264,129.737z"
					/>
			</g>
			<g>
				<path style="fill:#B99C64;" d="M243.945,126.278c1.647,0,3.212-0.329,4.283-1.071c1.153-0.577,1.647-1.4,1.647-2.224
					c0-0.824-0.576-1.647-1.647-2.224c-1.153-0.659-2.635-1.071-4.283-1.071c-1.647,0-3.212,0.329-4.283,1.071
					c-1.153,0.577-1.647,1.4-1.647,2.224c0,0.824,0.576,1.647,1.647,2.224C240.733,126.031,242.216,126.278,243.945,126.278z"/>
				<path style="fill:#ECDAB3;" d="M243.945,126.031c1.565,0,3.047-0.329,4.036-1.071c1.071-0.577,1.565-1.318,1.565-2.141
					c0-0.824-0.576-1.565-1.565-2.141c-1.153-0.659-2.553-1.071-4.036-1.071c-1.565,0-3.047,0.329-4.036,1.071
					c-1.071,0.577-1.565,1.318-1.565,2.141c0,0.824,0.576,1.565,1.565,2.141C240.816,125.619,242.298,126.031,243.945,126.031z"/>
				<path style="fill:#B99C64;" d="M243.945,124.713c1.071,0,1.894-0.247,2.635-0.659c0.659-0.412,1.071-0.988,1.071-1.4
					c0-0.494-0.329-1.071-1.071-1.4c-0.659-0.412-1.647-0.577-2.635-0.577c-1.071,0-1.894,0.247-2.635,0.577
					c-0.659,0.412-1.071,0.988-1.071,1.4s0.329,1.071,1.071,1.4C241.886,124.466,242.792,124.713,243.945,124.713z"/>
				<path style="fill:#B99C64;" d="M238.345,118.454c0.576-0.412,1.235-0.412,1.483-0.412c0.082,0,0.576,0.329,0,0.659h-0.082
					c0,0-0.494,0-0.824,0.247c-0.247,0.165-0.412,0.494-0.412,1.071s0.165,0.824,0.412,1.071c0.329,0.247,1.318,0.329,1.318,0.329
					h0.082c0,0,0.576,0.247,0,0.659h-0.082c-0.247,0-1.318-0.165-1.812-0.494c-0.494-0.329-0.741-0.824-0.741-1.482
					C237.521,119.36,237.768,118.701,238.345,118.454z"/>
				<path style="fill:#EDEAE1;" d="M246.334,123.478c0.741-0.412,1.153-1.071,1.153-1.482c0-0.494,1.153-1.977,0.576-3.871
					c-0.412-1.565-8.318-1.318-8.565,0.247c-0.247,1.812,0.659,3.212,0.659,3.706c0,0.494,0.329,1.153,1.153,1.482
					C242.71,124.136,244.934,124.136,246.334,123.478z"/>
				<path style="fill:#C9C3B7;" d="M246.828,119.936c1.647-1.071,1.647-2.471,0-3.459c-1.647-0.988-4.365-1.071-6.012,0
					c-1.647,1.071-1.647,2.553,0,3.459C242.463,121.007,245.181,121.007,246.828,119.936z"/>
				<path style="fill:#ECDAB3;" d="M243.945,120.43c1.153,0,2.141-0.247,2.965-0.659c0.741-0.412,1.153-1.071,1.153-1.565
					c0-0.494-0.412-1.153-1.153-1.482c-0.741-0.412-1.812-0.659-2.965-0.659s-2.141,0.247-2.965,0.659
					c-0.741,0.412-1.153,1.071-1.153,1.565c0,0.494,0.412,1.153,1.153,1.482C241.722,120.183,242.71,120.43,243.945,120.43z"/>
				<path style="fill:#9E6A32;" d="M243.945,120.43c-1.153,0-2.141-0.247-2.965-0.659c-0.247-0.165-0.494-0.329-0.659-0.494
					c0.165-0.165,0.412-0.329,0.659-0.494c0.741-0.412,1.812-0.659,2.965-0.659s2.141,0.247,2.965,0.659
					c0.247,0.165,0.494,0.329,0.659,0.494c-0.165,0.165-0.412,0.329-0.659,0.494C246.004,120.183,244.934,120.43,243.945,120.43z"/>
			</g>
			<g>
				<path style="fill:#B99C64;" d="M212.896,139.373c1.647,0,3.212-0.329,4.283-1.071c1.153-0.577,1.647-1.4,1.647-2.224
					s-0.576-1.647-1.647-2.224c-1.153-0.659-2.635-1.071-4.283-1.071c-1.647,0-3.212,0.329-4.283,1.071
					c-1.153,0.577-1.647,1.4-1.647,2.224s0.577,1.647,1.647,2.224C209.766,139.043,211.249,139.373,212.896,139.373z"/>
				<path style="fill:#ECDAB3;" d="M212.896,138.961c1.565,0,3.047-0.329,4.036-1.071c1.071-0.577,1.565-1.318,1.565-2.141
					c0-0.824-0.576-1.565-1.565-2.141c-1.153-0.659-2.553-1.071-4.036-1.071c-1.565,0-3.047,0.329-4.036,1.071
					c-1.071,0.577-1.565,1.318-1.565,2.141c0,0.824,0.577,1.565,1.565,2.141C209.849,138.632,211.331,138.961,212.896,138.961z"/>
				<path style="fill:#B99C64;" d="M212.896,137.726c1.071,0,1.894-0.247,2.635-0.659c0.659-0.412,1.071-0.988,1.071-1.4
					c0-0.494-0.329-1.071-1.071-1.4c-0.659-0.412-1.647-0.577-2.635-0.577s-1.894,0.247-2.635,0.577
					c-0.659,0.412-1.071,0.988-1.071,1.4c0,0.494,0.329,1.071,1.071,1.4C211.002,137.479,211.825,137.726,212.896,137.726z"/>
				<path style="fill:#B99C64;" d="M207.378,131.384c0.577-0.412,1.235-0.412,1.482-0.412c0.082,0,0.576,0.329,0,0.659l0,0
					c0,0-0.494,0-0.824,0.247c-0.329,0.165-0.412,0.494-0.412,1.071c0,0.494,0.165,0.824,0.412,1.071
					c0.329,0.247,1.318,0.329,1.318,0.329h0.082c0,0,0.576,0.247,0,0.659h-0.082c-0.247,0-1.318-0.165-1.812-0.494
					c-0.494-0.329-0.741-0.824-0.741-1.482C206.637,132.29,206.801,131.714,207.378,131.384z"/>
				<path style="fill:#EDEAE1;" d="M215.449,136.408c0.741-0.412,1.153-1.071,1.153-1.482c0-0.494,1.153-1.977,0.576-3.871
					c-0.412-1.565-8.318-1.318-8.565,0.247c-0.247,1.812,0.659,3.212,0.659,3.706s0.329,1.153,1.153,1.482
					C211.743,137.149,213.967,137.149,215.449,136.408z"/>
				<path style="fill:#C9C3B7;" d="M215.861,132.867c1.647-1.071,1.647-2.471,0-3.459c-1.647-0.988-4.365-1.071-6.012,0
					c-1.647,1.071-1.647,2.471,0,3.459C211.496,133.937,214.214,133.937,215.861,132.867z"/>
				<path style="fill:#ECDAB3;" d="M212.896,133.361c1.153,0,2.141-0.247,2.965-0.659c0.824-0.412,1.153-1.071,1.153-1.565
					s-0.412-1.153-1.153-1.482c-0.659-0.329-1.812-0.659-2.965-0.659s-2.141,0.247-2.965,0.659
					c-0.741,0.412-1.153,1.071-1.153,1.565s0.412,1.153,1.153,1.482C210.755,133.114,211.743,133.361,212.896,133.361z"/>
				<path style="fill:#9E6A32;" d="M212.896,133.361c-1.153,0-2.141-0.247-2.965-0.659c-0.247-0.165-0.494-0.329-0.659-0.494
					c0.165-0.165,0.412-0.329,0.659-0.494c0.741-0.412,1.812-0.659,2.965-0.659s2.141,0.247,2.965,0.659
					c0.247,0.165,0.494,0.329,0.659,0.494c-0.165,0.165-0.412,0.329-0.659,0.494C215.037,133.114,213.967,133.361,212.896,133.361z"
					/>
			</g>
			<g>
				<path style="fill:#21201F;" d="M267.006,170.999c0,0,0.659,1.894,0.494,3.953c-0.165,2.471-1.153,5.436-1.318,6.012
					c0,0-0.412,0.412-1.4,0.247l-0.082-3.212c0,0-1.812,2.059-3.047,2.8c-1.4,0.824-2.306,1.071-5.271,0.659
					c0,0-1.482-0.082-2.471-1.235c-1.153-1.235,0.247-1.73,2.141-2.224c4.283-1.153,6.424-6.753,6.753-7.659L267.006,170.999z"/>
				<path style="fill:#21201F;" d="M279.524,166.14c0,0,0.659,1.977,0.576,3.953c-0.165,2.471-1.153,4.777-1.235,5.436
					c0,0-0.494,0.659-1.565,0.247l-0.082-3.212c0,0-1.812,1.647-3.047,2.059c-1.4,0.494-2.306,0.659-5.271-0.247
					c0,0-1.565-0.412-2.471-1.73c-1.153-1.482,0.247-1.647,2.141-1.73c4.283-0.247,6.918-4.612,7.248-5.518L279.524,166.14z"/>
				<path style="fill:#191818;" d="M274.748,166.14c-0.165,1.812,5.436,2.388,5.106,0.165c0,0-1.4-26.437-5.847-28.414
					c-2.883-1.235-1.4-4.2-3.294-3.789l0,0c-4.694,0-5.518,4.447-4.365,5.847C270.3,145.467,274.748,166.14,274.748,166.14z"/>
				<path style="fill:#2D2E2D;" d="M262.311,170.752c0.082,2.306,5.353,2.553,5.271,0.247c0,0,3.624-23.637,0.082-29.896
					c-2.306-3.953-7.659-0.412-7.001,3.047C262.394,153.292,262.311,170.752,262.311,170.752z"/>
			</g>
			<g>
				<path style="fill:#0F0F0F;" d="M233.733,186.894c0,0,0.329,5.106,0,6.671c0,0-3.13,1.153-5.847,0.412v-1.482
					c0,0-4.777,2.059-10.13,1.73c0,0-3.047-0.329-3.459-2.388c-0.412-2.059,2.306-2.141,4.777-2.8
					c2.388-0.577,5.436-2.141,5.847-3.459L233.733,186.894z"/>
				<path style="fill:#0F0F0F;" d="M224.591,193.895c0,0,0.329,5.106,0,6.671c0,0-3.13,1.153-5.847,0.412v-1.482
					c0,0-4.777,2.059-10.13,1.73c0,0-3.047-0.329-3.459-2.388c-0.412-2.059,2.306-2.141,4.777-2.8
					c2.388-0.577,5.436-2.141,5.847-3.459L224.591,193.895z"/>
				<path style="fill:#04353A;" d="M224.756,186.647c0,2.883,9.059,2.883,9.059,0v-27.426c0-2.883-1.977-5.189-4.612-5.189l0,0
					c-2.471,0-4.612,2.306-4.612,5.189L224.756,186.647L224.756,186.647z"/>
				<path style="fill:#084049;" d="M215.202,193.565c0,2.883,9.636,2.883,9.636,0V166.14c0-2.883-2.141-5.189-4.859-5.189l0,0
					c-2.635,0-4.859,2.306-4.859,5.189L215.202,193.565L215.202,193.565z"/>
			</g>
			<g>
				<polygon style="fill:#3A3938;" points="220.885,187.882 213.061,210.696 213.967,211.272 225.332,191.918 				"/>
				<polygon style="fill:#3A3938;" points="327.128,158.315 332.399,177.917 331.411,178.576 322.681,161.527 				"/>
				<polygon style="fill:#3A3938;" points="242.216,205.095 243.534,228.074 245.016,228.074 247.981,205.095 				"/>
				<polygon style="fill:#DB6930;" points="213.967,181.376 244.357,198.836 332.399,147.856 301.267,129.819 				"/>
				<polygon style="fill:#C1522B;" points="213.967,181.376 213.967,191.341 244.357,208.966 244.357,198.836 				"/>
				<polygon style="fill:#B33927;" points="244.357,208.966 332.399,157.904 332.399,147.856 244.357,198.836 				"/>
			</g>
			<g>
				<path style="fill:#595A59;" d="M260.582,101.9c0.165,2.306,1.647,3.541,3.953,3.377l18.284,0.577
					c2.306-0.165,5.189-1.071,5.024-4.942l0,0c-0.165-2.306-2.141-3.953-4.447-3.789l-19.849,1.482
					C261.241,98.77,260.417,99.594,260.582,101.9L260.582,101.9z"/>
				<g>
					<path style="fill:#F2B37D;" d="M248.31,95.805l-1.565-0.494c0,0-4.036-2.141-5.6-1.977c-1.565,0.247-5.93,2.141-3.212,2.965
						c2.8,0.659,1.812,0,3.871,1.153c2.059,1.235,2.388,1.73,3.377,1.318l1.647,0.329L248.31,95.805z"/>
					<path style="fill:#EFE8E9;" d="M250.863,96.299l-3.377-1.071c0,0-2.224,1.153-1.565,4.365l3.541,1.153
						C249.463,100.747,248.31,97.864,250.863,96.299z"/>
					<path style="fill:#595A59;" d="M249.052,100.829l11.118,3.789c4.859,1.647,4.612-0.494,5.189-2.553
						c0,0-1.235-2.965-3.294-3.459l-11.366-2.635C248.804,95.311,247.075,100.252,249.052,100.829z"/>
				</g>
				<path style="fill:#191818;" d="M273.348,144.726c20.59,12.93,28.249,5.518,28.249,5.518c7.33-8.236,1.647-17.872-0.988-18.448
					l-5.518,1.894c-2.553-0.577-6.012-2.471-6.671-0.082l-0.412,6.012l-16.636-5.518
					C270.794,136.573,271.536,143.573,273.348,144.726z"/>
				<path style="fill:#2D2E2D;" d="M267.418,150.244c23.472,9.636,31.049,1.894,31.049,1.894c7.33-8.236,2.8-15.978,0.165-16.472
					l-5.518,1.894c-2.553-0.577-6.012-2.471-6.671-0.082l-0.412,6.012l-21.249-4.2C264.206,141.761,265.276,149.421,267.418,150.244
					z"/>
				<polygon style="fill:#F2B37D;" points="283.231,96.546 280.924,92.346 276.971,98.029 278.866,101.158 				"/>
				<path style="fill:#595A59;" d="M284.219,95.558l-1.73-1.812c0,0-5.518,5.436-4.036,10.377L284.219,95.558z"/>
				<path style="fill:#EFE8E9;" d="M284.219,95.558c0,0,11.283-1.235,11.036,17.213c-0.165,10.295,9.059,20.507,9.059,20.507
					s-2.883,7.083-9.471,7.577c0,0-7.742,0.741-9.801-1.977l-10.13-25.531C274.912,113.265,274.171,103.711,284.219,95.558z"/>
				<g>
					<path style="fill:#595A59;" d="M282.16,132.784c2.224-0.494,3.294-2.141,2.965-4.365l-1.812-18.201
						c-0.494-2.224-1.647-5.024-5.518-4.2l0,0c-2.224,0.494-3.624,2.635-3.294,4.942l4.036,19.437
						C279.03,132.619,279.854,133.278,282.16,132.784L282.16,132.784z"/>
					<g>
						<path style="fill:#F2B37D;" d="M268.653,134.843l-1.483,0.741c0,0-4.365,1.318-5.436,2.553
							c-1.071,1.318-2.8,5.683-0.247,4.283c2.471-1.482,1.318-1.318,3.624-1.894s2.965-0.494,3.377-1.482l1.4-1.071L268.653,134.843
							z"/>
						<path style="fill:#EFE8E9;" d="M270.877,133.278l-3.212,1.647c0,0-0.824,2.388,1.977,4.283l3.294-1.73
							C273.1,137.561,270.3,136.408,270.877,133.278z"/>
						<path style="fill:#595A59;" d="M272.936,137.89l10.624-5.189c1.812-0.988,1.894-2.388,0.988-4.283
							c0,0-1.977-2.306-3.789-1.318l-9.883,6.095C268.818,134.184,271.124,138.879,272.936,137.89z"/>
					</g>
				</g>
				<path style="fill:#F2B37D;" d="M275.242,78.839c0,0-2.8,2.8-2.553,8.071c0.165,5.353-0.824,13.754,4.859,11.448
					c5.6-2.224,9.883-2.553,11.201-12.107C289.902,76.862,279.195,74.639,275.242,78.839z"/>
				<path style="fill:#B7A031;" d="M276.807,90.946c0,0,4.612,11.283,1.235,14.33c0,0,11.695,0.741,12.272-3.377
					c0,0,2.388-25.284-10.542-25.943C279.689,75.874,264.453,76.368,276.807,90.946z"/>
			</g>
			<g>
				<path style="fill:#073F49;" d="M220.72,132.702c0.494,1.812,2.388,3.047,4.283,2.635l15.813-1.153
					c1.812-0.329,3.294-3.789,2.635-5.6l0,0c-0.494-1.812-2.388-3.047-4.283-2.635l-16.06,2.883
					C221.214,129.243,220.144,130.972,220.72,132.702L220.72,132.702z"/>
				<path style="fill:#F2B37D;" d="M236.698,125.701c0,0,0.741-4.447,3.212-7.824c2.388-3.377,3.047-10.954-3.377-13.26
					c-6.424-2.306-10.542,1.071-11.201,2.883c-0.659,1.812-0.659,6.918-1.071,9.224c-0.329,2.306-1.153,10.707,4.447,8.73
					l3.047,8.73L236.698,125.701z"/>
				<path style="fill:#775321;" d="M232.415,123.478l4.859-0.247c0,0,4.036-5.6,5.765-7.083c0,0,3.294-10.295-5.847-13.589
					c-9.224-3.294-16.801,3.294-12.354,6.753c0,0,1.977,4.447,1.894,5.93c0,0,1.565-5.518,2.965-0.247
					C231.015,120.266,232.415,123.478,232.415,123.478z"/>
				<g>
					<path style="fill:#F2B37D;" d="M208.86,128.749l-1.482-0.577c0,0-2.883,0.082-4.283-0.494c0,0-3.294-0.247-1.153-1.153
						c0,0,0.247-0.082,1.565-0.165c0,0-1.071-2.141-2.8-1.647c-1.73,0.494-1.977-0.329-0.824-1.4
						c1.235-1.153,1.153-1.894,4.612-0.741c3.377,1.153,3.294,1.812,4.118,2.635l1.318,0.494L208.86,128.749z"/>
					<path style="fill:#E8F6FB;" d="M212.896,126.113l-3.541-1.318c0,0-1.812,0.577-1.894,3.624l3.706,1.812
						C211.084,130.396,209.931,127.596,212.896,126.113z"/>
					<path style="fill:#073F49;" d="M210.508,130.313l9.883,5.106c1.73,0.659,5.765-0.247,6.424-1.812v-1.73
						c0.576-1.565-3.047-2.224-4.777-2.965l-9.883-3.13C210.508,125.125,208.778,129.572,210.508,130.313z"/>
				</g>
				<path style="fill:#04353A;" d="M225.415,157.574c-1.318,2.553-0.329,5.683,2.224,7.083l23.061,11.942
					c2.553,1.318,5.683,0.329,7.083-2.224l0,0c1.318-2.553,0.329-5.683-2.224-7.083l-23.061-11.942
					C229.944,154.033,226.732,154.939,225.415,157.574L225.415,157.574z"/>
				<path style="fill:#084049;" d="M258.77,165.81c0,0,3.047,8.071-3.624,12.766s-7.659,6.671-13.425,4.283v-9.883L258.77,165.81z"
					/>
				<path style="fill:#E8F6FB;" d="M239.086,124.878c0,0-1.153-1.071-1.812-1.565c0,0-8.401,5.518-6.095,12.683L239.086,124.878z"/>
				<path style="fill:#084049;" d="M215.779,163.422c-1.4,2.553-0.494,5.683,2.059,7.165l23.555,12.93
					c2.553,1.4,7.33,0.824,8.401-1.4l0,0c1.4-2.553,1.235-6.424-1.235-7.742l-24.872-13.589
					C221.214,159.221,217.261,160.786,215.779,163.422L215.779,163.422z"/>
				<path style="fill:#144E5E;" d="M239.086,124.878c0,0,9.883,2.388,12.271,14.66c2.306,12.271,7.989,26.273,7.989,26.273
					s-5.93,9.142-14.166,9.307c0,0-4.447-0.165-6.753-3.459l-7.165-24.214C231.427,147.362,226.321,134.267,239.086,124.878z"/>
				<g>
					<path style="fill:#F2B37D;" d="M224.756,158.151l-1.812,0.329c0,0-5.189,0-6.589,1.153c-1.482,1.071-4.859,5.024-1.647,4.2
						c3.13-0.741,1.812-0.988,4.447-0.824c2.635,0.082,3.294,0.329,4.036-0.494l1.812-0.577L224.756,158.151z"/>
					<g>
						<path style="fill:#E8F6FB;" d="M226.979,156.833l-3.706,0.741c0,0-1.73,2.8,0.494,5.353l3.871-0.741
							C227.721,162.186,225.25,159.551,226.979,156.833z"/>
						<g>
							<path style="fill:#073F49;" d="M240.733,160.374c2.059-1.071,3.377-2.635,2.306-4.859l-5.106-18.037
								c-0.988-1.482-3.624-4.859-7.248-3.212l0,0c-2.059,1.071-3.294,5.271-2.224,7.412l7.165,17.542
								C236.615,161.363,238.674,161.363,240.733,160.374L240.733,160.374z"/>
							<path style="fill:#073F49;" d="M227.556,162.598l12.766-1.4c2.141-0.412,3.541-2.471,3.212-4.694l0,0
								c-0.412-2.141-2.471-3.541-4.694-3.212l-12.107,3.212C224.591,156.998,225.332,163.092,227.556,162.598z"/>
						</g>
					</g>
				</g>
				<path style="fill:#9F6D33;" d="M243.122,116.148c0,0,3.294-10.295-5.847-13.589c-9.224-3.294-16.801,3.294-12.354,6.753
					C224.838,109.229,235.956,117.465,243.122,116.148z"/>
			</g>
			<g>
				<polygon style="fill:#C1522B;" points="239.91,196.365 244.522,166.222 248.804,168.775 244.275,198.836 				"/>
				<polygon style="fill:#F27E55;" points="244.522,166.222 332.481,115.159 336.846,117.712 248.804,168.775 				"/>
				<polygon style="fill:#B33927;" points="336.846,117.712 332.234,147.856 244.275,198.836 248.804,168.775 				"/>
			</g>
			<g>
				<polygon style="fill:#815421;" points="187.612,182.858 187.612,201.719 212.155,215.967 212.155,196.942 				"/>
				<polygon style="fill:#996126;" points="187.612,182.858 193.542,179.07 218.249,193.318 212.155,196.942 				"/>
				<polygon style="fill:#432917;" points="218.249,193.318 218.249,212.343 212.155,215.967 212.155,196.942 				"/>
				<g>
					<polygon style="fill:#C2AB31;" points="191.236,182.941 194.365,180.882 195.93,181.952 192.8,183.764 					"/>
					<polygon style="fill:#C2AB31;" points="210.59,194.059 213.802,192.083 215.449,192.989 212.155,194.883 					"/>
					<polygon style="fill:#C2AB31;" points="196.589,186.482 199.801,184.506 201.366,185.412 198.236,187.388 					"/>
					<polygon style="fill:#C2AB31;" points="204.742,191.177 208.037,189.365 209.602,190.271 206.39,192.083 					"/>
					<g>
						<path style="fill:#432917;" d="M208.366,190.683l-1.153,0.659l-1.153-0.659v-2.635c0-1.4-1.153-3.294-2.224-3.871
							l-2.553-1.482c-0.412-0.247-0.741-0.247-0.824-0.165c-0.165,0.082-0.247,0.329-0.247,0.824v2.635l-1.153,0.741l-1.153-0.741
							v-2.635c0-1.235,0.494-2.306,1.4-2.883c0.988-0.494,2.059-0.412,3.212,0.165l2.553,1.482c1.894,1.153,3.377,3.624,3.377,5.848
							L208.366,190.683L208.366,190.683z"/>
					</g>
				</g>
			</g>
		</g>
		<g>
			<polygon style="opacity:0.1;fill:#101011;enable-background:new    ;" points="97.429,198.012 113.901,207.401 136.796,196.201 
				119.583,185.412 			"/>
			<g>
				<g>
					<polygon style="fill:#21201F;" points="101.876,172.564 97.429,198.012 98.252,198.424 104.594,174.128 					"/>
					<polygon style="fill:#21201F;" points="112.83,178.905 113.901,207.401 114.642,207.484 115.795,179.811 					"/>
					<polygon style="fill:#21201F;" points="131.937,168.034 136.796,196.201 137.62,196.201 134.984,168.528 					"/>
					<polygon style="fill:#21201F;" points="115.548,163.916 119.666,185.988 120.489,185.988 118.677,164.163 					"/>
				</g>
				<g>
					<polygon style="fill:#525453;" points="114.477,144.314 136.714,131.466 136.714,170.752 114.395,183.517 					"/>
					<polygon style="fill:#343433;" points="114.477,144.314 97.429,134.596 97.429,173.799 114.395,183.517 					"/>
					<polygon style="fill:#C7C6C6;" points="97.429,134.596 119.666,121.666 136.714,131.466 114.477,144.314 					"/>
					<polygon style="fill:#F8C41D;" points="115.795,145.138 135.314,133.855 135.314,151.974 115.795,163.257 					"/>
					<polygon style="fill:#C0BEBE;" points="115.795,164.739 135.314,153.374 135.314,169.846 115.795,181.129 					"/>
					<polygon style="fill:#343433;" points="122.795,143.326 128.313,140.032 128.313,141.926 122.795,145.22 					"/>
				</g>
				<polygon style="fill:#323230;" points="143.056,172.564 122.713,160.704 125.101,159.304 133.914,154.28 143.056,159.468 				
					"/>
				<polygon style="fill:#646767;" points="132.431,155.021 133.914,154.28 143.22,159.468 141.655,160.292 				"/>
				<polygon style="fill:#F8C41D;" points="125.101,169.928 144.62,158.727 144.62,175.117 125.101,186.317 				"/>
				<polygon style="fill:#8B8B8B;" points="144.62,158.727 143.303,157.904 123.454,169.352 125.101,169.928 				"/>
				<polygon style="fill:#323230;" points="123.454,169.352 123.454,185.329 125.101,186.317 125.101,169.928 				"/>
				<polygon style="fill:#343433;" points="132.102,167.622 137.62,164.328 137.62,166.222 132.102,169.516 				"/>
				<polygon style="fill:#323230;" points="123.454,184.176 115.795,179.811 115.795,166.716 123.454,171.163 				"/>
				<polygon style="fill:#646767;" points="115.795,166.716 115.795,165.069 123.454,169.434 123.454,171.163 				"/>
				<polygon style="fill:#34AFA0;" points="123.454,169.434 120.983,167.869 136.714,158.974 139.102,160.292 				"/>
				<polygon style="fill:#A02524;" points="118.842,166.798 134.243,158.233 136.22,159.304 120.983,167.869 				"/>
				<polygon style="fill:#4273A5;" points="118.842,166.798 116.783,165.563 132.102,157.245 133.914,158.398 				"/>
			</g>
		</g>
	</g>
</g>
</svg>
