<?xml version="1.0" encoding="utf-8"?>
<!-- Generator: Adobe Illustrator 17.0.0, SVG Export Plug-In . SVG Version: 6.00 Build 0)  -->
<!DOCTYPE svg PUBLIC "-//W3C//DTD SVG 1.1//EN" "http://www.w3.org/Graphics/SVG/1.1/DTD/svg11.dtd">
<svg version="1.1" id="Capa_1" xmlns="http://www.w3.org/2000/svg" xmlns:xlink="http://www.w3.org/1999/xlink" x="0px" y="0px"
	 width="81px" height="76.717px" viewBox="-2 -4.858 81 76.717" enable-background="new -2 -4.858 81 76.717" xml:space="preserve">
<g>
	<g>
		<g>
			<g>
				<path fill="#4775E5" d="M47.245,47.298H31.687c-12.784,0-23.201,10.417-23.201,23.202h62.028
					C70.447,57.783,60.029,47.298,47.245,47.298z"/>
				<path fill="#4775E5" d="M42.24,36.678c1.218,0,2.368,0.405,3.247,1.15h5.614c2.773-2.909,4.464-6.764,4.464-11.094
					c0-8.93-7.237-16.098-16.098-16.098s-16.099,7.171-16.099,16.098c0,6.019,3.314,11.296,8.252,14.069
					c0.54-2.368,2.638-4.125,5.073-4.125L42.24,36.678L42.24,36.678z"/>
				<path fill="#4775E5" d="M15.656,28.087c0.204,1.691,1.014,3.247,2.164,4.397c0.88,0.88,2.029,1.555,3.314,1.961
					c-0.069-0.271-0.069-0.54-0.069-0.745V20.579c0-0.271,0-0.54,0.069-0.811c-1.286,0.338-2.368,1.014-3.314,1.961
					c-0.069,0.069-0.204,0.204-0.271,0.271v-0.54c0-1.286,0.135-2.57,0.338-3.788c0.204-1.286,0.54-2.503,1.014-3.652
					c0.405-1.218,0.946-2.368,1.623-3.45c0.609-1.083,1.353-2.164,2.164-3.112c0.069-0.069,0.135-0.204,0.135-0.271
					c0.609,0.069,1.218-0.135,1.623-0.54c4.125-4.125,9.538-6.156,14.881-6.156s10.822,2.029,14.881,6.156
					c0.474,0.474,1.083,0.609,1.623,0.54c0.069,0.069,0.069,0.204,0.135,0.271c0.813,0.946,1.555,2.029,2.164,3.112
					s1.149,2.232,1.623,3.45c0.405,1.218,0.745,2.435,1.014,3.72c0.204,1.218,0.338,2.503,0.338,3.788v0.54
					c-0.069-0.135-0.204-0.204-0.271-0.271c-0.88-0.88-2.029-1.555-3.314-1.961c0.069,0.271,0.069,0.54,0.069,0.811v13.055
					c0,0.271,0,0.54-0.069,0.745c0.338-0.069,0.677-0.204,1.014-0.338v4.262c0,0.474-0.069,0.946-0.135,1.286
					c-0.069,0.338-0.204,0.54-0.338,0.744c-0.135,0.135-0.338,0.271-0.54,0.338c-0.271,0.069-0.54,0.135-0.88,0.135H56.57H44.127
					c-0.405-0.677-1.083-1.149-1.961-1.149h-5.548c-1.218,0-2.164,1.014-2.164,2.164c0.069,1.218,1.014,2.164,2.232,2.164h5.548
					c0.813,0,1.555-0.474,1.961-1.149h12.581h0.474c0.474,0,0.88-0.135,1.286-0.271c0.54-0.204,0.946-0.474,1.353-0.88
					c0.338-0.405,0.609-0.88,0.813-1.489c0.135-0.54,0.271-1.218,0.271-1.961v-5.411v-0.205c0.069-0.069,0.135-0.135,0.204-0.204
					c1.149-1.149,1.961-2.705,2.164-4.397c0.069-0.069,0.135-0.069,0.135-0.135c0.204-0.204,0.338-0.54,0.338-0.811v-5.614
					c0-1.42-0.135-2.84-0.338-4.193c-0.405-1.42-0.745-2.773-1.218-4.125c-0.474-1.353-1.083-2.638-1.826-3.855
					c-0.677-1.218-1.489-2.368-2.435-3.45c-0.069-0.135-0.204-0.204-0.338-0.271c0.135-0.609-0.069-1.353-0.54-1.826
					C52.247-1.065,45.888-3.5,39.462-3.5S26.678-1.066,21.74,3.805c-0.474,0.474-0.677,1.218-0.54,1.826
					c-0.135,0.069-0.204,0.135-0.338,0.271c-0.946,1.083-1.759,2.232-2.435,3.45s-1.286,2.503-1.826,3.855
					c-0.474,1.353-0.88,2.705-1.083,4.125c-0.271,1.353-0.338,2.773-0.338,4.193v5.614c0,0.338,0.135,0.609,0.338,0.811
					C15.588,28.02,15.656,28.02,15.656,28.087z"/>
			</g>
		</g>
	</g>
</g>
</svg>
