<?xml version="1.0" encoding="iso-8859-1"?>
<!-- Generator: Adobe Illustrator 17.0.0, SVG Export Plug-In . SVG Version: 6.00 Build 0)  -->
<!DOCTYPE svg PUBLIC "-//W3C//DTD SVG 1.1//EN" "http://www.w3.org/Graphics/SVG/1.1/DTD/svg11.dtd">
<svg version="1.1" id="Layer_1" xmlns="http://www.w3.org/2000/svg" xmlns:xlink="http://www.w3.org/1999/xlink" x="0px" y="0px"
	 width="400px" height="239.25px" viewBox="0 0 400 239.25" style="enable-background:new 0 0 400 239.25;" xml:space="preserve">
<g>
	<g>
		<rect x="22.796" y="214.015" style="fill:#CECFD2;" width="339.851" height="2.975"/>
	</g>
	<g>
		<g>
			<rect x="79.947" y="37.552" style="fill:#DADCE1;" width="1.018" height="30.533"/>
		</g>
		<g>
			<g>
				<polygon style="fill:#DADCE1;" points="77.833,42.093 77.05,41.467 80.495,36.769 83.861,41.467 83,42.015 80.495,38.413 				
					"/>
			</g>
		</g>
	</g>
	<g>
		<path style="fill:#DADCE1;" d="M352.782,75.914c-0.939,0-1.879-0.157-2.897-0.313c-3.21-0.783-6.028-2.74-7.751-5.558
			c-3.68-5.793-1.879-13.544,3.914-17.223c5.793-3.68,13.544-1.879,17.223,3.914c1.722,2.897,2.27,6.185,1.644,9.473
			c-0.783,3.21-2.74,6.028-5.558,7.751C357.401,75.287,355.053,75.914,352.782,75.914z M352.704,51.566
			c-2.192,0-4.306,0.548-6.263,1.801c-5.558,3.523-7.281,10.804-3.758,16.284c1.644,2.662,4.306,4.541,7.359,5.245
			c3.053,0.705,6.263,0.235,8.925-1.487c5.558-3.523,7.281-10.804,3.758-16.284c-1.644-2.662-4.306-4.541-7.359-5.245
			C354.505,51.644,353.565,51.566,352.704,51.566z"/>
	</g>
	<g>
		<path style="fill:#DADCE1;" d="M351.451,70.12c-1.801-0.391-3.366-1.487-4.306-2.975c-1.018-1.566-1.331-3.366-1.018-5.089
			l0.626,0.157c-0.313,1.566-0.078,3.132,0.939,4.619c0.939,1.409,2.27,2.349,3.914,2.818L351.451,70.12z"/>
	</g>
	<g>
		<path style="fill:#DADCE1;" d="M350.825,72.939c-2.505-0.548-4.776-2.192-6.185-4.306c-1.409-2.27-1.957-4.854-1.331-7.359
			l0.626,0.157c-0.47,2.27-0.078,4.776,1.253,6.889c1.331,2.114,3.445,3.523,5.715,4.071L350.825,72.939z"/>
	</g>
	<g>
		<path style="fill:#DADCE1;" d="M353.252,73.252c-0.391,0-0.939,0-1.331-0.078l0.078-0.626c0.391,0.078,0.939,0.078,1.331,0.078
			L353.252,73.252C353.409,73.252,353.33,73.252,353.252,73.252z M354.896,73.095l-0.157-0.626c0.391-0.078,0.939-0.235,1.331-0.313
			l0.235,0.548C355.836,72.939,355.444,73.017,354.896,73.095z M357.636,72.156l-0.313-0.548c0.391-0.313,0.783-0.47,1.174-0.783
			l0.391,0.47C358.497,71.608,358.184,71.843,357.636,72.156z M360.063,70.355l-0.47-0.391c0.313-0.313,0.548-0.705,0.861-1.096
			l0.47,0.313C360.689,69.572,360.298,69.885,360.063,70.355z M361.629,67.772l-0.548-0.313c0.235-0.391,0.313-0.861,0.391-1.331
			l0.626,0.235C361.942,66.91,361.785,67.302,361.629,67.772z"/>
	</g>
	<g>
		<path style="fill:#DADCE1;" d="M362.177,65.658l-0.626-0.157c0.47-2.27,0.078-4.776-1.253-6.889
			c-1.331-2.114-3.445-3.523-5.793-4.071l0.157-0.626c2.505,0.548,4.776,2.192,6.263,4.306
			C362.255,60.491,362.725,63.152,362.177,65.658z"/>
	</g>
	<g>
		<path style="fill:#DADCE1;" d="M344.092,60.491l-0.626-0.235c0.157-0.47,0.313-1.018,0.391-1.409l0.548,0.313
			C344.405,59.629,344.249,60.099,344.092,60.491z M345.188,57.985l-0.548-0.313c0.313-0.391,0.548-0.861,0.939-1.174l0.47,0.391
			C345.736,57.203,345.423,57.594,345.188,57.985z M346.989,55.95l-0.391-0.47c0.391-0.313,0.861-0.548,1.253-0.861l0.313,0.548
			C347.694,55.402,347.38,55.715,346.989,55.95z M349.416,54.619l-0.235-0.548c0.391-0.235,1.018-0.313,1.409-0.313l0.078,0.626
			C350.277,54.384,349.807,54.462,349.416,54.619z M353.487,54.306c-0.391-0.078-0.939-0.157-1.331-0.157v-0.626
			c0.47,0,1.018,0.078,1.488,0.157L353.487,54.306z"/>
	</g>
	<g>
		
			<rect x="357.214" y="74.783" transform="matrix(-0.8475 0.5309 -0.5309 -0.8475 700.8383 -49.4737)" style="fill:#DADCE1;" width="0.626" height="2.349"/>
	</g>
	<g>
		
			<rect x="361.674" y="71.685" transform="matrix(-0.8317 0.5552 -0.5552 -0.8317 703.5293 -67.4494)" style="fill:#DADCE1;" width="0.626" height="2.427"/>
	</g>
	<g>
		<path style="fill:#DADCE1;" d="M358.576,81.237l-2.035-3.132l7.751-4.854l2.035,3.132L358.576,81.237z M357.48,78.262l1.253,2.114
			l6.655-4.228l-1.253-2.114L357.48,78.262z"/>
	</g>
	<g>
		
			<rect x="361.899" y="79.046" transform="matrix(-0.8539 0.5204 -0.5204 -0.8539 714.9907 -33.6081)" style="fill:#DADCE1;" width="0.626" height="9.003"/>
	</g>
	<g>
		
			<rect x="369.429" y="75.375" transform="matrix(-0.8596 0.5109 -0.5109 -0.8596 731.2136 -30.104)" style="fill:#DADCE1;" width="0.626" height="20.041"/>
	</g>
	<path style="fill:#E3E3E9;" d="M34.069,79.593l-5.48-0.783l0.783-5.324l5.48,0.783L34.069,79.593z M29.842,77.949l3.366,0.47
		l0.47-3.132l-3.288-0.47L29.842,77.949z"/>
	<path style="fill:#E3E3E9;" d="M304.243,33.481L304.243,33.481c0.157-0.313,0.391-0.391,0.705-0.313l0.391,0.235
		c0.313,0.157,0.391,0.391,0.313,0.705l0,0c-0.157,0.313-0.391,0.391-0.705,0.313l-0.391-0.235
		C304.243,34.029,304.087,33.716,304.243,33.481z"/>
	<path style="fill:#E3E3E9;" d="M306.357,32.855l0.235-0.391c0.157-0.313,0.391-0.391,0.705-0.313l0,0
		c0.313,0.157,0.391,0.391,0.313,0.705l-0.235,0.391c-0.157,0.313-0.391,0.391-0.705,0.313l0,0
		C306.435,33.481,306.357,33.09,306.357,32.855z"/>
	<path style="fill:#E3E3E9;" d="M307.297,34.812L307.297,34.812c0.157-0.313,0.391-0.391,0.705-0.313l0.313,0.157
		c0.313,0.157,0.391,0.391,0.313,0.705l0,0c-0.157,0.313-0.391,0.391-0.705,0.313l-0.313-0.157
		C307.297,35.36,307.14,35.047,307.297,34.812z"/>
	<path style="fill:#E3E3E9;" d="M305.105,35.908l0.235-0.47c0.157-0.313,0.391-0.391,0.705-0.313l0,0
		c0.313,0.157,0.391,0.391,0.313,0.705l-0.235,0.47c-0.157,0.313-0.391,0.391-0.705,0.313l0,0
		C305.105,36.534,305.026,36.221,305.105,35.908z"/>
	<polygon style="fill:#E3E3E9;" points="24.675,51.957 22.013,52.036 21.935,54.697 20.917,54.776 20.839,51.096 24.675,50.939 	"/>
	<path style="fill:#E3E3E9;" d="M174.911,37.396l-1.488,4.149l-4.071-1.409l1.488-4.149L174.911,37.396z M172.797,40.136
		l0.705-2.036l-1.957-0.705l-0.705,2.036L172.797,40.136z"/>
	
		<rect x="256.2" y="33.324" transform="matrix(-0.9872 0.1597 -0.1597 -0.9872 516.7715 26.1365)" style="fill:#E3E3E9;" width="2.27" height="1.018"/>
	
		<rect x="258.554" y="30.112" transform="matrix(-0.9872 0.1597 -0.1597 -0.9872 519.7856 20.645)" style="fill:#E3E3E9;" width="1.018" height="2.192"/>
	
		<rect x="260.74" y="32.622" transform="matrix(-0.9872 0.1597 -0.1597 -0.9872 525.5254 24.0283)" style="fill:#E3E3E9;" width="2.114" height="1.018"/>
	
		<rect x="259.934" y="34.739" transform="matrix(-0.9872 0.1595 -0.1595 -0.9872 523.3507 29.7422)" style="fill:#E3E3E9;" width="1.096" height="2.27"/>
	<polygon style="fill:#054456;" points="87.384,52.427 87.384,160.152 281.305,160.152 281.305,68.789 265.725,52.427 	"/>
	<polygon style="fill:#95C0E7;" points="265.099,52.427 265.099,68.789 281.227,68.789 	"/>
	<rect x="199.65" y="58.22" style="fill:#FFFFFF;" width="58.638" height="1.879"/>
	<rect x="199.65" y="132.751" style="fill:#FFFFFF;" width="75.47" height="0.939"/>
	<rect x="199.65" y="135.648" style="fill:#FFFFFF;" width="75.47" height="0.939"/>
	<rect x="199.65" y="138.466" style="fill:#FFFFFF;" width="62.005" height="0.939"/>
	<rect x="199.65" y="145.042" style="fill:#FFFFFF;" width="75.47" height="0.939"/>
	<rect x="199.65" y="147.939" style="fill:#FFFFFF;" width="27.792" height="0.939"/>
	<rect x="255.391" y="72.547" style="fill:#FFFFFF;" width="19.729" height="0.939"/>
	<rect x="255.391" y="75.992" style="fill:#FFFFFF;" width="19.729" height="0.939"/>
	<rect x="255.391" y="79.515" style="fill:#FFFFFF;" width="19.729" height="0.939"/>
	<rect x="255.391" y="82.881" style="fill:#FFFFFF;" width="19.729" height="0.939"/>
	<rect x="255.391" y="86.404" style="fill:#FFFFFF;" width="12.526" height="0.939"/>
	<rect x="255.391" y="104.489" style="fill:#FFFFFF;" width="19.729" height="0.939"/>
	<rect x="255.391" y="107.934" style="fill:#FFFFFF;" width="19.729" height="0.939"/>
	<rect x="255.391" y="111.457" style="fill:#FFFFFF;" width="19.729" height="0.939"/>
	<rect x="255.391" y="114.901" style="fill:#FFFFFF;" width="13.779" height="0.939"/>
	<rect x="199.65" y="62.37" style="fill:#FFFFFF;" width="46.269" height="1.879"/>
	<rect x="199.65" y="78.106" style="fill:#4CC1BB;" width="6.811" height="13.074"/>
	<rect x="208.183" y="72.939" style="fill:#4CC1BB;" width="6.811" height="18.085"/>
	<rect x="216.795" y="76.227" style="fill:#4CC1BB;" width="6.811" height="14.875"/>
	<rect x="225.328" y="69.024" style="fill:#4CC1BB;" width="6.811" height="21.999"/>
	<rect x="233.94" y="71.294" style="fill:#4CC1BB;" width="6.811" height="19.807"/>
	<rect x="242.474" y="74.269" style="fill:#4CC1BB;" width="6.811" height="16.754"/>
	<rect x="199.65" y="104.019" style="fill:#FFFFFF;" width="13.309" height="19.181"/>
	<rect x="235.898" y="104.019" style="fill:#FFFFFF;" width="13.309" height="19.181"/>
	<rect x="217.813" y="104.019" style="fill:#FFFFFF;" width="13.309" height="19.181"/>
	<circle style="fill:#6886C4;" cx="131.695" cy="103.236" r="33.116"/>
	<path style="fill:#4CC1BB;" d="M143.047,72.156c-6.498-2.27-13.466-2.584-20.12-0.783l8.847,31.863L143.047,72.156z"/>
	<path style="fill:#F69EA0;" d="M122.849,71.373c-10.569,2.975-18.946,10.804-22.547,21.216l31.315,10.726L122.849,71.373z"/>
	<path style="fill:#00A0A0;" d="M100.38,92.667c-4.619,13.701,0.157,28.81,11.822,37.344l19.494-26.696L100.38,92.667z"/>
	<path style="fill:#1F85C7;" d="M127.624,136.039c1.331,0.157,2.662,0.313,4.071,0.313c6.889,0,13.622-2.192,19.259-6.185
		l-19.259-26.931L127.624,136.039z"/>
	<path style="fill:#FFFFFF;" d="M131.695,103.236l-19.494,26.618c4.541,3.366,9.943,5.48,15.579,6.185L131.695,103.236z"/>
	<path style="fill:#E3E3E9;" d="M118.308,20.798c-3.053,0-5.558,2.427-5.558,5.558c0,3.053,2.427,5.558,5.558,5.558
		c3.053,0,5.558-2.427,5.558-5.558S121.44,20.798,118.308,20.798L118.308,20.798z M118.308,30.428c-2.27,0-4.149-1.801-4.149-4.149
		c0-2.27,1.801-4.149,4.149-4.149c2.27,0,4.149,1.801,4.149,4.149l0,0C122.457,28.627,120.657,30.428,118.308,30.428L118.308,30.428
		z"/>
	<path style="fill:#E3E3E9;" d="M127.468,34.029c0.313,0.313,0.313,0.861,0,1.096l0,0c-0.313,0.313-0.861,0.313-1.096,0l-5.01-4.854
		c-0.313-0.313-0.313-0.861,0-1.096l0,0l0,0c0.313-0.313,0.861-0.313,1.096,0l0,0L127.468,34.029z"/>
	<path style="fill:#D64541;" d="M311.916,95.721c-6.655,2.818-18.868,15.579-18.868,15.579l-24.191-4.462l0.783,6.263l28.967,11.43
		c0,0,14.405-12.291,16.206-18.633C316.613,99.635,315.752,93.998,311.916,95.721z"/>
	<path style="fill:#F69C94;" d="M327.73,101.905l-3.68-1.096c-1.174-0.391-1.801-1.722-1.409-2.975l1.409-4.541
		c0.313-1.253,1.566-2.035,2.818-1.722l3.68,1.096c1.174,0.391,1.801,1.722,1.409,2.975l-1.409,4.541
		C330.235,101.436,328.983,102.218,327.73,101.905z"/>
	<path style="fill:#F8A79F;" d="M272.302,107.777l-2.035,5.637c0,0-7.907-6.498-7.672-8.847c0.235-2.27,1.879-2.662,1.879-2.662
		l6.655,2.975C272.223,105.428,272.693,106.681,272.302,107.777z"/>
	<path style="fill:#F1584D;" d="M326.399,144.181l-29.436-0.078l8.847-40.867c0.705-3.21,6.107-8.22,9.238-7.359l21.294,6.263
		c2.975,0.939,4.697,4.071,3.758,7.046c-0.078,0.157-0.078,0.313-0.157,0.391L326.399,144.181z"/>
	<path style="fill:#F8A79F;" d="M319.823,89.379c0,5.48,4.384,6.028,9.943,6.028c5.48,0.235,10.099-4.149,10.256-9.551
		c0.235-5.48-4.149-10.099-9.551-10.256c-0.235,0-0.391,0-0.626,0C324.285,75.522,319.823,83.899,319.823,89.379z"/>
	<g>
		<g>
			<g>
				<g>
					<defs>
						<path id="SVGID_1_" d="M319.823,89.379c0,5.48,4.384,6.028,9.943,6.028c5.48,0.235,10.099-4.149,10.256-9.551
							c0.235-5.48-4.149-10.099-9.551-10.256c-0.235,0-0.391,0-0.626,0C324.285,75.522,319.823,83.899,319.823,89.379z"/>
					</defs>
					<clipPath id="SVGID_2_">
						<use xlink:href="#SVGID_1_"  style="overflow:visible;"/>
					</clipPath>
					<g style="clip-path:url(#SVGID_2_);">
						<path style="fill:#804E4F;" d="M333.523,81.785c0,0-1.018,3.366-0.548,3.523c0.47,0.157,2.349,0,3.21,1.957
							c0.783,1.957-1.096,3.21-2.74,3.053c-1.644-0.157-1.722,4.149,2.035,4.541c3.758,0.391,7.594-7.672,6.811-11.508
							c-0.939-3.758-5.715-9.16-7.829-9.551c-2.192-0.391-24.269,0.861-24.269,0.861L333.523,81.785z"/>
					</g>
				</g>
			</g>
		</g>
	</g>
	<path style="fill:#804E4F;" d="M325.46,87.735c-2.505-0.783-5.245,0.705-6.028,3.21c-0.783,2.505,0.705,5.245,3.21,6.028
		c2.505,0.783,5.245-0.705,6.028-3.21C329.452,91.258,328.043,88.518,325.46,87.735z M323.268,95.329
		c-1.644-0.47-2.584-2.27-2.114-3.836c0.47-1.644,2.27-2.584,3.836-2.114c1.644,0.47,2.584,2.27,2.114,3.836l0,0
		C326.634,94.859,324.833,95.877,323.268,95.329L323.268,95.329z"/>
	<path style="fill:#804E4F;" d="M319.823,90.319l9.16,2.818c0,0-1.566,13.387-8.847,10.804
		C313.168,101.279,319.823,90.319,319.823,90.319z"/>
	<path style="fill:#01A39B;" d="M326.399,144.181l-29.436-0.078v66.545h5.793c0,0,4.384-32.803,6.107-50.966h4.071l-0.313,25.835
		l23.721,20.746l3.132-5.324l-15.736-20.433c0,0,2.975-26.383,2.897-30.924C326.712,147.704,326.634,145.904,326.399,144.181z"/>
	<path style="fill:#2C296A;" d="M296.884,210.57h5.95v4.541h-12.056c-0.783,0-1.018-1.722-0.313-2.192L296.884,210.57z"/>
	<path style="fill:#2C296A;" d="M336.263,205.873l3.288-4.932l3.758,2.505l-6.655,10.021c-0.391,0.626-2.114-0.078-2.035-0.939
		L336.263,205.873z"/>
	<path style="fill:#F8A79F;" d="M96.622,132.594c0.939-0.157,1.566-1.018,1.409-1.879l0,0l-0.313-2.975
		c0-0.548-0.939-0.391-1.488-0.313l-1.566,0.391l0.47,5.01C95.213,132.751,96.309,132.594,96.622,132.594z"/>
	<g>
		<path style="fill:#01A39B;" d="M62.41,149.27h28.654l-0.783,61.3H84.8c0,0-4.149-30.846-5.715-47.913h-3.758l-1.096,47.913h-5.48
			c0,0-6.42-48.069-6.263-57.307C62.332,151.932,62.332,150.601,62.41,149.27z"/>
		<path style="fill:#F1584D;" d="M62.41,149.27h28.654l3.601-38.127c0.313-3.053-2.662-5.793-6.498-5.793h-22.86
			c-3.836,0-6.811,2.662-6.498,5.793L62.41,149.27z"/>
		<path style="fill:#F69C94;" d="M76.893,109.499c-5.089,0-5.01-3.523-5.01-4.228v-5.558c0-1.253,1.879-1.174,2.975-1.174h3.601
			c1.096,0,2.975,1.018,2.975,2.27v4.462c0,2.349-2.035,4.306-4.384,4.228C76.972,109.499,76.972,109.499,76.893,109.499z"/>
		<path style="fill:#F8A79F;" d="M84.722,98.382c-1.488,4.932-5.558,4.228-10.569,2.74c-4.932-1.331-7.985-6.42-6.655-11.43
			c1.331-4.932,6.42-7.985,11.43-6.655c0.235,0.078,0.313,0.078,0.548,0.157C84.331,84.682,86.131,93.45,84.722,98.382z"/>
		<g>
			<g>
				<g>
					<g>
						<defs>
							<path id="SVGID_3_" d="M84.722,98.382c-1.488,4.932-5.558,4.228-10.569,2.74c-4.932-1.331-7.985-6.42-6.655-11.43
								c1.331-4.932,6.42-7.985,11.43-6.655c0.235,0.078,0.313,0.078,0.548,0.157C84.331,84.682,86.131,93.45,84.722,98.382z"/>
						</defs>
						<clipPath id="SVGID_4_">
							<use xlink:href="#SVGID_3_"  style="overflow:visible;"/>
						</clipPath>
						<g style="clip-path:url(#SVGID_4_);">
							<path style="fill:#2C296A;" d="M74.388,87.813c0,0,0,3.288-0.391,3.288s-2.192-0.705-3.445,0.861
								c-1.253,1.566,0.157,3.21,1.644,3.523c1.488,0.313,0.391,4.228-3.053,3.523s-4.776-8.925-2.975-12.135
								c1.801-3.21,7.594-6.733,9.629-6.498s15.501,7.516,15.501,7.516L74.388,87.813z"/>
						</g>
					</g>
				</g>
			</g>
		</g>
		<path style="fill:#F1584D;" d="M94.743,109.969l7.359,14.092l11.352-13.074c0-0.47,5.245,1.487,4.619,2.584
			c-1.018,1.879-8.299,16.754-14.092,22.782c-3.21,3.366-12.604-8.925-13.074-9.864c-0.861-1.331-1.957-9.786-2.114-14.483
			c0-1.018,0.783-2.036,1.879-2.114l1.644-3.053C93.256,106.759,94.508,109.03,94.743,109.969z"/>
		<path style="fill:#F1584D;" d="M61.236,106.681c0,0-13.309,14.092-17.928,18.633c-2.584,2.427,0,4.228,1.488,6.185
			c4.149,5.089,17.38,14.249,17.38,14.249l-0.783-7.751l-7.985-9.395c0,0,11.274-8.69,11.587-9.316
			c1.018-1.722,0.157-9.238,0.157-9.238L61.236,106.681z"/>
		<path style="fill:#2C296A;" d="M90.359,210.492h-5.558v4.228h11.352c0.783,0,1.018-1.644,0.313-2.036L90.359,210.492z"/>
		<path style="fill:#2C296A;" d="M73.997,210.492h-5.558v4.228H79.79c0.783,0,1.018-1.644,0.313-2.036L73.997,210.492z"/>
		<path style="fill:#F8A79F;" d="M113.532,110.595c0.548-2.897,2.975-5.95,6.263-4.384s-2.192,7.907-2.192,7.907L113.532,110.595z"
			/>
	</g>
	<path style="fill:#1F85C7;" d="M240.751,38.726c-21.921,0-39.692,17.772-39.692,39.692s17.772,39.692,39.692,39.692
		s39.692-17.772,39.692-39.692l0,0C280.365,56.498,262.594,38.726,240.751,38.726z M240.751,108.012
		c-16.362,0-29.671-13.309-29.671-29.671s13.309-29.671,29.671-29.671s29.671,13.309,29.671,29.671S257.114,108.012,240.751,108.012
		L240.751,108.012z"/>
	<path style="fill:#1F85C7;" d="M307.062,125.235c1.957,1.957,1.957,5.167,0,7.124l0,0c-1.957,1.957-5.167,1.957-7.124,0
		l-31.707-30.376c-1.957-1.957-1.957-5.167,0-7.124l0,0l0,0c1.957-1.957,5.167-1.957,7.124,0l0,0L307.062,125.235z"/>
	<path style="fill:#F8A79F;" d="M288.194,123.278l0.783,8.142c0,0-9.943-2.505-10.804-4.776c-0.783-2.192,0.548-3.21,0.548-3.21
		L288.194,123.278z"/>
	<path style="fill:#D64541;" d="M335.481,103.001l-20.12,20.668l-27.949-0.391l0.626,8.142l34.447,4.149
		c0,0,14.092-15.971,15.971-22.234C340.256,106.994,339.708,103.001,335.481,103.001z"/>
</g>
</svg>
