<?xml version="1.0" encoding="utf-8"?>
<!-- Generator: Adobe Illustrator 18.1.1, SVG Export Plug-In . SVG Version: 6.00 Build 0)  -->
<svg version="1.1" id="Capa_1" xmlns="http://www.w3.org/2000/svg" xmlns:xlink="http://www.w3.org/1999/xlink" x="0px" y="0px"
	 viewBox="1443.03 2051.773 146 111" enable-background="new 1443.03 2051.773 146 111" xml:space="preserve">
<path id="Forma_1_copy_3" fill="#4775E5" d="M1535.153,2107.254h11.527v3.828h-11.527V2107.254z M1508.258,2095.764h11.527v3.829
	h-11.527V2095.764z M1479.441,2095.764h11.527v3.829h-11.527V2095.764z M1508.258,2112.997h11.527v3.822h-11.527v-3.827V2112.997z
	 M1492.889,2072.795h15.369v3.828h-15.369C1492.889,2076.623,1492.889,2072.795,1492.889,2072.795z M1569.734,2151.285h-88.372
	c-0.297-0.004-0.592,0.062-0.859,0.192l-7.685,3.829c-0.946,0.468-1.334,1.615-0.866,2.562c0.186,0.376,0.49,0.68,0.866,0.866
	l7.685,3.828c0.266,0.137,0.56,0.209,0.859,0.212h88.372c3.172,0,5.744-2.572,5.744-5.744
	C1575.478,2153.856,1572.906,2151.285,1569.734,2151.285z M1569.734,2158.943h-7.685v-3.83h7.685c1.058,0,1.915,0.857,1.915,1.915
	S1570.792,2158.943,1569.734,2158.943z M1460.229,2155.113v1.915c0.002,1.059,0.862,1.917,1.921,1.915c0,0,0,0,0,0h1.921v-3.83
	H1460.229z M1469.388,2141.954c-1.475,0.307-2.875,0.902-4.12,1.75l2.166,3.163c0.828-0.566,1.761-0.962,2.743-1.165
	L1469.388,2141.954z M1541.676,2138.112c-0.537,0.853-1.236,1.593-2.058,2.176l2.236,3.12c1.228-0.873,2.272-1.979,3.074-3.255
	L1541.676,2138.112z M1462.129,2146.883c-0.831,1.253-1.406,2.658-1.691,4.134l3.772,0.722c0.188-0.983,0.57-1.919,1.123-2.753
	L1462.129,2146.883z M1473.522,2141.718h3.753v3.828h-3.753V2141.718z M1496.052,2141.718h3.756v3.828h-3.758v-3.828H1496.052z
	 M1481.031,2141.718h3.756v3.828h-3.756C1481.031,2145.546,1481.031,2141.718,1481.031,2141.718z M1511.072,2141.718h3.756v3.828
	h-3.756V2141.718z M1518.584,2141.718h3.753v3.828h-3.753V2141.718z M1503.562,2141.718h3.756v3.828h-3.756
	C1503.562,2145.546,1503.562,2141.718,1503.562,2141.718z M1536.904,2141.527c-0.574,0.131-1.162,0.195-1.751,0.191h-1.551v3.828
	h1.551c0.882,0.001,1.761-0.099,2.62-0.298L1536.904,2141.527z M1488.541,2141.718h3.756v3.828h-3.756V2141.718z M1526.086,2141.718
	h3.755v3.828h-3.755V2141.718z M1508.258,2112.997h11.527v3.822h-11.527v-3.827V2112.997z M1508.258,2095.767h11.527v3.828h-11.527
	v-3.832V2095.767z M1535.153,2107.254h11.527v3.828h-11.527V2107.254z M1479.441,2095.764h11.527v3.829h-11.527V2095.764z
	 M1492.889,2072.792h15.369v3.829h-15.369v-3.825V2072.792z M1565.892,2053.653h-96.057c-5.292-0.003-9.589,4.278-9.606,9.57v65.09
	c0.016,5.293,4.313,9.574,9.606,9.572h96.057c5.293,0.002,9.59-4.279,9.606-9.572v-65.09
	C1575.48,2057.931,1571.184,2053.65,1565.892,2053.653z M1546.68,2134.056c0.002,0.646-0.049,1.29-0.154,1.927l-3.79-0.635
	c0.073-0.427,0.109-0.86,0.109-1.294v-2.122h3.842v2.124H1546.68z M1546.68,2128.191h-3.842v-3.744h3.842v3.746V2128.191z
	 M1546.68,2120.66h-3.842v-3.841h3.842v3.842V2120.66z M1548.601,2114.918h-15.369c-1.059,0.001-1.919-0.856-1.921-1.915v-7.665
	c0.003-1.059,0.862-1.915,1.921-1.913h5.763v-3.83h-15.369v1.915c-0.002,1.059-0.862,1.917-1.921,1.915l0,0h-5.763v5.743h5.763
	c1.059-0.002,1.919,0.856,1.921,1.915l0,0v7.657c0.002,1.059-0.856,1.919-1.915,1.921c-0.002,0-0.004,0-0.006,0h-15.369
	c-1.059,0.002-1.919-0.856-1.921-1.915l0,0v-7.663c0.002-1.059,0.862-1.917,1.921-1.915l0,0h5.763v-5.743h-5.763
	c-1.059,0.002-1.919-0.856-1.921-1.915c0,0,0,0,0,0v-7.657c0.002-1.059,0.862-1.917,1.921-1.915c0,0,0,0,0,0h5.763v-3.829h-24.975
	v3.829h5.763c1.059-0.002,1.919,0.855,1.921,1.915c0,0,0,0,0,0v7.657c-0.002,1.059-0.862,1.917-1.921,1.915l0,0h-15.369
	c-1.059,0.002-1.919-0.856-1.921-1.915l0,0v-7.657c0.002-1.059,0.862-1.917,1.921-1.915c0,0,0,0,0,0h5.763v-5.742
	c0.002-1.059,0.862-1.917,1.921-1.915c0,0,0,0,0,0h13.448v-3.828h-7.684c-1.059,0.002-1.919-0.856-1.921-1.915c0,0,0,0,0,0v-7.658
	c0.003-1.059,0.862-1.915,1.921-1.913h19.211c1.059-0.002,1.919,0.855,1.921,1.913v7.658c-0.002,1.059-0.862,1.917-1.921,1.915l0,0
	h-7.685v3.828h11.527c1.059-0.002,1.919,0.856,1.921,1.915c0,0,0,0,0,0v5.742h5.763c1.059-0.002,1.919,0.855,1.921,1.915
	c0,0,0,0,0,0v1.91h17.29c1.059-0.002,1.919,0.856,1.921,1.915c0,0,0,0,0,0v5.743h5.763c1.059-0.002,1.919,0.855,1.921,1.914v7.658
	c-0.001,1.06-0.861,1.919-1.921,1.918c0,0,0,0,0,0V2114.918z M1560.128,2128.313c-0.002,1.058-0.861,1.915-1.92,1.913
	c0,0-0.001,0-0.002,0h-7.684v-3.828h5.763v-61.261h-84.53v61.261h67.24v3.828h-69.161c-1.058,0.003-1.919-0.854-1.921-1.912
	c0,0,0-0.001,0-0.001v-65.09c0.002-1.059,0.861-1.915,1.92-1.914c0,0,0.001,0,0.001,0h88.372c1.058-0.002,1.919,0.854,1.921,1.912
	c0,0,0,0.001,0,0.002V2128.313z M1567.813,2105.339h-3.842v-19.142h3.842V2105.339z"/>
</svg>
