<?xml version="1.0" encoding="utf-8"?>
<!-- Generator: Adobe Illustrator 18.1.1, SVG Export Plug-In . SVG Version: 6.00 Build 0)  -->
<svg version="1.1" id="Capa_1" xmlns="http://www.w3.org/2000/svg" xmlns:xlink="http://www.w3.org/1999/xlink" x="0px" y="0px"
	 viewBox="1674.863 2082.773 49 49" enable-background="new 1674.863 2082.773 49 49" xml:space="preserve">
<g>
	<g id="Layer_1_1_">
		<g>
			<path fill="#FFFFFF" d="M1707.148,2100.687h-12.892c-0.949,0-1.719,0.77-1.719,1.719s0.77,1.719,1.719,1.719h12.892
				c0.951,0,1.719-0.77,1.719-1.719C1708.866,2101.457,1708.098,2100.687,1707.148,2100.687z"/>
			<path fill="#FFFFFF" d="M1708.866,2108.852c0-0.949-0.768-1.719-1.72-1.719h-12.891c-0.949,0-1.719,0.77-1.719,1.719
				c0,0.949,0.77,1.719,1.719,1.719h12.892C1708.098,2110.572,1708.866,2109.802,1708.866,2108.852z"/>
			<path fill="#FFFFFF" d="M1700.702,2117.018c0.949,0,1.719-0.77,1.719-1.719c0-0.949-0.769-1.719-1.719-1.719h-6.447
				c-0.949,0-1.719,0.77-1.719,1.719s0.77,1.719,1.719,1.719H1700.702z"/>
			<path fill="#FFFFFF" d="M1713.678,2122.865l-1.803,1.19v4.279h-22.347v-30.942h22.347v6.793l3.438-5.955v-2.557
				c0-0.949-0.77-1.719-1.719-1.719h-25.785c-0.949,0-1.719,0.77-1.719,1.719v34.382c0,0.949,0.769,1.719,1.719,1.719h25.785
				c0.95,0,1.72-0.77,1.72-1.719v-9.475l-0.822,1.421C1714.292,2122.348,1714.01,2122.646,1713.678,2122.865z"/>
			<path fill="#FFFFFF" d="M1723.843,2101.915c-0.035-0.155-0.398-1.543-2.585-2.807c-2.187-1.262-3.571-0.883-3.724-0.835
				c-0.205,0.065-0.378,0.203-0.486,0.39l-10.744,18.608c-0.067,0.116-0.106,0.246-0.114,0.38l-0.402,6.715
				c-0.019,0.325,0.146,0.632,0.427,0.796c0.283,0.163,0.632,0.151,0.904-0.026l5.614-3.706c0.112-0.073,0.204-0.171,0.271-0.286
				l10.744-18.612C1723.856,2102.345,1723.889,2102.126,1723.843,2101.915z M1709.285,2122.161c-0.286-0.231-0.61-0.449-0.958-0.651
				c-0.35-0.202-0.701-0.372-1.044-0.505l0.12-2.013c0.448,0.059,1.113,0.24,1.957,0.727c0.843,0.487,1.332,0.973,1.609,1.331
				L1709.285,2122.161z"/>
			<path fill="#FFFFFF" d="M1698.074,2124.96c0.056,0.345,0.455,0.452,0.721,0.563c0.258,0.109,0.565-0.097,0.779-0.201
				c1.312-0.638,3.088,0.112,4.493,0.112c0.831,0,0.831-1.289,0-1.289c-1.638,0-3.001-0.414-4.625-0.146
				c0-0.094-0.035-0.221-0.136-0.394c-0.303-0.519-0.69-0.666-1.077-0.604c-0.026-0.061-0.051-0.122-0.087-0.184
				c-0.101-0.166-0.243-0.249-0.402-0.283c0.453-0.792,0.745-1.629,0.448-2.307c-0.091-0.206-0.349-0.312-0.557-0.32
				c-0.861-0.032-1.6,0.872-2.153,1.414c-1.385,1.357-2.605,2.898-3.785,4.432c-0.507,0.659,0.614,1.299,1.113,0.652
				c1.046-1.358,2.154-2.677,3.346-3.911c-0.287,0.472-0.592,0.934-0.913,1.38c-0.459,0.709,0.636,1.312,1.113,0.651
				c0.113-0.173,0.257-0.298,0.415-0.405c-0.031,0.08-0.063,0.158-0.096,0.238c0.002,0,0.003,0.001,0.005,0.001
				c-0.025,0.052-0.05,0.103-0.07,0.152c-0.288,0.722,0.788,1.052,1.179,0.496c0.099-0.14,0.191-0.29,0.274-0.447
				C1698.053,2124.669,1698.051,2124.814,1698.074,2124.96z"/>
		</g>
	</g>
</g>
<path fill="#FFFFFF" d="M1688.435,2110.203L1688.435,2110.203c-7.521,0-13.618-6.097-13.618-13.618v0
	c0-7.521,6.097-13.618,13.618-13.618h0c7.521,0,13.618,6.097,13.618,13.618v0
	C1702.053,2104.106,1695.956,2110.203,1688.435,2110.203z"/>
<path id="XMLID_1_" fill="#FFFFFF" d="M1688.435,2082.967c-7.521,0-13.618,6.097-13.618,13.618c0,7.521,6.097,13.618,13.618,13.618
	c7.521,0,13.618-6.097,13.618-13.618C1702.053,2089.064,1695.956,2082.967,1688.435,2082.967z M1692.594,2088.53
	c1.119,0,2.026,1.447,2.026,3.231c0,1.785-0.907,3.231-2.026,3.231c-1.119,0-2.026-1.447-2.026-3.231
	C1690.568,2089.977,1691.475,2088.53,1692.594,2088.53z M1684.276,2088.53c1.119,0,2.026,1.447,2.026,3.231
	c0,1.785-0.907,3.231-2.026,3.231c-1.119,0-2.026-1.447-2.026-3.231C1682.25,2089.977,1683.157,2088.53,1684.276,2088.53z
	 M1688.435,2106.004c-5.194,0-9.419-4.226-9.419-9.419c0-0.501,0.406-0.908,0.908-0.908c0.502,0,0.908,0.406,0.908,0.908
	c0,4.193,3.411,7.603,7.604,7.603c4.193,0,7.604-3.411,7.604-7.603c0-0.501,0.406-0.908,0.908-0.908
	c0.502,0,0.908,0.406,0.908,0.908C1697.854,2101.779,1693.628,2106.004,1688.435,2106.004z"/>
</svg>
