<?xml version="1.0" encoding="utf-8"?>
<!-- Generator: Adobe Illustrator 17.0.0, SVG Export Plug-In . SVG Version: 6.00 Build 0)  -->
<!DOCTYPE svg PUBLIC "-//W3C//DTD SVG 1.1//EN" "http://www.w3.org/Graphics/SVG/1.1/DTD/svg11.dtd">
<svg version="1.1" id="Layer_1" xmlns="http://www.w3.org/2000/svg" xmlns:xlink="http://www.w3.org/1999/xlink" x="0px" y="0px"
	 width="70.088px" height="70.088px" viewBox="0 0 70.088 70.088" enable-background="new 0 0 70.088 70.088" xml:space="preserve">
<g>
	<g>
		<path fill="#4776E6" d="M58.773,30.626L35.36,7.209c-1.381-1.377-3.615-1.361-4.977-0.002c-1.371,1.374-1.371,3.605,0,4.977
			L53.799,35.6c1.372,1.372,3.602,1.372,4.974,0C60.149,34.224,60.149,32.001,58.773,30.626z"/>
	</g>
</g>
<g>
	<g>
		<path fill="#4776E6" d="M28.646,15.422l-0.176,0.883c-1.241,6.209-4.258,12.108-8.338,16.889L32.87,45.933
			c4.78-4.08,10.598-7.177,16.808-8.42l0.885-0.176L28.646,15.422z"/>
	</g>
</g>
<g>
	<g>
		<path fill="#4776E6" d="M17.795,35.833l-8.706,8.704c-2.057,2.057-2.066,5.397,0,7.463l4.974,4.974
			c2.057,2.057,5.397,2.066,7.463,0l8.705-8.705L17.795,35.833z M19.039,49.513c-0.687,0.687-1.8,0.687-2.487,0
			c-0.687-0.687-0.687-1.8,0-2.487l2.487-2.487c0.687-0.687,1.8-0.687,2.487,0c0.687,0.687,0.687,1.8,0,2.487L19.039,49.513z"/>
	</g>
</g>
<g>
	<g>
		<path fill="#4776E6" d="M37.574,57.91l2.392-2.392c2.066-2.065,2.059-5.405,0-7.461l-1.777-1.778
			c-0.982,0.66-1.92,1.377-2.832,2.142l2.122,2.125c0.685,0.682,0.69,1.791,0,2.485l-2.432,2.432L31.474,52L26.5,56.974l7.98,7.732
			c1.362,1.365,3.598,1.373,4.972-0.002c1.372-1.372,1.372-3.603,0-4.976L37.574,57.91z"/>
	</g>
</g>
<g>
	<g>
		<path fill="#4776E6" d="M44.679,5.702c-0.972,0-1.759,0.787-1.759,1.759v3.517c0,0.972,0.787,1.759,1.759,1.759
			s1.759-0.787,1.759-1.759V7.46C46.438,6.488,45.651,5.702,44.679,5.702z"/>
	</g>
</g>
<g>
	<g>
		<path fill="#4776E6" d="M58.749,19.771h-3.517c-0.972,0-1.759,0.787-1.759,1.759s0.787,1.759,1.759,1.759h3.517
			c0.972,0,1.759-0.787,1.759-1.759S59.721,19.771,58.749,19.771z"/>
	</g>
</g>
<g>
	<g>
		<path fill="#4776E6" d="M56.475,9.734c-0.687-0.687-1.8-0.687-2.487,0l-3.517,3.517c-0.687,0.687-0.687,1.8,0,2.487
			c0.687,0.687,1.8,0.687,2.487,0l3.517-3.517C57.162,11.534,57.162,10.421,56.475,9.734z"/>
	</g>
</g>
</svg>
