<?xml version="1.0" encoding="utf-8"?>
<!-- Generator: Adobe Illustrator 17.0.0, SVG Export Plug-In . SVG Version: 6.00 Build 0)  -->
<!DOCTYPE svg PUBLIC "-//W3C//DTD SVG 1.1//EN" "http://www.w3.org/Graphics/SVG/1.1/DTD/svg11.dtd">
<svg version="1.1" id="Layer_1" xmlns="http://www.w3.org/2000/svg" xmlns:xlink="http://www.w3.org/1999/xlink" x="0px" y="0px"
	 width="70.088px" height="70.088px" viewBox="0 0 70.088 70.088" enable-background="new 0 0 70.088 70.088" xml:space="preserve">
<g>
	<path fill="#4776E6" d="M48.409,49.36c-0.288,0.008-0.576,0.014-0.863,0.019c-0.055,0.001-0.11,0.002-0.166,0.003
		c-0.337,0.005-0.674,0.007-1.01,0.007c-0.337,0-0.675-0.003-1.013-0.007c-0.045-0.001-0.091-0.002-0.136-0.003
		c-0.299-0.005-0.597-0.011-0.896-0.02c-0.021,0-0.042-0.001-0.062-0.002c-6.869-0.203-13.676-1.399-17.448-3.528v3.561v0.376v0.376
		v2.097c2.144,2.162,9.629,4.171,19.555,4.171c8.733,0,15.571-1.555,18.552-3.401v-2.867v-0.376V49.39v-3.05
		c-3.898,1.807-10.131,2.828-16.419,3.016C48.471,49.358,48.44,49.359,48.409,49.36z"/>
	<path fill="#4776E6" d="M26.814,36.799v3.565v0.376v0.376v2.08c0.052,0.052,0.098,0.105,0.157,0.157
		c0.044,0.04,0.087,0.08,0.135,0.12c2.515,2.055,9.934,3.91,19.262,3.91c8.572,0,15.529-1.567,18.552-3.415v-2.853V40.74v-0.376
		v-3.059c-4.343,2.006-11.585,3.059-18.552,3.059C38.835,40.364,30.977,39.134,26.814,36.799z"/>
	<path fill="#4776E6" d="M26.814,54.854v4.313c0,0.15,0.036,0.295,0.1,0.423c1.05,4.332,10.241,6.597,18.953,6.597
		c8.696,0,17.866-2.255,18.948-6.571c0.067-0.134,0.105-0.287,0.105-0.448v-3.802c-4.338,2.012-11.572,3.05-18.552,3.05
		C38.819,58.415,30.972,57.202,26.814,54.854z"/>
	<path fill="#4776E6" d="M45.868,24.319c-8.714,0-17.94,2.308-18.957,6.603c-0.059,0.128-0.096,0.267-0.096,0.417v0.376v2.456
		c2.159,2.161,9.807,4.188,19.555,4.188c8.572,0,15.529-1.567,18.552-3.415v-3.229v-0.376c0-0.145-0.036-0.281-0.094-0.405
		C63.824,26.632,54.59,24.319,45.868,24.319z"/>
	<path fill="#4776E6" d="M60.3,6.018H9.373c-2.548,0-4.621,2.073-4.621,4.621v11.816c0,0.977,0.315,1.874,0.837,2.616h24.084
		c3.985-1.81,9.963-2.758,15.737-2.758s11.751,0.949,15.736,2.758h2.936c0.523-0.742,0.838-1.64,0.838-2.615V10.639
		C64.921,8.091,62.849,6.018,60.3,6.018z M15.282,21.06c-2.488,0-4.513-2.025-4.513-4.513s2.025-4.513,4.513-4.513
		s4.513,2.025,4.513,4.513S17.77,21.06,15.282,21.06z M38.848,16.046c-0.554,0-1.003-0.449-1.003-1.003s0.449-1.003,1.003-1.003
		c0.554,0,1.003,0.449,1.003,1.003S39.402,16.046,38.848,16.046z M40.854,19.055c-0.554,0-1.003-0.449-1.003-1.003
		s0.449-1.003,1.003-1.003c0.554,0,1.003,0.449,1.003,1.003S41.407,19.055,40.854,19.055z M42.859,16.046
		c-0.554,0-1.003-0.449-1.003-1.003s0.449-1.003,1.003-1.003c0.554,0,1.003,0.449,1.003,1.003S43.413,16.046,42.859,16.046z
		 M44.865,19.055c-0.554,0-1.003-0.449-1.003-1.003s0.449-1.003,1.003-1.003c0.554,0,1.003,0.449,1.003,1.003
		S45.419,19.055,44.865,19.055z M46.871,16.046c-0.554,0-1.003-0.449-1.003-1.003s0.449-1.003,1.003-1.003
		c0.554,0,1.003,0.449,1.003,1.003S47.424,16.046,46.871,16.046z M48.876,19.055c-0.554,0-1.003-0.449-1.003-1.003
		s0.449-1.003,1.003-1.003c0.554,0,1.003,0.449,1.003,1.003S49.43,19.055,48.876,19.055z M50.882,16.046
		c-0.554,0-1.003-0.449-1.003-1.003s0.449-1.003,1.003-1.003c0.554,0,1.003,0.449,1.003,1.003S51.435,16.046,50.882,16.046z
		 M52.888,19.055c-0.554,0-1.003-0.449-1.003-1.003s0.449-1.003,1.003-1.003c0.554,0,1.003,0.449,1.003,1.003
		S53.441,19.055,52.888,19.055z M54.893,16.046c-0.554,0-1.003-0.449-1.003-1.003s0.449-1.003,1.003-1.003
		c0.554,0,1.003,0.449,1.003,1.003S55.447,16.046,54.893,16.046z M56.899,19.055c-0.554,0-1.003-0.449-1.003-1.003
		s0.449-1.003,1.003-1.003c0.554,0,1.003,0.449,1.003,1.003S57.452,19.055,56.899,19.055z"/>
	<path fill="#4776E6" d="M24.809,44.125c0-0.156,0-3.008,0-3.008V40.74v-0.376v-3.565v-2.628v-2.456v-0.376
		c0-0.15,0.037-0.289,0.096-0.417c0.366-1.545,1.806-2.829,3.892-3.845H5.59c-0.522,0.742-0.837,1.64-0.837,2.615v11.816
		c0,0.977,0.315,1.874,0.837,2.616H24.809z M15.282,31.088c2.488,0,4.513,2.025,4.513,4.513c0,2.488-2.025,4.513-4.513,4.513
		s-4.513-2.025-4.513-4.513S12.794,31.088,15.282,31.088z"/>
	<path fill="#4776E6" d="M27.534,62.746c-1.39-0.885-2.331-1.938-2.625-3.156c-0.064-0.128-0.1-0.273-0.1-0.423v-4.313V52.24v-2.098
		v-0.376V49.39v-3.259H5.59c-0.522,0.742-0.837,1.64-0.837,2.615v11.816c0,2.553,2.069,4.622,4.621,4.622h17.518
		c0.011,0,0.021,0,0.032,0C28.194,65.166,28.605,63.428,27.534,62.746z M15.282,59.167c-2.488,0-4.513-2.025-4.513-4.513
		c0-2.488,2.025-4.513,4.513-4.513s4.513,2.025,4.513,4.513C19.795,57.143,17.77,59.167,15.282,59.167z"/>
</g>
</svg>
