<?xml version="1.0" encoding="utf-8"?>
<!-- Generator: Adobe Illustrator 17.0.0, SVG Export Plug-In . SVG Version: 6.00 Build 0)  -->
<!DOCTYPE svg PUBLIC "-//W3C//DTD SVG 1.1//EN" "http://www.w3.org/Graphics/SVG/1.1/DTD/svg11.dtd">
<svg version="1.1" id="Layer_1" xmlns="http://www.w3.org/2000/svg" xmlns:xlink="http://www.w3.org/1999/xlink" x="0px" y="0px"
	 width="70.088px" height="70.088px" viewBox="0 0 70.088 70.088" enable-background="new 0 0 70.088 70.088" xml:space="preserve">
<path fill="#4776E6" d="M31.704,30.271c-4.864,0-8.821,3.957-8.821,8.821c0,4.864,3.957,8.821,8.821,8.821
	c4.864,0,8.821-3.957,8.821-8.821c0-0.416-0.067-0.814-0.123-1.215l-4.958,4.958l-0.001-0.001c-0.958,0.957-2.281,1.55-3.739,1.55
	c-2.918,0-5.293-2.374-5.293-5.293c0-1.458,0.593-2.781,1.55-3.739l-0.001-0.001l4.958-4.958
	C32.518,30.337,32.12,30.271,31.704,30.271z"/>
<path fill="#4776E6" d="M38.507,24.804c-2.07-0.99-4.359-1.591-6.802-1.591c-8.756,0-15.878,7.122-15.878,15.878
	c0,8.756,7.122,15.878,15.878,15.878c8.756,0,15.878-7.122,15.878-15.878c0-2.444-0.601-4.733-1.591-6.803l-2.694,2.694
	c0.46,1.292,0.757,2.661,0.757,4.109c0,6.809-5.541,12.35-12.35,12.35s-12.35-5.541-12.35-12.35s5.541-12.35,12.35-12.35
	c1.448,0,2.817,0.297,4.109,0.757L38.507,24.804z"/>
<path fill="#4776E6" d="M31.704,65.555c14.616,0,26.463-11.848,26.463-26.463c0-4.463-1.115-8.661-3.067-12.35h-3.563l-2.899,2.899
	c1.568,2.799,2.472,6.02,2.472,9.451c0,10.7-8.706,19.406-19.406,19.406c-10.701,0-19.407-8.706-19.407-19.406
	c0-10.701,8.706-19.407,19.407-19.407c3.43,0,6.651,0.904,9.45,2.472l2.899-2.899v-3.563c-3.689-1.951-7.887-3.067-12.35-3.067
	c-14.616,0-26.464,11.848-26.464,26.464S17.088,65.555,31.704,65.555z"/>
<path fill="#4776E6" d="M36.466,36.824l13.611-13.61H54.2l11.248-10.586h-7.28v-7.28L47.582,16.596v4.123l-13.611,13.61
	C35.063,34.852,35.944,35.732,36.466,36.824z"/>
<path fill="#4776E6" d="M33.468,39.092c0,0.974-0.79,1.764-1.764,1.764c-0.975,0-1.764-0.79-1.764-1.764
	c0-0.975,0.79-1.764,1.764-1.764C32.678,37.328,33.468,38.117,33.468,39.092z"/>
</svg>
