<?xml version="1.0" encoding="utf-8"?>
<!-- Generator: Adobe Illustrator 17.0.0, SVG Export Plug-In . SVG Version: 6.00 Build 0)  -->
<!DOCTYPE svg PUBLIC "-//W3C//DTD SVG 1.1//EN" "http://www.w3.org/Graphics/SVG/1.1/DTD/svg11.dtd">
<svg version="1.1" id="Capa_1" xmlns="http://www.w3.org/2000/svg" xmlns:xlink="http://www.w3.org/1999/xlink" x="0px" y="0px"
	 width="81px" height="76.717px" viewBox="11 -13.404 81 76.717" enable-background="new 11 -13.404 81 76.717"
	 xml:space="preserve">
<g transform="translate(-1)">
	<g>
		<g>
			<path fill="#4775E5" d="M88.449,43.348H15.167v3.211c-0.177,2.359,1.571,4.424,3.926,4.641h65.43
				c2.355-0.216,4.102-2.281,3.926-4.641V43.348L88.449,43.348z"/>
			<path fill="#4775E5" d="M29.561,22.541c-3.044,0.626-5.23,3.304-5.234,6.412c0.007,0.738,0.139,1.469,0.393,2.162l4.842-2.903
				L29.561,22.541L29.561,22.541z"/>
			<path fill="#4775E5" d="M26.068,33.361c2.154,2.385,5.732,2.83,8.405,1.047l-3.805-3.805L26.068,33.361z"/>
			<rect x="42.647" y="53.817" fill="#4775E5" width="18.321" height="2.617"/>
			<path fill="#4775E5" d="M32.179,22.541v5.869l4.144,4.144c1.203-1.811,1.425-4.101,0.594-6.11
				C36.085,24.436,34.309,22.973,32.179,22.541z"/>
			<path fill="#4775E5" d="M68.82,59.052H34.797c-1.446,0-2.617,1.172-2.617,2.617h39.259C71.437,60.223,70.265,59.052,68.82,59.052
				z"/>
			<rect x="77.98" y="5.398" fill="#4775E5" width="2.617" height="3.926"/>
			<path fill="#4775E5" d="M15.167,40.73h73.283V-6.975c0.177-2.359-1.571-4.424-3.926-4.639h-65.43
				c-2.355,0.215-4.102,2.281-3.926,4.639L15.167,40.73L15.167,40.73z M30.87,38.113c-3.705,0-7.045-2.232-8.463-5.655
				c-1.418-3.423-0.634-7.363,1.986-9.983s6.56-3.404,9.983-1.986c3.424,1.418,5.655,4.758,5.655,8.463
				C40.024,34.01,35.927,38.108,30.87,38.113z M40.03,15.386c-0.014,1-0.832,1.8-1.832,1.791H23.542
				c-0.999,0.013-1.82-0.787-1.832-1.786V5.398c0-0.723,0.586-1.309,1.309-1.309c0.723,0,1.309,0.586,1.309,1.309v9.16h13.086v-9.16
				c0-0.723,0.586-1.309,1.309-1.309c0.723,0,1.309,0.586,1.309,1.309L40.03,15.386L40.03,15.386z M49.191-7.688
				c0-0.723,0.586-1.309,1.309-1.309c0.723,0,1.309,0.586,1.309,1.309V8.015c0,0.723,0.586,1.309,1.309,1.309h1.309V-5.071
				c0-1.446,1.172-2.617,2.617-2.617h2.617c1.446,0,2.617,1.172,2.617,2.617V9.324h2.617V1.119c0.001-1.25,1.015-2.263,2.264-2.264
				h3.324c1.25,0.001,2.263,1.015,2.264,2.264v8.205h2.617v-4.48c0.001-1.14,0.924-2.063,2.064-2.064h3.724
				c1.14,0.001,2.063,0.924,2.064,2.064v4.48c0.723,0,1.309,0.586,1.309,1.309c0,0.723-0.586,1.309-1.309,1.309h-30.1
				c-2.168,0-3.926-1.758-3.926-3.926L49.191-7.688L49.191-7.688z M49.191,18.484c0-0.723,0.586-1.309,1.309-1.309
				c0.723,0,1.309,0.586,1.309,1.309v9.927l2.459-2.458c1.554-1.483,3.998-1.483,5.552,0l1.533,1.534
				c0.511,0.511,1.339,0.511,1.85,0l5.46-5.46c1.553-1.483,3.998-1.483,5.551,0l1.534,1.534c0.511,0.511,1.34,0.511,1.85,0
				l4.693-4.691c0.514-0.496,1.33-0.489,1.835,0.016c0.505,0.505,0.512,1.321,0.016,1.835l-4.693,4.693
				c-1.535,1.528-4.017,1.528-5.551,0l-1.534-1.535c-0.517-0.496-1.333-0.496-1.85,0l-5.46,5.46c-1.533,1.533-4.017,1.533-5.551,0
				l-1.534-1.534c-0.517-0.496-1.333-0.496-1.85,0l-4.309,4.309v2.076c0,0.723,0.586,1.309,1.309,1.309h30.098
				c0.723,0,1.309,0.586,1.309,1.309c0,0.723-0.586,1.309-1.309,1.309H53.116c-2.168,0-3.926-1.758-3.926-3.926L49.191,18.484
				L49.191,18.484z M19.528,0.497l2.181-1.953v-2.961c0-0.723,0.586-1.309,1.309-1.309c0.723,0,1.309,0.586,1.309,1.309V-3.8
				l5.267-4.711c0.72-0.635,1.798-0.643,2.528-0.02l10.089,9.029c0.537,0.482,0.582,1.307,0.102,1.845
				c-0.483,0.539-1.309,0.584-1.848,0.102l-9.596-8.59l-9.596,8.59c-0.54,0.474-1.36,0.425-1.839-0.11
				C18.956,1.802,18.998,0.981,19.528,0.497z"/>
			<rect x="67.512" y="1.472" fill="#4775E5" width="2.617" height="7.852"/>
			<rect x="57.042" y="-5.071" fill="#4775E5" width="2.617" height="14.395"/>
		</g>
	</g>
</g>
</svg>
