<?xml version="1.0" encoding="iso-8859-1"?>
<!-- Generator: Adobe Illustrator 17.0.0, SVG Export Plug-In . SVG Version: 6.00 Build 0)  -->
<!DOCTYPE svg PUBLIC "-//W3C//DTD SVG 1.1//EN" "http://www.w3.org/Graphics/SVG/1.1/DTD/svg11.dtd">
<svg version="1.1" id="Layer_1" xmlns="http://www.w3.org/2000/svg" xmlns:xlink="http://www.w3.org/1999/xlink" x="0px" y="0px"
	 width="400px" height="239.25px" viewBox="0 0 400 239.25" style="enable-background:new 0 0 400 239.25;" xml:space="preserve">
<g>
	<g>
		<rect x="20.588" y="217.97" style="fill:#CECFD2;" width="349.747" height="3.1"/>
	</g>
	<g>
		<g>
			<rect x="79.41" y="36.422" style="fill:#DADCE1;" width="1.033" height="31.435"/>
		</g>
		<g>
			<g>
				<polygon style="fill:#DADCE1;" points="77.257,41.073 76.396,40.384 80.013,35.561 83.458,40.384 82.511,40.987 80.013,37.284 
									"/>
			</g>
		</g>
	</g>
	<g>
		<path style="fill:#DADCE1;" d="M360.172,75.867c-0.947,0-1.981-0.172-2.928-0.344c-3.273-0.775-6.201-2.842-8.01-5.77
			c-3.789-5.943-1.981-13.952,4.048-17.741c5.943-3.789,13.952-1.981,17.741,4.048c1.809,2.928,2.411,6.373,1.636,9.732
			c-0.775,3.273-2.842,6.201-5.77,8.009C364.823,75.264,362.498,75.867,360.172,75.867z M360.086,50.805
			c-2.239,0-4.478,0.603-6.459,1.895c-5.684,3.617-7.493,11.196-3.876,16.794c1.722,2.756,4.478,4.651,7.579,5.426
			c3.186,0.689,6.459,0.258,9.215-1.55c5.684-3.617,7.493-11.196,3.876-16.794c-1.722-2.756-4.478-4.651-7.579-5.426
			C361.981,50.891,360.947,50.805,360.086,50.805z"/>
	</g>
	<g>
		<path style="fill:#DADCE1;" d="M358.708,69.924c-1.895-0.431-3.445-1.55-4.478-3.1c-1.12-1.55-1.378-3.445-1.033-5.254
			l0.689,0.172c-0.345,1.55-0.086,3.273,0.947,4.737c0.947,1.464,2.411,2.411,4.048,2.842L358.708,69.924z"/>
	</g>
	<g>
		<path style="fill:#DADCE1;" d="M358.019,72.852c-2.584-0.603-4.909-2.239-6.373-4.478c-1.464-2.325-1.981-4.995-1.378-7.579
			l0.689,0.172c-0.517,2.411-0.086,4.909,1.292,7.062c1.378,2.153,3.531,3.617,5.943,4.134L358.019,72.852z"/>
	</g>
	<g>
		<path style="fill:#DADCE1;" d="M360.603,73.111c-0.431,0-0.947,0-1.378-0.086l0.086-0.689c0.431,0.086,0.947,0.086,1.378,0.086
			L360.603,73.111C360.775,73.111,360.689,73.111,360.603,73.111z M362.325,73.025l-0.172-0.689
			c0.431-0.086,0.947-0.258,1.378-0.344l0.258,0.603C363.273,72.766,362.842,72.939,362.325,73.025z M365.167,71.991l-0.345-0.603
			c0.431-0.258,0.775-0.517,1.206-0.775l0.431,0.517C365.942,71.388,365.598,71.733,365.167,71.991z M367.665,70.096l-0.517-0.431
			c0.345-0.344,0.603-0.689,0.861-1.12l0.517,0.344C368.268,69.321,367.923,69.666,367.665,70.096z M369.215,67.513l-0.603-0.258
			c0.258-0.431,0.345-0.861,0.431-1.378l0.689,0.258C369.474,66.565,369.474,66.996,369.215,67.513z"/>
	</g>
	<g>
		<path style="fill:#DADCE1;" d="M369.904,65.274l-0.689-0.172c0.517-2.411,0.086-4.909-1.292-7.062s-3.531-3.617-5.943-4.134
			l0.172-0.689c2.584,0.603,4.909,2.239,6.373,4.478C369.904,60.02,370.421,62.69,369.904,65.274z"/>
	</g>
	<g>
		<path style="fill:#DADCE1;" d="M351.129,60.02l-0.689-0.258c0.172-0.517,0.258-1.033,0.431-1.464l0.603,0.258
			C351.474,59.073,351.388,59.589,351.129,60.02z M352.335,57.436l-0.603-0.344c0.258-0.431,0.603-0.861,0.947-1.206l0.517,0.431
			C352.852,56.661,352.593,57.006,352.335,57.436z M354.23,55.283l-0.431-0.517c0.431-0.344,0.861-0.603,1.292-0.861l0.345,0.603
			C355.005,54.767,354.574,55.111,354.23,55.283z M356.641,53.991l-0.258-0.603c0.431-0.258,1.033-0.258,1.464-0.344l0.086,0.689
			C357.589,53.733,357.158,53.819,356.641,53.991z M360.861,53.647c-0.431-0.086-0.947-0.172-1.378-0.172v-0.689
			c0.517,0,1.033,0.086,1.55,0.172L360.861,53.647z"/>
	</g>
	<g>
		
			<rect x="364.704" y="74.712" transform="matrix(-0.8475 0.5309 -0.5309 -0.8475 714.7133 -53.5399)" style="fill:#DADCE1;" width="0.689" height="2.412"/>
	</g>
	<g>
		
			<rect x="369.26" y="71.541" transform="matrix(-0.8317 0.5552 -0.5552 -0.8317 717.4222 -71.8767)" style="fill:#DADCE1;" width="0.689" height="2.498"/>
	</g>
	<g>
		<path style="fill:#DADCE1;" d="M366.115,81.379l-2.067-3.273l8.01-4.995l2.067,3.273L366.115,81.379z M365.081,78.364l1.292,2.153
			l6.804-4.306l-1.292-2.153L365.081,78.364z"/>
	</g>
	<g>
		
			<rect x="369.548" y="79.137" transform="matrix(-0.8539 0.5204 -0.5204 -0.8539 729.3548 -37.1602)" style="fill:#DADCE1;" width="0.689" height="9.301"/>
	</g>
	<g>
		
			<rect x="377.209" y="75.365" transform="matrix(-0.8596 0.5109 -0.5109 -0.8596 745.8951 -33.5286)" style="fill:#DADCE1;" width="0.689" height="20.669"/>
	</g>
	<path style="fill:#E3E3E9;" d="M32.129,79.656l-5.598-0.775l0.775-5.512l5.598,0.775L32.129,79.656z M27.822,77.934l3.445,0.517
		l0.517-3.273l-3.359-0.517L27.822,77.934z"/>
	<path style="fill:#E3E3E9;" d="M310.135,32.202L310.135,32.202c0.172-0.258,0.431-0.431,0.689-0.258l0.431,0.258
		c0.258,0.172,0.431,0.431,0.258,0.689l0,0c-0.172,0.258-0.431,0.431-0.689,0.258l-0.431-0.258
		C310.135,32.805,310.048,32.461,310.135,32.202z"/>
	<path style="fill:#E3E3E9;" d="M312.374,31.513l0.258-0.431c0.172-0.258,0.431-0.431,0.689-0.258l0,0
		c0.258,0.172,0.431,0.431,0.258,0.689l-0.258,0.431c-0.172,0.258-0.431,0.431-0.689,0.258l0,0
		C312.546,32.202,312.288,31.858,312.374,31.513z"/>
	<path style="fill:#E3E3E9;" d="M313.407,33.58L313.407,33.58c0.172-0.258,0.431-0.431,0.689-0.258l0.345,0.172
		c0.258,0.172,0.431,0.431,0.258,0.689l0,0c-0.172,0.258-0.431,0.431-0.689,0.258l-0.345-0.172
		C313.407,34.183,313.235,33.839,313.407,33.58z"/>
	<path style="fill:#E3E3E9;" d="M311.168,34.7l0.258-0.517c0.172-0.258,0.431-0.431,0.689-0.258l0,0
		c0.258,0.172,0.431,0.431,0.258,0.689l-0.258,0.517c-0.172,0.258-0.431,0.431-0.689,0.258l0,0
		C311.168,35.389,310.91,35.044,311.168,34.7z"/>
	<polygon style="fill:#E3E3E9;" points="22.569,51.235 19.727,51.322 19.727,54.078 18.693,54.164 18.607,50.374 22.569,50.202 	"/>
	<path style="fill:#E3E3E9;" d="M177.16,36.25l-1.55,4.22l-4.134-1.464l1.55-4.22L177.16,36.25z M175.007,39.006l0.689-2.067
		l-1.981-0.689l-0.689,2.067L175.007,39.006z"/>
	
		<rect x="260.817" y="32.025" transform="matrix(-0.9872 0.1597 -0.1597 -0.9872 525.8014 22.9152)" style="fill:#E3E3E9;" width="2.325" height="1.12"/>
	
		<rect x="263.232" y="28.745" transform="matrix(-0.9872 0.1597 -0.1597 -0.9872 528.9667 17.2198)" style="fill:#E3E3E9;" width="1.12" height="2.239"/>
	
		<rect x="265.473" y="31.343" transform="matrix(-0.9872 0.1597 -0.1597 -0.9872 534.7736 20.8288)" style="fill:#E3E3E9;" width="2.153" height="1.12"/>
	
		<rect x="264.579" y="33.496" transform="matrix(-0.9872 0.1595 -0.1595 -0.9872 532.4193 26.6702)" style="fill:#E3E3E9;" width="1.12" height="2.411"/>
	<polygon style="fill:#054456;" points="87.075,51.666 87.075,162.507 286.623,162.507 286.623,68.546 270.518,51.666 	"/>
	<polygon style="fill:#95C0E7;" points="269.915,51.666 269.915,68.546 286.451,68.546 	"/>
	<rect x="202.567" y="57.695" style="fill:#FFFFFF;" width="60.372" height="1.981"/>
	<rect x="202.567" y="134.431" style="fill:#FFFFFF;" width="77.683" height="0.947"/>
	<rect x="202.567" y="137.359" style="fill:#FFFFFF;" width="77.683" height="0.947"/>
	<rect x="202.567" y="140.201" style="fill:#FFFFFF;" width="63.817" height="0.947"/>
	<rect x="202.567" y="147.091" style="fill:#FFFFFF;" width="77.683" height="0.947"/>
	<rect x="202.567" y="150.019" style="fill:#FFFFFF;" width="28.593" height="0.947"/>
	<rect x="260.011" y="72.422" style="fill:#FFFFFF;" width="20.325" height="0.947"/>
	<rect x="260.011" y="75.953" style="fill:#FFFFFF;" width="20.325" height="0.947"/>
	<rect x="260.011" y="79.57" style="fill:#FFFFFF;" width="20.325" height="0.947"/>
	<rect x="260.011" y="83.101" style="fill:#FFFFFF;" width="20.325" height="0.947"/>
	<rect x="260.011" y="86.718" style="fill:#FFFFFF;" width="12.918" height="0.947"/>
	<rect x="260.011" y="105.321" style="fill:#FFFFFF;" width="20.325" height="0.947"/>
	<rect x="260.011" y="108.852" style="fill:#FFFFFF;" width="20.325" height="0.947"/>
	<rect x="260.011" y="112.469" style="fill:#FFFFFF;" width="20.325" height="0.947"/>
	<rect x="260.011" y="116" style="fill:#FFFFFF;" width="14.21" height="0.947"/>
	<rect x="202.567" y="61.915" style="fill:#FFFFFF;" width="47.626" height="1.981"/>
	<rect x="202.567" y="78.106" style="fill:#4CC1BB;" width="6.976" height="13.435"/>
	<rect x="211.437" y="72.852" style="fill:#4CC1BB;" width="6.976" height="18.603"/>
	<rect x="220.136" y="76.211" style="fill:#4CC1BB;" width="6.976" height="15.33"/>
	<rect x="229.006" y="68.805" style="fill:#4CC1BB;" width="6.976" height="22.65"/>
	<rect x="237.791" y="71.13" style="fill:#4CC1BB;" width="6.976" height="20.325"/>
	<rect x="246.662" y="74.23" style="fill:#4CC1BB;" width="6.976" height="17.311"/>
	<rect x="202.567" y="104.804" style="fill:#FFFFFF;" width="13.694" height="19.722"/>
	<rect x="239.858" y="104.804" style="fill:#FFFFFF;" width="13.694" height="19.722"/>
	<rect x="221.255" y="104.804" style="fill:#FFFFFF;" width="13.694" height="19.722"/>
	<circle style="fill:#6886C4;" cx="132.634" cy="104.029" r="34.019"/>
	<path style="fill:#4CC1BB;" d="M144.261,71.991c-6.718-2.411-13.866-2.67-20.756-0.775l9.043,32.813L144.261,71.991z"/>
	<path style="fill:#F69EA0;" d="M123.505,71.216c-10.852,3.014-19.464,11.196-23.167,21.789l32.21,11.024L123.505,71.216z"/>
	<path style="fill:#00A0A0;" d="M100.338,93.091c-4.737,14.124,0.172,29.626,12.143,38.411l20.067-27.473L100.338,93.091z"/>
	<path style="fill:#1F85C7;" d="M128.414,137.789c1.378,0.172,2.756,0.258,4.134,0.258c7.148,0,14.038-2.239,19.808-6.373
		l-19.808-27.732L128.414,137.789z"/>
	<path style="fill:#FFFFFF;" d="M132.634,104.029l-20.067,27.387c4.651,3.445,10.249,5.598,16.019,6.373L132.634,104.029z"/>
	<path style="fill:#E3E3E9;" d="M118.855,19.198c-3.187,0-5.684,2.498-5.684,5.684s2.498,5.684,5.684,5.684s5.684-2.498,5.684-5.684
		C124.539,21.695,122.127,19.198,118.855,19.198L118.855,19.198z M118.855,29.102c-2.411,0-4.22-1.895-4.22-4.22
		c0-2.411,1.895-4.22,4.22-4.22c2.411,0,4.22,1.895,4.22,4.22l0,0C123.161,27.207,121.266,29.102,118.855,29.102L118.855,29.102z"/>
	<path style="fill:#E3E3E9;" d="M128.242,32.805c0.258,0.344,0.258,0.861,0,1.12l0,0c-0.345,0.258-0.861,0.258-1.12,0l-5.167-4.995
		c-0.258-0.258-0.345-0.861,0-1.12l0,0l0,0c0.258-0.258,0.861-0.344,1.12,0l0,0L128.242,32.805z"/>
	<path style="fill:#D64541;" d="M318.058,96.278c-6.804,2.842-19.464,16.019-19.464,16.019l-24.89-4.565l0.775,6.459l29.799,11.713
		c0,0,14.813-12.66,16.708-19.119C322.967,100.24,322.02,94.556,318.058,96.278z"/>
	<path style="fill:#F69C94;" d="M334.335,102.651l-3.789-1.12c-1.206-0.431-1.895-1.809-1.464-3.1l1.464-4.651
		c0.258-1.292,1.55-2.067,2.842-1.809l3.789,1.12c1.206,0.431,1.895,1.809,1.464,3.1l-1.464,4.651
		C337.005,102.134,335.713,102.909,334.335,102.651z"/>
	<path style="fill:#F8A79F;" d="M277.322,108.68l-2.067,5.856c0,0-8.096-6.718-7.923-9.043c0.172-2.325,1.981-2.756,1.981-2.756
		l6.804,3.1C277.235,106.268,277.752,107.56,277.322,108.68z"/>
	<path style="fill:#F1584D;" d="M333.043,146.143l-30.315-0.086l9.129-42.028c0.689-3.273,6.287-8.526,9.474-7.579l21.875,6.373
		c3.1,0.947,4.823,4.134,3.876,7.234c-0.086,0.172-0.086,0.258-0.172,0.431L333.043,146.143z"/>
	<path style="fill:#F8A79F;" d="M326.24,89.733c0,5.598,4.565,6.201,10.249,6.201c5.598,0.258,10.335-4.22,10.593-9.818
		c0.258-5.598-4.22-10.335-9.818-10.593c-0.258,0-0.431,0-0.689,0C330.89,75.436,326.24,84.048,326.24,89.733z"/>
	<g>
		<g>
			<g>
				<g>
					<defs>
						<path id="SVGID_1_" d="M326.24,89.733c0,5.598,4.565,6.201,10.249,6.201c5.598,0.258,10.335-4.22,10.593-9.818
							c0.258-5.598-4.22-10.335-9.818-10.593c-0.258,0-0.431,0-0.689,0C330.89,75.436,326.24,84.048,326.24,89.733z"/>
					</defs>
					<clipPath id="SVGID_2_">
						<use xlink:href="#SVGID_1_"  style="overflow:visible;"/>
					</clipPath>
					<g style="clip-path:url(#SVGID_2_);">
						<path style="fill:#804E4F;" d="M340.364,81.895c0,0-1.12,3.445-0.603,3.617c0.517,0.172,2.411,0,3.273,1.981
							c0.775,1.981-1.12,3.273-2.842,3.187c-1.636-0.172-1.809,4.22,2.067,4.651c3.876,0.431,7.837-7.923,6.976-11.885
							c-0.947-3.876-5.943-9.387-8.096-9.818c-2.239-0.431-24.976,0.861-24.976,0.861L340.364,81.895z"/>
					</g>
				</g>
			</g>
		</g>
	</g>
	<path style="fill:#804E4F;" d="M332.096,88.01c-2.584-0.775-5.426,0.689-6.201,3.273s0.689,5.426,3.273,6.201
		c2.584,0.775,5.426-0.689,6.201-3.273C336.144,91.627,334.68,88.871,332.096,88.01z M329.771,95.847
		c-1.722-0.517-2.67-2.325-2.153-3.962c0.517-1.722,2.325-2.67,3.962-2.153c1.722,0.517,2.67,2.325,2.153,3.962l0,0
		C333.13,95.417,331.321,96.364,329.771,95.847L329.771,95.847z"/>
	<path style="fill:#804E4F;" d="M326.24,90.68l9.387,2.842c0,0-1.55,13.78-9.043,11.11C319.436,102.048,326.24,90.68,326.24,90.68z"
		/>
	<path style="fill:#01A39B;" d="M333.043,146.143l-30.315-0.086v68.468h5.943c0,0,4.565-33.76,6.287-52.449h4.134l-0.258,26.526
		l24.373,21.359l3.273-5.512l-16.191-21.014c0,0,3.014-27.129,2.928-31.779C333.216,149.761,333.13,147.952,333.043,146.143z"/>
	<path style="fill:#2C296A;" d="M302.556,214.439h6.115v4.651h-12.402c-0.775,0-1.12-1.809-0.345-2.239L302.556,214.439z"/>
	<path style="fill:#2C296A;" d="M343.206,209.616l3.359-5.081l3.876,2.584l-6.804,10.249c-0.431,0.689-2.153-0.086-2.067-0.947
		L343.206,209.616z"/>
	<path style="fill:#F8A79F;" d="M96.549,134.172c0.947-0.172,1.55-1.033,1.464-1.981l0,0l-0.258-3.014
		c0-0.603-0.947-0.431-1.55-0.344l-1.55,0.431l0.517,5.167C95.085,134.431,96.204,134.172,96.549,134.172z"/>
	<g>
		<path style="fill:#01A39B;" d="M61.238,151.397h29.54l-0.775,63.042h-5.598c0,0-4.22-31.779-5.943-49.263h-3.876l-1.12,49.263
			H67.87c0,0-6.632-49.435-6.459-58.908C61.238,154.067,61.238,152.775,61.238,151.397z"/>
		<path style="fill:#F1584D;" d="M61.238,151.397h29.54l3.703-39.186c0.345-3.187-2.756-5.943-6.718-5.943H64.253
			c-3.962,0-6.976,2.756-6.718,5.943L61.238,151.397z"/>
		<path style="fill:#F69C94;" d="M76.224,110.402c-5.254,0-5.167-3.617-5.167-4.392v-5.77c0-1.292,1.981-1.206,3.1-1.206h3.703
			c1.12,0,3.1,1.12,3.1,2.411v4.565c0,2.411-2.067,4.478-4.565,4.392C76.396,110.402,76.224,110.402,76.224,110.402z"/>
		<path style="fill:#F8A79F;" d="M84.319,98.948c-1.55,5.081-5.77,4.306-10.852,2.842c-5.081-1.378-8.182-6.631-6.804-11.713
			s6.632-8.182,11.713-6.804c0.258,0.086,0.345,0.086,0.603,0.172C83.975,84.91,85.783,93.953,84.319,98.948z"/>
		<g>
			<g>
				<g>
					<g>
						<defs>
							<path id="SVGID_3_" d="M84.319,98.948c-1.55,5.081-5.77,4.306-10.852,2.842c-5.081-1.378-8.182-6.631-6.804-11.713
								s6.632-8.182,11.713-6.804c0.258,0.086,0.345,0.086,0.603,0.172C83.975,84.91,85.783,93.953,84.319,98.948z"/>
						</defs>
						<clipPath id="SVGID_4_">
							<use xlink:href="#SVGID_3_"  style="overflow:visible;"/>
						</clipPath>
						<g style="clip-path:url(#SVGID_4_);">
							<path style="fill:#2C296A;" d="M73.726,88.096c0,0,0,3.359-0.431,3.359s-2.239-0.689-3.531,0.861
								c-1.292,1.55,0.172,3.273,1.636,3.617c1.55,0.344,0.431,4.306-3.187,3.617c-3.617-0.689-4.909-9.215-3.014-12.488
								c1.895-3.273,7.837-6.89,9.904-6.718c2.067,0.258,16.019,7.665,16.019,7.665L73.726,88.096z"/>
						</g>
					</g>
				</g>
			</g>
		</g>
		<path style="fill:#F1584D;" d="M94.568,110.919l7.579,14.469l11.627-13.435c0-0.517,5.426,1.55,4.737,2.67
			c-1.12,1.981-8.526,17.225-14.469,23.426c-3.273,3.445-12.918-9.215-13.435-10.163c-0.861-1.378-1.981-10.076-2.153-14.899
			c0-1.12,0.775-2.067,1.981-2.153l1.722-3.187C93.104,107.646,94.396,109.972,94.568,110.919z"/>
		<path style="fill:#F1584D;" d="M60.032,107.56c0,0-13.694,14.555-18.43,19.119c-2.67,2.498,0,4.392,1.55,6.373
			c4.22,5.254,17.828,14.641,17.828,14.641l-0.775-8.009l-8.096-9.646c0,0,11.627-8.957,11.971-9.56
			c1.12-1.809,0.172-9.474,0.172-9.474L60.032,107.56z"/>
		<path style="fill:#2C296A;" d="M90.089,214.353h-5.77v4.392h11.627c0.775,0,1.033-1.722,0.345-2.067L90.089,214.353z"/>
		<path style="fill:#2C296A;" d="M73.295,214.353h-5.77v4.392h11.627c0.775,0,1.033-1.722,0.345-2.067L73.295,214.353z"/>
		<path style="fill:#F8A79F;" d="M113.946,111.608c0.603-2.928,3.1-6.115,6.459-4.565c3.359,1.55-2.239,8.096-2.239,8.096
			L113.946,111.608z"/>
	</g>
	<path style="fill:#1F85C7;" d="M244.853,37.628c-22.564,0-40.822,18.258-40.822,40.822s18.258,40.822,40.822,40.822
		s40.822-18.258,40.822-40.822l0,0C285.676,55.886,267.331,37.628,244.853,37.628z M244.853,108.938
		c-16.88,0-30.488-13.694-30.488-30.488s13.694-30.488,30.488-30.488c16.88,0,30.488,13.694,30.488,30.488
		S261.647,108.938,244.853,108.938L244.853,108.938z"/>
	<path style="fill:#1F85C7;" d="M313.063,126.593c1.981,1.981,1.981,5.34,0,7.32l0,0c-1.981,1.981-5.34,1.981-7.32,0l-32.641-31.263
		c-1.981-1.981-1.981-5.34,0-7.32l0,0l0,0c1.981-1.981,5.34-1.981,7.32,0l0,0L313.063,126.593z"/>
	<path style="fill:#F8A79F;" d="M293.685,124.613l0.775,8.354c0,0-10.249-2.584-11.11-4.909c-0.775-2.239,0.603-3.273,0.603-3.273
		L293.685,124.613z"/>
	<path style="fill:#D64541;" d="M342.345,103.771l-20.756,21.272l-28.765-0.431l0.689,8.354l35.483,4.22
		c0,0,14.555-16.45,16.45-22.909C347.254,107.819,346.651,103.771,342.345,103.771z"/>
</g>
</svg>
