<?xml version="1.0" encoding="utf-8"?>
<!-- Generator: Adobe Illustrator 23.0.1, SVG Export Plug-In . SVG Version: 6.00 Build 0)  -->
<svg version="1.1" id="Layer_1" xmlns="http://www.w3.org/2000/svg" xmlns:xlink="http://www.w3.org/1999/xlink" x="0px" y="0px"
	 viewBox="0 0 70 70" style="enable-background:new 0 0 70 70;" xml:space="preserve">
<style type="text/css">
	.st0{fill:#FBFBFB;}
	.st1{fill:#8747CC;}
	.st2{fill:#FFFFFF;}
</style>
<g>
	
		<image style="overflow:visible;opacity:0.1;enable-background:new    ;" width="85" height="86" xlink:href="54DCF25B.png"  transform="matrix(0.9882 0 0 0.9882 -7.0734 -7.3563)">
	</image>
	<g>
		<circle class="st0" cx="34.8" cy="35.3" r="26.8"/>
	</g>
</g>
<g>
	
		<image style="overflow:visible;opacity:5.000000e-02;enable-background:new    ;" width="59" height="58" xlink:href="54DCF259.png"  transform="matrix(0.9828 0 0 0.9828 5.9353 6.6378)">
	</image>
	<g>
		<circle class="st1" cx="34.8" cy="35.3" r="22.2"/>
	</g>
</g>
<g id="search">
	<path class="st2" d="M26,31.6h7.1v0.9H26V31.6z"/>
	<path class="st2" d="M26,33.4h7.1v0.9H26V33.4z"/>
	<path class="st2" d="M47.8,44.9h-0.4V31.8c1.8-3.2,0.7-7.3-2.5-9.1c-3.2-1.8-7.3-0.7-9.1,2.5C35.3,26.1,35,27,34.9,28h-12
		c-0.2,0-0.5,0.2-0.5,0.5l0,0v16.4H22c-0.2,0-0.4,0.2-0.5,0.4c0,0,0,0,0,0c0,0,0,0,0,0.1l0.3,1.9c0.1,0.6,0.7,1.1,1.3,1.1h23.4
		c0.7,0,1.2-0.5,1.3-1.1l0.3-1.9C48.3,45.2,48.2,44.9,47.8,44.9C47.9,44.9,47.9,44.9,47.8,44.9L47.8,44.9z M41.6,22.6
		c3.2,0,5.8,2.6,5.7,5.8s-2.6,5.8-5.8,5.7c-3.2,0-5.7-2.6-5.7-5.8C35.8,25.3,38.4,22.7,41.6,22.6L41.6,22.6L41.6,22.6z M23.4,28.9
		h11.6c0.2,3.3,2.9,5.9,6.2,6.2V36h-0.9c-0.2,0-0.5,0.2-0.5,0.5v5.8c0,1,0.8,1.8,1.8,1.8c1,0,1.8-0.8,1.8-1.8v-5.8
		c0-0.2-0.2-0.4-0.4-0.5c0,0,0,0,0,0H42v-0.9c1.7-0.1,3.3-0.9,4.4-2.1v11.9h-9.7c-0.2,0-0.4,0.2-0.5,0.4v0.5h-2.6v-0.5
		c0-0.2-0.2-0.4-0.4-0.4h-9.8V28.9z M42.5,36.9v5.3c0,0.5-0.4,0.9-0.9,0.9s-0.9-0.4-0.9-0.9v-5.3H42.5z M47.1,47.2
		c0,0.2-0.2,0.4-0.4,0.4H23.2c-0.2,0-0.4-0.2-0.4-0.4l-0.2-1.4h10.2v0.4c0,0.2,0.2,0.4,0.4,0.5h3.5c0.2,0,0.4-0.2,0.4-0.5v-0.4h10.2
		L47.1,47.2z"/>
	<path class="st2" d="M33.6,29.8h-8c-0.7,0-1.3,0.6-1.3,1.3v3.5c0,0.7,0.5,1.4,1.3,1.4c0,0,0,0,0.1,0h8c0.7,0,1.3-0.6,1.3-1.4
		c0,0,0,0,0,0v-3.5C34.9,30.4,34.3,29.8,33.6,29.8C33.6,29.8,33.6,29.8,33.6,29.8z M34,34.7c0,0.2-0.2,0.4-0.4,0.4h-8
		c-0.2,0-0.4-0.2-0.5-0.4c0,0,0,0,0,0v-3.5c0-0.2,0.2-0.4,0.4-0.4c0,0,0,0,0,0h8c0.2,0,0.4,0.2,0.4,0.4L34,34.7z"/>
	<path class="st2" d="M41.6,23.6c-2.7,0-4.9,2.2-4.9,4.9c0,2.7,2.2,4.9,4.9,4.9c2.7,0,4.9-2.2,4.9-4.9c0,0,0,0,0,0
		C46.5,25.8,44.3,23.6,41.6,23.6C41.6,23.6,41.6,23.6,41.6,23.6z M41.6,32.5c-2.2,0-4-1.8-4-4c0-2.2,1.8-4,4-4c2.2,0,4,1.8,4,4
		c0,0,0,0,0,0C45.6,30.7,43.8,32.5,41.6,32.5z"/>
	<path class="st2" d="M24.3,41.4h0.9v0.9h-0.9V41.4z"/>
	<path class="st2" d="M26,41.4h4.4v0.9H26V41.4z"/>
	<path class="st2" d="M24.3,39.6H26v0.9h-1.8V39.6z"/>
	<path class="st2" d="M26.9,39.6h2.6v0.9h-2.6V39.6z"/>
	<path class="st2" d="M24.3,43.1h3.5V44h-3.5V43.1z"/>
	<path class="st2" d="M28.7,43.1h2.6V44h-2.6V43.1z"/>
	<path class="st2" d="M31.4,41.4h6.2v0.9h-6.2V41.4z"/>
	<path class="st2" d="M24.3,37.8h0.9v0.9h-0.9V37.8z"/>
	<path class="st2" d="M26,37.8h4.4v0.9H26V37.8z"/>
	<path class="st2" d="M31.4,37.8h6.2v0.9h-6.2V37.8z"/>
	<path class="st2" d="M30.5,39.6h2.6v0.9h-2.6V39.6z"/>
	<path class="st2" d="M34,39.6h3.5v0.9H34V39.6z"/>
	<path class="st2" d="M32.3,43.1h2.6V44h-2.6V43.1z"/>
	<path class="st2" d="M35.8,43.1h1.8V44h-1.8V43.1z"/>
</g>
</svg>
