<?xml version="1.0" encoding="utf-8"?>
<!-- Generator: Adobe Illustrator 17.0.0, SVG Export Plug-In . SVG Version: 6.00 Build 0)  -->
<!DOCTYPE svg PUBLIC "-//W3C//DTD SVG 1.1//EN" "http://www.w3.org/Graphics/SVG/1.1/DTD/svg11.dtd">
<svg version="1.1" id="Capa_1" xmlns="http://www.w3.org/2000/svg" xmlns:xlink="http://www.w3.org/1999/xlink" x="0px" y="0px"
	 width="81px" height="76.717px" viewBox="11 -13.404 81 76.717" enable-background="new 11 -13.404 81 76.717"
	 xml:space="preserve">
<g>
	<path fill="#4775E5" d="M39.932,13.056c0,2.217,1.797,4.013,4.014,4.013s4.013-1.796,4.013-4.013V9.042h-8.027L39.932,13.056
		L39.932,13.056z"/>
	<path fill="#4775E5" d="M39.932,3.691h8.027v2.676h-8.027V3.691z"/>
	<path fill="#4775E5" d="M33.242,26.522c0.005-3.864,2.361-7.337,5.948-8.772c-1.239-1.248-1.934-2.936-1.934-4.695V2.353
		c0-0.738,0.599-1.338,1.338-1.338h10.703c0.739,0,1.338,0.599,1.338,1.338v9.934l12.09-16.623H23.877v53.414L33.242,36.2V26.522z"
		/>
	<path fill="#4775E5" d="M64.013,26.434h2.676v-5.351c0-2.955,2.396-5.351,5.351-5.351c2.955,0,5.351,2.396,5.351,5.351v5.351h2.676
		v-5.351c0-4.433-3.594-8.027-8.027-8.027c-4.433,0-8.027,3.593-8.027,8.027L64.013,26.434L64.013,26.434z"/>
	<path fill="#4775E5" d="M64.013-10.674c-0.001-0.933-0.757-1.689-1.69-1.69H25.567c-0.933,0.001-1.689,0.757-1.69,1.69v3.661
		h40.135L64.013-10.674L64.013-10.674z"/>
	<path fill="#4775E5" d="M69.364,21.082v5.351h5.351v-5.351c0-1.477-1.198-2.676-2.676-2.676
		C70.562,18.407,69.364,19.605,69.364,21.082z"/>
	<path fill="#4775E5" d="M58.661,46.501v-18.73c0-0.739,0.599-1.338,1.338-1.338h1.338v-5.351c0.001-2.6,0.952-5.11,2.676-7.055
		V-1.56L49.65,18.189c3.074,1.644,4.995,4.847,4.998,8.333v10.615c0,0.739-0.599,1.338-1.338,1.338H34.896l-9.73,13.377h38.847
		V47.84h-4.014C59.261,47.84,58.661,47.24,58.661,46.501z"/>
	<path fill="#4775E5" d="M61.337,29.11h21.405v16.054H61.337V29.11z"/>
	<path fill="#4775E5" d="M35.918,26.522v5.999l9.291-12.776h-2.514C38.955,19.748,35.922,22.781,35.918,26.522z"/>
	<path fill="#4775E5" d="M23.877,60.866c0.001,0.933,0.757,1.689,1.69,1.69h36.756c0.933-0.001,1.689-0.757,1.69-1.69v-6.337H23.877
		V60.866z M41.269,57.204h5.351v2.676h-5.351V57.204z"/>
	<path fill="#4775E5" d="M51.972,26.522c-0.007-2.632-1.538-5.021-3.927-6.127L36.843,35.799h15.129V26.522z"/>
</g>
</svg>
