<?xml version="1.0" encoding="utf-8"?>
<!-- Generator: Adobe Illustrator 17.0.0, SVG Export Plug-In . SVG Version: 6.00 Build 0)  -->
<!DOCTYPE svg PUBLIC "-//W3C//DTD SVG 1.1//EN" "http://www.w3.org/Graphics/SVG/1.1/DTD/svg11.dtd">
<svg version="1.1" xmlns="http://www.w3.org/2000/svg" xmlns:xlink="http://www.w3.org/1999/xlink" x="0px" y="0px"
	 width="1807.117px" height="1113.56px" viewBox="0 0 1807.117 1113.56" enable-background="new 0 0 1807.117 1113.56"
	 xml:space="preserve">
<g id="Background">
</g>
<g id="Images">
</g>
<g id="People">
	<g opacity="0.04">
		
			<image overflow="visible" width="7147" height="4188" xlink:href="DAC5B158.png"  transform="matrix(0.24 0 0 0.24 49.7839 46.5171)">
		</image>
	</g>
	<g>
		<path fill="#FFFFFF" d="M145.916,985c-1.381,0-2.5-1.119-2.5-2.5V116.529c0-1.381,1.119-2.5,2.5-2.5h1519.642
			c1.381,0,2.5,1.119,2.5,2.5V982.5c0,1.381-1.119,2.5-2.5,2.5H145.916z"/>
		<path fill="#FFFFFF" d="M1665.558,116.529V982.5H145.916V116.529H1665.558 M1665.558,111.529H145.916c-2.761,0-5,2.239-5,5V982.5
			c0,2.761,2.239,5,5,5h1519.642c2.761,0,5-2.239,5-5V116.529C1670.558,113.768,1668.319,111.529,1665.558,111.529L1665.558,111.529
			z"/>
	</g>
	<g>
		
			<rect x="142.003" y="973.138" transform="matrix(1 -0.0031 0.0031 1 -3.0629 2.836)" fill="#D5D5D9" width="1524.111" height="12.596"/>
		<g>
			<g>
				<g>
					<path fill="#E3E3E9" d="M664.259,388.073h-4c0-40.23,32.73-72.959,72.959-72.959c16.1,0,31.364,5.14,44.143,14.863
						l-2.422,3.184c-12.076-9.189-26.503-14.047-41.721-14.047C695.193,319.114,664.259,350.049,664.259,388.073z"/>
				</g>
				<g>
					<path fill="#E3E3E9" d="M733.218,461.032c-11.867,0-23.648-2.915-34.071-8.428l1.871-3.536c9.848,5.21,20.982,7.964,32.2,7.964
						c38.024,0,68.96-30.935,68.96-68.959c0-13.734-4.026-26.997-11.643-38.358l3.322-2.228
						c8.061,12.021,12.321,26.056,12.321,40.585C806.178,428.302,773.448,461.032,733.218,461.032z"/>
				</g>
				<g>
					<path fill="#E3E3E9" d="M733.236,434.695c-0.431,0-0.858-0.006-1.291-0.018c-11.771-0.321-22.888-5.027-31.304-13.252
						l2.795-2.86c7.694,7.519,17.857,11.821,28.618,12.115c23.456,0.647,43.127-17.949,43.769-41.443
						c0.205-7.504-1.571-14.936-5.137-21.493l3.514-1.911c3.902,7.175,5.846,15.306,5.621,23.514
						C779.133,414.611,758.356,434.693,733.236,434.695z M690.612,386.91l-3.998-0.109c0.701-25.698,22.211-46.042,47.877-45.332
						c8.12,0.221,16.06,2.561,22.959,6.765l-2.082,3.416c-6.305-3.842-13.561-5.98-20.986-6.183
						C710.884,344.832,691.254,363.416,690.612,386.91z"/>
				</g>
				<g>
					<path fill="#E3E3E9" d="M733.218,409.457c-11.791,0-21.384-9.593-21.384-21.384c0-11.791,9.593-21.384,21.384-21.384
						c1.034,0,2.073,0.074,3.089,0.221l-0.572,3.959c-0.826-0.12-1.673-0.18-2.517-0.18c-9.586,0-17.384,7.798-17.384,17.384
						c0,9.585,7.798,17.384,17.384,17.384c9.586,0,17.385-7.798,17.385-17.384c0-0.745-0.048-1.499-0.143-2.24l3.967-0.508
						c0.117,0.909,0.176,1.833,0.176,2.747C754.602,399.864,745.01,409.457,733.218,409.457z"/>
				</g>
				<g>
					
						<rect x="772.011" y="293.062" transform="matrix(0.6811 0.7321 -0.7321 0.6811 502.7091 -455.24)" fill="#E3E3E9" width="4" height="112.947"/>
				</g>
			</g>
			<g>
				<polygon fill="#E3E3E9" points="820.6,333.643 798.246,326.764 794.938,303.438 798.899,302.876 801.849,323.688 
					821.776,329.82 				"/>
			</g>
		</g>
		<g>
			<g>
				<path fill="#E3E3E9" d="M232.601,446.562h-20.137v-20.137h20.137V446.562z M216.464,442.562h12.137v-12.137h-12.137V442.562z"/>
			</g>
			<g>
				<path fill="#E3E3E9" d="M266.737,446.562H246.6v-20.137h20.138V446.562z M250.6,442.562h12.138v-12.137H250.6V442.562z"/>
			</g>
			<g>
				<path fill="#E3E3E9" d="M300.874,446.562h-20.138v-20.137h20.138V446.562z M284.736,442.562h12.138v-12.137h-12.138V442.562z"/>
			</g>
			<g>
				<path fill="#E3E3E9" d="M300.874,481.94h-20.138v-20.137h20.138V481.94z M284.736,477.94h12.138v-12.137h-12.138V477.94z"/>
			</g>
			<g>
				<path fill="#E3E3E9" d="M232.601,481.94h-20.137v-20.137h20.137V481.94z M216.464,477.94h12.137v-12.137h-12.137V477.94z"/>
			</g>
			<g>
				<path fill="#E3E3E9" d="M266.737,481.94H246.6v-20.137h20.138V481.94z M250.6,477.94h12.138v-12.137H250.6V477.94z"/>
			</g>
			<g>
				<rect x="193.826" y="395.702" fill="#E3E3E9" width="152.464" height="4"/>
			</g>
			<g>
				<rect x="193.826" y="408.736" fill="#E3E3E9" width="152.464" height="4"/>
			</g>
			<g>
				<polygon fill="#E3E3E9" points="191.361,508.008 191.361,350.083 225.014,350.083 225.014,354.083 195.361,354.083 
					195.361,504.008 300.969,503.997 300.969,507.997 				"/>
			</g>
			<g>
				<polygon fill="#E3E3E9" points="357.974,419.367 353.974,419.367 353.974,354.083 323.083,354.083 323.083,350.083 
					357.974,350.083 				"/>
			</g>
			<g>
				<rect x="249.453" y="350.083" fill="#E3E3E9" width="51.205" height="4"/>
			</g>
			<g>
				<path fill="#E3E3E9" d="M234.324,370.841c-5.209,0-9.447-4.238-9.447-9.448v-15.827c0-5.21,4.238-9.448,9.447-9.448
					c5.21,0,9.448,4.238,9.448,9.448v15.827C243.772,366.603,239.534,370.841,234.324,370.841z M234.324,340.118
					c-3.004,0-5.447,2.444-5.447,5.448v15.827c0,3.004,2.443,5.448,5.447,5.448c3.004,0,5.448-2.444,5.448-5.448v-15.827
					C239.772,342.562,237.328,340.118,234.324,340.118z"/>
			</g>
			<g>
				<path fill="#E3E3E9" d="M316.252,370.841c-5.209,0-9.447-4.238-9.447-9.448v-15.827c0-5.21,4.238-9.448,9.447-9.448
					c5.21,0,9.448,4.238,9.448,9.448v15.827C325.7,366.603,321.462,370.841,316.252,370.841z M316.252,340.118
					c-3.004,0-5.447,2.444-5.447,5.448v15.827c0,3.004,2.443,5.448,5.447,5.448s5.448-2.444,5.448-5.448v-15.827
					C321.7,342.562,319.256,340.118,316.252,340.118z"/>
			</g>
			<g>
				<path fill="#E3E3E9" d="M234.713,384.67c-9.787,0-17.75-7.962-17.75-17.749c0-0.255,0.006-0.508,0.017-0.76l3.996,0.175
					c-0.009,0.194-0.013,0.389-0.013,0.585c0,7.581,6.168,13.749,13.75,13.749c7.581,0,13.749-6.168,13.749-13.749h4
					C252.462,376.708,244.5,384.67,234.713,384.67z"/>
			</g>
			<g>
				<path fill="#E3E3E9" d="M315.709,384.67c-9.787,0-17.749-7.962-17.749-17.749c0-0.252,0.006-0.502,0.016-0.751l3.996,0.157
					c-0.008,0.197-0.012,0.395-0.012,0.594c0,7.581,6.168,13.749,13.749,13.749c7.581,0,13.749-6.168,13.749-13.749h4
					C333.458,376.708,325.496,384.67,315.709,384.67z"/>
			</g>
		</g>
		<g>
			<polygon fill="#E3E3E9" points="746.012,719.39 743.788,709.451 734.176,711.344 733.402,707.419 746.841,704.774 
				749.916,718.517 			"/>
		</g>
		<g>
			<path fill="#E3E3E9" d="M433.963,324.127l-20.25-2.899l2.822-19.725l20.252,2.899L433.963,324.127z M418.238,317.836
				l12.332,1.765l1.689-11.806l-12.332-1.765L418.238,317.836z"/>
		</g>
		<g>
			<g>
				
					<rect x="1501.159" y="382.29" transform="matrix(0.9194 0.3932 -0.3932 0.9194 272.2619 -560.4559)" fill="#E3E3E9" width="5.785" height="4"/>
			</g>
			<g>
				
					<rect x="1509.68" y="378.048" transform="matrix(0.9194 0.3933 -0.3933 0.9194 271.6452 -563.8694)" fill="#E3E3E9" width="4" height="5.678"/>
			</g>
			<g>
				
					<rect x="1512.306" y="386.99" transform="matrix(0.9195 0.3932 -0.3932 0.9195 274.9486 -564.3381)" fill="#E3E3E9" width="5.472" height="4"/>
			</g>
			<g>
				
					<rect x="1504.864" y="389.148" transform="matrix(0.9195 0.3931 -0.3931 0.9195 275.4458 -560.7567)" fill="#E3E3E9" width="4" height="6.001"/>
			</g>
		</g>
		<g>
			<path fill="#E3E3E9" d="M784.711,821.136l-15.971-2.286l2.229-15.583l15.971,2.286L784.711,821.136z M773.266,815.457
				l8.053,1.152l1.097-7.665l-8.053-1.152L773.266,815.457z"/>
		</g>
		<g>
			<polygon fill="#E3E3E9" points="1412.971,298.827 1409.712,296.507 1420.091,281.929 1435.367,292.224 1433.132,295.541 
				1421.088,287.426 			"/>
		</g>
		<g>
			<g>
				
					<rect x="1015.31" y="328.935" transform="matrix(0.1597 0.9872 -0.9872 0.1597 1183.6219 -724.4124)" fill="#E3E3E9" width="4" height="8.167"/>
			</g>
			<g>
				
					<rect x="1019.83" y="321.199" transform="matrix(0.1597 0.9872 -0.9872 0.1597 1179.3513 -739.1174)" fill="#E3E3E9" width="8.016" height="4.001"/>
			</g>
			<g>
				
					<rect x="1031.967" y="326.46" transform="matrix(0.1597 0.9872 -0.9872 0.1597 1194.936 -743.1248)" fill="#E3E3E9" width="4" height="7.724"/>
			</g>
			<g>
				
					<rect x="1022.365" y="338.267" transform="matrix(0.1598 0.9872 -0.9872 0.1598 1198.4752 -727.5106)" fill="#E3E3E9" width="8.472" height="4.001"/>
			</g>
		</g>
		<g>
			<path fill="#E3E3E9" d="M1125.036,464.666l-15.972-2.286l2.231-15.583l15.97,2.286L1125.036,464.666z M1113.592,458.987
				l8.052,1.152l1.097-7.664l-8.052-1.152L1113.592,458.987z"/>
		</g>
		<g>
			<polygon fill="#F8F8F8" points="784.447,618.474 729.746,617.93 730.642,527.686 783.391,528.21 799.127,544.283 
				798.819,617.989 			"/>
			<polygon fill="#E3E3E9" points="783.391,528.21 784.405,542.837 799.127,544.283 			"/>
			<g>
				<polygon fill="#D5D5D9" points="747.666,561.681 737.477,555.966 739.434,552.477 746.268,556.31 751.862,547.189 
					755.272,549.281 				"/>
			</g>
			<g>
				<polygon fill="#D5D5D9" points="747.574,584.786 737.386,579.071 739.343,575.583 746.176,579.415 751.77,570.294 
					755.18,572.386 				"/>
			</g>
			<g>
				
					<rect x="761.79" y="549.533" transform="matrix(1 0.0099 -0.0099 1 5.5169 -7.6645)" fill="#D5D5D9" width="25.067" height="4"/>
			</g>
			<g>
				
					<rect x="761.702" y="572.284" transform="matrix(1 0.0099 -0.0099 1 5.7343 -7.6563)" fill="#D5D5D9" width="26.092" height="4"/>
			</g>
			<g>
				<polygon fill="#D5D5D9" points="748.256,605.002 738.067,599.287 740.024,595.799 746.857,599.631 752.452,590.51 
					755.862,592.602 				"/>
			</g>
			<g>
				<rect x="760.97" y="592.548" transform="matrix(1 0.0099 -0.0099 1 5.9462 -7.662)" fill="#D5D5D9" width="26.093" height="4"/>
			</g>
		</g>
		<g>
			<linearGradient id="SVGID_1_" gradientUnits="userSpaceOnUse" x1="360.353" y1="747.8595" x2="504.3458" y2="644.3647">
				<stop  offset="0" style="stop-color:#D56C02"/>
				<stop  offset="0" style="stop-color:#D87402"/>
				<stop  offset="0" style="stop-color:#D66E02"/>
				<stop  offset="0.5176" style="stop-color:#E7AA01"/>
			</linearGradient>
			<polygon fill="url(#SVGID_1_)" points="658.096,697.628 658.096,426.012 318.643,426.012 318.643,863.703 688.678,863.703 
				688.678,712.92 			"/>
			<g>
				<g>
					<rect x="398.963" y="404.817" fill-rule="evenodd" clip-rule="evenodd" fill="#F8F8F8" width="284.371" height="384.628"/>
					<path fill="#D5D5D9" d="M685.333,791.444h-288.37V402.817h288.37V791.444z M400.963,787.444h280.37V406.817h-280.37V787.444z"
						/>
				</g>
				<polygon fill="#D5D5D9" points="683.336,500.309 548.708,635.412 551.401,638.095 683.336,505.693 				"/>
				<polygon fill="#D5D5D9" points="683.334,442.43 498.575,627.841 501.268,630.524 683.334,447.814 				"/>
				<polygon fill="#D5D5D9" points="670.682,404.817 448.443,627.841 451.135,630.524 676.048,404.817 				"/>
				<polygon fill="#D5D5D9" points="620.549,404.817 398.31,627.841 401.002,630.524 625.915,404.817 				"/>
				<polygon fill="#D5D5D9" points="398.44,582.785 575.782,404.817 570.416,404.817 398.44,577.4 				"/>
				<polygon fill="#D5D5D9" points="398.44,532.475 525.65,404.817 520.284,404.817 398.44,527.09 				"/>
				<polygon fill="#D5D5D9" points="398.935,481.669 475.517,404.817 470.151,404.817 398.935,476.284 				"/>
				<polygon fill="#D5D5D9" points="398.935,431.359 425.384,404.817 420.018,404.817 398.935,425.974 				"/>
			</g>
			<g>
				<rect x="360.002" y="438.004" fill-rule="evenodd" clip-rule="evenodd" fill="#FFFFFF" width="284.371" height="384.628"/>
				<path fill="#D5D5D9" d="M646.373,824.632H358.002V436.004h288.371V824.632z M362.002,820.632h280.371V440.004H362.002V820.632z"
					/>
			</g>
			<g>
				<path fill-rule="evenodd" clip-rule="evenodd" fill="#FFFFFF" d="M419.599,496.954h166.25H419.599z"/>
				<rect x="419.599" y="494.954" fill="#D5D5D9" width="166.25" height="4"/>
			</g>
			<g>
				<path fill-rule="evenodd" clip-rule="evenodd" fill="#FFFFFF" d="M419.599,556.258h166.25H419.599z"/>
				<rect x="419.599" y="554.258" fill="#D5D5D9" width="166.25" height="4"/>
			</g>
			<g>
				<path fill-rule="evenodd" clip-rule="evenodd" fill="#FFFFFF" d="M389.199,615.561h166.25H389.199z"/>
				<rect x="389.199" y="613.561" fill="#D5D5D9" width="166.25" height="4"/>
			</g>
			<linearGradient id="SVGID_2_" gradientUnits="userSpaceOnUse" x1="250.859" y1="836.3444" x2="544.8444" y2="546.8589">
				<stop  offset="0" style="stop-color:#D56C02"/>
				<stop  offset="0" style="stop-color:#D87402"/>
				<stop  offset="0" style="stop-color:#D66E02"/>
				<stop  offset="0.5176" style="stop-color:#E7AA01"/>
			</linearGradient>
			<polygon fill="url(#SVGID_2_)" points="512.325,818.406 481.743,801.848 481.743,952.58 318.643,863.702 318.643,426.012 
				512.325,531.554 512.325,818.406 			"/>
		</g>
		<g>
			<g>
				<path fill="#E6E7E8" d="M965.566,564.534l-0.167-4.491l-20.198,1.162l0.003,0.099c-5.683,0.484-4.411,7.978-4.411,7.978v43.203
					h3.604v-43.203c0-2.667,1.406-3.504,1.406-3.504v-0.102L965.566,564.534z"/>
				<g>
					<path fill="#FFFFFF" d="M944.577,567.779c-0.051,0.204-0.926,0.068-1.965-0.301c-1.034-0.367-1.834-0.833-1.786-1.034
						c0.051-0.204,0.921-0.073,1.958,0.298C943.821,567.113,944.622,567.576,944.577,567.779z"/>
					<path fill="#231F20" d="M944.296,567.917c-0.357,0-1.004-0.153-1.687-0.397c-0.938-0.334-1.697-0.75-1.803-0.989
						c-0.013-0.038-0.02-0.068-0.013-0.1c0.018-0.083,0.117-0.125,0.306-0.125c0.359,0,1.007,0.153,1.692,0.398
						c0.501,0.178,0.969,0.388,1.31,0.582c0.546,0.316,0.513,0.459,0.503,0.505C944.587,567.874,944.488,567.917,944.296,567.917z
						 M941.099,566.392c-0.218,0-0.238,0.055-0.238,0.062c-0.008,0.009,0,0.025,0.005,0.035c0.076,0.187,0.726,0.583,1.755,0.95
						c0.685,0.245,1.325,0.396,1.674,0.396c0.222,0,0.24-0.06,0.245-0.064c0.005-0.048-0.078-0.181-0.473-0.411
						c-0.339-0.196-0.792-0.397-1.29-0.577C942.093,566.54,941.453,566.392,941.099,566.392z"/>
				</g>
				<g>
					<path fill="#FFFFFF" d="M944.84,567.113c-0.055,0.207-0.981,0.024-2.069-0.398c-1.093-0.428-1.932-0.936-1.879-1.14
						c0.043-0.197,0.976-0.019,2.061,0.406C944.043,566.406,944.888,566.918,944.84,567.113z"/>
					<path fill="#231F20" d="M944.61,567.242c-0.369,0-1.075-0.189-1.849-0.491c-0.529-0.205-1.017-0.432-1.371-0.652
						c-0.579-0.348-0.544-0.483-0.529-0.531c0.02-0.08,0.099-0.11,0.258-0.11c0.364,0,1.075,0.185,1.846,0.484
						c0.526,0.206,1.017,0.443,1.373,0.655c0.577,0.348,0.539,0.486,0.529,0.531C944.85,567.206,944.764,567.242,944.61,567.242z
						 M941.119,565.537c-0.185,0-0.195,0.048-0.2,0.053c0,0.005-0.023,0.121,0.496,0.435c0.357,0.215,0.842,0.446,1.368,0.651
						c0.754,0.295,1.472,0.484,1.826,0.484c0.175,0,0.192-0.049,0.192-0.053c0,0,0.025-0.121-0.496-0.436
						c-0.352-0.213-0.837-0.446-1.358-0.649C942.192,565.731,941.473,565.537,941.119,565.537z"/>
				</g>
				<g>
					<path fill="#FFFFFF" d="M945.085,566.501c-0.063,0.198-0.976-0.047-2.046-0.545c-1.067-0.507-1.894-1.069-1.826-1.265
						c0.058-0.202,0.976,0.047,2.044,0.543C944.329,565.736,945.141,566.301,945.085,566.501z"/>
					<path fill="#231F20" d="M944.908,566.611c-0.336,0-1.077-0.243-1.877-0.622c-0.979-0.455-1.755-0.966-1.849-1.22
						c-0.008-0.032-0.01-0.065-0.002-0.094c0.02-0.066,0.088-0.097,0.205-0.097c0.339,0,1.08,0.245,1.884,0.617
						c0.971,0.46,1.748,0.975,1.839,1.225c0.012,0.034,0.012,0.067,0,0.091C945.095,566.576,945.024,566.611,944.908,566.611z
						 M941.385,564.661c-0.096,0-0.139,0.027-0.144,0.043c0,0.009,0,0.024,0.005,0.033c0.071,0.2,0.764,0.689,1.806,1.176
						c0.784,0.368,1.533,0.617,1.856,0.617c0.099,0,0.142-0.024,0.144-0.043c0.002-0.008,0-0.024-0.003-0.033
						c-0.071-0.199-0.769-0.694-1.801-1.18C942.462,564.909,941.711,564.661,941.385,564.661z"/>
				</g>
				<g>
					<path fill="#FFFFFF" d="M945.257,566.123c-0.073,0.184-0.961-0.206-1.965-0.869c-1.014-0.665-1.768-1.356-1.69-1.544
						c0.081-0.188,0.959,0.199,1.97,0.866C944.587,565.24,945.338,565.93,945.257,566.123z"/>
					<path fill="#231F20" d="M945.151,566.209c-0.291,0-1.045-0.372-1.874-0.922c-0.923-0.602-1.639-1.238-1.705-1.502
						c-0.008-0.032-0.005-0.063,0.005-0.095c0.015-0.044,0.061-0.068,0.132-0.068c0.291,0,1.049,0.369,1.887,0.918
						c0.913,0.606,1.631,1.239,1.697,1.509c0.01,0.034,0.01,0.068-0.005,0.088C945.267,566.187,945.222,566.209,945.151,566.209z
						 M941.709,563.704c-0.048,0-0.071,0.013-0.078,0.026c-0.003,0.008,0,0.023,0.003,0.031c0.05,0.208,0.693,0.809,1.667,1.459
						c0.815,0.531,1.573,0.909,1.852,0.909c0.05,0,0.076-0.013,0.081-0.03c0.005-0.006,0-0.02,0-0.027
						c-0.051-0.207-0.655-0.788-1.672-1.457C942.753,564.078,941.987,563.704,941.709,563.704z"/>
				</g>
				<g>
					<path fill="#FFFFFF" d="M945.497,565.715c-0.094,0.173-0.926-0.367-1.851-1.205c-0.923-0.841-1.588-1.658-1.49-1.831
						c0.101-0.171,0.931,0.369,1.854,1.213C944.933,564.728,945.598,565.549,945.497,565.715z"/>
					<path fill="#231F20" d="M945.427,565.791c-0.245,0-0.989-0.517-1.801-1.252c-0.84-0.765-1.477-1.52-1.51-1.792
						c-0.005-0.037,0-0.068,0.015-0.095c0.018-0.033,0.053-0.048,0.094-0.048c0.253,0,0.991,0.52,1.803,1.248
						c0.84,0.768,1.477,1.525,1.512,1.796c0,0.038,0,0.067-0.018,0.091C945.505,565.774,945.475,565.791,945.427,565.791z
						 M942.225,562.686c-0.018,0-0.033,0.006-0.038,0.017c-0.005,0.011-0.005,0.025-0.003,0.033
						c0.023,0.215,0.587,0.922,1.485,1.741c0.787,0.709,1.525,1.233,1.758,1.233c0.023,0,0.043-0.005,0.048-0.017
						c0.002-0.006,0.002-0.02,0-0.029c-0.031-0.215-0.557-0.895-1.485-1.741C943.206,563.209,942.465,562.686,942.225,562.686z"/>
				</g>
				<g>
					<path fill="#FFFFFF" d="M945.667,565.764c-0.132,0.135-0.815-0.593-1.54-1.628c-0.721-1.037-1.194-1.988-1.067-2.13
						c0.129-0.133,0.814,0.593,1.535,1.63C945.315,564.671,945.793,565.625,945.667,565.764z"/>
					<path fill="#231F20" d="M945.621,565.821c-0.238,0-0.943-0.833-1.515-1.655c-0.655-0.941-1.118-1.821-1.1-2.095
						c0-0.04,0.013-0.072,0.031-0.092c0.018-0.018,0.035-0.027,0.066-0.027c0.215,0,0.847,0.698,1.52,1.659
						c0.65,0.941,1.113,1.823,1.098,2.097c-0.003,0.037-0.013,0.067-0.033,0.091C945.667,565.809,945.652,565.821,945.621,565.821z
						 M943.102,562.036c-0.01,0-0.015,0-0.02,0.006c-0.01,0.006-0.013,0.023-0.013,0.03c-0.01,0.21,0.367,1,1.088,2.038
						c0.706,1.014,1.295,1.629,1.464,1.629c0.015,0,0.018-0.004,0.028-0.004c0.003-0.011,0.003-0.024,0.005-0.038
						c0.013-0.21-0.362-0.997-1.083-2.032C943.858,562.644,943.269,562.036,943.102,562.036z"/>
				</g>
			</g>
			<g>
				<polygon fill="#E6E7E8" points="924.012,585.468 918.941,585.468 924.012,644.833 936.228,644.833 936.228,585.468 				"/>
				<polygon fill="#F1F2F2" points="948.416,585.468 953.479,585.468 948.416,644.833 936.195,644.833 936.195,585.468 				"/>
				<polygon fill="#B0210A" points="936.228,619.233 921.857,619.233 920.051,598.47 936.228,598.47 				"/>
				<polygon fill="#E46B11" points="936.228,619.233 950.626,619.233 952.339,598.47 936.228,598.47 				"/>
				<rect x="918.192" y="583.248" fill="#B0210A" width="36.066" height="3.017"/>
				<path fill="#B0210A" d="M952.435,580.916c0-0.379-7.272-0.683-16.24-0.683c-8.968,0-16.237,0.304-16.237,0.683
					c0,0.006,0.008,0.009,0.013,0.014h-0.013v2.721h32.477v-2.721h-0.018C952.425,580.925,952.435,580.922,952.435,580.916z"/>
			</g>
		</g>
		<g>
			<path fill="#FDC542" d="M1356.267,490.426c-4.039,4.043-2.274,12.364,3.948,18.591c6.222,6.22,14.545,7.985,18.59,3.943
				c4.047-4.044,2.276-12.365-3.948-18.589C1368.635,488.15,1360.312,486.382,1356.267,490.426z"/>
			<polygon fill="#BAC7C7" points="1390.391,459.437 1400.058,469.105 1400.126,469.168 1409.792,478.836 1393.674,526.94 
				1368.01,501.284 1367.947,501.215 1342.284,475.555 			"/>
			<path fill="#BAC7C7" d="M1389.243,460.569c-1.292,1.292-1.31,3.361-0.048,4.627l14.791,14.791
				c1.26,1.262,3.333,1.243,4.623-0.049l12.358-12.358c1.292-1.288,1.315-3.36,0.048-4.623l-14.791-14.793
				c-1.267-1.265-3.333-1.239-4.626,0.051L1389.243,460.569z"/>
			<path fill="#F5F5F5" d="M1390.391,459.473l11.232-11.232c1.295-1.294,3.364-1.314,4.626-0.052l7.368,7.374l-13.549,13.55
				l-3.48,3.48l-28.633,28.632l-25.641-25.638L1390.391,459.473z"/>
			<path fill="#D1D3D4" d="M1378.049,639.905c0.65-7.357,11.705-13.211,25.259-13.211c13.566,0,24.621,5.854,25.269,13.211h0.043
				v4.928h-50.652v-4.928H1378.049z"/>
			<path fill="#D1D3D4" d="M1478.143,550.546c1.115,1.133,2.939,1.146,4.069,0.029l0,0c1.136-1.116,1.146-2.939,0.028-4.072
				l-76.692-77.816c-1.118-1.13-2.944-1.146-4.077-0.028l0,0c-1.133,1.117-1.143,2.939-0.028,4.072L1478.143,550.546z"/>
			<path fill="#D1D3D4" d="M1400.912,627.911c-1.13,1.115-1.143,2.94-0.028,4.071l0,0c1.113,1.133,2.939,1.149,4.072,0.03
				l77.813-76.697c1.136-1.114,1.148-2.94,0.033-4.072l0,0c-1.118-1.133-2.941-1.144-4.072-0.031L1400.912,627.911z"/>
			<circle fill="#D1D3D4" cx="1482.41" cy="550.274" r="6.546"/>
			
				<rect x="1399.391" y="453.78" transform="matrix(0.7073 -0.707 0.707 0.7073 79.8575 1127.8005)" fill="#A7A9AC" width="4.628" height="27.391"/>
		</g>
		<g>
			<g>
				
					<linearGradient id="SVGID_3_" gradientUnits="userSpaceOnUse" x1="951.4699" y1="610.997" x2="978.6495" y2="622.0007" gradientTransform="matrix(-1 0 0 1 1943.5117 0)">
					<stop  offset="0.1879" style="stop-color:#6D6E71"/>
					<stop  offset="0.1985" style="stop-color:#626264"/>
					<stop  offset="0.2315" style="stop-color:#434042"/>
					<stop  offset="0.2629" style="stop-color:#2C282A"/>
					<stop  offset="0.2917" style="stop-color:#1F191B"/>
					<stop  offset="0.3155" style="stop-color:#1A1416"/>
				</linearGradient>
				<path fill="url(#SVGID_3_)" d="M964.266,638.056c0,1.548,1.356,2.805,3.028,2.805h24.303c1.672,0,3.027-1.257,3.027-2.805
					v-43.919c0-1.548-1.356-2.805-3.027-2.805h-24.303c-1.672,0-3.028,1.257-3.028,2.805V638.056z"/>
				
					<linearGradient id="SVGID_4_" gradientUnits="userSpaceOnUse" x1="946.8105" y1="608.3469" x2="981.5167" y2="623.7991" gradientTransform="matrix(-1 0 0 1 1943.5117 0)">
					<stop  offset="0.2727" style="stop-color:#FFFFFF"/>
					<stop  offset="0.4549" style="stop-color:#F1EFE9"/>
					<stop  offset="0.6372" style="stop-color:#E7E4DA"/>
					<stop  offset="0.7879" style="stop-color:#E4E0D5"/>
				</linearGradient>
				<path fill="url(#SVGID_4_)" stroke="#E4E0D5" stroke-width="0.1333" stroke-miterlimit="10" d="M966.841,634.54
					c0,0.41,0.369,0.747,0.832,0.747h23.354c0.455,0,0.827-0.337,0.827-0.747v-36.934c0-0.412-0.372-0.746-0.827-0.746h-23.354
					c-0.463,0-0.832,0.334-0.832,0.746V634.54z"/>
				<path fill="#817D7E" d="M975.246,593.671c0,0.262,0.23,0.474,0.513,0.474h7.188c0.286,0,0.516-0.212,0.516-0.474l0,0
					c0-0.259-0.23-0.473-0.516-0.473h-7.188C975.476,593.198,975.246,593.411,975.246,593.671L975.246,593.671z"/>
				<path fill="#817D7E" stroke="#E4E0D5" stroke-width="0.4099" stroke-miterlimit="10" d="M977.721,639.275
					c0,0.259,0.089,0.468,0.19,0.468h2.886c0.101,0,0.187-0.208,0.187-0.468v-0.355c0-0.258-0.086-0.471-0.187-0.471h-2.886
					c-0.101,0-0.19,0.212-0.19,0.471V639.275z"/>
			</g>
			<g>
				<rect x="959.939" y="638.05" fill="#E8EBEC" width="39.01" height="6.783"/>
				<rect x="971.416" y="640.699" fill="#3F3F40" width="16.058" height="1.485"/>
			</g>
		</g>
		<g>
			<g>
				<rect x="1481.603" y="719.231" fill="#004352" width="23.974" height="260.722"/>
				<rect x="849.145" y="719.231" fill="#004352" width="23.971" height="260.722"/>
				<rect x="849.13" y="662.435" fill="#004352" width="656.448" height="76.882"/>
				<rect x="849.13" y="668.518" fill="#00131B" width="656.448" height="2.75"/>
				<g>
					<path fill="#004352" d="M1519.685,665.718H835.022c-1.963,0-3.553-0.607-3.553-1.341v-21.293c0-0.747,1.591-1.347,3.553-1.347
						h684.663c1.96,0,3.559,0.6,3.559,1.347v21.293C1523.244,665.111,1521.645,665.718,1519.685,665.718z"/>
					<path fill="#004352" d="M1519.685,665.749H835.022c-2.021,0-3.655-0.615-3.655-1.372v-21.293c0-0.76,1.634-1.383,3.655-1.383
						h684.663c2.006,0,3.652,0.623,3.652,1.383v21.293C1523.337,665.135,1521.691,665.749,1519.685,665.749z M835.022,641.767
						c-1.912,0-3.46,0.596-3.46,1.318v21.293c0,0.713,1.548,1.31,3.46,1.31h684.663c1.91,0,3.473-0.597,3.473-1.31v-21.293
						c0-0.722-1.563-1.318-3.473-1.318H835.022z"/>
				</g>
				<g>
					<polygon fill="#242121" points="1468.99,674.962 1481.988,674.962 1481.988,694.22 1481.988,734.946 1468.99,734.946 
						873.116,734.946 873.116,694.22 873.116,674.962 					"/>
					<g>
						<rect x="893.919" y="680.716" fill="#BDBFC0" width="573.653" height="47.764"/>
						<rect x="893.919" y="680.716" fill="#919496" width="573.653" height="15.334"/>
						<rect x="1455.53" y="680.716" fill="#A0A3A4" width="12.041" height="47.764"/>
					</g>
				</g>
			</g>
			<g>
				<path fill="#004352" d="M1111.223,716.019c0,3.184,1.649,5.769,3.68,5.769h204.957c2.034,0,3.68-2.585,3.68-5.769l0,0
					c0-3.187-1.646-5.768-3.68-5.768h-204.957C1112.872,710.251,1111.223,712.833,1111.223,716.019L1111.223,716.019z"/>
				<path fill="#004352" d="M1301.65,711.658c0,3.614,1.379,6.542,3.083,6.542h6.265c1.702,0,3.083-2.928,3.083-6.542l0,0
					c0-3.617-1.381-6.545-3.083-6.545h-6.265C1303.028,705.112,1301.65,708.041,1301.65,711.658L1301.65,711.658z"/>
				<path fill="#004352" d="M1285.352,711.658c0,3.614,1.381,6.542,3.086,6.542h6.262c1.705,0,3.086-2.928,3.086-6.542l0,0
					c0-3.617-1.381-6.545-3.086-6.545h-6.262C1286.733,705.112,1285.352,708.041,1285.352,711.658L1285.352,711.658z"/>
				<path fill="#004352" d="M1269.059,711.658c0,3.614,1.378,6.542,3.083,6.542h6.265c1.702,0,3.086-2.928,3.086-6.542l0,0
					c0-3.617-1.383-6.545-3.086-6.545h-6.265C1270.438,705.112,1269.059,708.041,1269.059,711.658L1269.059,711.658z"/>
				<path fill="#004352" d="M1252.761,711.658c0,3.614,1.376,6.542,3.083,6.542h6.262c1.707,0,3.088-2.928,3.088-6.542l0,0
					c0-3.617-1.381-6.545-3.088-6.545h-6.262C1254.137,705.112,1252.761,708.041,1252.761,711.658L1252.761,711.658z"/>
				<path fill="#004352" d="M1236.463,711.658c0,3.614,1.383,6.542,3.086,6.542h6.262c1.702,0,3.088-2.928,3.088-6.542l0,0
					c0-3.617-1.386-6.545-3.088-6.545h-6.262C1237.846,705.112,1236.463,708.041,1236.463,711.658L1236.463,711.658z"/>
				<path fill="#004352" d="M1205.992,711.658c0,3.614,2.724,6.542,6.078,6.542h12.332c3.354,0,6.075-2.928,6.075-6.542l0,0
					c0-3.617-2.721-6.545-6.075-6.545h-12.332C1208.716,705.112,1205.992,708.041,1205.992,711.658L1205.992,711.658z"/>
				<path fill="#004352" d="M1183.029,711.658c0,3.614,1.384,6.542,3.083,6.542h6.262c1.707,0,3.088-2.928,3.088-6.542l0,0
					c0-3.617-1.381-6.545-3.088-6.545h-6.262C1184.413,705.112,1183.029,708.041,1183.029,711.658L1183.029,711.658z"/>
				<path fill="#004352" d="M1166.739,711.658c0,3.614,1.378,6.542,3.075,6.542h6.272c1.7,0,3.083-2.928,3.083-6.542l0,0
					c0-3.617-1.384-6.545-3.083-6.545h-6.272C1168.117,705.112,1166.739,708.041,1166.739,711.658L1166.739,711.658z"/>
				<path fill="#004352" d="M1150.438,711.658c0,3.614,1.381,6.542,3.086,6.542h6.26c1.707,0,3.088-2.928,3.088-6.542l0,0
					c0-3.617-1.381-6.545-3.088-6.545h-6.26C1151.819,705.112,1150.438,708.041,1150.438,711.658L1150.438,711.658z"/>
				<path fill="#004352" d="M1119.511,711.658c0,3.614,2.964,6.542,6.616,6.542h13.427c3.652,0,6.614-2.928,6.614-6.542l0,0
					c0-3.617-2.962-6.545-6.614-6.545h-13.427C1122.476,705.112,1119.511,708.041,1119.511,711.658L1119.511,711.658z"/>
			</g>
		</g>
		<g>
			<g>
				<path fill="#004352" d="M1281.801,643.173l-12.264-3.376h-201.35l-11.761,3.383c-0.453,0.039-0.741,0.09-0.741,0.148v0.86
					c0,0.116,1.199,0.216,2.678,0.216h221.558c1.469,0,2.666-0.1,2.666-0.216v-0.86
					C1282.588,643.269,1282.289,643.215,1281.801,643.173z"/>
				<path fill="#004352" d="M1181.469,564.027c0-4.816-2.486-8.718-5.549-8.718h-6.596h-0.372h-6.594
					c-3.065,0-5.552,3.902-5.552,8.718l-11.91,71.656c0,4.816,2.489,8.719,5.554,8.719h18.501h0.372h18.501
					c3.065,0,5.554-3.904,5.554-8.719L1181.469,564.027z"/>
				<g>
					<g>
						<path fill="#004352" d="M1278.766,624.018c0,1.302-1.272,2.353-2.835,2.353h-212.17c-1.561,0-2.83-1.051-2.83-2.353V500.733
							c0-1.291,1.27-2.348,2.83-2.348h212.17c1.563,0,2.835,1.057,2.835,2.348V624.018z"/>
						<rect x="1071.941" y="508.167" fill="#EAEAEC" width="195.806" height="108.432"/>
					</g>
				</g>
			</g>
			<g>
				<rect x="1079.994" y="508.965" fill="#024456" width="178.355" height="106.592"/>
				<rect x="1079.994" y="508.965" fill="#B9CEBF" width="178.355" height="11.934"/>
				<rect x="1079.994" y="603.948" fill="#B9CEBF" width="178.355" height="11.935"/>
				<g>
					<rect x="1092.46" y="519.562" fill="#F5F5F5" width="0" height="78.732"/>
					<rect x="1105.288" y="519.562" fill="#F5F5F5" width="0" height="78.732"/>
					<rect x="1118.118" y="519.562" fill="#F5F5F5" width="0" height="78.732"/>
					<rect x="1130.946" y="519.562" fill="#F5F5F5" width="0" height="78.732"/>
					<rect x="1143.777" y="519.562" fill="#F5F5F5" width="0" height="78.732"/>
					<rect x="1156.605" y="519.562" fill="#F5F5F5" width="0" height="78.732"/>
					<rect x="1169.435" y="519.562" fill="#F5F5F5" width="0" height="78.732"/>
					<rect x="1182.266" y="519.562" fill="#F5F5F5" width="0" height="78.732"/>
				</g>
				<rect x="1195.096" y="519.562" fill="#F5F5F5" width="0" height="78.732"/>
				<rect x="1207.924" y="519.562" fill="#F5F5F5" width="0" height="78.732"/>
				<rect x="1220.755" y="519.562" fill="#F5F5F5" width="0" height="78.732"/>
				<rect x="1233.583" y="519.562" fill="#F5F5F5" width="0" height="78.732"/>
				<rect x="1246.416" y="519.562" fill="#F5F5F5" width="0" height="78.732"/>
				<g>
					<rect x="1091.094" y="581.916" fill="#F5F5F5" width="158.018" height="0"/>
					<rect x="1091.094" y="567.079" fill="#F5F5F5" width="158.018" height="0"/>
					<rect x="1091.094" y="596.752" fill="#F5F5F5" width="158.018" height="0"/>
					<rect x="1091.094" y="552.243" fill="#F5F5F5" width="158.018" height="0"/>
					<rect x="1091.094" y="537.408" fill="#F5F5F5" width="158.018" height="0"/>
					<rect x="1091.094" y="522.572" fill="#F5F5F5" width="158.018" height="0"/>
				</g>
				<polyline fill="none" stroke="#CF4E21" stroke-width="0.3132" stroke-miterlimit="10" points="1092.402,581.127 
					1112.718,586.109 1133.033,579.375 1153.35,583.953 1173.664,573.722 1193.981,544.195 1244.979,523.511 				"/>
				<polyline fill="none" stroke="#7CA88E" stroke-width="0.0969" stroke-miterlimit="10" points="1092.402,578.905 
					1118.065,581.598 1143.731,564.619 1169.392,561.964 1195.056,564.619 1220.722,561.964 1246.383,578.905 				"/>
				<polyline fill="none" stroke="#54ADB2" stroke-width="0.0969" stroke-miterlimit="10" points="1092.402,581.236 
					1118.065,586.218 1143.731,559.85 1169.392,579.483 1195.056,557.091 1220.722,569.332 1246.383,576.791 				"/>
				<polyline fill="none" stroke="#BACCC1" stroke-width="0.0969" stroke-miterlimit="10" points="1092.402,575.992 
					1118.065,575.098 1143.731,581.648 1169.392,557.083 1195.056,562.015 1220.722,586.225 1246.383,573.771 				"/>
				<g>
					<rect x="1090.831" y="521.927" fill="#BACCC1" width="1.523" height="0.876"/>
					<rect x="1090.831" y="536.755" fill="#BACCC1" width="1.523" height="0.878"/>
					<rect x="1090.831" y="551.581" fill="#BACCC1" width="1.523" height="0.878"/>
					<rect x="1090.831" y="566.41" fill="#BACCC1" width="1.523" height="0.876"/>
					<rect x="1090.831" y="581.237" fill="#BACCC1" width="1.523" height="0.875"/>
					<rect x="1090.831" y="596.063" fill="#BACCC1" width="1.523" height="0.876"/>
				</g>
				<g>
					<rect x="1092.343" y="596.871" fill="#BACCC1" width="0.511" height="2.632"/>
					<rect x="1105.032" y="596.871" fill="#BACCC1" width="0.511" height="2.632"/>
					<rect x="1117.853" y="596.871" fill="#BACCC1" width="0.503" height="2.632"/>
					<rect x="1130.663" y="596.871" fill="#BACCC1" width="0.508" height="2.632"/>
					<rect x="1143.478" y="596.871" fill="#BACCC1" width="0.511" height="2.632"/>
					<rect x="1156.352" y="596.871" fill="#BACCC1" width="0.508" height="2.632"/>
					<rect x="1169.225" y="596.871" fill="#BACCC1" width="0.508" height="2.632"/>
					<rect x="1182.094" y="596.871" fill="#BACCC1" width="0.511" height="2.632"/>
				</g>
				<rect x="1195.033" y="596.871" fill="#BACCC1" width="0.511" height="2.632"/>
				<rect x="1207.719" y="596.871" fill="#BACCC1" width="0.511" height="2.632"/>
				<rect x="1220.54" y="596.871" fill="#BACCC1" width="0.508" height="2.632"/>
				<rect x="1233.355" y="596.871" fill="#BACCC1" width="0.506" height="2.632"/>
				<rect x="1246.168" y="596.871" fill="#BACCC1" width="0.506" height="2.632"/>
				<g>
					<path fill="#C24D27" d="M1100.371,598.496h0.344v1.745c0,0.69-0.344,0.904-0.791,0.904c-0.129,0-0.278-0.028-0.362-0.061
						l0.048-0.276c0.071,0.028,0.169,0.049,0.286,0.049c0.301,0,0.476-0.135,0.476-0.645V598.496z"/>
					<path fill="#C24D27" d="M1102.574,600.654c0,0.163,0.01,0.322,0.03,0.448h-0.303l-0.028-0.235h-0.01
						c-0.109,0.148-0.306,0.279-0.577,0.279c-0.374,0-0.572-0.268-0.572-0.537c0-0.454,0.402-0.702,1.128-0.696v-0.042
						c0-0.148-0.043-0.432-0.43-0.429c-0.175,0-0.357,0.049-0.491,0.142l-0.078-0.232c0.16-0.095,0.387-0.162,0.625-0.162
						c0.572,0,0.706,0.393,0.706,0.765V600.654z M1102.25,600.148c-0.372-0.01-0.794,0.055-0.794,0.421
						c0,0.225,0.144,0.325,0.319,0.325c0.248,0,0.407-0.155,0.458-0.314c0.013-0.038,0.018-0.078,0.018-0.109V600.148z"/>
					<path fill="#C24D27" d="M1103.125,599.736c0-0.195-0.005-0.35-0.015-0.506h0.304l0.02,0.311h0.005
						c0.096-0.176,0.311-0.35,0.62-0.35c0.263,0,0.665,0.157,0.665,0.797v1.114h-0.341v-1.077c0-0.301-0.109-0.553-0.435-0.553
						c-0.22,0-0.395,0.158-0.455,0.346c-0.015,0.043-0.025,0.1-0.025,0.161v1.123h-0.341V599.736z"/>
					<path fill="#C24D27" d="M1111.843,598.496h1.406v0.281h-1.06v0.867h0.981v0.278h-0.981v1.179h-0.347V598.496z"/>
					<path fill="#C24D27" d="M1113.791,600.227c0.01,0.463,0.298,0.65,0.642,0.65c0.245,0,0.4-0.04,0.518-0.096l0.061,0.245
						c-0.116,0.053-0.329,0.119-0.622,0.119c-0.582,0-0.926-0.386-0.926-0.948c0-0.565,0.336-1.007,0.883-1.007
						c0.612,0,0.774,0.536,0.774,0.882c0,0.066-0.008,0.116-0.015,0.155H1113.791z M1114.787,599.985
						c0.005-0.214-0.086-0.55-0.468-0.55c-0.349,0-0.496,0.312-0.521,0.55H1114.787z"/>
					<path fill="#C24D27" d="M1115.546,598.355h0.329v1.177h0.012c0.119-0.211,0.334-0.342,0.64-0.342
						c0.465,0,0.792,0.387,0.792,0.951c0,0.672-0.43,1.004-0.845,1.004c-0.271,0-0.488-0.105-0.63-0.348h-0.01l-0.02,0.304h-0.288
						c0.003-0.125,0.02-0.315,0.02-0.482V598.355z M1115.875,600.351c0,0.043,0.002,0.086,0.023,0.124
						c0.058,0.236,0.258,0.398,0.511,0.398c0.357,0,0.567-0.29,0.567-0.719c0-0.374-0.195-0.694-0.564-0.694
						c-0.223,0-0.445,0.161-0.513,0.417c-0.01,0.04-0.023,0.087-0.023,0.142V600.351z"/>
					<path fill="#C24D27" d="M1126.518,599.958c-0.023-0.363-0.046-0.807-0.046-1.127h-0.005c-0.093,0.303-0.195,0.631-0.329,0.991
						l-0.465,1.264h-0.253l-0.427-1.242c-0.124-0.372-0.225-0.704-0.299-1.014h-0.005c-0.008,0.326-0.025,0.757-0.048,1.153
						l-0.071,1.117h-0.324l0.185-2.605h0.425l0.453,1.261c0.104,0.321,0.187,0.607,0.26,0.877h0.008
						c0.068-0.264,0.16-0.549,0.278-0.877l0.463-1.261h0.43l0.162,2.605h-0.336L1126.518,599.958z"/>
					<path fill="#C24D27" d="M1128.759,600.654c0,0.163,0.008,0.322,0.023,0.448h-0.301l-0.03-0.235h-0.013
						c-0.104,0.148-0.303,0.279-0.572,0.279c-0.382,0-0.572-0.268-0.572-0.537c0-0.454,0.405-0.702,1.128-0.696v-0.042
						c0-0.148-0.043-0.432-0.43-0.429c-0.177,0-0.359,0.049-0.488,0.142l-0.078-0.232c0.154-0.095,0.382-0.162,0.62-0.162
						c0.572,0,0.713,0.393,0.713,0.765V600.654z M1128.43,600.148c-0.377-0.01-0.797,0.055-0.797,0.421
						c0,0.225,0.149,0.325,0.318,0.325c0.248,0,0.407-0.155,0.465-0.314c0.005-0.038,0.013-0.078,0.013-0.109V600.148z"/>
					<path fill="#C24D27" d="M1129.307,599.814c0-0.219-0.005-0.411-0.018-0.584h0.299l0.015,0.372h0.013
						c0.086-0.251,0.296-0.411,0.524-0.411c0.033,0,0.061,0.005,0.091,0.008v0.322c-0.035-0.009-0.066-0.009-0.119-0.009
						c-0.235,0-0.402,0.178-0.453,0.435c-0.008,0.046-0.013,0.104-0.013,0.157v0.998h-0.339V599.814z"/>
					<path fill="#C24D27" d="M1137.568,600.283l-0.268,0.818h-0.351l0.893-2.605h0.402l0.89,2.605h-0.362l-0.278-0.818H1137.568z
						 M1138.425,600.019l-0.256-0.75c-0.058-0.169-0.099-0.326-0.134-0.477h-0.013c-0.033,0.151-0.076,0.315-0.132,0.472
						l-0.253,0.755H1138.425z"/>
					<path fill="#C24D27" d="M1139.492,599.842c0-0.24-0.01-0.434-0.018-0.612h0.303l0.021,0.321h0.007
						c0.134-0.23,0.359-0.361,0.665-0.361c0.455,0,0.799,0.382,0.799,0.947c0,0.675-0.415,1.008-0.857,1.008
						c-0.248,0-0.465-0.109-0.579-0.293h-0.007v1.016h-0.334V599.842z M1139.826,600.34c0,0.049,0.005,0.097,0.018,0.14
						c0.066,0.235,0.263,0.397,0.514,0.397c0.357,0,0.566-0.293,0.566-0.723c0-0.372-0.2-0.692-0.554-0.692
						c-0.233,0-0.455,0.162-0.518,0.417c-0.013,0.043-0.025,0.094-0.025,0.135V600.34z"/>
					<path fill="#C24D27" d="M1141.693,599.814c0-0.219-0.003-0.411-0.015-0.584h0.296l0.015,0.372h0.015
						c0.086-0.251,0.293-0.411,0.524-0.411c0.03,0,0.061,0.005,0.088,0.008v0.322c-0.033-0.009-0.068-0.009-0.114-0.009
						c-0.24,0-0.41,0.178-0.46,0.435c-0.008,0.046-0.008,0.104-0.008,0.157v0.998h-0.341V599.814z"/>
					<path fill="#C24D27" d="M1151.729,599.958c-0.018-0.363-0.036-0.807-0.036-1.127h-0.013c-0.091,0.303-0.202,0.631-0.329,0.991
						l-0.463,1.264h-0.253l-0.425-1.242c-0.127-0.372-0.225-0.704-0.301-1.014h-0.005c-0.007,0.326-0.025,0.757-0.053,1.153
						l-0.066,1.117h-0.321l0.185-2.605h0.422l0.448,1.261c0.109,0.321,0.195,0.607,0.266,0.877h0.005
						c0.071-0.264,0.164-0.549,0.281-0.877l0.463-1.261h0.427l0.165,2.605h-0.334L1151.729,599.958z"/>
					<path fill="#C24D27" d="M1153.974,600.654c0,0.163,0.005,0.322,0.023,0.448h-0.304l-0.028-0.235h-0.01
						c-0.106,0.148-0.306,0.279-0.574,0.279c-0.382,0-0.572-0.268-0.572-0.537c0-0.454,0.402-0.702,1.128-0.696v-0.042
						c0-0.148-0.048-0.432-0.432-0.429c-0.175,0-0.354,0.049-0.486,0.142l-0.081-0.232c0.154-0.095,0.384-0.162,0.622-0.162
						c0.572,0,0.713,0.393,0.713,0.765V600.654z M1153.643,600.148c-0.369-0.01-0.792,0.055-0.792,0.421
						c0,0.225,0.146,0.325,0.318,0.325c0.245,0,0.405-0.155,0.455-0.314c0.013-0.038,0.018-0.078,0.018-0.109V600.148z"/>
					<path fill="#C24D27" d="M1154.617,599.23l0.405,1.106c0.046,0.124,0.091,0.272,0.124,0.383h0.005
						c0.033-0.111,0.076-0.256,0.119-0.391l0.374-1.099h0.359l-0.508,1.335c-0.248,0.642-0.415,0.965-0.647,1.174
						c-0.169,0.142-0.326,0.2-0.415,0.214l-0.088-0.282c0.088-0.028,0.202-0.078,0.306-0.164c0.086-0.074,0.197-0.206,0.281-0.381
						c0.018-0.033,0.03-0.062,0.03-0.081c0-0.018-0.008-0.048-0.03-0.09l-0.688-1.725H1154.617z"/>
					<path fill="#C24D27" d="M1164.238,598.496h0.341v1.745c0,0.69-0.341,0.904-0.792,0.904c-0.124,0-0.276-0.028-0.359-0.061
						l0.048-0.276c0.068,0.028,0.175,0.049,0.289,0.049c0.298,0,0.473-0.135,0.473-0.645V598.496z"/>
					<path fill="#C24D27" d="M1166.693,600.588c0,0.198,0.005,0.367,0.018,0.513h-0.303l-0.02-0.304h-0.008
						c-0.083,0.152-0.283,0.348-0.617,0.348c-0.296,0-0.642-0.167-0.642-0.821v-1.095h0.339v1.032c0,0.358,0.106,0.602,0.415,0.602
						c0.23,0,0.39-0.161,0.45-0.315c0.018-0.047,0.031-0.107,0.031-0.173v-1.146h0.339V600.588z"/>
					<path fill="#C24D27" d="M1167.26,599.736c0-0.195-0.003-0.35-0.013-0.506h0.296l0.023,0.311h0.008
						c0.091-0.176,0.306-0.35,0.619-0.35c0.256,0,0.665,0.157,0.665,0.797v1.114h-0.344v-1.077c0-0.301-0.111-0.553-0.432-0.553
						c-0.223,0-0.395,0.158-0.455,0.346c-0.015,0.043-0.025,0.1-0.025,0.161v1.123h-0.341V599.736z"/>
					<path fill="#C24D27" d="M1178.156,598.496h0.339v1.745c0,0.69-0.339,0.904-0.789,0.904c-0.129,0-0.278-0.028-0.362-0.061
						l0.046-0.276c0.071,0.028,0.175,0.049,0.288,0.049c0.304,0,0.478-0.135,0.478-0.645V598.496z"/>
					<path fill="#C24D27" d="M1180.614,600.588c0,0.198,0,0.367,0.01,0.513h-0.298l-0.023-0.304h-0.003
						c-0.086,0.152-0.293,0.348-0.622,0.348c-0.294,0-0.645-0.167-0.645-0.821v-1.095h0.339v1.032c0,0.358,0.114,0.602,0.418,0.602
						c0.23,0,0.387-0.161,0.448-0.315c0.025-0.047,0.033-0.107,0.033-0.173v-1.146h0.344V600.588z"/>
					<path fill="#C24D27" d="M1181.178,598.355h0.339v2.747h-0.339V598.355z"/>
					<path fill="#C24D27" d="M1188.265,600.283l-0.271,0.818h-0.349l0.893-2.605h0.4l0.89,2.605h-0.359l-0.278-0.818H1188.265z
						 M1189.122,600.019l-0.256-0.75c-0.061-0.169-0.098-0.326-0.136-0.477h-0.008c-0.04,0.151-0.078,0.315-0.129,0.472
						l-0.263,0.755H1189.122z"/>
					<path fill="#C24D27" d="M1191.72,600.588c0,0.198,0.003,0.367,0.023,0.513h-0.308l-0.018-0.304h-0.007
						c-0.083,0.152-0.286,0.348-0.617,0.348c-0.298,0-0.648-0.167-0.648-0.821v-1.095h0.336v1.032c0,0.358,0.114,0.602,0.42,0.602
						c0.228,0,0.384-0.161,0.45-0.315c0.018-0.047,0.03-0.107,0.03-0.173v-1.146h0.339V600.588z"/>
					<path fill="#C24D27" d="M1193.89,600.827c0,0.435-0.089,0.693-0.266,0.86c-0.192,0.167-0.45,0.225-0.688,0.225
						c-0.225,0-0.473-0.053-0.62-0.156l0.081-0.263c0.124,0.082,0.321,0.149,0.552,0.149c0.349,0,0.604-0.181,0.604-0.656v-0.205
						h-0.01c-0.101,0.173-0.306,0.311-0.594,0.311c-0.465,0-0.797-0.393-0.797-0.911c0-0.635,0.412-0.991,0.847-0.991
						c0.324,0,0.501,0.167,0.582,0.321h0.01l0.005-0.282h0.306c-0.01,0.131-0.013,0.286-0.013,0.512V600.827z M1193.548,599.968
						c0-0.056-0.005-0.107-0.018-0.151c-0.063-0.202-0.228-0.36-0.475-0.36c-0.326,0-0.559,0.272-0.559,0.704
						c0,0.368,0.19,0.675,0.557,0.675c0.207,0,0.397-0.134,0.468-0.349c0.018-0.057,0.028-0.124,0.028-0.183V599.968z"/>
					<path fill="#C24D27" d="M1200.982,600.693c0.149,0.097,0.369,0.171,0.602,0.171c0.341,0,0.544-0.183,0.544-0.445
						c0-0.24-0.139-0.383-0.496-0.516c-0.422-0.155-0.686-0.378-0.686-0.741c0-0.407,0.339-0.708,0.845-0.708
						c0.265,0,0.458,0.063,0.572,0.128l-0.094,0.274c-0.078-0.051-0.253-0.123-0.488-0.123c-0.357,0-0.493,0.21-0.493,0.388
						c0,0.244,0.157,0.364,0.519,0.503c0.443,0.171,0.663,0.383,0.663,0.765c0,0.405-0.296,0.756-0.911,0.756
						c-0.255,0-0.526-0.078-0.668-0.169L1200.982,600.693z"/>
					<path fill="#C24D27" d="M1203.136,600.227c0.005,0.463,0.293,0.65,0.64,0.65c0.24,0,0.395-0.04,0.521-0.096l0.058,0.245
						c-0.121,0.053-0.329,0.119-0.625,0.119c-0.579,0-0.921-0.386-0.921-0.948c0-0.565,0.332-1.007,0.873-1.007
						c0.617,0,0.779,0.536,0.779,0.882c0,0.066-0.002,0.116-0.013,0.155H1203.136z M1204.13,599.985
						c0.008-0.214-0.086-0.55-0.468-0.55c-0.349,0-0.498,0.312-0.523,0.55H1204.13z"/>
					<path fill="#C24D27" d="M1204.879,599.842c0-0.24-0.008-0.434-0.015-0.612h0.301l0.023,0.321h0.007
						c0.137-0.23,0.359-0.361,0.665-0.361c0.458,0,0.799,0.382,0.799,0.947c0,0.675-0.418,1.008-0.858,1.008
						c-0.248,0-0.463-0.109-0.579-0.293h-0.008v1.016h-0.336V599.842z M1205.215,600.34c0,0.049,0.005,0.097,0.018,0.14
						c0.063,0.235,0.268,0.397,0.513,0.397c0.359,0,0.569-0.293,0.569-0.723c0-0.372-0.2-0.692-0.559-0.692
						c-0.23,0-0.455,0.162-0.511,0.417c-0.015,0.043-0.031,0.094-0.031,0.135V600.34z"/>
					<path fill="#C24D27" d="M1216.706,599.771c0,0.897-0.541,1.375-1.207,1.375c-0.695,0-1.176-0.537-1.176-1.328
						c0-0.827,0.514-1.368,1.207-1.368C1216.248,598.449,1216.706,598.993,1216.706,599.771z M1214.682,599.81
						c0,0.56,0.301,1.06,0.835,1.06c0.536,0,0.832-0.49,0.832-1.08c0-0.526-0.268-1.067-0.827-1.067
						C1214.96,598.723,1214.682,599.24,1214.682,599.81z"/>
					<path fill="#C24D27" d="M1218.481,601.037c-0.086,0.043-0.283,0.109-0.539,0.109c-0.562,0-0.928-0.386-0.928-0.957
						c0-0.576,0.397-0.998,1.004-0.998c0.202,0,0.382,0.049,0.475,0.101l-0.083,0.259c-0.076-0.042-0.2-0.089-0.392-0.089
						c-0.425,0-0.663,0.32-0.663,0.707c0,0.436,0.283,0.701,0.653,0.701c0.192,0,0.324-0.048,0.415-0.089L1218.481,601.037z"/>
					<path fill="#C24D27" d="M1219.346,598.781v0.449h0.483v0.258h-0.483v1.01c0,0.233,0.063,0.365,0.253,0.365
						c0.096,0,0.144-0.008,0.197-0.023l0.015,0.259c-0.068,0.021-0.172,0.046-0.298,0.046c-0.16,0-0.288-0.053-0.372-0.144
						c-0.091-0.104-0.132-0.27-0.132-0.491v-1.023h-0.286v-0.258h0.286v-0.346L1219.346,598.781z"/>
					<path fill="#C24D27" d="M1226.787,601.101v-2.605h0.372l0.832,1.318c0.192,0.309,0.344,0.581,0.468,0.85l0.01-0.005
						c-0.028-0.35-0.036-0.666-0.036-1.071v-1.091h0.311v2.605h-0.336l-0.829-1.321c-0.182-0.292-0.354-0.589-0.486-0.873
						l-0.01,0.006c0.02,0.326,0.025,0.642,0.025,1.074v1.114H1226.787z"/>
					<path fill="#C24D27" d="M1231.021,600.151c0,0.69-0.488,0.994-0.936,0.994c-0.504,0-0.898-0.372-0.898-0.964
						c0-0.623,0.417-0.991,0.931-0.991C1230.654,599.19,1231.021,599.584,1231.021,600.151z M1229.536,600.169
						c0,0.411,0.235,0.721,0.569,0.721c0.321,0,0.566-0.306,0.566-0.729c0-0.316-0.159-0.716-0.561-0.716
						C1229.711,599.446,1229.536,599.818,1229.536,600.169z"/>
					<path fill="#C24D27" d="M1231.552,599.23l0.369,1.048c0.061,0.175,0.109,0.33,0.147,0.482h0.015
						c0.043-0.152,0.096-0.307,0.157-0.482l0.364-1.048h0.359l-0.736,1.871h-0.326l-0.711-1.871H1231.552z"/>
					<path fill="#C24D27" d="M1239.855,598.534c0.205-0.035,0.45-0.058,0.719-0.058c0.483,0,0.827,0.115,1.055,0.323
						c0.24,0.215,0.374,0.516,0.374,0.937c0,0.426-0.134,0.775-0.377,1.016c-0.248,0.241-0.647,0.374-1.161,0.374
						c-0.24,0-0.437-0.011-0.61-0.033V598.534z M1240.194,600.841c0.083,0.011,0.208,0.015,0.341,0.015
						c0.723,0,1.108-0.404,1.108-1.109c0.005-0.612-0.342-1.004-1.055-1.004c-0.174,0-0.308,0.013-0.395,0.034V600.841z"/>
					<path fill="#C24D27" d="M1242.629,600.227c0.005,0.463,0.296,0.65,0.643,0.65c0.243,0,0.392-0.04,0.516-0.096l0.063,0.245
						c-0.124,0.053-0.331,0.119-0.63,0.119c-0.577,0-0.916-0.386-0.916-0.948c0-0.565,0.329-1.007,0.873-1.007
						c0.615,0,0.777,0.536,0.777,0.882c0,0.066-0.003,0.116-0.01,0.155H1242.629z M1243.626,599.985
						c0.008-0.214-0.086-0.55-0.468-0.55c-0.349,0-0.503,0.312-0.526,0.55H1243.626z"/>
					<path fill="#C24D27" d="M1245.71,601.037c-0.089,0.043-0.286,0.109-0.536,0.109c-0.564,0-0.933-0.386-0.933-0.957
						c0-0.576,0.394-0.998,1.007-0.998c0.202,0,0.379,0.049,0.47,0.101l-0.076,0.259c-0.076-0.042-0.208-0.089-0.394-0.089
						c-0.433,0-0.66,0.32-0.66,0.707c0,0.436,0.278,0.701,0.65,0.701c0.19,0,0.318-0.048,0.417-0.089L1245.71,601.037z"/>
				</g>
				<g>
					<rect x="1097.688" y="524.732" fill="#CF4E21" width="3.546" height="3.551"/>
					<rect x="1097.688" y="532.15" fill="#7CA88E" width="3.546" height="3.547"/>
					<rect x="1097.688" y="539.567" fill="#54ADB2" width="3.546" height="3.546"/>
					<rect x="1097.688" y="546.983" fill="#BACCC1" width="3.546" height="3.546"/>
					<g>
						<path fill="#F5F5F5" d="M1104.559,525.054h0.291v2.005h0.964v0.244h-1.255V525.054z"/>
						<path fill="#F5F5F5" d="M1107.544,526.482c0,0.598-0.417,0.858-0.807,0.858c-0.432,0-0.771-0.32-0.771-0.831
							c0-0.539,0.354-0.854,0.799-0.854C1107.23,525.655,1107.544,525.991,1107.544,526.482z M1106.261,526.499
							c0,0.353,0.203,0.621,0.486,0.621c0.283,0,0.496-0.267,0.496-0.63c0-0.272-0.136-0.616-0.486-0.616
							C1106.411,525.875,1106.261,526.195,1106.261,526.499z"/>
						<path fill="#F5F5F5" d="M1107.913,526.191c0-0.19-0.008-0.354-0.015-0.505h0.255l0.015,0.322h0.012
							c0.071-0.218,0.25-0.354,0.45-0.354c0.028,0,0.053,0.002,0.078,0.006v0.278c-0.03-0.008-0.058-0.008-0.101-0.008
							c-0.205,0-0.352,0.153-0.392,0.374c-0.007,0.039-0.013,0.089-0.013,0.135v0.861h-0.291V526.191z"/>
						<path fill="#F5F5F5" d="M1109.132,526.549c0.01,0.394,0.258,0.559,0.557,0.559c0.21,0,0.339-0.035,0.45-0.083l0.048,0.212
							c-0.101,0.046-0.281,0.103-0.541,0.103c-0.496,0-0.794-0.33-0.794-0.817c0-0.49,0.291-0.867,0.759-0.867
							c0.531,0,0.668,0.458,0.668,0.756c0,0.061-0.005,0.104-0.007,0.138H1109.132z M1109.994,526.339
							c0.005-0.183-0.076-0.475-0.407-0.475c-0.304,0-0.427,0.273-0.455,0.475H1109.994z"/>
						<path fill="#F5F5F5" d="M1110.642,526.128c0-0.172-0.005-0.306-0.012-0.441h0.255l0.015,0.263h0.01
							c0.086-0.153,0.238-0.294,0.511-0.294c0.215,0,0.382,0.134,0.453,0.324h0.005c0.051-0.092,0.114-0.161,0.185-0.21
							c0.096-0.075,0.202-0.114,0.349-0.114c0.223,0,0.539,0.139,0.539,0.701v0.947h-0.283v-0.911c0-0.315-0.119-0.497-0.354-0.497
							c-0.175,0-0.298,0.124-0.354,0.262c-0.01,0.043-0.02,0.095-0.02,0.149v0.997h-0.288v-0.967c0-0.258-0.111-0.44-0.336-0.44
							c-0.177,0-0.318,0.147-0.364,0.293c-0.018,0.039-0.025,0.092-0.025,0.142v0.972h-0.283V526.128z"/>
						<path fill="#F5F5F5" d="M1115.164,525.234c0,0.097-0.068,0.18-0.185,0.18c-0.109,0-0.179-0.082-0.179-0.18
							c0-0.103,0.073-0.183,0.187-0.183C1115.093,525.05,1115.164,525.128,1115.164,525.234z M1114.838,527.302v-1.616h0.293v1.616
							H1114.838z"/>
						<path fill="#F5F5F5" d="M1115.619,526.215c0-0.206-0.01-0.373-0.015-0.529h0.26l0.013,0.278h0.01
							c0.116-0.196,0.311-0.31,0.577-0.31c0.395,0,0.683,0.331,0.683,0.817c0,0.58-0.352,0.868-0.736,0.868
							c-0.212,0-0.402-0.094-0.498-0.254h-0.005v0.878h-0.288V526.215z M1115.908,526.646c0,0.043,0.003,0.083,0.013,0.119
							c0.053,0.204,0.233,0.343,0.443,0.343c0.311,0,0.488-0.254,0.488-0.622c0-0.321-0.167-0.596-0.478-0.596
							c-0.2,0-0.392,0.139-0.445,0.359c-0.01,0.034-0.021,0.08-0.021,0.115V526.646z"/>
						<path fill="#F5F5F5" d="M1117.478,527.005c0.086,0.053,0.243,0.115,0.392,0.115c0.207,0,0.306-0.105,0.306-0.242
							c0-0.142-0.078-0.214-0.296-0.292c-0.291-0.107-0.433-0.265-0.433-0.458c0-0.262,0.212-0.474,0.559-0.474
							c0.167,0,0.303,0.043,0.392,0.099l-0.068,0.214c-0.061-0.038-0.182-0.095-0.326-0.095c-0.177,0-0.271,0.097-0.271,0.219
							c0,0.133,0.094,0.192,0.303,0.277c0.273,0.104,0.422,0.243,0.422,0.484c0,0.287-0.223,0.487-0.602,0.487
							c-0.175,0-0.339-0.046-0.453-0.114L1117.478,527.005z"/>
						<path fill="#F5F5F5" d="M1120.187,526.857c0,0.17,0.005,0.319,0.018,0.445h-0.266l-0.015-0.263h-0.005
							c-0.076,0.129-0.25,0.3-0.531,0.3c-0.258,0-0.561-0.144-0.561-0.71v-0.943h0.293v0.894c0,0.305,0.096,0.516,0.359,0.516
							c0.2,0,0.336-0.138,0.389-0.273c0.018-0.036,0.028-0.092,0.028-0.148v-0.989h0.291V526.857z"/>
						<path fill="#F5F5F5" d="M1120.673,526.128c0-0.172-0.003-0.306-0.01-0.441h0.255l0.015,0.263h0.013
							c0.086-0.153,0.235-0.294,0.508-0.294c0.215,0,0.382,0.134,0.453,0.324h0.008c0.051-0.092,0.116-0.161,0.182-0.21
							c0.099-0.075,0.202-0.114,0.351-0.114c0.218,0,0.536,0.139,0.536,0.701v0.947h-0.286v-0.911c0-0.315-0.116-0.497-0.352-0.497
							c-0.164,0-0.296,0.124-0.354,0.262c-0.013,0.043-0.021,0.095-0.021,0.149v0.997h-0.286v-0.967c0-0.258-0.114-0.44-0.339-0.44
							c-0.179,0-0.316,0.147-0.364,0.293c-0.015,0.039-0.018,0.092-0.018,0.142v0.972h-0.293V526.128z"/>
					</g>
					<g>
						<path fill="#F5F5F5" d="M1104.559,532.468h0.291v2.008h0.964v0.243h-1.255V532.468z"/>
						<path fill="#F5F5F5" d="M1107.544,533.897c0,0.598-0.417,0.859-0.807,0.859c-0.432,0-0.771-0.319-0.771-0.831
							c0-0.537,0.354-0.851,0.799-0.851C1107.23,533.074,1107.544,533.408,1107.544,533.897z M1106.261,533.916
							c0,0.352,0.203,0.618,0.486,0.618c0.283,0,0.496-0.263,0.496-0.629c0-0.271-0.136-0.616-0.486-0.616
							C1106.411,533.29,1106.261,533.611,1106.261,533.916z"/>
						<path fill="#F5F5F5" d="M1107.913,533.608c0-0.189-0.008-0.352-0.015-0.502h0.255l0.015,0.319h0.012
							c0.071-0.216,0.25-0.35,0.45-0.35c0.028,0,0.053,0,0.078,0.003v0.279c-0.03-0.009-0.058-0.009-0.101-0.009
							c-0.205,0-0.352,0.155-0.392,0.374c-0.007,0.042-0.013,0.09-0.013,0.135v0.862h-0.291V533.608z"/>
						<path fill="#F5F5F5" d="M1109.132,533.966c0.01,0.394,0.258,0.559,0.557,0.559c0.21,0,0.339-0.034,0.45-0.085l0.048,0.215
							c-0.101,0.044-0.281,0.101-0.541,0.101c-0.496,0-0.794-0.333-0.794-0.819c0-0.486,0.291-0.862,0.759-0.862
							c0.531,0,0.668,0.457,0.668,0.752c0,0.062-0.005,0.105-0.007,0.139H1109.132z M1109.994,533.754
							c0.005-0.182-0.076-0.474-0.407-0.474c-0.304,0-0.427,0.271-0.455,0.474H1109.994z"/>
						<path fill="#F5F5F5" d="M1110.642,533.541c0-0.169-0.005-0.304-0.012-0.435h0.255l0.015,0.262h0.01
							c0.086-0.152,0.238-0.293,0.511-0.293c0.215,0,0.382,0.13,0.453,0.321h0.005c0.051-0.094,0.114-0.162,0.185-0.211
							c0.096-0.075,0.202-0.11,0.349-0.11c0.223,0,0.539,0.138,0.539,0.698v0.947h-0.283v-0.911c0-0.314-0.119-0.498-0.354-0.498
							c-0.175,0-0.298,0.125-0.354,0.266c-0.01,0.042-0.02,0.094-0.02,0.145v0.998h-0.288v-0.969c0-0.255-0.111-0.44-0.336-0.44
							c-0.177,0-0.318,0.147-0.364,0.292c-0.018,0.04-0.025,0.095-0.025,0.147v0.97h-0.283V533.541z"/>
						<path fill="#F5F5F5" d="M1115.164,532.652c0,0.099-0.068,0.18-0.185,0.18c-0.109,0-0.179-0.081-0.179-0.18
							c0-0.102,0.073-0.187,0.187-0.187C1115.093,532.465,1115.164,532.547,1115.164,532.652z M1114.838,534.719v-1.614h0.293v1.614
							H1114.838z"/>
						<path fill="#F5F5F5" d="M1115.619,533.631c0-0.206-0.01-0.373-0.015-0.525h0.26l0.013,0.277h0.01
							c0.116-0.199,0.311-0.309,0.577-0.309c0.395,0,0.683,0.328,0.683,0.815c0,0.58-0.352,0.867-0.736,0.867
							c-0.212,0-0.402-0.092-0.498-0.253h-0.005v0.875h-0.288V533.631z M1115.908,534.062c0,0.043,0.003,0.083,0.013,0.12
							c0.053,0.205,0.233,0.343,0.443,0.343c0.311,0,0.488-0.253,0.488-0.623c0-0.32-0.167-0.597-0.478-0.597
							c-0.2,0-0.392,0.142-0.445,0.362c-0.01,0.037-0.021,0.08-0.021,0.114V534.062z"/>
						<path fill="#F5F5F5" d="M1117.478,534.422c0.086,0.054,0.243,0.113,0.392,0.113c0.207,0,0.306-0.101,0.306-0.239
							c0-0.138-0.078-0.215-0.296-0.293c-0.291-0.107-0.433-0.264-0.433-0.458c0-0.261,0.212-0.471,0.559-0.471
							c0.167,0,0.303,0.039,0.392,0.095l-0.068,0.216c-0.061-0.04-0.182-0.097-0.326-0.097c-0.177,0-0.271,0.1-0.271,0.221
							c0,0.132,0.094,0.193,0.303,0.274c0.273,0.105,0.422,0.244,0.422,0.485c0,0.286-0.223,0.488-0.602,0.488
							c-0.175,0-0.339-0.045-0.453-0.115L1117.478,534.422z"/>
						<path fill="#F5F5F5" d="M1120.187,534.275c0,0.171,0.005,0.316,0.018,0.444h-0.266l-0.015-0.262h-0.005
							c-0.076,0.129-0.25,0.298-0.531,0.298c-0.258,0-0.561-0.145-0.561-0.707v-0.943h0.293v0.89c0,0.307,0.096,0.518,0.359,0.518
							c0.2,0,0.336-0.138,0.389-0.271c0.018-0.04,0.028-0.095,0.028-0.15v-0.988h0.291V534.275z"/>
						<path fill="#F5F5F5" d="M1120.673,533.541c0-0.169-0.003-0.304-0.01-0.435h0.255l0.015,0.262h0.013
							c0.086-0.152,0.235-0.293,0.508-0.293c0.215,0,0.382,0.13,0.453,0.321h0.008c0.051-0.094,0.116-0.162,0.182-0.211
							c0.099-0.075,0.202-0.11,0.351-0.11c0.218,0,0.536,0.138,0.536,0.698v0.947h-0.286v-0.911c0-0.314-0.116-0.498-0.352-0.498
							c-0.164,0-0.296,0.125-0.354,0.266c-0.013,0.042-0.021,0.094-0.021,0.145v0.998h-0.286v-0.969c0-0.255-0.114-0.44-0.339-0.44
							c-0.179,0-0.316,0.147-0.364,0.292c-0.015,0.04-0.018,0.095-0.018,0.147v0.97h-0.293V533.541z"/>
					</g>
					<g>
						<path fill="#F5F5F5" d="M1104.559,539.886h0.291v2.007h0.964v0.244h-1.255V539.886z"/>
						<path fill="#F5F5F5" d="M1107.544,541.317c0,0.597-0.417,0.855-0.807,0.855c-0.432,0-0.771-0.317-0.771-0.828
							c0-0.537,0.354-0.857,0.799-0.857C1107.23,540.486,1107.544,540.823,1107.544,541.317z M1106.261,541.331
							c0,0.355,0.203,0.621,0.486,0.621c0.283,0,0.496-0.264,0.496-0.626c0-0.273-0.136-0.62-0.486-0.62
							C1106.411,540.706,1106.261,541.028,1106.261,541.331z"/>
						<path fill="#F5F5F5" d="M1107.913,541.023c0-0.187-0.008-0.352-0.015-0.5h0.255l0.015,0.317h0.012
							c0.071-0.219,0.25-0.355,0.45-0.355c0.028,0,0.053,0.006,0.078,0.009v0.277c-0.03-0.009-0.058-0.009-0.101-0.009
							c-0.205,0-0.352,0.155-0.392,0.374c-0.007,0.043-0.013,0.092-0.013,0.138v0.862h-0.291V541.023z"/>
						<path fill="#F5F5F5" d="M1109.132,541.381c0.01,0.398,0.258,0.563,0.557,0.563c0.21,0,0.339-0.036,0.45-0.083l0.048,0.21
							c-0.101,0.045-0.281,0.101-0.541,0.101c-0.496,0-0.794-0.33-0.794-0.816c0-0.488,0.291-0.87,0.759-0.87
							c0.531,0,0.668,0.462,0.668,0.76c0,0.059-0.005,0.104-0.007,0.135H1109.132z M1109.994,541.173
							c0.005-0.183-0.076-0.474-0.407-0.474c-0.304,0-0.427,0.269-0.455,0.474H1109.994z"/>
						<path fill="#F5F5F5" d="M1110.642,540.959c0-0.171-0.005-0.305-0.012-0.435h0.255l0.015,0.259h0.01
							c0.086-0.151,0.238-0.297,0.511-0.297c0.215,0,0.382,0.133,0.453,0.325h0.005c0.051-0.092,0.114-0.161,0.185-0.208
							c0.096-0.075,0.202-0.117,0.349-0.117c0.223,0,0.539,0.14,0.539,0.702v0.95h-0.283v-0.912c0-0.315-0.119-0.498-0.354-0.498
							c-0.175,0-0.298,0.123-0.354,0.264c-0.01,0.043-0.02,0.095-0.02,0.146v1h-0.288v-0.967c0-0.259-0.111-0.443-0.336-0.443
							c-0.177,0-0.318,0.145-0.364,0.293c-0.018,0.042-0.025,0.095-0.025,0.144v0.973h-0.283V540.959z"/>
						<path fill="#F5F5F5" d="M1115.164,540.067c0,0.099-0.068,0.18-0.185,0.18c-0.109,0-0.179-0.081-0.179-0.18
							c0-0.101,0.073-0.185,0.187-0.185C1115.093,539.883,1115.164,539.962,1115.164,540.067z M1114.838,542.137v-1.614h0.293v1.614
							H1114.838z"/>
						<path fill="#F5F5F5" d="M1115.619,541.048c0-0.207-0.01-0.374-0.015-0.525h0.26l0.013,0.273h0.01
							c0.116-0.195,0.311-0.311,0.577-0.311c0.395,0,0.683,0.333,0.683,0.819c0,0.581-0.352,0.866-0.736,0.866
							c-0.212,0-0.402-0.094-0.498-0.252h-0.005v0.878h-0.288V541.048z M1115.908,541.478c0,0.042,0.003,0.082,0.013,0.12
							c0.053,0.204,0.233,0.345,0.443,0.345c0.311,0,0.488-0.257,0.488-0.623c0-0.321-0.167-0.597-0.478-0.597
							c-0.2,0-0.392,0.138-0.445,0.358c-0.01,0.039-0.021,0.08-0.021,0.116V541.478z"/>
						<path fill="#F5F5F5" d="M1117.478,541.839c0.086,0.054,0.243,0.113,0.392,0.113c0.207,0,0.306-0.101,0.306-0.239
							c0-0.14-0.078-0.215-0.296-0.295c-0.291-0.105-0.433-0.264-0.433-0.455c0-0.263,0.212-0.477,0.559-0.477
							c0.167,0,0.303,0.044,0.392,0.101l-0.068,0.215c-0.061-0.04-0.182-0.099-0.326-0.099c-0.177,0-0.271,0.103-0.271,0.221
							c0,0.134,0.094,0.196,0.303,0.277c0.273,0.104,0.422,0.243,0.422,0.484c0,0.287-0.223,0.486-0.602,0.486
							c-0.175,0-0.339-0.047-0.453-0.112L1117.478,541.839z"/>
						<path fill="#F5F5F5" d="M1120.187,541.691c0,0.171,0.005,0.317,0.018,0.446h-0.266l-0.015-0.267h-0.005
							c-0.076,0.132-0.25,0.301-0.531,0.301c-0.258,0-0.561-0.142-0.561-0.707v-0.941h0.293v0.889c0,0.306,0.096,0.516,0.359,0.516
							c0.2,0,0.336-0.134,0.389-0.269c0.018-0.041,0.028-0.095,0.028-0.15v-0.985h0.291V541.691z"/>
						<path fill="#F5F5F5" d="M1120.673,540.959c0-0.171-0.003-0.305-0.01-0.435h0.255l0.015,0.259h0.013
							c0.086-0.151,0.235-0.297,0.508-0.297c0.215,0,0.382,0.133,0.453,0.325h0.008c0.051-0.092,0.116-0.161,0.182-0.208
							c0.099-0.075,0.202-0.117,0.351-0.117c0.218,0,0.536,0.14,0.536,0.702v0.95h-0.286v-0.912c0-0.315-0.116-0.498-0.352-0.498
							c-0.164,0-0.296,0.123-0.354,0.264c-0.013,0.043-0.021,0.095-0.021,0.146v1h-0.286v-0.967c0-0.259-0.114-0.443-0.339-0.443
							c-0.179,0-0.316,0.145-0.364,0.293c-0.015,0.042-0.018,0.095-0.018,0.144v0.973h-0.293V540.959z"/>
					</g>
					<g>
						<path fill="#F5F5F5" d="M1104.559,547.303h0.291v2.004h0.964v0.245h-1.255V547.303z"/>
						<path fill="#F5F5F5" d="M1107.544,548.732c0,0.597-0.417,0.857-0.807,0.857c-0.432,0-0.771-0.321-0.771-0.83
							c0-0.538,0.354-0.856,0.799-0.856C1107.23,547.904,1107.544,548.24,1107.544,548.732z M1106.261,548.749
							c0,0.353,0.203,0.62,0.486,0.62c0.283,0,0.496-0.263,0.496-0.625c0-0.276-0.136-0.617-0.486-0.617
							C1106.411,548.126,1106.261,548.444,1106.261,548.749z"/>
						<path fill="#F5F5F5" d="M1107.913,548.441c0-0.19-0.008-0.351-0.015-0.502h0.255l0.015,0.32h0.012
							c0.071-0.219,0.25-0.355,0.45-0.355c0.028,0,0.053,0.003,0.078,0.008v0.276c-0.03-0.005-0.058-0.005-0.101-0.005
							c-0.205,0-0.352,0.152-0.392,0.372c-0.007,0.042-0.013,0.091-0.013,0.138v0.861h-0.291V548.441z"/>
						<path fill="#F5F5F5" d="M1109.132,548.799c0.01,0.397,0.258,0.561,0.557,0.561c0.21,0,0.339-0.039,0.45-0.083l0.048,0.208
							c-0.101,0.048-0.281,0.104-0.541,0.104c-0.496,0-0.794-0.331-0.794-0.818c0-0.486,0.291-0.868,0.759-0.868
							c0.531,0,0.668,0.461,0.668,0.759c0,0.058-0.005,0.102-0.007,0.136H1109.132z M1109.994,548.588
							c0.005-0.183-0.076-0.474-0.407-0.474c-0.304,0-0.427,0.271-0.455,0.474H1109.994z"/>
						<path fill="#F5F5F5" d="M1110.642,548.375c0-0.171-0.005-0.304-0.012-0.436h0.255l0.015,0.263h0.01
							c0.086-0.154,0.238-0.298,0.511-0.298c0.215,0,0.382,0.134,0.453,0.322h0.005c0.051-0.091,0.114-0.158,0.185-0.209
							c0.096-0.072,0.202-0.114,0.349-0.114c0.223,0,0.539,0.142,0.539,0.701v0.948h-0.283v-0.912c0-0.314-0.119-0.496-0.354-0.496
							c-0.175,0-0.298,0.122-0.354,0.262c-0.01,0.044-0.02,0.095-0.02,0.147v0.999h-0.288v-0.969c0-0.257-0.111-0.439-0.336-0.439
							c-0.177,0-0.318,0.147-0.364,0.293c-0.018,0.039-0.025,0.091-0.025,0.143v0.971h-0.283V548.375z"/>
						<path fill="#F5F5F5" d="M1115.164,547.484c0,0.097-0.068,0.179-0.185,0.179c-0.109,0-0.179-0.082-0.179-0.179
							c0-0.1,0.073-0.186,0.187-0.186C1115.093,547.298,1115.164,547.379,1115.164,547.484z M1114.838,549.553v-1.614h0.293v1.614
							H1114.838z"/>
						<path fill="#F5F5F5" d="M1115.619,548.465c0-0.206-0.01-0.373-0.015-0.526h0.26l0.013,0.276h0.01
							c0.116-0.197,0.311-0.311,0.577-0.311c0.395,0,0.683,0.329,0.683,0.817c0,0.583-0.352,0.869-0.736,0.869
							c-0.212,0-0.402-0.092-0.498-0.253h-0.005v0.876h-0.288V548.465z M1115.908,548.894c0,0.044,0.003,0.085,0.013,0.123
							c0.053,0.202,0.233,0.344,0.443,0.344c0.311,0,0.488-0.255,0.488-0.625c0-0.322-0.167-0.596-0.478-0.596
							c-0.2,0-0.392,0.139-0.445,0.358c-0.01,0.038-0.021,0.081-0.021,0.116V548.894z"/>
						<path fill="#F5F5F5" d="M1117.478,549.256c0.086,0.052,0.243,0.112,0.392,0.112c0.207,0,0.306-0.104,0.306-0.239
							c0-0.14-0.078-0.215-0.296-0.294c-0.291-0.106-0.433-0.263-0.433-0.457c0-0.26,0.212-0.474,0.559-0.474
							c0.167,0,0.303,0.043,0.392,0.102l-0.068,0.213c-0.061-0.041-0.182-0.097-0.326-0.097c-0.177,0-0.271,0.101-0.271,0.22
							c0,0.134,0.094,0.195,0.303,0.278c0.273,0.101,0.422,0.241,0.422,0.482c0,0.287-0.223,0.488-0.602,0.488
							c-0.175,0-0.339-0.047-0.453-0.114L1117.478,549.256z"/>
						<path fill="#F5F5F5" d="M1120.187,549.11c0,0.169,0.005,0.316,0.018,0.443h-0.266l-0.015-0.264h-0.005
							c-0.076,0.13-0.25,0.301-0.531,0.301c-0.258,0-0.561-0.142-0.561-0.707v-0.943h0.293v0.89c0,0.305,0.096,0.516,0.359,0.516
							c0.2,0,0.336-0.136,0.389-0.271c0.018-0.039,0.028-0.095,0.028-0.149v-0.986h0.291V549.11z"/>
						<path fill="#F5F5F5" d="M1120.673,548.375c0-0.171-0.003-0.304-0.01-0.436h0.255l0.015,0.263h0.013
							c0.086-0.154,0.235-0.298,0.508-0.298c0.215,0,0.382,0.134,0.453,0.322h0.008c0.051-0.091,0.116-0.158,0.182-0.209
							c0.099-0.072,0.202-0.114,0.351-0.114c0.218,0,0.536,0.142,0.536,0.701v0.948h-0.286v-0.912c0-0.314-0.116-0.496-0.352-0.496
							c-0.164,0-0.296,0.122-0.354,0.262c-0.013,0.044-0.021,0.095-0.021,0.147v0.999h-0.286v-0.969
							c0-0.257-0.114-0.439-0.339-0.439c-0.179,0-0.316,0.147-0.364,0.293c-0.015,0.039-0.018,0.091-0.018,0.143v0.971h-0.293
							V548.375z"/>
					</g>
				</g>
			</g>
		</g>
		<g>
			<g>
				<path fill="#474747" stroke="#474747" stroke-width="0.1158" stroke-miterlimit="10" d="M1171.223,561.426
					c0,1.373,1.111,2.485,2.484,2.485h9.791c1.376,0,2.489-1.112,2.489-2.485l0,0c0-1.372-1.113-2.49-2.489-2.49h-9.791
					C1172.334,558.936,1171.223,560.054,1171.223,561.426L1171.223,561.426z"/>
				<path fill="#969696" d="M1171.674,561.426c0,1.373,1.047,2.485,2.332,2.485h9.196c1.287,0,2.332-1.112,2.332-2.485l0,0
					c0-1.372-1.045-2.49-2.332-2.49h-9.196C1172.721,558.936,1171.674,560.054,1171.674,561.426L1171.674,561.426z"/>
				<path fill="#474747" d="M1172.425,561.426c0,1.373,0.931,2.485,2.079,2.485h8.195c1.148,0,2.084-1.112,2.084-2.485l0,0
					c0-1.372-0.936-2.49-2.084-2.49h-8.195C1173.355,558.936,1172.425,560.054,1172.425,561.426L1172.425,561.426z"/>
				<path fill="#F8564A" d="M1101.605,666.498l11.488-15.228c0,0,15.585-17.503,21.538-29.934
					c5.964-12.428-13.569-31.008-13.569-31.008c-20.891,0.919-37.698,29.202-37.698,29.202l-8.025,13.744l-17.702,29.011
					L1101.605,666.498z"/>
				<g>
					<g>
						<path fill="#FFC28B" d="M1192.314,695.451c0,0-8.511,11.404-18.944,14.624c0,0-4.454,3.166-6.214,6.232
							c0,0-4.021-6.985,1.282-10.612c0,0,7.302-1.803,6.839-9.912c0,0,2.408-7.807,7.719-10.348
							c5.319-2.519,8.956-0.917,10.914,0.927C1193.91,686.361,1194.99,692.067,1192.314,695.451z"/>
						<path fill="#FFC28B" d="M1203.989,658.949c-0.415,0.29-14.74,6.477-14.74,6.477s0,0-4.793,0.897
							c-4.788,0.902-14.922,0.96-18.255,3.301c-3.323,2.359-7.997,29.372-7.997,29.372c10.777,2.458,34.111-3.543,34.111-3.543
							s4.922-6.115,8.415-10.01c1.389-1.529,9.006-7.847,12.11-10.305L1203.989,658.949z"/>
						<g>
							<path fill="#FFC28B" d="M1162.824,699.288c2.221-0.191,3.751-1.86,3.412-3.749l0,0c-0.339-1.87-2.418-3.229-4.644-3.041
								l-17.421,1.511c-2.228,0.188-3.743,1.873-3.409,3.746l0,0c0.334,1.874,2.415,3.231,4.638,3.03L1162.824,699.288z"/>
							<path fill="#FFC28B" d="M1164.202,690.705c2.461-0.22,4.193-1.906,3.852-3.781l0,0c-0.339-1.877-2.615-3.216-5.096-2.996
								l-19.399,1.665c-2.471,0.21-4.203,1.912-3.859,3.786l0,0c0.336,1.869,2.62,3.223,5.091,3.001L1164.202,690.705z"/>
							<path fill="#FFC28B" d="M1164.731,683.12c1.93-0.164,3.202-1.826,2.863-3.704l0,0c-0.326-1.864-2.162-3.24-4.087-3.077
								l-15.059,1.296c-1.917,0.171-3.192,1.815-2.853,3.694l0,0c0.336,1.879,2.18,3.259,4.09,3.094L1164.731,683.12z"/>
							<path fill="#FFC28B" d="M1169.01,675.594c1.593-0.132,2.595-1.773,2.256-3.642l0,0c-0.352-1.877-1.907-3.282-3.478-3.138
								l-12.406,1.073c-1.573,0.132-2.582,1.763-2.251,3.636l0,0c0.346,1.873,1.899,3.284,3.485,3.145L1169.01,675.594z"/>
						</g>
					</g>
					<path fill="#F8564A" d="M1199.224,658.954c0,0,11.91,1.633,16.093,0.86c20.256-3.725,40.26-8.806,60.925-9.415
						c7.378-0.216,15.942-1.658,21.862,4.167c6.245,6.143,12.294,22.736,3.824,29.526c-9.171,7.349-26,3.724-36.577,2.358
						c-13.164-1.702-26.308-3.686-39.405-5.913c-3.771-0.645-7.701-1.108-11.389-2.17c-5.245-1.509-11.971,1.073-11.971,1.073
						S1197.769,661.699,1199.224,658.954z"/>
				</g>
				<g>
					<g>
						<path fill="#FFC28B" d="M1167.728,695.451c0,0,8.513,11.404,18.946,14.624c0,0,4.454,3.166,6.217,6.232
							c0,0,4.021-6.985-1.287-10.612c0,0-7.302-1.803-6.831-9.912c0,0-2.418-7.807-7.729-10.348
							c-5.314-2.519-8.953-0.917-10.913,0.927C1166.129,686.361,1165.052,692.067,1167.728,695.451z"/>
						<path fill="#FFC28B" d="M1156.056,658.949c0.412,0.29,14.737,6.477,14.737,6.477s0,0,4.795,0.897
							c4.785,0.902,14.925,0.96,18.251,3.301c3.326,2.359,8,29.372,8,29.372c-10.771,2.458-34.111-3.543-34.111-3.543
							s-4.919-6.115-8.412-10.01c-1.391-1.529-9.011-7.847-12.112-10.305L1156.056,658.949z"/>
						<g>
							<path fill="#FFC28B" d="M1197.221,699.288c-2.22-0.191-3.751-1.86-3.412-3.749l0,0c0.336-1.87,2.413-3.229,4.644-3.041
								l17.418,1.511c2.228,0.188,3.746,1.873,3.409,3.746l0,0c-0.334,1.874-2.415,3.231-4.638,3.03L1197.221,699.288z"/>
							<path fill="#FFC28B" d="M1195.845,690.705c-2.463-0.22-4.193-1.906-3.854-3.781l0,0c0.341-1.877,2.618-3.216,5.096-2.996
								l19.396,1.665c2.476,0.21,4.206,1.912,3.862,3.786l0,0c-0.339,1.869-2.623,3.223-5.089,3.001L1195.845,690.705z"/>
							<path fill="#FFC28B" d="M1195.311,683.12c-1.922-0.164-3.204-1.826-2.858-3.704l0,0c0.324-1.864,2.16-3.24,4.082-3.077
								l15.059,1.296c1.922,0.171,3.192,1.815,2.853,3.694l0,0c-0.331,1.879-2.18,3.259-4.09,3.094L1195.311,683.12z"/>
							<path fill="#FFC28B" d="M1191.032,675.594c-1.588-0.132-2.59-1.773-2.253-3.642l0,0c0.349-1.877,1.904-3.282,3.472-3.138
								l12.406,1.073c1.578,0.132,2.587,1.763,2.256,3.636l0,0c-0.349,1.873-1.899,3.284-3.488,3.145L1191.032,675.594z"/>
						</g>
					</g>
					<path fill="#F8564A" d="M1160.818,658.954c0,0-11.905,1.633-16.091,0.86c-20.254-3.725-40.257-8.806-60.925-9.415
						c-7.38-0.216-15.944-1.658-21.867,4.167c-6.24,6.143-12.292,22.736-3.819,29.526c9.176,7.349,25.997,3.724,36.574,2.358
						c13.169-1.702,26.311-3.686,39.402-5.913c3.771-0.645,7.709-1.108,11.394-2.17c5.241-1.509,11.973,1.073,11.973,1.073
						S1162.27,661.699,1160.818,658.954z"/>
				</g>
				<path fill="#F8564A" d="M1258.359,665.088l-11.485-15.227c0,0-15.587-17.503-21.536-29.934
					c-5.964-12.429,13.567-31.009,13.567-31.009c20.891,0.917,37.7,29.201,37.7,29.201l8.017,13.746l17.707,29.014L1258.359,665.088
					z"/>
				<g>
					<path fill="#4D2A2D" d="M1202.83,940.731c0-3.761,5.825-6.807,13.015-6.807c7.186,0,13.01,3.046,13.01,6.807
						c0,0.221-0.02,0.439-0.061,0.655c0.023,0.111,0.041,0.224,0.041,0.335v7.607c0,1.099-1.146,1.989-2.565,1.989h-20.855
						c-1.414,0-2.56-0.89-2.56-1.989v-7.607c0-0.111,0.015-0.225,0.035-0.335C1202.853,941.17,1202.83,940.953,1202.83,940.731z"/>
					<g>
						<path fill="#6C6D68" d="M1198.212,961.926c0,6.48,8.367,11.732,18.696,11.732c10.321,0,18.693-5.252,18.693-11.732
							c0-6.479-8.372-11.734-18.693-11.734C1206.579,950.192,1198.212,955.447,1198.212,961.926z"/>
						<path fill="#41423D" d="M1216.938,971.098c8.551,0,15.729-2.37,17.714-5.574c0.357,0.575,0.546,1.176,0.546,1.794
							c0,4.073-8.179,7.376-18.261,7.376c-10.086,0-18.263-3.303-18.263-7.376c0-0.618,0.194-1.219,0.549-1.794
							C1201.209,968.728,1208.389,971.098,1216.938,971.098z"/>
						<path fill="#F5F5F5" d="M1198.212,960.903c0,12.531,7.833,22.685,17.502,22.685c9.671,0,17.502-10.155,17.502-22.685
							c0-12.53-7.83-22.688-17.502-22.688C1206.045,938.215,1198.212,948.373,1198.212,960.903z"/>
						<ellipse fill="#160D0B" cx="1215.715" cy="978.493" rx="16.985" ry="5.67"/>
						<rect x="1198.73" y="969.54" fill="#160D0B" width="33.969" height="9.327"/>
						<ellipse fill="#595A54" cx="1215.715" cy="969.726" rx="16.985" ry="3.613"/>
						<path fill="#4D2A2D" d="M1198.212,964.874c0-10.386,7.833-18.806,17.502-18.806c9.671,0,17.502,8.419,17.502,18.806
							c0,1.392-0.139,2.747-0.402,4.052h-0.182c0.023,0.058,0.038,0.12,0.056,0.178c-0.073,0.333-0.16,0.668-0.253,0.995
							c-1.452,1.942-8.379,3.412-16.705,3.412c-9.381,0-16.986-1.864-16.986-4.171c0-0.139,0.03-0.277,0.083-0.415h-0.205
							C1198.356,967.62,1198.212,966.266,1198.212,964.874z"/>
						<path fill="#7B5547" d="M1226.668,944.712c0.301-1.469-4.403-3.671-10.501-4.915c-0.109-0.024-0.22-0.046-0.332-0.066v-1.511
							c9.558,0.171,17.257,10.261,17.257,22.683c0,0.701-0.02,1.392-0.068,2.074c-0.802-9.492-8.172-16.944-17.188-17.077v-0.637
							C1221.604,946.342,1226.382,946.119,1226.668,944.712z"/>
						<path fill="#7B5547" d="M1204.517,944.712c-0.298-1.469,4.401-3.671,10.504-4.915c0.106-0.024,0.218-0.046,0.326-0.066v-1.511
							c-9.553,0.171-17.259,10.261-17.259,22.683c0,0.701,0.028,1.392,0.076,2.074c0.802-9.492,8.169-16.944,17.183-17.077v-0.637
							C1209.586,946.342,1204.806,946.119,1204.517,944.712z"/>
						<g>
							<path fill="#313438" d="M1215.729,973.511c-1.467,0-2.898-0.043-4.256-0.133v-26.58c0-0.311,0.071-0.604,0.2-0.866
								c1.3-0.337,2.651-0.516,4.042-0.516c1.391,0,2.749,0.178,4.044,0.516c0.126,0.262,0.2,0.555,0.2,0.866v26.58
								C1218.607,973.465,1217.191,973.511,1215.729,973.511z"/>
							<g>
								<path fill="#F5F5F5" d="M1211.862,972.072h0.177v0.854h-0.177V972.072z M1211.862,970.661h0.177v0.854h-0.177V970.661z
									 M1211.862,969.252h0.177v0.852h-0.177V969.252z M1211.862,967.842h0.177v0.851h-0.177V967.842z M1211.862,966.432h0.177
									v0.852h-0.177V966.432z M1211.862,965.022h0.177v0.852h-0.177V965.022z M1211.862,963.61h0.177v0.852h-0.177V963.61z
									 M1211.862,962.198h0.177v0.852h-0.177V962.198z M1211.862,960.79h0.177v0.85h-0.177V960.79z M1211.862,959.38h0.177v0.848
									h-0.177V959.38z M1211.862,957.97h0.177v0.85h-0.177V957.97z M1211.862,956.559h0.177v0.851h-0.177V956.559z
									 M1211.862,955.145h0.177v0.852h-0.177V955.145z M1211.862,953.737h0.177v0.852h-0.177V953.737z M1211.862,952.325h0.177
									v0.851h-0.177V952.325z M1211.862,950.915h0.177v0.852h-0.177V950.915z M1211.862,949.506h0.177v0.848h-0.177V949.506z
									 M1211.862,948.095h0.177v0.851h-0.177V948.095z"/>
								<path fill="#F5F5F5" d="M1212.079,947.555c0.025-0.123,0.066-0.243,0.111-0.357c0.124-0.034,0.25-0.067,0.377-0.099
									l-0.043-0.167c-0.142,0.035-0.278,0.074-0.422,0.11l-0.035,0.013l-0.015,0.038c-0.063,0.134-0.109,0.279-0.139,0.426
									L1212.079,947.555z"/>
								<path fill="#F5F5F5" d="M1213.091,946.804c0.288-0.061,0.582-0.111,0.873-0.152l0.023,0.171
									c-0.283,0.042-0.577,0.091-0.857,0.149L1213.091,946.804z M1217.439,946.823l0.028-0.171
									c0.291,0.041,0.584,0.091,0.873,0.152l-0.035,0.168C1218.021,946.914,1217.73,946.865,1217.439,946.823z M1214.54,946.59
									c0.293-0.026,0.587-0.043,0.883-0.049l0.005,0.171c-0.288,0.006-0.584,0.024-0.873,0.049L1214.54,946.59z M1216,946.712
									l0.005-0.171c0.296,0.006,0.589,0.023,0.885,0.049l-0.015,0.171C1216.584,946.736,1216.288,946.718,1216,946.712z"/>
								<path fill="#F5F5F5" d="M1219.349,947.555l0.169-0.036c-0.028-0.145-0.076-0.292-0.136-0.426l-0.015-0.038l-0.038-0.013
									c-0.144-0.036-0.281-0.076-0.425-0.11l-0.038,0.164c0.126,0.033,0.25,0.067,0.374,0.101
									C1219.288,947.314,1219.323,947.435,1219.349,947.555z"/>
								<path fill="#F5F5F5" d="M1219.392,972.074h0.172v0.851h-0.172V972.074z M1219.392,970.661h0.172v0.854h-0.172V970.661z
									 M1219.392,969.252h0.172v0.852h-0.172V969.252z M1219.392,967.842h0.172v0.851h-0.172V967.842z M1219.392,966.432h0.172
									v0.852h-0.172V966.432z M1219.392,965.022h0.172v0.852h-0.172V965.022z M1219.392,963.61h0.172v0.852h-0.172V963.61z
									 M1219.392,962.198h0.172v0.852h-0.172V962.198z M1219.392,960.79h0.172v0.85h-0.172V960.79z M1219.392,959.38h0.172v0.848
									h-0.172V959.38z M1219.392,957.97h0.172v0.85h-0.172V957.97z M1219.392,956.559h0.172v0.851h-0.172V956.559z
									 M1219.392,955.145h0.172v0.852h-0.172V955.145z M1219.392,953.737h0.172v0.852h-0.172V953.737z M1219.392,952.325h0.172
									v0.851h-0.172V952.325z M1219.392,950.915h0.172v0.852h-0.172V950.915z M1219.392,949.506h0.172v0.848h-0.172V949.506z
									 M1219.392,948.095h0.172v0.851h-0.172V948.095z"/>
							</g>
							<g>
								<path fill="#FFFFFF" d="M1210.906,951.444c0.248-0.04,0.503-0.073,0.751-0.109l0.036,0.109
									c-0.253,0.032-0.503,0.067-0.746,0.104L1210.906,951.444z"/>
								<path fill="#FFFFFF" d="M1209.682,951.659c0.24-0.049,0.493-0.095,0.738-0.137l0.04,0.103
									c-0.243,0.043-0.486,0.087-0.728,0.135L1209.682,951.659z"/>
								<path fill="#FFFFFF" d="M1208.481,951.922c0.235-0.058,0.478-0.111,0.723-0.166l0.053,0.101
									c-0.238,0.053-0.481,0.109-0.719,0.166L1208.481,951.922z"/>
								<path fill="#FFFFFF" d="M1212.153,951.277c0.25-0.029,0.503-0.052,0.754-0.073l0.025,0.105
									c-0.25,0.023-0.503,0.049-0.751,0.077L1212.153,951.277z"/>
								<path fill="#FFFFFF" d="M1213.407,951.162c0.25-0.017,0.508-0.032,0.766-0.044l0.013,0.107
									c-0.258,0.011-0.508,0.026-0.756,0.046L1213.407,951.162z"/>
								<path fill="#FFFFFF" d="M1207.309,952.235c0.228-0.068,0.465-0.133,0.698-0.195l0.068,0.097
									c-0.235,0.063-0.473,0.129-0.698,0.197L1207.309,952.235z"/>
								<path fill="#FFFFFF" d="M1206.166,952.597c0.228-0.076,0.453-0.152,0.683-0.224l0.073,0.097
									c-0.23,0.071-0.458,0.147-0.675,0.225L1206.166,952.597z"/>
								<path fill="#FFFFFF" d="M1203.015,953.963c0.195-0.104,0.395-0.207,0.602-0.306l0.098,0.085
									c-0.2,0.098-0.402,0.201-0.592,0.307L1203.015,953.963z"/>
								<path fill="#FFFFFF" d="M1214.675,951.097c0.253-0.009,0.513-0.013,0.766-0.015l0.003,0.109
									c-0.253,0.001-0.508,0.008-0.759,0.015L1214.675,951.097z"/>
								<path fill="#FFFFFF" d="M1200.516,955.612c0.111-0.092,0.222-0.181,0.341-0.271l0.129,0.07
									c-0.088,0.064-0.177,0.134-0.258,0.201H1200.516z"/>
								<path fill="#FFFFFF" d="M1201.189,955.096c0.167-0.12,0.344-0.242,0.521-0.361l0.121,0.076
									c-0.175,0.119-0.351,0.239-0.519,0.358L1201.189,955.096z"/>
								<path fill="#FFFFFF" d="M1204.019,953.463c0.2-0.095,0.415-0.188,0.627-0.279l0.089,0.089
									c-0.207,0.09-0.42,0.185-0.62,0.277L1204.019,953.463z"/>
								<path fill="#FFFFFF" d="M1205.069,953.011c0.215-0.089,0.44-0.176,0.658-0.257l0.078,0.095
									c-0.215,0.081-0.433,0.164-0.65,0.25L1205.069,953.011z"/>
								<path fill="#FFFFFF" d="M1202.069,954.51c0.185-0.112,0.369-0.224,0.567-0.334l0.111,0.078
									c-0.195,0.109-0.379,0.222-0.559,0.334L1202.069,954.51z"/>
								<path fill="#FFFFFF" d="M1227.69,953.728l0.096-0.085c0.208,0.099,0.41,0.204,0.604,0.31l-0.104,0.081
									C1228.094,953.93,1227.889,953.828,1227.69,953.728z"/>
								<path fill="#FFFFFF" d="M1226.66,953.258l0.091-0.091c0.212,0.091,0.422,0.186,0.635,0.282l-0.101,0.087
									C1227.083,953.442,1226.87,953.347,1226.66,953.258z"/>
								<path fill="#FFFFFF" d="M1225.583,952.835l0.081-0.094c0.222,0.081,0.443,0.166,0.66,0.253l-0.088,0.091
									C1226.02,952.998,1225.795,952.913,1225.583,952.835z"/>
								<path fill="#FFFFFF" d="M1229.584,954.802l0.114-0.077c0.182,0.119,0.357,0.239,0.531,0.359l-0.126,0.073
									C1229.936,955.038,1229.761,954.919,1229.584,954.802z"/>
								<path fill="#FFFFFF" d="M1230.702,955.612c-0.091-0.073-0.177-0.143-0.271-0.21l0.131-0.07
									c0.121,0.09,0.238,0.186,0.354,0.279H1230.702z"/>
								<path fill="#FFFFFF" d="M1224.467,952.461l0.071-0.1c0.23,0.07,0.458,0.146,0.688,0.224l-0.081,0.095
									C1224.923,952.602,1224.693,952.529,1224.467,952.461z"/>
								<path fill="#FFFFFF" d="M1228.663,954.245l0.111-0.083c0.195,0.109,0.379,0.225,0.567,0.337l-0.116,0.077
									C1229.045,954.464,1228.856,954.351,1228.663,954.245z"/>
								<path fill="#FFFFFF" d="M1217.204,951.221l0.012-0.105c0.25,0.011,0.506,0.026,0.761,0.042l-0.018,0.107
									C1217.707,951.248,1217.452,951.234,1217.204,951.221z"/>
								<path fill="#FFFFFF" d="M1218.453,951.307l0.023-0.109c0.25,0.02,0.506,0.047,0.756,0.076l-0.023,0.103
									C1218.959,951.352,1218.704,951.326,1218.453,951.307z"/>
								<path fill="#FFFFFF" d="M1219.7,951.44l0.03-0.109c0.25,0.032,0.504,0.068,0.751,0.104l-0.043,0.106
									C1220.198,951.503,1219.945,951.469,1219.7,951.44z"/>
								<path fill="#FFFFFF" d="M1215.942,951.19v-0.107c0.258,0.003,0.518,0.006,0.774,0.014l-0.015,0.107
									C1216.455,951.196,1216.197,951.191,1215.942,951.19z"/>
								<path fill="#FFFFFF" d="M1220.924,951.617l0.043-0.102c0.243,0.042,0.496,0.089,0.738,0.133l-0.048,0.104
									C1221.415,951.704,1221.169,951.661,1220.924,951.617z"/>
								<path fill="#FFFFFF" d="M1223.314,952.132l0.063-0.104c0.238,0.062,0.473,0.129,0.708,0.196l-0.068,0.099
									C1223.785,952.256,1223.552,952.191,1223.314,952.132z"/>
								<path fill="#FFFFFF" d="M1222.133,951.85l0.053-0.104c0.24,0.053,0.483,0.107,0.723,0.164l-0.063,0.103
									C1222.611,951.955,1222.373,951.9,1222.133,951.85z"/>
							</g>
						</g>
					</g>
				</g>
				<g>
					<path fill="#4D2A2D" d="M1166.554,940.731c0-3.761-5.827-6.807-13.013-6.807c-7.188,0-13.013,3.046-13.013,6.807
						c0,0.221,0.02,0.439,0.061,0.655c-0.023,0.111-0.04,0.224-0.04,0.335v7.607c0,1.099,1.146,1.989,2.562,1.989h20.858
						c1.411,0,2.557-0.89,2.557-1.989v-7.607c0-0.111-0.01-0.225-0.033-0.335C1166.532,941.17,1166.554,940.953,1166.554,940.731z"
						/>
					<g>
						<path fill="#6C6D68" d="M1171.173,961.926c0,6.48-8.367,11.732-18.693,11.732c-10.327,0-18.701-5.252-18.701-11.732
							c0-6.479,8.374-11.734,18.701-11.734C1162.806,950.192,1171.173,955.447,1171.173,961.926z"/>
						<path fill="#41423D" d="M1152.444,971.098c-8.551,0-15.724-2.37-17.714-5.574c-0.354,0.575-0.546,1.176-0.546,1.794
							c0,4.073,8.177,7.376,18.261,7.376c10.084,0,18.26-3.303,18.26-7.376c0-0.618-0.19-1.219-0.549-1.794
							C1168.171,968.728,1160.995,971.098,1152.444,971.098z"/>
						<ellipse fill="#F5F5F5" cx="1153.667" cy="960.903" rx="17.506" ry="22.685"/>
						<path fill="#160D0B" d="M1170.654,978.493c0,3.131-7.6,5.67-16.986,5.67c-9.381,0-16.986-2.539-16.986-5.67
							c0-3.134,7.605-5.672,16.986-5.672C1163.054,972.822,1170.654,975.36,1170.654,978.493z"/>
						<rect x="1136.682" y="969.54" fill="#160D0B" width="33.972" height="9.327"/>
						<path fill="#595A54" d="M1170.654,969.726c0,1.994-7.6,3.613-16.986,3.613c-9.381,0-16.986-1.619-16.986-3.613
							s7.605-3.614,16.986-3.614C1163.054,966.112,1170.654,967.732,1170.654,969.726z"/>
						<path fill="#4D2A2D" d="M1171.173,964.874c0-10.386-7.838-18.806-17.504-18.806c-9.667,0-17.507,8.419-17.507,18.806
							c0,1.392,0.144,2.747,0.41,4.052h0.182c-0.023,0.058-0.041,0.12-0.056,0.178c0.078,0.333,0.159,0.668,0.251,0.995
							c1.452,1.942,8.374,3.412,16.707,3.412c9.381,0,16.984-1.864,16.984-4.171c0-0.139-0.028-0.277-0.084-0.415h0.207
							C1171.031,967.62,1171.173,966.266,1171.173,964.874z"/>
						<path fill="#7B5547" d="M1142.714,944.712c-0.296-1.469,4.406-3.671,10.504-4.915c0.111-0.024,0.215-0.046,0.329-0.066v-1.511
							c-9.555,0.171-17.259,10.261-17.259,22.683c0,0.701,0.025,1.392,0.076,2.074c0.802-9.492,8.167-16.944,17.183-17.077v-0.637
							C1147.78,946.342,1143.005,946.119,1142.714,944.712z"/>
						<path fill="#7B5547" d="M1164.867,944.712c0.299-1.469-4.403-3.671-10.504-4.915c-0.109-0.024-0.218-0.046-0.326-0.066v-1.511
							c9.553,0.171,17.257,10.261,17.257,22.683c0,0.701-0.023,1.392-0.073,2.074c-0.799-9.492-8.167-16.944-17.183-17.077v-0.637
							C1159.802,946.342,1164.577,946.119,1164.867,944.712z"/>
						<g>
							<path fill="#313438" d="M1153.656,973.511c1.472,0,2.896-0.043,4.254-0.133v-26.58c0-0.311-0.071-0.604-0.2-0.866
								c-1.295-0.337-2.651-0.516-4.042-0.516c-1.391,0-2.744,0.178-4.039,0.516c-0.131,0.262-0.207,0.555-0.207,0.866v26.58
								C1150.78,973.465,1152.191,973.511,1153.656,973.511z"/>
							<g>
								<path fill="#F5F5F5" d="M1157.52,972.925h-0.175v-0.854h0.175V972.925z M1157.52,971.514h-0.175v-0.854h0.175V971.514z
									 M1157.52,970.104h-0.175v-0.852h0.175V970.104z M1157.52,968.693h-0.175v-0.851h0.175V968.693z M1157.52,967.284h-0.175
									v-0.852h0.175V967.284z M1157.52,965.874h-0.175v-0.852h0.175V965.874z M1157.52,964.463h-0.175v-0.852h0.175V964.463z
									 M1157.52,963.05h-0.175v-0.852h0.175V963.05z M1157.52,961.64h-0.175v-0.85h0.175V961.64z M1157.52,960.229h-0.175v-0.848
									h0.175V960.229z M1157.52,958.82h-0.175v-0.85h0.175V958.82z M1157.52,957.41h-0.175v-0.851h0.175V957.41z M1157.52,955.997
									h-0.175v-0.852h0.175V955.997z M1157.52,954.589h-0.175v-0.852h0.175V954.589z M1157.52,953.176h-0.175v-0.851h0.175
									V953.176z M1157.52,951.767h-0.175v-0.852h0.175V951.767z M1157.52,950.355h-0.175v-0.848h0.175V950.355z M1157.52,948.946
									h-0.175v-0.851h0.175V948.946z"/>
								<path fill="#F5F5F5" d="M1157.303,947.555c-0.025-0.123-0.063-0.243-0.111-0.357c-0.124-0.034-0.25-0.067-0.375-0.099
									l0.043-0.167c0.139,0.035,0.281,0.074,0.417,0.11l0.04,0.013l0.015,0.038c0.061,0.134,0.106,0.279,0.142,0.426
									L1157.303,947.555z"/>
								<path fill="#F5F5F5" d="M1156.256,946.972c-0.286-0.058-0.569-0.107-0.862-0.149l0.023-0.171
									c0.293,0.041,0.587,0.091,0.875,0.152L1156.256,946.972z M1151.081,946.972l-0.038-0.168
									c0.291-0.061,0.584-0.111,0.873-0.152l0.025,0.171C1151.653,946.865,1151.364,946.914,1151.081,946.972z M1154.827,946.761
									c-0.283-0.025-0.579-0.043-0.868-0.049v-0.171c0.296,0.006,0.592,0.023,0.883,0.049L1154.827,946.761z M1152.512,946.761
									l-0.018-0.171c0.293-0.026,0.589-0.043,0.885-0.049l0.005,0.171C1153.094,946.718,1152.796,946.736,1152.512,946.761z"/>
								<path fill="#F5F5F5" d="M1150.039,947.555l-0.175-0.036c0.03-0.145,0.078-0.292,0.139-0.426l0.017-0.038l0.038-0.013
									c0.139-0.036,0.278-0.076,0.42-0.11l0.04,0.164c-0.124,0.033-0.248,0.067-0.374,0.101
									C1150.1,947.314,1150.062,947.435,1150.039,947.555z"/>
								<path fill="#F5F5F5" d="M1149.993,972.925h-0.175v-0.851h0.175V972.925z M1149.993,971.514h-0.175v-0.854h0.175V971.514z
									 M1149.993,970.104h-0.175v-0.852h0.175V970.104z M1149.993,968.693h-0.175v-0.851h0.175V968.693z M1149.993,967.284h-0.175
									v-0.852h0.175V967.284z M1149.993,965.874h-0.175v-0.852h0.175V965.874z M1149.993,964.463h-0.175v-0.852h0.175V964.463z
									 M1149.993,963.05h-0.175v-0.852h0.175V963.05z M1149.993,961.64h-0.175v-0.85h0.175V961.64z M1149.993,960.229h-0.175
									v-0.848h0.175V960.229z M1149.993,958.82h-0.175v-0.85h0.175V958.82z M1149.993,957.41h-0.175v-0.851h0.175V957.41z
									 M1149.993,955.997h-0.175v-0.852h0.175V955.997z M1149.993,954.589h-0.175v-0.852h0.175V954.589z M1149.993,953.176h-0.175
									v-0.851h0.175V953.176z M1149.993,951.767h-0.175v-0.852h0.175V951.767z M1149.993,950.355h-0.175v-0.848h0.175V950.355z
									 M1149.993,948.946h-0.175v-0.851h0.175V948.946z"/>
							</g>
							<g>
								<path fill="#FFFFFF" d="M1158.479,951.444c-0.25-0.04-0.501-0.073-0.751-0.109l-0.036,0.109
									c0.25,0.032,0.503,0.067,0.746,0.104L1158.479,951.444z"/>
								<path fill="#FFFFFF" d="M1159.703,951.659c-0.245-0.049-0.493-0.095-0.739-0.137l-0.04,0.103
									c0.24,0.043,0.488,0.087,0.731,0.135L1159.703,951.659z"/>
								<path fill="#FFFFFF" d="M1160.902,951.922c-0.235-0.058-0.478-0.111-0.719-0.166l-0.055,0.101
									c0.243,0.053,0.48,0.109,0.718,0.166L1160.902,951.922z"/>
								<path fill="#FFFFFF" d="M1157.234,951.277c-0.25-0.029-0.511-0.052-0.761-0.073l-0.02,0.105
									c0.248,0.023,0.503,0.049,0.749,0.077L1157.234,951.277z"/>
								<path fill="#FFFFFF" d="M1155.977,951.162c-0.255-0.017-0.513-0.032-0.764-0.044l-0.013,0.107
									c0.25,0.011,0.506,0.026,0.756,0.046L1155.977,951.162z"/>
								<path fill="#FFFFFF" d="M1162.075,952.235c-0.228-0.068-0.465-0.133-0.703-0.195l-0.063,0.097
									c0.235,0.063,0.471,0.129,0.701,0.197L1162.075,952.235z"/>
								<path fill="#FFFFFF" d="M1163.218,952.597c-0.228-0.076-0.455-0.152-0.685-0.224l-0.071,0.097
									c0.225,0.071,0.453,0.147,0.675,0.225L1163.218,952.597z"/>
								<path fill="#FFFFFF" d="M1166.37,953.963c-0.197-0.104-0.4-0.207-0.599-0.306l-0.101,0.085
									c0.2,0.098,0.395,0.201,0.592,0.307L1166.37,953.963z"/>
								<path fill="#FFFFFF" d="M1154.71,951.097c-0.253-0.009-0.511-0.013-0.766-0.015l-0.003,0.109
									c0.25,0.001,0.508,0.008,0.761,0.015L1154.71,951.097z"/>
								<path fill="#FFFFFF" d="M1168.871,955.612c-0.114-0.092-0.227-0.181-0.346-0.271l-0.124,0.07
									c0.086,0.064,0.172,0.134,0.255,0.201H1168.871z"/>
								<path fill="#FFFFFF" d="M1168.196,955.096c-0.169-0.12-0.349-0.242-0.523-0.361l-0.119,0.076
									c0.174,0.119,0.349,0.239,0.518,0.358L1168.196,955.096z"/>
								<path fill="#FFFFFF" d="M1165.368,953.463c-0.205-0.095-0.417-0.188-0.632-0.279l-0.089,0.089
									c0.21,0.09,0.417,0.185,0.622,0.277L1165.368,953.463z"/>
								<path fill="#FFFFFF" d="M1164.314,953.011c-0.213-0.089-0.435-0.176-0.657-0.257l-0.078,0.095
									c0.22,0.081,0.435,0.164,0.652,0.25L1164.314,953.011z"/>
								<path fill="#FFFFFF" d="M1167.313,954.51c-0.182-0.112-0.369-0.224-0.564-0.334l-0.111,0.078
									c0.195,0.109,0.382,0.222,0.559,0.334L1167.313,954.51z"/>
								<path fill="#FFFFFF" d="M1141.695,953.728l-0.101-0.085c-0.202,0.099-0.405,0.204-0.599,0.31l0.109,0.081
									C1141.293,953.93,1141.495,953.828,1141.695,953.728z"/>
								<path fill="#FFFFFF" d="M1142.724,953.258l-0.091-0.091c-0.212,0.091-0.428,0.186-0.632,0.282l0.096,0.087
									C1142.302,953.442,1142.517,953.347,1142.724,953.258z"/>
								<path fill="#FFFFFF" d="M1143.8,952.835l-0.078-0.094c-0.22,0.081-0.443,0.166-0.663,0.253l0.089,0.091
									C1143.359,952.998,1143.582,952.913,1143.8,952.835z"/>
								<path fill="#FFFFFF" d="M1139.803,954.802l-0.121-0.077c-0.179,0.119-0.357,0.239-0.523,0.359l0.121,0.073
									C1139.447,955.038,1139.624,954.919,1139.803,954.802z"/>
								<path fill="#FFFFFF" d="M1138.68,955.612c0.091-0.073,0.18-0.143,0.271-0.21l-0.126-0.07
									c-0.121,0.09-0.24,0.186-0.357,0.279H1138.68z"/>
								<path fill="#FFFFFF" d="M1144.915,952.461l-0.068-0.1c-0.228,0.07-0.46,0.146-0.686,0.224l0.073,0.095
									C1144.467,952.602,1144.695,952.529,1144.915,952.461z"/>
								<path fill="#FFFFFF" d="M1140.719,954.245l-0.106-0.083c-0.195,0.109-0.387,0.225-0.569,0.337l0.116,0.077
									C1140.342,954.464,1140.529,954.351,1140.719,954.245z"/>
								<path fill="#FFFFFF" d="M1152.181,951.221l-0.01-0.105c-0.255,0.011-0.508,0.026-0.766,0.042l0.023,0.107
									C1151.68,951.248,1151.931,951.234,1152.181,951.221z"/>
								<path fill="#FFFFFF" d="M1150.929,951.307l-0.023-0.109c-0.253,0.02-0.506,0.047-0.756,0.076l0.023,0.103
									C1150.428,951.352,1150.679,951.326,1150.929,951.307z"/>
								<path fill="#FFFFFF" d="M1149.685,951.44l-0.035-0.109c-0.245,0.032-0.501,0.068-0.744,0.104l0.038,0.106
									C1149.187,951.503,1149.435,951.469,1149.685,951.44z"/>
								<path fill="#FFFFFF" d="M1153.438,951.19l-0.003-0.107c-0.253,0.003-0.511,0.006-0.761,0.014l0.003,0.107
									C1152.932,951.196,1153.185,951.191,1153.438,951.19z"/>
								<path fill="#FFFFFF" d="M1148.461,951.617l-0.048-0.102c-0.24,0.042-0.49,0.089-0.731,0.133l0.046,0.104
									C1147.97,951.704,1148.213,951.661,1148.461,951.617z"/>
								<path fill="#FFFFFF" d="M1146.066,952.132l-0.061-0.104c-0.233,0.062-0.473,0.129-0.703,0.196l0.068,0.099
									C1145.6,952.256,1145.835,952.191,1146.066,952.132z"/>
								<path fill="#FFFFFF" d="M1147.249,951.85l-0.051-0.104c-0.24,0.053-0.486,0.107-0.726,0.164l0.063,0.103
									C1146.774,951.955,1147.014,951.9,1147.249,951.85z"/>
							</g>
						</g>
					</g>
				</g>
				<path fill="#F8564A" d="M1118.303,751.358c0.693-41.742,18.938-79.794,18.938-79.794h92.262
					c18.238,55.781,18.933,80.163,18.933,80.163l-9.365,205.767h-48.183l-7.342-215.372l-5.453,215.372h-49.238L1118.303,751.358z"
					/>
				<path fill="#F9DFCC" d="M1232.978,590.367h-102.179l6.222-1.823c0,0,10.918,6.1,22.204-6.525
					c11.611-12.965,3.359-42.359,3.359-42.359h42.811c-11.295,19.922,1.265,40.783,1.265,40.783L1232.978,590.367z"/>
				<path fill="#1C3D5A" d="M1182.663,576.304"/>
				<path fill="#5F3A19" d="M1149.05,465.102c13.314-12.031,33.355-13.99,33.355-13.99s14.654,2.039,23.013,7.399
					c0,0,17.464,8.115,17.464,37.49c0,0-2.17,17.507-5.048,22.315c0,0-14.254,34.479-18.852,42.093c0,0-18.933,8.874-33.693,0.149
					c0,0-16.045-30.6-18.949-40.253C1146.339,520.305,1132.656,479.911,1149.05,465.102z"/>
				<polygon fill="#F5F5F5" points="1183.282,594.412 1146.799,585.086 1164.453,572.312 1182.288,572.312 1184.388,572.312 
					1202.228,572.312 1219.88,585.086 1183.396,594.412 1183.396,594.442 1183.338,594.428 1183.282,594.442 				"/>
				<path fill="#F8564A" d="M1241.216,738.958H1125.47l-0.734-110.679l-6.237-37.297l28.299-7.724
					c1.877,4.339,16.968,7.724,35.323,7.724c19.217,0,34.859-3.709,35.494-8.343l30.568,8.343l-6.237,37.297L1241.216,738.958z"/>
			</g>
			<g>
				<path fill="#004352" d="M1090.975,717.189v-61.077c0-15.167,11.616-27.454,25.949-27.454h131.666
					c14.333,0,25.947,12.287,25.947,27.454v61.077H1090.975z"/>
				<path fill="#363844" d="M1169.898,717.189c3.427-3.203,7.924-5.166,12.861-5.166c4.932,0,9.424,1.963,12.856,5.166H1169.898z"/>
				<path fill="#004352" d="M1274.586,797.165c0,4.609-7.104,8.306-16.002,8.306h-151.652c-8.842,0-16.002-3.697-16.002-8.306l0,0
					c0-4.588,7.16-8.313,16.002-8.313h151.652C1267.481,788.852,1274.586,792.577,1274.586,797.165L1274.586,797.165z"/>
				<path fill="#004352" d="M1173.393,866.745h9.247h9.237c0,0,9.239,52.923,9.239,60.485c0,7.557-18.476,8.818-18.476,8.818
					s-18.483-1.261-18.483-8.818C1164.157,919.669,1173.393,866.745,1173.393,866.745z"/>
				<path fill="#004352" d="M1272.83,944.714c2.165,4.026,2.172,7.944,1.487,10.903h-7.712l-0.227-0.14
					c0.018-0.034,1.9-3.265-0.213-7.183c-3.129-5.819-16.08-15.815-67.675-17.288l0.217-7.556
					C1240.95,924.657,1265.89,931.81,1272.83,944.714z"/>
				<path fill="#004352" d="M1092.341,944.714c6.932-12.904,31.87-20.056,74.12-21.264l0.215,7.556
					c-51.593,1.473-64.547,11.469-67.681,17.288c-2.109,3.918-0.223,7.149-0.208,7.183l-0.678,0.419h-7.191
					C1090.166,952.904,1090.105,948.87,1092.341,944.714z"/>
				<path fill="#004352" d="M1172.139,908.762h19.333c-1.052,0.927-2.13,1.912-3.235,2.977l4.864,1.423l-7.241,45.367h-5.531
					l-7.246-45.367l2.899-0.847C1174.661,911.03,1173.386,909.854,1172.139,908.762z"/>
				<g>
					<path fill="#004352" d="M1286.657,970.29c-0.205-8.21-6.925-14.801-15.188-14.801c-8.26,0-14.985,6.591-15.19,14.801h-2.476
						c0.215-9.572,8.04-17.268,17.666-17.268c9.618,0,17.446,7.696,17.656,17.268H1286.657z"/>
					<path fill="#004352" d="M1257.6,970.29c0,7.665,6.207,13.874,13.87,13.874c7.658,0,13.868-6.209,13.868-13.874
						c0-7.66-6.209-13.871-13.868-13.871C1263.806,956.419,1257.6,962.63,1257.6,970.29z"/>
				</g>
				<g>
					<path fill="#004352" d="M1109.238,970.29c-0.215-8.21-6.935-14.801-15.198-14.801c-8.258,0-14.98,6.591-15.188,14.801h-2.468
						c0.208-9.572,8.043-17.268,17.656-17.268c9.623,0,17.451,7.696,17.661,17.268H1109.238z"/>
					<path fill="#004352" d="M1080.17,970.29c0,7.665,6.209,13.874,13.87,13.874c7.666,0,13.875-6.209,13.875-13.874
						c0-7.66-6.209-13.871-13.875-13.871C1086.38,956.419,1080.17,962.63,1080.17,970.29z"/>
				</g>
				<g>
					<path fill="#004352" d="M1200.16,968.547c-0.235-9.245-7.8-16.671-17.102-16.671c-9.3,0-16.867,7.426-17.105,16.671h-2.775
						c0.233-10.78,9.042-19.442,19.879-19.442c10.832,0,19.644,8.661,19.879,19.442H1200.16z"/>
					<path fill="#004352" d="M1167.437,968.547c0,8.622,6.998,15.616,15.62,15.616c8.625,0,15.618-6.994,15.618-15.616
						c0-8.628-6.993-15.619-15.618-15.619C1174.435,952.928,1167.437,959.919,1167.437,968.547z"/>
				</g>
				<rect x="1176.178" y="796.476" fill="#004352" width="13.154" height="90.84"/>
				<path fill="#00B4B8" d="M1090.975,717.189v-52.35c0-15.164,11.616-27.453,25.949-27.453h131.666
					c14.333,0,25.947,12.289,25.947,27.453v52.35h-42.523v0.173h42.523v52.352c0,15.161-11.614,27.452-25.947,27.452h-131.666
					c-14.333,0-25.949-12.29-25.949-27.452v-52.352h57.63v-0.173H1090.975z"/>
			</g>
		</g>
	</g>
</g>
</svg>
