<?xml version="1.0" encoding="utf-8"?>
<!-- Generator: Adobe Illustrator 17.0.0, SVG Export Plug-In . SVG Version: 6.00 Build 0)  -->
<!DOCTYPE svg PUBLIC "-//W3C//DTD SVG 1.1//EN" "http://www.w3.org/Graphics/SVG/1.1/DTD/svg11.dtd">
<svg version="1.1" id="Capa_1" xmlns="http://www.w3.org/2000/svg" xmlns:xlink="http://www.w3.org/1999/xlink" x="0px" y="0px"
	 width="2972.328px" height="2492.442px" viewBox="0 0 2972.328 2492.442" enable-background="new 0 0 2972.328 2492.442"
	 xml:space="preserve">
<g opacity="0.06">
	<image overflow="visible" width="2313" height="2313" xlink:href="130F7253.png"  transform="matrix(1 0 0 1 329.5 89.5)">
	</image>
</g>
<circle opacity="0.6" fill="#FFFFFF" cx="1486.164" cy="1246.221" r="1044"/>
<circle fill="#7BD9FD" cx="1486.164" cy="1246.221" r="876"/>
<g>
	<path fill="#FFFFFF" d="M1833.714,738.323h-695.099c-49.575,0-89.764,40.189-89.764,89.764v836.267
		c0,49.575,40.189,89.764,89.764,89.764h695.099c49.575,0,89.764-40.189,89.764-89.764V828.088
		C1923.478,778.513,1883.289,738.323,1833.714,738.323z M1485.126,811.976c122.435,0,221.997,133.662,221.997,292.141
		c0,158.479-99.562,292.141-221.997,292.141c-122.435,0-225.696-133.662-225.696-292.141
		C1259.43,945.638,1362.691,811.976,1485.126,811.976z M1819.248,1628.683c0,22.81-24.771,41.268-55.383,41.268h-557.521
		c-30.612,0-55.383-18.458-55.383-41.268v-41.268c0-63.646,33.289-121.165,86.427-165.071
		c60.866,50.289,151.734,82.536,249.563,82.536c97.828,0,185.005-32.247,245.87-82.536c53.138,43.906,86.427,101.425,86.427,165.071
		V1628.683z"/>
	<g>
		<path fill="#FFFFFF" d="M1584.918,1106.378c-0.059-4.71-0.428-9.405-1.24-13.923c6.629-5.33,19.932-15.975,19.932-15.975
			l0.724-22.31l-30.652-38.182l-22.354-0.724c0,0-10.867,8.741-16.3,13.096c-5.655-2.953-11.649-5.448-17.91-7.382
			c-0.31-6.305-0.945-18.928-0.945-18.928l-15.281-16.271l-48.856,2.377l-16.3,15.267c0,0,0.812,16.61,1.181,24.908
			c-4.843,2.554-9.464,5.493-13.776,8.755c-6.747-3.366-20.287-10.084-20.287-10.084l-21.778,4.976l-21.837,43.851l-0.812,2.997
			l5.788,18.766c0,0,15.695,7.766,23.55,11.679c0.177,5.271,0.827,10.409,1.964,15.4c-6.245,4.931-18.736,14.898-18.736,14.898
			l-0.723,22.28l30.415,38.359c0,0,18.308,2.776,19.312,2.259s3.012-1.536,3.012-1.536s11.885-9.42,17.821-14.13
			c4.784,2.362,9.804,4.356,15.06,5.935c0.369,6.585,1.152,19.755,1.152,19.755l15.281,16.271l48.797-2.864l16.3-15.237
			c0,0-0.974-16.965-1.476-25.454c4.031-2.156,7.958-4.547,11.649-7.19c6.201,3.868,18.663,11.605,18.663,11.605l21.778-4.99
			l25.868-41.533l-4.99-21.793C1608.94,1121.29,1592.935,1111.339,1584.918,1106.378z M1481.723,1167.455
			c-33.286-1.067-59.427-28.926-58.341-62.194c1.067-33.359,28.944-59.445,62.213-58.396c33.322,1.085,59.427,28.926,58.377,62.267
			C1542.886,1142.436,1515.045,1168.523,1481.723,1167.455z"/>
		<circle fill="#FFFFFF" cx="1484.521" cy="1107.271" r="34.776"/>
	</g>
</g>
</svg>
