<?xml version="1.0" encoding="utf-8"?>
<!-- Generator: Adobe Illustrator 17.0.0, SVG Export Plug-In . SVG Version: 6.00 Build 0)  -->
<!DOCTYPE svg PUBLIC "-//W3C//DTD SVG 1.1//EN" "http://www.w3.org/Graphics/SVG/1.1/DTD/svg11.dtd">
<svg version="1.1" id="Layer_1" xmlns="http://www.w3.org/2000/svg" xmlns:xlink="http://www.w3.org/1999/xlink" x="0px" y="0px"
	 width="640px" height="270px" viewBox="1457.524 150 640 270" enable-background="new 1457.524 150 640 270" xml:space="preserve">
<path fill="#F6F7F7" d="M2102.484,136.191V296.95l-247.404,97.012c0,0-61.271,25.22-72.875,25.22
	c-15.047,0.348-48.893-13.925-48.893-13.925l-280.747-110.009V135.804L2102.484,136.191z"/>
<path fill="#4975E6" d="M2102.484,136.191v123.16l-247.404,97.012c0,0-61.271,25.22-72.875,25.22
	c-15.047,0.348-48.893-13.925-48.893-13.925l-280.747-110.009V135.804L2102.484,136.191z"/>
<linearGradient id="SVGID_1_" gradientUnits="userSpaceOnUse" x1="1523.4581" y1="150.5865" x2="2173.3777" y2="150.5865" gradientTransform="matrix(1 0 0 -1 -76 400)">
	<stop  offset="0" style="stop-color:#4975E6"/>
	<stop  offset="1" style="stop-color:#8B54E8"/>
</linearGradient>
<path fill="url(#SVGID_1_)" d="M2102.484,136.191v104.594l-247.404,97.012c0,0-61.271,25.22-72.875,25.22
	c-15.047,0.348-48.893-13.925-48.893-13.925l-280.747-110.009V135.804L2102.484,136.191z"/>
<g>
	<circle opacity="0.2" fill="#FFFFFF" cx="1769.925" cy="298.295" r="0.854"/>
	<circle opacity="0.2" fill="#FFFFFF" cx="1764.568" cy="298.295" r="0.854"/>
	<circle opacity="0.2" fill="#FFFFFF" cx="1759.212" cy="298.295" r="0.854"/>
	<circle opacity="0.2" fill="#FFFFFF" cx="1753.855" cy="298.295" r="0.854"/>
	<path opacity="0.2" fill="#FFFFFF" d="M1712.603,296.726c-6.784,0-12.304-5.519-12.304-12.304c0-6.784,5.519-12.304,12.304-12.304
		c6.784,0,12.304,5.519,12.304,12.304h-0.489c0-6.515-5.3-11.815-11.815-11.815c-6.515,0-11.815,5.3-11.815,11.815
		s5.3,11.815,11.815,11.815c5.786,0,10.807-4.306,11.679-10.015l0.483,0.074c-0.439,2.876-1.899,5.515-4.11,7.43
		C1718.421,295.661,1715.561,296.726,1712.603,296.726z"/>
	<g opacity="0.2">
		<path fill="#FFFFFF" d="M1708.261,287.694h-3.675v-0.547l1.472-1.48c0.449-0.454,0.744-0.778,0.887-0.971
			c0.143-0.194,0.25-0.382,0.321-0.566c0.071-0.183,0.107-0.381,0.107-0.593c0-0.298-0.091-0.535-0.272-0.709
			c-0.181-0.175-0.432-0.262-0.753-0.262c-0.232,0-0.452,0.038-0.66,0.115s-0.439,0.215-0.694,0.417l-0.337-0.432
			c0.515-0.428,1.076-0.642,1.683-0.642c0.525,0,0.937,0.134,1.235,0.403c0.298,0.269,0.448,0.63,0.448,1.084
			c0,0.354-0.099,0.705-0.298,1.052c-0.199,0.347-0.571,0.785-1.117,1.315l-1.224,1.197v0.031h2.876V287.694z"/>
		<path fill="#FFFFFF" d="M1713.003,286.409h-0.83v1.285h-0.608v-1.285h-2.719v-0.554l2.654-3.782h0.673v3.759h0.83V286.409z
			 M1711.565,285.832v-1.859c0-0.365,0.013-0.776,0.038-1.235h-0.031c-0.122,0.245-0.237,0.448-0.344,0.608l-1.748,2.486H1711.565z"
			/>
		<path fill="#FFFFFF" d="M1718.318,287.694l2.317-5.006h-3.048v-0.585h3.721v0.509l-2.287,5.082H1718.318z"/>
	</g>
	<polygon opacity="0.2" fill="#FFFFFF" points="1724.621,284.768 1722.789,282.936 1723.135,282.591 1724.621,284.077 
		1726.189,282.509 1726.535,282.854 	"/>
	
		<rect x="1715.134" y="279.272" transform="matrix(0.9435 0.3313 -0.3313 0.9435 191.2449 -552.1758)" opacity="0.2" fill="#FFFFFF" width="0.489" height="11.277"/>
	<g>
		<circle fill="#FFFFFF" cx="1824.816" cy="298.658" r="22.157"/>
		<g>
			<defs>
				<circle id="SVGID_6_" cx="1824.816" cy="298.658" r="22.157"/>
			</defs>
			<clipPath id="SVGID_2_">
				<use xlink:href="#SVGID_6_"  overflow="visible"/>
			</clipPath>
			<g clip-path="url(#SVGID_2_)">
				<g>
					<path fill="#591A00" d="M1825.945,286.374c0,0-7.072-1.768-8.324,6.555c0,0,0.372,17.406,4.056,19.381l2.916-4.403
						L1825.945,286.374z"/>
					<polyline fill="#F8C0A1" points="1814.052,323.328 1814.576,318.428 1817.706,318.972 1816.456,324.604 					"/>
					<path fill="#591A00" d="M1825.008,315.12c0,0,6.903-7.32,7.218-15.572c0,0,0.141-12.205-6.525-13.175L1825.008,315.12z"/>
					<polygon fill="#A85D54" points="1814.576,318.428 1817.706,318.972 1817.533,319.749 1814.494,319.197 					"/>
					<polygon fill="#A85D54" points="1831.85,318.817 1832.022,319.591 1835.064,319.057 1834.98,318.273 					"/>
					<path fill="#CE7C59" d="M1829.447,298.902c1.406-0.03,2.534-0.888,2.534-1.948c0-1.06-1.129-1.917-2.535-1.947
						L1829.447,298.902z"/>
					<path fill="#D38068" d="M1827.534,306.965l-0.002,0.002c0,0-0.236,1.285-0.563,3.202h-4.476
						c-0.425-2.068-0.764-2.964-0.816-3.092l3.101-1.866L1827.534,306.965z"/>
					<path fill="#F8C0A1" d="M1825.451,308.729l-1.712,0c-0.808,0-1.469-0.661-1.469-1.469l-0.001-5.239
						c0-0.808,0.661-1.469,1.469-1.469l1.712,0c0.808,0,1.469,0.661,1.469,1.469l0.001,5.239
						C1826.92,308.068,1826.259,308.729,1825.451,308.729z"/>
					<path fill="#CE7C59" d="M1822.269,304.493c0,0,2.356,0.859,4.651-0.015l0-1.296l-4.651,0.014L1822.269,304.493z"/>
					<path fill="#A3584C" d="M1819.561,295.432c-1.482,0.03-2.672,0.888-2.672,1.948c0,1.06,1.19,1.917,2.673,1.947
						L1819.561,295.432z"/>
					<path fill="#F8C0A1" d="M1829.864,299.946c0.159-0.991,0.375-1.891,0.375-2.895c-0.001-3.7,0.984-8.443-3.433-10.245
						c-2.431-0.992-5.817-0.262-7.17,2.015c-0.661,1.112-0.615,2.411-0.696,3.645c-0.112,1.723-0.094,3.453-0.028,5.177
						c0.002,0.045,0.004,0.089,0.005,0.134c0.067,1.72,1.1,3.716,2.458,4.813c1.17,0.945,2.91,1.665,4.427,1.119
						c0.841-0.302,1.613-0.797,2.297-1.346C1828.879,301.739,1829.703,300.948,1829.864,299.946z"/>
					<line fill="#323232" x1="1819.704" y1="327.48" x2="1829.742" y2="327.48"/>
					<path fill="#F8C0A1" d="M1822.269,305.941c0,0,0.183,0.671-0.857,1.297l6.383-0.107c0,0-0.821-0.474-0.875-1.191H1822.269z"/>
					<polygon fill="#F8C0A1" points="1821.412,307.238 1819.825,308.194 1819.725,310.822 1821.472,314.807 1826.94,315.12 
						1829.629,312.508 1829.084,307.907 1827.795,307.132 					"/>
					<path fill="#F8C0A1" d="M1814.494,319.197l0.082-0.769c0,0,0.124-7.516,2.462-8.564c0,0,1.777,3.15,1.116,8.069l-0.448,1.039
						l-0.172,0.777L1814.494,319.197z"/>
					<path fill="#F8C0A1" d="M1835.064,319.057l-0.084-0.784c0,0-0.364-7.024-3.13-8.695c0,0-1.501,4.525-0.565,8.291l0.737,1.721
						L1835.064,319.057z"/>
					<path fill="#AEA6BD" d="M1819.825,308.194c0,0,0.359,6,3.319,6.091h2.8c0,0,3.115,0.107,3.139-6.378
						c0,0,1.317,0.446,2.766,1.671c0,0-1.41,4.768-0.565,8.291l-1.542,9.61l-10.039,0.001l-1.55-9.547c0,0,0.708-4.15-1.116-8.069
						C1817.038,309.864,1817.823,308.879,1819.825,308.194z"/>
					<path fill="#591A00" d="M1826.333,290.012c0,0,1.354,2.897,3.958,5.125c0,0,0.75-3.87-0.845-6.107
						C1829.446,289.029,1827.427,288.067,1826.333,290.012z"/>
					<path fill="#591A00" d="M1826.306,289.999c-0.849-0.242-1.708-0.486-2.589-0.537c-0.882-0.051-1.802,0.106-2.53,0.607
						c-0.875,0.602-1.37,1.619-1.689,2.632c-0.959,3.043-0.715,6.379-0.061,9.46c0.295,1.39,0.717,2.762,1.341,4.041
						c0.313,0.642,0.677,1.26,1.1,1.836c0.14,0.191,1.15,1.599,1.374,1.525c-1.179,0.392-2.489,0.187-3.638-0.287
						c-0.449-0.185-0.898-0.424-1.181-0.818c-0.2-0.278-0.302-0.614-0.397-0.943c-1.356-4.703-2.001-9.855-0.414-14.587
						c0.58-1.729,1.613-3.495,3.338-4.085c0.89-0.304,1.874-0.254,2.781-0.004C1824.647,289.09,1825.49,289.529,1826.306,289.999z"
						/>
					<path fill="#591A00" d="M1825.543,310.244c0,0-5.958,0.348-7.11-1.785l0.427-11.674
						C1818.859,296.785,1820.318,309.272,1825.543,310.244z"/>
					<path fill="#591A00" d="M1826.306,289.999l-2.586-0.899l-4.861,1.361l0.702-1.969l1.393-1.215c0,0,1.688-1.078,4.042-0.972
						c0,0,3.387,0.076,4.633,2.795l-1.686,1.079L1826.306,289.999z"/>
					<path fill="#591A00" d="M1821.783,286.698l-5.037,13.886C1816.746,300.585,1815.137,289.34,1821.783,286.698z"/>
					<path fill="#591A00" d="M1820.349,290.652c0,0-2.27,5.271-0.787,9.986c0,0-1.842-3.673-1.758-3.854
						c0.084-0.181,1.375-4.821,1.375-4.821L1820.349,290.652z"/>
					<path fill="#591A00" d="M1828.752,290.652l-2.933-2.273l-4.86,0.465l-1.234,3.119c2.446-3.82,6.22-1.132,6.22-1.132
						c0.584,2.552,4.346,4.304,4.346,4.304L1828.752,290.652z"/>
				</g>
				<line fill="#262763" x1="1831.053" y1="297.873" x2="1829.398" y2="301.363"/>
				<path fill="#161616" d="M1827.066,304.047c-0.12-0.012-0.24-0.049-0.351-0.115c-0.399-0.238-0.529-0.755-0.291-1.154
					l4.039-6.759c0.238-0.399,0.755-0.529,1.154-0.291c0.399,0.238,0.529,0.755,0.291,1.154l-4.039,6.759
					C1827.698,303.93,1827.38,304.078,1827.066,304.047z"/>
				<path fill="#F8C0A1" d="M1831.937,300.798l3.442,16.521c0.257,1.178-0.489,2.341-1.666,2.599s-2.341-0.489-2.599-1.666
					c-0.02-0.089-0.033-0.178-0.042-0.267l-0.025-0.294l-1.792-16.662c-0.063-0.737,0.483-1.386,1.221-1.449
					c0.679-0.058,1.283,0.4,1.424,1.049L1831.937,300.798z"/>
				<path fill="#F2B191" d="M1832.42,303.397l1.07-1.602c0.778-1.165,0.633-2.716-0.348-3.716l0,0
					c-0.819-0.835-2.035-1.142-3.152-0.797l-1.012,0.313l0.419,4.848L1832.42,303.397z"/>
			</g>
		</g>
		<path opacity="0.2" fill="#FFFFFF" d="M1824.816,320.996c-5.967,0-11.576-2.324-15.796-6.543
			c-4.219-4.219-6.543-9.829-6.543-15.796c0-5.967,2.324-11.576,6.543-15.796c4.219-4.219,9.829-6.543,15.796-6.543
			s11.576,2.324,15.796,6.543c4.219,4.219,6.543,9.829,6.543,15.796c0,5.967-2.324,11.576-6.543,15.796
			C1836.392,318.672,1830.783,320.996,1824.816,320.996z M1824.816,276.681c-12.118,0-21.977,9.859-21.977,21.977
			s9.859,21.977,21.977,21.977s21.977-9.859,21.977-21.977S1836.934,276.681,1824.816,276.681z"/>
		<path opacity="0.5" fill="#FFFFFF" d="M1834.793,321.379l-0.204-0.462c3.62-1.604,6.896-3.856,9.735-6.695l0.357,0.357
			C1841.798,317.462,1838.471,319.75,1834.793,321.379z"/>
		<path opacity="0.5" fill="#FFFFFF" d="M1842.577,313.931l-0.274-0.236c3.595-4.167,5.575-9.508,5.575-15.037
			c0-6.16-2.399-11.952-6.755-16.307c-4.356-4.356-10.147-6.755-16.307-6.755c-3.044,0-5.996,0.579-8.772,1.72l-0.138-0.335
			c2.821-1.159,5.818-1.747,8.91-1.747c6.257,0,12.139,2.437,16.563,6.861c4.424,4.424,6.861,10.306,6.861,16.563
			C1848.24,304.274,1846.228,309.698,1842.577,313.931z"/>
	</g>
	<path opacity="0.2" fill="#FFFFFF" d="M1753.582,336.017h-19.543c-10.467,0-18.983-8.516-18.983-18.983
		c0-10.467,8.516-18.983,18.983-18.983h6.509v0.489h-6.509c-10.198,0-18.494,8.296-18.494,18.494s8.296,18.494,18.494,18.494h19.543
		V336.017z"/>
	<rect x="1774.564" y="298.051" opacity="0.2" fill="#FFFFFF" width="19.376" height="0.489"/>
	<path opacity="0.2" fill="#FFFFFF" d="M1840.906,348.174h-0.489c0-1.821-1.481-3.302-3.302-3.302v-0.489
		c1.821,0,3.302-1.481,3.302-3.302h0.489c0,1.821,1.481,3.302,3.302,3.302v0.489
		C1842.388,344.872,1840.906,346.353,1840.906,348.174z M1838.454,344.628c1.015,0.384,1.823,1.193,2.207,2.207
		c0.385-1.015,1.193-1.823,2.207-2.207c-1.015-0.384-1.823-1.193-2.207-2.207C1840.277,343.435,1839.469,344.243,1838.454,344.628z"
		/>
	<path opacity="0.2" fill="#FFFFFF" d="M1737.667,283.138h-0.489c0-1.821-1.481-3.302-3.302-3.302v-0.489
		c1.821,0,3.302-1.481,3.302-3.302h0.489c0,1.821,1.481,3.302,3.302,3.302v0.489
		C1739.148,279.835,1737.667,281.317,1737.667,283.138z M1735.215,279.591c1.015,0.384,1.823,1.193,2.207,2.207
		c0.384-1.015,1.193-1.823,2.207-2.207c-1.015-0.384-1.823-1.193-2.207-2.207C1737.038,278.398,1736.23,279.207,1735.215,279.591z"
		/>
	<path opacity="0.2" fill="#FFFFFF" d="M1806.055,296.264h-0.899c-1.755,0-3.434-0.725-4.637-1.996
		c-0.797,0.345-1.645,0.519-2.524,0.519h-16.957c-3.521,0-6.385-2.864-6.385-6.385v-8.435c0-3.52,2.864-6.385,6.385-6.385h16.957
		c1.815,0,3.549,0.776,4.759,2.128c1.049,1.171,1.626,2.683,1.626,4.256v12.146c0,1.367,0.478,2.698,1.346,3.751L1806.055,296.264z
		 M1800.641,293.674l0.121,0.135c1.092,1.221,2.647,1.933,4.282,1.964c-0.746-1.068-1.153-2.349-1.153-3.661v-12.146
		c0-1.453-0.533-2.849-1.502-3.93c-1.117-1.249-2.719-1.965-4.394-1.965h-16.957c-3.251,0-5.896,2.645-5.896,5.896v8.435
		c0,3.251,2.645,5.896,5.896,5.896h16.957c0.868,0,1.702-0.184,2.481-0.547L1800.641,293.674z"/>
	<path opacity="0.2" fill="#FFFFFF" d="M1780.152,337.806h-0.933l0.33-0.4c0.948-1.15,1.471-2.605,1.471-4.099v-13.229
		c0-1.708,0.627-3.35,1.766-4.621c1.313-1.468,3.196-2.311,5.166-2.311h18.469c3.822,0,6.932,3.11,6.932,6.932v9.187
		c0,3.822-3.11,6.932-6.932,6.932h-18.469c-0.959,0-1.885-0.192-2.754-0.57C1783.89,337.014,1782.062,337.806,1780.152,337.806z
		 M1787.951,313.636c-1.831,0-3.582,0.783-4.802,2.148c-1.058,1.182-1.641,2.708-1.641,4.295v13.229c0,1.438-0.45,2.843-1.276,4.009
		c1.802-0.022,3.52-0.802,4.722-2.147l0.121-0.135l0.164,0.077c0.851,0.397,1.763,0.598,2.711,0.598h18.469
		c3.553,0,6.443-2.89,6.443-6.443v-9.187c0-3.553-2.891-6.443-6.443-6.443H1787.951z"/>
	<rect x="1778.169" y="279.832" opacity="0.2" fill="#FFFFFF" width="6.075" height="0.489"/>
	<rect x="1778.169" y="282.275" opacity="0.2" fill="#FFFFFF" width="12.04" height="0.489"/>
	<rect x="1792.931" y="282.275" opacity="0.2" fill="#FFFFFF" width="5.803" height="0.489"/>
	<rect x="1778.169" y="284.719" opacity="0.2" fill="#FFFFFF" width="6.075" height="0.489"/>
	<rect x="1786.618" y="284.719" opacity="0.2" fill="#FFFFFF" width="10.329" height="0.489"/>
	<rect x="1787.759" y="279.832" opacity="0.2" fill="#FFFFFF" width="13.204" height="0.489"/>
	<rect x="1784.719" y="322.041" opacity="0.2" fill="#FFFFFF" width="13.113" height="0.489"/>
	<g opacity="0.2">
		<rect x="1784.719" y="324.484" fill="#FFFFFF" width="5.785" height="0.489"/>
		<rect x="1792.766" y="324.484" fill="#FFFFFF" width="9.837" height="0.489"/>
	</g>
	<rect x="1784.719" y="319.597" opacity="0.2" fill="#FFFFFF" width="14.38" height="0.489"/>
	<path opacity="0.2" fill="#FFFFFF" d="M1752.655,307.846c-0.535,0-1.072-0.108-1.582-0.325c-0.51-0.217-0.962-0.531-1.344-0.933
		c-3.038-3.199-5.212-7.151-6.29-11.428v0l-0.007-0.026c-0.135-0.538-0.158-1.088-0.068-1.635c0.202-1.229,0.944-2.278,2.036-2.878
		l1.346-0.74l2.589,4.71l-1.223,0.954c-0.385,0.3-0.638,0.731-0.714,1.213l-0.002,0.011c-0.062,0.413,0.014,0.841,0.215,1.207
		l1.957,3.56c0.203,0.369,0.527,0.665,0.913,0.833c0.448,0.195,0.947,0.212,1.407,0.047l1.462-0.522l2.589,4.71l-1.346,0.74
		C1753.988,307.678,1753.323,307.846,1752.655,307.846z M1743.903,295.001l0.004,0.014c1.055,4.206,3.191,8.092,6.177,11.237l0,0
		c0.335,0.353,0.732,0.629,1.18,0.82c1.007,0.429,2.135,0.373,3.094-0.154l0.918-0.504l-2.154-3.917l-1.069,0.382
		c-0.577,0.206-1.204,0.185-1.766-0.06c-0.485-0.211-0.892-0.582-1.147-1.046l-1.957-3.56c-0.255-0.463-0.35-1.006-0.268-1.528
		l0.002-0.012c0.097-0.601,0.414-1.138,0.894-1.512l0.895-0.698l-2.153-3.917l-0.918,0.505c-0.959,0.527-1.611,1.449-1.789,2.529
		C1743.769,294.054,1743.788,294.533,1743.903,295.001z"/>
	<path opacity="0.2" fill="#FFFFFF" d="M1711.837,338.431h-6.552v-6.553h6.552V338.431z M1705.773,337.942h5.575v-5.575h-5.575
		V337.942z"/>
	<polygon opacity="0.2" fill="#FFFFFF" points="1708.63,337.057 1706.204,334.631 1706.549,334.285 1708.63,336.366 
		1713.326,331.669 1713.671,332.015 	"/>
	<path opacity="0.2" fill="#FFFFFF" d="M1711.837,348.406h-6.552v-6.553h6.552V348.406z M1705.773,347.917h5.575v-5.575h-5.575
		V347.917z"/>
	<polygon opacity="0.2" fill="#FFFFFF" points="1708.63,347.032 1706.204,344.605 1706.549,344.26 1708.63,346.34 1713.326,341.644 
		1713.671,341.99 	"/>
	<path opacity="0.2" fill="#FFFFFF" d="M1711.837,358.38h-6.552v-6.552h6.552V358.38z M1705.773,357.892h5.575v-5.575h-5.575
		V357.892z"/>
	<path opacity="0.2" fill="#FFFFFF" d="M1734.054,328.272c-6.198,0-11.24-5.042-11.24-11.24c0-6.198,5.042-11.24,11.24-11.24
		c6.198,0,11.24,5.042,11.24,11.24C1745.294,323.23,1740.252,328.272,1734.054,328.272z M1734.054,306.281
		c-5.928,0-10.751,4.823-10.751,10.751c0,5.928,4.823,10.751,10.751,10.751c5.928,0,10.751-4.823,10.751-10.751
		C1744.806,311.104,1739.983,306.281,1734.054,306.281z"/>
	<rect x="1733.81" y="306.037" opacity="0.2" fill="#FFFFFF" width="0.489" height="21.948"/>
	<rect x="1723.059" y="316.788" opacity="0.2" fill="#FFFFFF" width="21.991" height="0.489"/>
	<path opacity="0.2" fill="#FFFFFF" d="M1734.055,328.282l-0.112-0.058c-4.213-2.177-6.829-6.473-6.829-11.212
		c0-4.739,2.617-9.035,6.829-11.213l0.112-0.058l0.112,0.058c4.211,2.179,6.827,6.476,6.827,11.213
		c0,4.738-2.616,9.034-6.827,11.212L1734.055,328.282z M1734.055,306.291c-3.984,2.112-6.453,6.207-6.453,10.72
		c0,4.513,2.469,8.609,6.453,10.719c3.982-2.111,6.451-6.207,6.451-10.719C1740.506,312.5,1738.038,308.404,1734.055,306.291z"/>
	<path opacity="0.2" fill="#FFFFFF" d="M1734.055,328.282l-0.112-0.058c-4.213-2.177-6.829-6.473-6.829-11.212
		c0-4.739,2.617-9.035,6.829-11.213l0.112-0.058l0.112,0.058c4.211,2.179,6.827,6.476,6.827,11.213
		c0,4.738-2.616,9.034-6.827,11.212L1734.055,328.282z M1734.055,306.291c-3.984,2.112-6.453,6.207-6.453,10.72
		c0,4.513,2.469,8.609,6.453,10.719c3.982-2.111,6.451-6.207,6.451-10.719C1740.506,312.5,1738.038,308.404,1734.055,306.291z"/>
	<path opacity="0.2" fill="#FFFFFF" d="M1734.053,312.956c-3.059,0-6.009-1.109-8.308-3.123l0.322-0.368
		c2.209,1.936,5.045,3.002,7.986,3.002c2.942,0,5.779-1.066,7.988-3.002l0.322,0.368
		C1740.065,311.847,1737.114,312.956,1734.053,312.956z"/>
	<path opacity="0.2" fill="#FFFFFF" d="M1742.041,324.556c-2.209-1.936-5.046-3.002-7.988-3.002c-2.94,0-5.776,1.066-7.986,3.002
		l-0.322-0.368c2.298-2.014,5.249-3.123,8.308-3.123c3.06,0,6.011,1.109,8.31,3.123L1742.041,324.556z"/>
	<g opacity="0.2">
		<rect x="1761.397" y="284.837" fill="#FFFFFF" width="0.489" height="2.443"/>
		<rect x="1760.42" y="285.814" fill="#FFFFFF" width="2.443" height="0.489"/>
	</g>
	<g opacity="0.2">
		<rect x="1703.959" y="307.599" fill="#FFFFFF" width="0.489" height="2.443"/>
		<rect x="1702.982" y="308.577" fill="#FFFFFF" width="2.443" height="0.489"/>
	</g>
	<g opacity="0.2">
		<rect x="1853.283" y="359.926" fill="#FFFFFF" width="0.489" height="2.443"/>
		<rect x="1852.306" y="360.903" fill="#FFFFFF" width="2.443" height="0.489"/>
	</g>
	<g opacity="0.2">
		<g>
			<rect x="1756.136" y="267.808" fill="#FFFFFF" width="0.489" height="1.34"/>
			<rect x="1756.136" y="271.518" fill="#FFFFFF" width="0.489" height="1.34"/>
		</g>
		<g>
			
				<rect x="1754.399" y="268.777" transform="matrix(0.7071 0.7071 -0.7071 0.7071 704.2285 -1162.1926)" fill="#FFFFFF" width="1.34" height="0.489"/>
			
				<rect x="1757.022" y="271.4" transform="matrix(0.7071 0.7071 -0.7071 0.7071 706.8884 -1163.3062)" fill="#FFFFFF" width="1.34" height="0.489"/>
		</g>
		<g>
			<rect x="1753.855" y="270.089" fill="#FFFFFF" width="1.34" height="0.489"/>
			<rect x="1757.565" y="270.089" fill="#FFFFFF" width="1.34" height="0.489"/>
		</g>
		<g>
			
				<rect x="1754.824" y="270.974" transform="matrix(0.7071 0.7071 -0.7071 0.7071 706.1294 -1161.4583)" fill="#FFFFFF" width="0.489" height="1.34"/>
			
				<rect x="1757.448" y="268.351" transform="matrix(0.7071 0.7071 -0.7071 0.7071 705.0428 -1164.0813)" fill="#FFFFFF" width="0.489" height="1.34"/>
		</g>
	</g>
	<g opacity="0.2">
		<g>
			<rect x="1725.309" y="347.362" fill="#FFFFFF" width="0.489" height="1.34"/>
			<rect x="1725.309" y="351.072" fill="#FFFFFF" width="0.489" height="1.34"/>
		</g>
		<g>
			
				<rect x="1723.572" y="348.331" transform="matrix(0.7071 0.7071 -0.7071 0.7071 751.4991 -1117.1279)" fill="#FFFFFF" width="1.34" height="0.489"/>
			
				<rect x="1726.195" y="350.954" transform="matrix(0.7071 0.7071 -0.7071 0.7071 754.1127 -1118.2081)" fill="#FFFFFF" width="1.34" height="0.489"/>
		</g>
		<g>
			<rect x="1723.029" y="349.643" fill="#FFFFFF" width="1.34" height="0.489"/>
			<rect x="1726.738" y="349.643" fill="#FFFFFF" width="1.34" height="0.489"/>
		</g>
		<g>
			
				<rect x="1723.998" y="350.529" transform="matrix(0.7071 0.7071 -0.7071 0.7071 753.3279 -1116.3424)" fill="#FFFFFF" width="0.489" height="1.34"/>
			
				<rect x="1726.621" y="347.906" transform="matrix(0.7071 0.7071 -0.7071 0.7071 752.2415 -1118.9655)" fill="#FFFFFF" width="0.489" height="1.34"/>
		</g>
	</g>
	<g>
		<g>
			<g>
				
					<linearGradient id="SVGID_4_" gradientUnits="userSpaceOnUse" x1="-1147.0541" y1="392.6147" x2="-1111.4727" y2="392.6147" gradientTransform="matrix(-1 0 0 1 640.1299 0)">
					<stop  offset="0" style="stop-color:#E79355"/>
					<stop  offset="0.2531" style="stop-color:#E29054"/>
					<stop  offset="0.5386" style="stop-color:#D58950"/>
					<stop  offset="0.8386" style="stop-color:#BE7C4B"/>
					<stop  offset="1" style="stop-color:#AF7347"/>
				</linearGradient>
				<path fill="url(#SVGID_4_)" d="M1786.732,396.02c0,0,2.615-7.255-4.734-6.788c-7.349,0.467-30.396,2.574-30.396,2.574v4.199
					L1786.732,396.02z"/>
				<path fill="#E79355" d="M1751.525,391.821l-12.014-50.072h26.128c0,0,5.132,6.277,1.4,13.043c0,0,6.686,10.75,1.36,18.215
					c0,0,5.48,9.005,2.06,17.095L1751.525,391.821z"/>
				<path fill="#AF7347" d="M1753.047,391.748c0,0,1.511-12.657-3.388-17.323c0,0,1.633-14.697-3.733-19.596
					c0,0,0.933-11.315-6.415-13.006l12.014,50.064L1753.047,391.748z"/>
				<path fill="#AF7347" d="M1766.281,354.829c0,0-9.926-1.108-19.894,0C1746.387,354.829,1760.798,355.995,1766.281,354.829z"/>
				<path fill="#AF7347" d="M1767.914,372.967c0,0-11.198-0.642-17.788,1.283C1750.125,374.25,1762.315,374.192,1767.914,372.967z"
					/>
				<path fill="#AF7347" d="M1761.906,354.842c0,0,1.225-3.629-0.583-7.012c0,0,0.991,5.333-0.233,7.012
					c0,0,1.808,3.661,1.633,6.344C1762.723,361.186,1763.714,358.879,1761.906,354.842z"/>
				<path fill="#AF7347" d="M1754.12,354.852c0,0,0.912-3.72-1.177-6.937c0,0,1.442,5.23,0.364,7.006c0,0,2.113,3.494,2.167,6.182
					C1755.473,361.104,1756.265,358.721,1754.12,354.852z"/>
				<path fill="#AF7347" d="M1763.073,373.155c0,0,1.729-3.629-0.078-7.012c0,0,0.487,5.333-0.738,7.012
					c0,0,1.808,3.661,1.633,6.344C1763.89,379.499,1764.881,377.192,1763.073,373.155z"/>
				<path fill="#AF7347" d="M1756.453,373.165c0,0,1.252-3.72-0.837-6.937c0,0,1.101,5.23,0.023,7.006c0,0,2.113,3.494,2.167,6.182
					C1757.806,379.417,1758.598,377.034,1756.453,373.165z"/>
				<polygon fill="#CAD8D7" points="1767.03,395.955 1767.03,415.135 1764.006,415.135 1762.956,395.955 				"/>
				<polygon fill="#98A3A2" points="1780.152,415.098 1752.714,413.579 1752.714,416.247 1780.115,416.247 				"/>
				<circle fill="#2A3836" cx="1777.77" cy="418.05" r="1.925"/>
				<circle fill="#2A3836" cx="1755.141" cy="418.05" r="1.925"/>
				<circle fill="#2A3836" cx="1762.956" cy="418.05" r="1.925"/>
				<polygon fill="#98A3A2" points="1767.03,395.955 1767.03,400.204 1763.351,403.25 1762.956,395.955 				"/>
			</g>
			<g>
				<g>
					<path fill="#3F332B" d="M1787.235,413.345c0,0-0.614,3.18-0.151,5.404h14.856c0,0,0.571-3.269-5.915-3.261l-4.161-2.813
						L1787.235,413.345z"/>
					<path fill="#261E18" d="M1787.045,420h4.933l0.061-0.895c0,0,2.068,0.822,4.898,0.822c1.375,0,4.98,0.037,4.98,0.037v-1.215
						h-14.872V420z"/>
					<path fill="#5E4F45" d="M1796.445,415.475c0,0,0.219,2.299,5.367,2.19C1801.812,417.664,1801.103,415.572,1796.445,415.475z"/>
					<path fill="#352B25" d="M1791.902,418.749c0,0-0.144-3.777-4.891-3.799c0,0-0.252,2.548,0.118,3.799H1791.902z"/>
				</g>
				<path fill="#353434" d="M1778.258,380.366c0,0,17.984,0.418,18.262,5.56s-2.502,27.725-2.502,27.725s-3.104,1.601-7.366-0.311
					l0.749-20.652c0,0-0.054-1.897-2.186-2.175s-20.338,2.562-18.37-9.606L1778.258,380.366z"/>
				<g>
					<path fill="#3F332B" d="M1774.448,413.345c0,0-0.614,3.18-0.151,5.404h14.918c0,0,0.51-3.269-5.976-3.261l-4.161-2.813
						L1774.448,413.345z"/>
					<path fill="#261E18" d="M1774.258,420h4.933l0.061-0.895c0,0,2.068,0.822,4.898,0.822c1.375,0,4.98,0.037,4.98,0.037v-1.215
						h-14.872V420z"/>
					<path fill="#5E4F45" d="M1783.658,415.475c0,0,0.219,2.299,5.367,2.19C1789.025,417.664,1788.316,415.572,1783.658,415.475z"/>
					<path fill="#352B25" d="M1779.115,418.749c0,0-0.144-3.777-4.891-3.799c0,0-0.252,2.548,0.119,3.799H1779.115z"/>
				</g>
				<path fill="#4C4A48" d="M1757.949,380.906c0,0-1.352,9.792,2.057,10.236l11.999,0.358l1.721,23.508c0,0,2.752,1.496,7.895-1.006
					l-0.397-24.258c0,0,0.395-7.505-12.315-7.979L1757.949,380.906z"/>
				<path fill="#D4D6D5" d="M1761.809,344.015c2.812-0.613,6.259-0.973,9.826-0.412c-0.023,2.328-0.09,12.378-2.38,20.367
					C1769.255,363.97,1762.828,349.374,1761.809,344.015z"/>
				<polygon fill="#C94949" points="1769.524,346.829 1768.247,349.084 1771.364,362.878 1769.25,365.616 1767.06,363.628 
					1766.849,349.186 1765.739,347.405 1767.319,345.109 				"/>
				<g>
					<path fill="#F4A984" d="M1769.395,342.511l0.094,2.883l-5.696,0.156l-0.123-3.917
						C1766.064,342.718,1768.425,342.627,1769.395,342.511z"/>
					<path fill="#D87C60" d="M1763.67,341.632l-0.095-3.446l5.696-0.157l0.123,4.481
						C1768.425,342.627,1766.064,342.718,1763.67,341.632z"/>
				</g>
				<g>
					<path fill="#353434" d="M1776.907,344.827c0,0-2.633,2.86-1.737,8.615c0.896,5.755,5.343,12.347,6.451,12.69
						c1.108,0.343,10.979,3.407,10.979,3.407s4.703-1.147,2.366-5.438l-10.631-4.309
						C1784.335,359.793,1780.605,348.137,1776.907,344.827z"/>
					<path fill="#F0F2F1" d="M1794.14,364.444c0,0-1.401,0.547-1.629,1.974c-0.162,1.019,0,2.154,0,2.154l1.83,0.578
						c0,0,1.629-0.181,1.972-1.621c0.343-1.439,0.359-2.457-0.395-2.734L1794.14,364.444z"/>
					<path fill="#F4A984" d="M1795.345,365.767c0,0-0.537,0.867-0.563,1.601c-0.027,0.739,0.073,1.182,0.255,1.251
						c0,0,1.495,0.658,3.14,0.581c1.645-0.078,1.652-0.158,2.148,0.017c0.496,0.176,0.848,0.972,1.435,1.16
						c1.099,0.353,2.432-0.741,2.432-0.741s-1.272-1.573-2.991-2.549C1799.482,366.111,1795.345,365.767,1795.345,365.767z"/>
				</g>
				<path fill="#4C4A48" d="M1755.163,346.236c0,0,3.246-1.772,7.197-2.633c1.019,5.359,6.895,20.368,6.895,20.368
					c2.29-7.989,1.813-18.246,1.835-20.573c1.799,0.283,4.023,0.593,5.816,1.43c0,0,2.415,10.845,1.351,35.539
					c0,0-8.026,2.886-20.908,0.429c0,0,1.212-17.295-0.462-24.057C1756.888,356.738,1755.692,350.487,1755.163,346.236z"/>
				<path fill="#F0F2F1" d="M1769.405,342.314c0,0-0.263,1.987-2.086,2.795c0,0-3.394-0.581-3.633-2.799l-1.712,1.671
					c0,0,1.049,3.176,3.679,4.157l1.644-2.506l2.234,2.067c0,0,2.066-2.473,1.889-4.089L1769.405,342.314z"/>
				<path fill="#3F3E3D" d="M1772.844,350.979l0.995,0.903c0,0-2.659,10.458-4.569,14.25c0,0-5.515-9.239-7.252-13.276l0.83-1.317
					l-1.821-0.559c0,0-0.73-3.821-0.526-6.896c0.594-0.176,1.217-0.341,1.859-0.48c1.019,5.359,6.895,20.368,6.895,20.368
					c2.29-7.989,1.813-18.246,1.835-20.573c0.528,0.083,1.107,0.205,1.705,0.356l1.272,6.039L1772.844,350.979z"/>
				<g>
					<path fill="#565453" d="M1755.041,346.235c0,0-3.933,3.184-2.562,8.844c1.37,5.661,3.456,15.768,4.588,16.018
						c1.132,0.249,18.048-0.65,18.048-0.65s1.923-3.405-0.132-5.234l-13.626,0.234
						C1761.357,365.448,1758.497,345.733,1755.041,346.235z"/>
					<path fill="#F0F2F1" d="M1774.501,365.567c0,0-1.472,1.058-1.115,2.458c0.357,1.4,1.219,2.016,1.219,2.016l1.842-0.12
						c0,0,1.296-0.823,1.177-2.298c-0.119-1.475-0.479-2.067-1.281-2.097L1774.501,365.567z"/>
					<path fill="#F4A984" d="M1775.639,366.206c0,0-0.317,0.419-0.246,1.175c0.076,0.811,0.473,1.428,0.667,1.483
						c0,0,1.019,0.761,2.709,0.54c1.689-0.221,1.599-0.471,2.125-0.332c0.526,0.138,1.215,0.666,1.835,0.81
						c1.163,0.27,2.444-0.973,2.444-0.973s-1.447-1.513-3.302-2.371C1780.014,365.68,1775.639,366.206,1775.639,366.206z"/>
				</g>
				<g>
					<g>
						<path fill="#562811" d="M1763.407,325.436c0,0-5.177,0.388-4.583,6.283c-0.216-0.233-0.397-0.478-0.508-0.727
							c-0.308-0.695-0.732-2.155-0.4-4.042C1759.513,325.352,1763.407,325.436,1763.407,325.436z"/>
						<path fill="#6A371A" d="M1757.916,326.949c0.23-1.307,0.822-2.819,2.068-4.425c3.044-3.925,10.676-2.867,12.976-0.96
							c2.3,1.907,0.711,3.556,0.711,3.556s-0.44,0.049-0.936,0.364l-3.426,2.553l-5.901-2.601
							C1763.407,325.436,1759.513,325.352,1757.916,326.949z"/>
					</g>
					<path fill="#A5836B" d="M1763.407,325.436l5.901,2.601l3.426-2.553c0.497-0.314,0.936-0.364,0.936-0.364
						c0.303,1.096,0.222,3.985,0.222,3.985l-12.96,4.165c0,0-1.302-0.685-2.108-1.552
						C1758.23,325.824,1763.407,325.436,1763.407,325.436z"/>
					<g>
						<path fill="#A5836B" d="M1761.357,335.069c0.053-0.69,0.116-1.37-0.131-3.107l0.004,0.01c0.203-0.44,0.372-0.902,0.513-1.367
							c0.076-0.253,0.145-0.507,0.206-0.76c-0.461,5.328,3.144,6.163,3.144,6.163c4.087,1.14,7.371,0.306,8.462-0.049
							c-0.248,1.409-0.671,2.701-1.394,3.691c-0.247,0.339-0.531,0.642-0.853,0.904
							C1769.023,341.205,1763.756,341.423,1761.357,335.069z"/>
						<path fill="#91715A" d="M1761.357,335.069c2.399,6.354,7.666,6.137,9.952,5.486c-0.647,0.525-1.449,0.915-2.46,1.002
							c-6.498,0.555-7.73-3.536-7.872-5.437C1761.147,336.036,1761.304,335.76,1761.357,335.069z"/>
						<path fill="#F4A984" d="M1765.093,336.007c0,0-3.605-0.834-3.144-6.163c1.355-1.898,1.458-4.409,1.458-4.409
							c5.741,1.339,9.327,0.048,9.327,0.048c0.109,1.731,1.158,3.622,1.158,3.622c-0.016,2.247,0.11,4.308-0.338,6.853
							C1772.464,336.313,1769.181,337.147,1765.093,336.007z"/>
						<path fill="#F4A984" d="M1760.566,330.377l0.66,1.585c0.495,3.475,0.092,3.992-0.249,4.157
							c-0.287-0.712-0.283-0.782-0.283-0.782s-2.211,0.361-2.497-3.26C1757.997,329.557,1760.566,330.377,1760.566,330.377z"/>
					</g>
					<path fill="#935C41" d="M1771.1,320.583c0,0-2.468,1.846-7.241,1.734c0,0,4.547,2.2,10.097,0.424
						C1773.957,322.741,1773.376,321.372,1771.1,320.583z"/>
				</g>
			</g>
			<g>
				<polygon fill="#E2DCDC" points="1827.001,369.98 1829.994,349.178 1800.717,349.178 1799.265,369.982 				"/>
				<polygon fill="#C9C1C1" points="1800.717,349.178 1799.224,349.178 1798.281,368.68 1786.001,367.967 1786.001,369.937 
					1799.291,369.978 				"/>
				
					<ellipse transform="matrix(-0.9921 -0.1255 0.1255 -0.9921 3572.2642 935.8115)" fill="#FFFFFF" cx="1815.609" cy="355.385" rx="1.867" ry="2.572"/>
			</g>
			<g>
				<rect x="1725.958" y="369.928" fill="#C59061" width="118.835" height="3.753"/>
				<polygon fill="#9D8A79" points="1735.176,373.681 1728.246,419.686 1731.958,419.686 1742.209,373.681 				"/>
				<polygon fill="#9D8A79" points="1836.741,373.681 1843.671,419.686 1839.959,419.686 1829.708,373.681 				"/>
				<rect x="1731.24" y="373.681" fill="#60544B" width="108.272" height="2.641"/>
			</g>
		</g>
		<path fill="#191A33" d="M1769.385,339.055l-0.969,0.022c-1.558,0.035-3.06-0.598-4.122-1.738l-4.352-4.672
			c-0.139-0.149-0.131-0.383,0.018-0.522c0.149-0.139,0.383-0.131,0.522,0.019l4.352,4.672c0.918,0.986,2.218,1.534,3.565,1.503
			l0.969-0.022c0.204-0.005,0.373,0.157,0.378,0.361C1769.751,338.881,1769.589,339.05,1769.385,339.055z"/>
		<path fill="#191A33" d="M1766.423,320.477c-3.369,0.077-6.048,2.88-5.971,6.249l0.113,4.966c0.005,0.204-0.157,0.373-0.361,0.378
			c-0.204,0.005-0.373-0.157-0.378-0.361l-0.113-4.966c-0.086-3.776,2.923-7.237,6.693-7.004c0.909,0.056,3.603,0.531,3.603,0.531"
			/>
		<circle fill="#191A33" cx="1760.212" cy="332.415" r="2.054"/>
		<circle fill="#C9B4A6" cx="1760.212" cy="332.415" r="1.263"/>
	</g>
</g>
</svg>
