<?xml version="1.0" encoding="utf-8"?>
<!-- Generator: Adobe Illustrator 17.0.0, SVG Export Plug-In . SVG Version: 6.00 Build 0)  -->
<!DOCTYPE svg PUBLIC "-//W3C//DTD SVG 1.1//EN" "http://www.w3.org/Graphics/SVG/1.1/DTD/svg11.dtd">
<svg version="1.1" id="Layer_1" xmlns="http://www.w3.org/2000/svg" xmlns:xlink="http://www.w3.org/1999/xlink" x="0px" y="0px"
	 width="640px" height="270px" viewBox="1457.524 150 640 270" enable-background="new 1457.524 150 640 270" xml:space="preserve">
<path fill="#F6F7F7" d="M2102.484,136.191V296.95l-247.404,97.012c0,0-61.271,25.22-72.875,25.22
	c-15.047,0.348-48.893-13.925-48.893-13.925l-280.747-110.009V135.804L2102.484,136.191z"/>
<path fill="#4975E6" d="M2102.484,136.191v123.16l-247.404,97.012c0,0-61.271,25.22-72.875,25.22
	c-15.047,0.348-48.893-13.925-48.893-13.925l-280.747-110.009V135.804L2102.484,136.191z"/>
<linearGradient id="SVGID_1_" gradientUnits="userSpaceOnUse" x1="1523.4581" y1="150.5865" x2="2173.3777" y2="150.5865" gradientTransform="matrix(1 0 0 -1 -76 400)">
	<stop  offset="0" style="stop-color:#4975E6"/>
	<stop  offset="1" style="stop-color:#8B54E8"/>
</linearGradient>
<path fill="url(#SVGID_1_)" d="M2102.484,136.191v104.594l-247.404,97.012c0,0-61.271,25.22-72.875,25.22
	c-15.047,0.348-48.893-13.925-48.893-13.925l-280.747-110.009V135.804L2102.484,136.191z"/>
<g>
	<g opacity="0.2">
		<g>
			<g>
				<g>
					<path fill="#E3E3E9" d="M1802.742,277.636h-0.801c0-8.057,6.555-14.611,14.611-14.611c3.224,0,6.281,1.029,8.84,2.977
						l-0.485,0.638c-2.418-1.84-5.308-2.813-8.355-2.813C1808.937,263.826,1802.742,270.021,1802.742,277.636z"/>
				</g>
				<g>
					<path fill="#E3E3E9" d="M1816.552,292.247c-2.377,0-4.736-0.584-6.823-1.688l0.375-0.708c1.972,1.043,4.202,1.595,6.449,1.595
						c7.615,0,13.81-6.195,13.81-13.81c0-2.75-0.806-5.407-2.332-7.682l0.665-0.446c1.614,2.407,2.468,5.218,2.468,8.128
						C1831.163,285.693,1824.609,292.247,1816.552,292.247z"/>
				</g>
				<g>
					<path fill="#E3E3E9" d="M1816.555,286.973c-0.086,0-0.172-0.001-0.259-0.004c-2.357-0.064-4.584-1.007-6.269-2.654l0.56-0.573
						c1.541,1.506,3.576,2.367,5.731,2.426c4.697,0.13,8.637-3.595,8.766-8.3c0.041-1.503-0.315-2.991-1.029-4.304l0.704-0.383
						c0.781,1.437,1.171,3.065,1.126,4.709C1825.747,282.951,1821.586,286.972,1816.555,286.973z M1808.019,277.403l-0.801-0.022
						c0.14-5.146,4.448-9.221,9.588-9.078c1.626,0.044,3.216,0.513,4.598,1.355l-0.417,0.684c-1.263-0.769-2.716-1.198-4.203-1.238
						C1812.079,268.976,1808.148,272.698,1808.019,277.403z"/>
				</g>
				<g>
					<path fill="#E3E3E9" d="M1816.552,281.918c-2.361,0-4.282-1.921-4.282-4.282s1.921-4.282,4.282-4.282
						c0.207,0,0.415,0.015,0.619,0.044l-0.115,0.793c-0.166-0.024-0.335-0.036-0.504-0.036c-1.92,0-3.481,1.562-3.481,3.481
						s1.562,3.481,3.481,3.481c1.92,0,3.482-1.562,3.482-3.481c0-0.149-0.01-0.3-0.029-0.449l0.794-0.102
						c0.023,0.182,0.035,0.367,0.035,0.55C1820.834,279.997,1818.913,281.918,1816.552,281.918z"/>
				</g>
				<g>
					
						<rect x="1824.321" y="258.609" transform="matrix(0.6811 0.7321 -0.7321 0.6811 779.4409 -1249.9016)" fill="#E3E3E9" width="0.801" height="22.62"/>
				</g>
			</g>
			<g>
				<polygon fill="#E3E3E9" points="1834.052,266.736 1829.575,265.358 1828.912,260.686 1829.706,260.574 1830.296,264.742 
					1834.287,265.97 				"/>
			</g>
		</g>
		<g>
			<g>
				<path fill="#E3E3E9" d="M1716.295,289.349h-4.033v-4.033h4.033V289.349z M1713.063,288.548h2.431v-2.431h-2.431V288.548z"/>
			</g>
			<g>
				<path fill="#E3E3E9" d="M1723.131,289.349h-4.033v-4.033h4.033V289.349z M1719.899,288.548h2.431v-2.431h-2.431V288.548z"/>
			</g>
			<g>
				<path fill="#E3E3E9" d="M1729.968,289.349h-4.033v-4.033h4.033V289.349z M1726.736,288.548h2.431v-2.431h-2.431V288.548z"/>
			</g>
			<g>
				<path fill="#E3E3E9" d="M1729.968,296.435h-4.033v-4.033h4.033V296.435z M1726.736,295.633h2.431v-2.431h-2.431V295.633z"/>
			</g>
			<g>
				<path fill="#E3E3E9" d="M1716.295,296.435h-4.033v-4.033h4.033V296.435z M1713.063,295.633h2.431v-2.431h-2.431V295.633z"/>
			</g>
			<g>
				<path fill="#E3E3E9" d="M1723.131,296.435h-4.033v-4.033h4.033V296.435z M1719.899,295.633h2.431v-2.431h-2.431V295.633z"/>
			</g>
			<g>
				<rect x="1708.53" y="279.164" fill="#E3E3E9" width="30.533" height="0.801"/>
			</g>
			<g>
				<rect x="1708.53" y="281.774" fill="#E3E3E9" width="30.533" height="0.801"/>
			</g>
			<g>
				<polygon fill="#E3E3E9" points="1708.036,301.655 1708.036,270.028 1714.775,270.028 1714.775,270.829 1708.837,270.829 
					1708.837,300.854 1729.987,300.852 1729.987,301.653 				"/>
			</g>
			<g>
				<polygon fill="#E3E3E9" points="1741.403,283.903 1740.602,283.903 1740.602,270.829 1734.415,270.829 1734.415,270.028 
					1741.403,270.028 				"/>
			</g>
			<g>
				<rect x="1719.67" y="270.028" fill="#E3E3E9" width="10.255" height="0.801"/>
			</g>
			<g>
				<path fill="#E3E3E9" d="M1716.64,274.185c-1.043,0-1.892-0.849-1.892-1.892v-3.17c0-1.043,0.849-1.892,1.892-1.892
					c1.043,0,1.892,0.849,1.892,1.892v3.17C1718.532,273.336,1717.683,274.185,1716.64,274.185z M1716.64,268.032
					c-0.602,0-1.091,0.489-1.091,1.091v3.17c0,0.602,0.489,1.091,1.091,1.091c0.602,0,1.091-0.489,1.091-1.091v-3.17
					C1717.731,268.522,1717.242,268.032,1716.64,268.032z"/>
			</g>
			<g>
				<path fill="#E3E3E9" d="M1733.047,274.185c-1.043,0-1.892-0.849-1.892-1.892v-3.17c0-1.043,0.849-1.892,1.892-1.892
					c1.043,0,1.892,0.849,1.892,1.892v3.17C1734.94,273.336,1734.091,274.185,1733.047,274.185z M1733.047,268.032
					c-0.602,0-1.091,0.489-1.091,1.091v3.17c0,0.602,0.489,1.091,1.091,1.091s1.091-0.489,1.091-1.091v-3.17
					C1734.138,268.522,1733.649,268.032,1733.047,268.032z"/>
			</g>
			<g>
				<path fill="#E3E3E9" d="M1716.718,276.955c-1.96,0-3.555-1.595-3.555-3.555c0-0.051,0.001-0.102,0.003-0.152l0.8,0.035
					c-0.002,0.039-0.003,0.078-0.003,0.117c0,1.518,1.235,2.753,2.754,2.753c1.518,0,2.754-1.235,2.754-2.753h0.801
					C1720.272,275.36,1718.678,276.955,1716.718,276.955z"/>
			</g>
			<g>
				<path fill="#E3E3E9" d="M1732.939,276.955c-1.96,0-3.555-1.595-3.555-3.555c0-0.05,0.001-0.101,0.003-0.15l0.8,0.031
					c-0.002,0.04-0.002,0.079-0.002,0.119c0,1.518,1.235,2.753,2.753,2.753c1.518,0,2.754-1.235,2.754-2.753h0.801
					C1736.493,275.36,1734.899,276.955,1732.939,276.955z"/>
			</g>
		</g>
		<g>
			<polygon fill="#E3E3E9" points="1819.114,343.988 1818.669,341.997 1816.744,342.376 1816.589,341.59 1819.28,341.061 
				1819.896,343.813 			"/>
		</g>
		<g>
			<path fill="#E3E3E9" d="M1756.621,264.83l-4.055-0.581l0.565-3.95l4.056,0.581L1756.621,264.83z M1753.472,263.57l2.47,0.354
				l0.338-2.364l-2.47-0.353L1753.472,263.57z"/>
		</g>
		<g>
			<g>
				
					<rect x="1695.579" y="286.491" transform="matrix(0.9194 0.3932 -0.3932 0.9194 249.4385 -643.84)" fill="#E3E3E9" width="1.159" height="0.801"/>
			</g>
			<g>
				
					<rect x="1697.285" y="285.642" transform="matrix(0.9194 0.3933 -0.3933 0.9194 249.3987 -644.6591)" fill="#E3E3E9" width="0.801" height="1.137"/>
			</g>
			<g>
				
					<rect x="1697.811" y="287.432" transform="matrix(0.9195 0.3932 -0.3932 0.9195 249.9403 -644.5588)" fill="#E3E3E9" width="1.096" height="0.801"/>
			</g>
			<g>
				
					<rect x="1696.321" y="287.865" transform="matrix(0.9195 0.3931 -0.3931 0.9195 249.9726 -643.7328)" fill="#E3E3E9" width="0.801" height="1.202"/>
			</g>
		</g>
		<g>
			<path fill="#E3E3E9" d="M1826.864,364.364l-3.198-0.458l0.447-3.121l3.198,0.458L1826.864,364.364z M1824.572,363.227
				l1.613,0.231l0.22-1.535l-1.613-0.231L1824.572,363.227z"/>
		</g>
		<g>
			<polygon fill="#E3E3E9" points="1677.918,269.776 1677.265,269.312 1679.344,266.392 1682.403,268.454 1681.955,269.118 
				1679.543,267.493 			"/>
		</g>
		<g>
			<g>
				
					<rect x="1844.608" y="275.806" transform="matrix(0.1597 0.9872 -0.9872 0.1597 1823.4913 -1588.8822)" fill="#E3E3E9" width="0.801" height="1.636"/>
			</g>
			<g>
				
					<rect x="1845.513" y="274.257" transform="matrix(0.1597 0.9872 -0.9872 0.1597 1822.5383 -1591.8239)" fill="#E3E3E9" width="1.605" height="0.801"/>
			</g>
			<g>
				
					<rect x="1847.943" y="275.31" transform="matrix(0.1597 0.9872 -0.9872 0.1597 1825.7229 -1592.6285)" fill="#E3E3E9" width="0.801" height="1.547"/>
			</g>
			<g>
				
					<rect x="1846.02" y="277.675" transform="matrix(0.1598 0.9872 -0.9872 0.1598 1826.2953 -1589.4969)" fill="#E3E3E9" width="1.697" height="0.801"/>
			</g>
		</g>
		<g>
			<path fill="#E3E3E9" d="M1866.582,302.988l-3.199-0.458l0.447-3.121l3.198,0.458L1866.582,302.988z M1864.29,301.851l1.612,0.231
				l0.22-1.535l-1.613-0.231L1864.29,301.851z"/>
		</g>
	</g>
	<g>
		<g opacity="0.1">
			<path fill="#0E0E0E" d="M1876.944,376.037l-33.777,19.794c0.881-1.63,0.388-3.354-1.591-4.497
				c-3.029-1.748-8.418-1.501-11.973,0.553l-9.101,5.255c-3.557,2.052-3.987,5.162-0.957,6.911c2.074,1.198,5.246,1.437,8.186,0.823
				l-3.998,2.343l18.695,10.695l53.781-30.385L1876.944,376.037z"/>
			<path fill="#0E0E0E" d="M1833.932,389.502l20.467-11.815c7.993-4.616,8.962-11.61,2.151-15.542
				c-6.814-3.933-18.927-3.374-26.922,1.242l-13.752,7.94c-0.157-0.037-0.305-0.086-0.466-0.115l27.167-15.35l-19.265-11.491
				l-53.211,31.183l18.695,10.695l5.558-3.14c0.31,0.663,0.883,1.274,1.745,1.772c1.72,0.993,4.2,1.321,6.673,1.062
				c0.561,1.806,1.951,3.478,4.241,4.801C1813.824,394.679,1825.936,394.119,1833.932,389.502z"/>
		</g>
		<g>
			<polygon fill="#3A3837" points="1774.37,361.737 1769.548,375.699 1770.134,376.037 1777.094,364.14 			"/>
			<polygon fill="#3A3837" points="1839.449,343.587 1842.688,355.625 1842.026,356.007 1836.708,345.582 			"/>
			<polygon fill="#3A3837" points="1787.443,372.3 1788.244,386.394 1789.183,386.394 1790.923,372.3 			"/>
			<polygon fill="#DC6833" points="1770.134,357.716 1788.775,368.477 1842.688,337.178 1823.626,326.171 			"/>
			<polygon fill="#C1502C" points="1770.134,357.716 1767.47,337.73 1770.134,339.267 1772.797,359.253 			"/>
			<polygon fill="#DC6833" points="1767.47,337.73 1821.384,306.43 1824.047,307.968 1770.134,339.267 			"/>
			<polygon fill="#F37E55" points="1824.047,307.968 1826.71,327.953 1772.797,359.253 1770.134,339.267 			"/>
			<polygon fill="#C1502C" points="1770.134,357.716 1770.134,363.865 1788.773,374.627 1788.775,368.477 			"/>
			<polygon fill="#B43626" points="1788.773,374.627 1842.688,343.326 1842.688,337.178 1788.775,368.477 			"/>
		</g>
		<g>
			<g>
				<path fill="#EADBDA" d="M1807.187,343.234c-0.085,1.183-1.113,2.07-2.295,1.988l0,0c-1.18-0.088-2.071-1.114-1.984-2.297
					l-0.393-10.01c0.107-1.499-0.615-3.312,3.483-3.018l0,0c1.18,0.086,2.068,1.114,1.985,2.297L1807.187,343.234z"/>
				<g>
					<path fill="#F5B47E" d="M1809.865,350.166l0.669,0.716c0,0,0.544,1.646,1.26,2.371c0,0,0.879,1.876,0.931,0.29
						c0,0-0.008-0.188-0.24-0.939c0,0,1.401,0.927,1.471,2.076c0.07,1.149,0.661,1.072,1.027,0.086
						c0.369-0.985,0.728-1.882-0.737-3.548c-1.466-1.667-1.525-1.609-2.21-1.892l-0.593-0.635L1809.865,350.166z"/>
					<path fill="#D64729" d="M1810.711,347.432l1.592,1.772c0,0-0.567,1.719-1.893,1.663l-1.568-1.699
						C1808.841,349.167,1810.381,348.515,1810.711,347.432z"/>
					<path fill="#EADBDA" d="M1808.679,349.378l-5.271-4.932c-0.753-0.892,2.476-3.609,3.227-2.719l4.306,5.612
						C1811.693,348.236,1809.429,350.275,1808.679,349.378z"/>
				</g>
			</g>
			<path fill="#151011" d="M1813.854,370.716c0,0,1.913,2.87,3.573,3.492c1.661,0.623,2.007,2.457-0.588,2.214
				c-2.595-0.241-3.708-0.368-5.299-1.959v0.519l-2.249-1.074l0.148-3.217l2.461-1.686L1813.854,370.716z"/>
			<g>
				<path fill="#191818" d="M1813.238,356.064c-0.662,1.117-1.589,0.733-3.777,1.658c-2.188,0.924-19.387-2.129-19.387-2.129
					c-1.117-0.663,0.27-4.345,0.932-5.462l0.634-1.07c0.664-1.119,2.435-2.327,3.552-1.663l17.855,4.371
					c1.12,0.664,1.488,2.108,0.826,3.227L1813.238,356.064z"/>
				<path fill="#191818" d="M1814.203,370.258c0,1.298-4.911,1.294-4.911-0.006c0,0-2.239-12.956-1.061-13.865
					c1.348-1.043,1.561-4.587,2.858-4.587h0.759c1.3,0,2.514,1.462,2.355,2.353C1813.405,358.618,1814.203,370.258,1814.203,370.258
					z"/>
			</g>
			<g>
				<path fill="#151011" d="M1802.4,379.155c0,0,1.437,2.491,3.098,3.113c1.661,0.622,2.005,2.456-0.59,2.214
					c-2.595-0.241-3.567-0.594-5.158-2.185v0.519l-2.248-1.074l0.148-3.217l2.803-1.228L1802.4,379.155z"/>
				<g>
					<path fill="#2D2D2D" d="M1798.124,364.576c-5.401-0.345-13.66-7.956-13.66-7.956c-2.229-1.468-2.151-5.055-1.489-6.173
						l3.143,0.577c0.663-1.117,4.596-0.948,5.713-0.285l10.931,9.743C1805.081,365.207,1799.935,364.691,1798.124,364.576z"/>
					<path fill="#2D2D2D" d="M1802.359,379.034c-0.113,1.296-4.975,0.966-4.86-0.329c0,0-2.512-13.093,0.003-15.707
						c0.906-0.943,6.168-2.288,5.746-0.159C1802.151,368.375,1802.359,379.034,1802.359,379.034z"/>
				</g>
			</g>
			<path fill="#C03728" d="M1782.566,350.652c0,0,7.961-17.921,11.962-21.035c0.835-0.288,4.811-2.16,9.818-1.629
				c2.522,0.269,3.755,5.208,1.813,9.173c-1.939,3.964-6.983,9.74-8.848,14.448C1797.312,351.609,1792.514,355.736,1782.566,350.652
				z"/>
			<path fill="#E2A173" d="M1802.462,328.162l1.966-3.751l2.618-0.403l1.151,3.585l-2.406,4.897l-2.268,1.596
				C1803.524,334.086,1801.212,331.16,1802.462,328.162z"/>
			<g>
				<path fill="#EADBDA" d="M1802.611,327.8c0,0-0.686,4.186,1.006,5.972c0,0,2.269-1.611,2.85-3.97l0.206,0.504
					c0,0-0.222,2.949-1.966,5.988c-0.075,0.127-1.183-2.209-1.183-2.209s-3.025,1.281-3.022,1.155
					c0.036-2.989,0.425-6.174,1.294-7.335L1802.611,327.8z"/>
			</g>
			<path fill="#F5B47E" d="M1814.649,323.051c0,0-0.596,2.73-1.132,4.201c-0.536,1.473-1.615,6.845-4.77,5.299
				c0,0-2.57-1.235-2.185-4.495l-1.909-1.887c0,0-0.09-5.882,2.963-6.621C1810.669,318.803,1813.426,319.098,1814.649,323.051z"/>
			<path fill="#BAA230" d="M1805.889,327.09c0,0-1.35-1.394,0.497-2.715c0,0,1.117-0.222,1.325,1.449l-0.042,0.486l0.368,0.032
				c0,0,0.448-1.731,1.148-2.363c0.702-0.633,3.654,0.814,5.421-0.463c1.77-1.281-0.219-5.062-4.201-5.425
				c-2.611-0.237-5.802-0.412-6.223,4.355c-0.006,0.048-0.999,4.342-0.999,4.342l0.975,0.947L1805.889,327.09z"/>
			<path fill="#87762E" d="M1812.669,329.815c0,0-5.086,0.753-4.741-3.031l-0.307-0.086l-1.282,2.639c0,0,0.407,3.328,3.811,3.662
				C1813.556,333.332,1812.585,331.099,1812.669,329.815z"/>
			<path fill="#EADBDA" d="M1804.088,346.35c0.505,1.552,1,2.808-0.013,3.625l-0.776,2.04c-2.529-0.708-2.94-2.661-3.913-4.416
				l-4.563-9.096c-0.369-0.159-2.703-5.032-2.019-6.148l0.159-0.127c1.012-0.815,5.947,2.678,7.082,4.092L1804.088,346.35z"/>
			<g>
				<path fill="#F5B47E" d="M1813.721,355.13l1.031,0.574c0,0,0.805,1.327,1.798,1.605c0.991,0.278,2.599,0.138,3.127-0.622
					c0.53-0.757,0.323-1.666-0.219-2.384c0,0-0.917-0.424-1.248-0.107c0,0-1.24-0.15-0.71-0.583c0,0,1.247-0.173,1.449-0.583
					c0,0-0.137-0.775-0.431-0.638c-0.297,0.134-0.763,0.24-1.594,0.245c-0.831,0.003-1.507,0.102-1.824,0.417l-0.599-0.204
					L1813.721,355.13z"/>
				<path fill="#D64729" d="M1813.229,351.987l1.718,0.759c0,0,0.769,2.023-0.776,3.069l-1.625-0.745
					C1812.546,355.069,1813.799,353.05,1813.229,351.987z"/>
				<path fill="#EADBDA" d="M1812.518,355.332l-9.219-3.318c-1.03-0.144-0.051-5.145,0.977-5.001l9.066,4.847
					C1814.369,352.004,1813.546,355.476,1812.518,355.332z"/>
			</g>
		</g>
		<g>
			<g>
				<path fill="#921B1F" d="M1834.767,328.05c-1.13,0.219-2.289-0.407-2.591-1.402l-5.199-9.735
					c-0.302-0.992,0.584-2.881,1.715-3.104l0,0c1.13-0.219,2.293,0.407,2.593,1.402l4.268,10.804
					C1835.852,327.011,1835.898,327.828,1834.767,328.05L1834.767,328.05z"/>
				<path fill="#E8A675" d="M1833.331,362.539c0,0,1.122,3.95,3.442,4.78c2.319,0.833,0.316,1.99-0.132,2.058
					c-0.45,0.072-2.764,0.241-4.2-1.258c-1.438-1.501-2.755-2.456-2.755-2.456s0.467-2.574,1.234-4.062l0.662-0.405
					L1833.331,362.539z"/>
				<path fill="#7D1C1D" d="M1836.635,369.394c-0.45,0.07-2.763,0.239-4.199-1.261c-1.439-1.499-2.755-2.456-2.755-2.456
					s-0.334-1.774,0.522-2.914c0.169,0.884-0.194,1.949,2.74,3.978c1.866,1.291,2.744,0.787,3.141,0.236
					c0.214,0.146,0.44,0.27,0.685,0.359C1839.088,368.168,1837.085,369.322,1836.635,369.394z"/>
				<path fill="#E8A675" d="M1833.331,362.539c-0.083,1.298-2.497,0.682-2.412-0.613c0,0-2.533-13.157,0-16.296
					c0.917-2.162,0.493-1.506,1.791-1.422l1.031-0.345c1.958-0.395,2.733,1.848,1.605,5.212
					C1833.189,355.507,1833.331,362.539,1833.331,362.539z"/>
				<path fill="#F5B47E" d="M1829.927,363.707c-0.198,1.283-2.659,0.985-2.461-0.299c0,0-4.41-13.278-1.007-17.118
					c0.656-0.739,0.84-1.109,1.876-1.109h0.457c1.285,0.199,2.802,0.846,1.806,3.622
					C1828.858,353.645,1829.927,363.707,1829.927,363.707z"/>
				<path fill="#343433" d="M1814.05,332.488c0,0-5.785,5.844-0.971,10.817c3.177,3.281,12.091,6.619,12.091,6.619
					s7.406-5.487,9.973-5.758c0,0-4.596-4.232-11.006-7.267c0,0,0.254-2.648-0.182-4.108c-0.436-1.462-3.596-1.353-3.596-1.353
					L1814.05,332.488z"/>
				<path fill="#B02326" d="M1828.638,312.516c0,0,1.799,1.466,2.188,5.983c0.5,5.783-0.247,6.726-2.958,8.202
					c0,0-3.722,6.855-3.578,8.236c0,0-5.286,1.608-10.239-2.449c0,0,2.714-2.827,3.454-5.986c1.146-4.888-0.13-11.13,2.083-12.231
					C1824.49,311.825,1828.638,312.516,1828.638,312.516z"/>
				<path fill="#D99E73" d="M1824.304,312.657l2.099-3.601l1.185-3.025l2.201,3.05l-0.947,5.366l-1.532,3.142
					C1827.31,317.589,1824.044,315.895,1824.304,312.657z"/>
				<g>
					<path fill="#FFFFFF" d="M1824.545,312.585c0,0,0.406,3.741,2.691,4.661c0,0,1.39-2.411,0.937-4.795l0.399,0.375
						c0,0,1.901,1.311-1.201,7.11c0,0-4.196-4.233-3.558-7.17L1824.545,312.585z"/>
				</g>
				<path fill="#F5B47E" d="M1829.927,363.707c0,0,1.367,4.471,3.687,5.303c2.32,0.83,0.317,1.987-0.132,2.058
					c-0.449,0.07-2.763,0.238-4.199-1.261c-1.437-1.501-2.755-2.456-2.755-2.456s0.303-2.707,0.939-3.944l0.956-0.52
					L1829.927,363.707z"/>
				<path fill="#A52425" d="M1833.478,371.05c-0.449,0.069-2.763,0.24-4.2-1.261c-1.437-1.501-2.754-2.454-2.754-2.454
					s-0.335-1.774,0.521-2.914c0.17,0.881-0.196,1.948,2.74,3.976c1.866,1.29,2.744,0.786,3.14,0.239
					c0.214,0.142,0.44,0.268,0.686,0.356C1835.931,369.824,1833.928,370.981,1833.478,371.05z"/>
				<path fill="#775221" d="M1826.447,302.711c0.113-0.564-0.164-1.383-0.328-1.905c-0.285-0.905-0.852-1.524-1.83-1.586
					c-2.046-0.13-3.528,1.327-4.244,3.123c-1.685,4.215,0.265,8.606,1.651,12.579c0.275,0.791,0.473,1.601,0.632,2.42
					c0.101,0.536,0.185,1.075,0.252,1.618c0.06,0.488,0.106,0.974,0.134,1.464c0.016,0.252,0.025,0.507,0.034,0.759
					c0.004,0.107,0.088,0.708,0.02,0.764c0.001-0.003,3.509-2.94,2.786-6.299c-0.725-3.36-1.531-5.156-0.646-6.737
					C1825.795,307.329,1825.581,307.029,1826.447,302.711z"/>
				<path fill="#F5B47E" d="M1833.164,304.35c0,0,0.152,2.793,0.025,4.35c-0.123,1.563-1.602,6.094-2.705,5.964
					c0,0-3.682-0.313-4.023-4.004l-2.104-0.647c0,0-1.648-5.646,1.097-7.17C1828.201,301.313,1830.938,300.862,1833.164,304.35z"/>
				<path fill="#9E6C32" d="M1832.529,304.499c0,0-2.397,2.829-5.196,3.612c0,0-0.457-1.374-1.416-0.393
					c-0.959,0.979-0.302,2.547,0.545,2.944c0,0-1.01,1.13-1.672,1.598c0,0-5.169-7.922,1.74-10.897
					c5.443-2.342,8.569,3.265,6.66,7.338C1833.189,308.701,1833.576,305.493,1832.529,304.499z"/>
			</g>
			<g>
				<path fill="#F5B47E" d="M1838.458,319.628c0.31-0.312,0.824-0.847,1.208-1.036c0.546-0.268,0.932-0.264,1.431-0.602
					c0.338-0.227,0.923-0.527,1.098-0.916c0.163-0.365,0.627,0.426,0.077,0.881c-0.2,0.165-0.31,0.333-0.391,0.49
					c0.553,0.13,1.12,0.192,1.636-0.413c2.237-2.614,2.286-0.202,2.286-0.202c-0.809,1.994-1.402,2.054-2.118,2.378
					c-1.05,0.477-3.654,0.581-3.654,0.581l-0.647,1.133l-1.746-0.828c0.145-0.301,0.295-0.604,0.441-0.9
					C1838.192,319.97,1838.301,319.781,1838.458,319.628z"/>
				<path fill="#FFFFFF" d="M1836.541,321.721l1.51-1.788c0,0,1.169-0.236,2.12,1.39l-1.479,2.1
					C1838.692,323.424,1838.509,321.611,1836.541,321.721z"/>
				<path fill="#921B1F" d="M1838.989,323.185l-3.11,4.992c-0.737,0.876-1.965,0.523-2.756-0.146l0,0
					c-0.79-0.669-0.783-1.184-0.043-2.059l3.623-4.672C1837.441,320.426,1839.725,322.309,1838.989,323.185z"/>
			</g>
			<path fill="#CC444A" d="M1826.392,330.922c0.533,0.879,1.39,0.832,2.407,0.215l0.449-0.374c1.022-0.616,0.597-1.354,0.063-2.235
				l-6.146-11.469c-0.531-0.881-2.991-2.637-4.012-2.022l-0.443,0.666c-1.038,2.036-0.173,3.625,0.355,4.503L1826.392,330.922z"/>
			<g>
				<path fill="#F5B47E" d="M1838.297,334.759c0.035,0.018,0.171-0.021,0.208-0.026c0.189-0.018,0.382-0.028,0.572-0.023
					c0.594,0.009,1.146,0.063,1.721,0.134c0.264,0.03,0.496-0.09,0.768-0.048c0.292,0.048,0.217,0.291,0.084,0.484
					c0.527,0.272,2.613,1.626,1.532,2.701c-0.729,0.728-3.022,0.573-3.865,0.134c-1.477-0.765-1.477-0.765-1.965-1.379l-0.787-0.419
					l0.846-2.029L1838.297,334.759z"/>
				<g>
					<path fill="#FFFFFF" d="M1836.989,333.746l-1.499,2.366l2.05,1.114c0,0,1.454-0.934,1.437-2.417L1836.989,333.746z"/>
					<path fill="#CC444A" d="M1826.406,329.692c-0.574,0.86,0.677,2.176,1.329,2.607l8.315,4.297
						c0.644,0.433,2.398-2.123,1.753-2.553l-7.986-4.86c-0.643-0.43-2.322-0.847-2.899,0.014L1826.406,329.692z"/>
				</g>
			</g>
		</g>
		<g>
			<g>
				<g>
					<polygon fill="#3A3837" points="1810.295,370.472 1811.168,384.069 1811.663,384.069 1813.292,370.763 					"/>
					<polygon fill="#3A3837" points="1820.88,376.682 1822.503,390.781 1822.901,390.781 1824.125,376.689 					"/>
					<path fill="#686667" d="M1821.471,377.505c-0.787-0.456-0.787-1.194,0-1.64c0.788-0.445,1.277-0.444,2.064,0.003
						c0.786,0.447,0.786,1.184,0,1.64C1822.748,377.961,1822.259,377.959,1821.471,377.505z"/>
					<path fill="#686667" d="M1810.886,371.295c-0.788-0.454-0.788-1.192,0-1.638c0.786-0.448,1.103-0.451,1.89-0.004
						c0.789,0.447,0.789,1.184,0,1.639C1811.99,371.747,1811.673,371.75,1810.886,371.295z"/>
				</g>
				<g>
					<polygon fill="#3A3837" points="1841.579,352.314 1842.451,365.911 1842.946,365.911 1844.576,352.604 					"/>
					<polygon fill="#3A3837" points="1852.163,358.523 1853.786,372.623 1854.185,372.623 1855.409,358.531 					"/>
					<path fill="#686667" d="M1852.754,359.346c-0.788-0.455-0.788-1.193,0-1.64c0.788-0.446,1.276-0.444,2.064,0.003
						c0.786,0.446,0.786,1.184,0,1.64C1854.031,359.802,1853.542,359.8,1852.754,359.346z"/>
					<path fill="#686667" d="M1842.169,353.136c-0.789-0.455-0.789-1.192,0-1.638c0.786-0.448,1.103-0.451,1.89-0.004
						c0.788,0.447,0.788,1.184,0,1.639C1843.273,353.589,1842.956,353.592,1842.169,353.136z"/>
				</g>
			</g>
			<g>
				<path opacity="0.3" fill="#51A29C" d="M1810.845,365.12c-7.995,4.617-8.962,11.612-2.151,15.543
					c6.812,3.932,18.926,3.375,26.92-1.242l20.467-11.817c7.994-4.615,8.962-11.608,2.151-15.541
					c-6.813-3.933-18.927-3.373-26.921,1.243L1810.845,365.12z"/>
				<path opacity="0.3" fill="#51A29C" d="M1810.845,363.539c-7.995,4.615-8.962,11.608-2.151,15.54
					c6.812,3.935,18.926,3.375,26.92-1.242l20.467-11.815c7.994-4.615,8.962-11.609,2.151-15.541
					c-6.813-3.933-18.927-3.374-26.921,1.242L1810.845,363.539z"/>
			</g>
		</g>
		<g>
			<polygon fill="#AAAAAA" points="1805.379,372.276 1814.249,367.153 1827.144,374.599 1818.447,379.822 			"/>
			<polygon fill="#FFFFFF" points="1806.79,372.276 1814.249,367.968 1825.753,374.611 1818.44,379.003 			"/>
			<polygon fill="#636565" points="1805.379,372.276 1818.447,379.822 1818.447,380.231 1805.377,372.682 			"/>
			<polygon fill="#636565" points="1818.447,379.822 1827.144,374.599 1827.144,374.978 1818.447,380.231 			"/>
			<polygon fill="#636565" points="1808.825,370.285 1810.223,371.028 1812.714,369.529 1811.409,368.792 			"/>
		</g>
		<g>
			<polygon fill="#999572" points="1820.179,369.133 1824.36,366.806 1816.252,362.124 1812.087,364.531 			"/>
			<polygon fill="#DEEBF8" points="1823.54,366.799 1816.954,362.996 1813.603,364.932 1820.182,368.667 			"/>
			<polygon fill="#3F3D34" points="1824.36,366.806 1824.284,367.351 1820.218,369.698 1820.179,369.133 			"/>
			<polygon fill="#7C7752" points="1812.087,364.531 1812.126,365.026 1820.218,369.698 1820.179,369.133 			"/>
			<path fill="#FFFFFF" d="M1815.263,363.767c0.204-0.117,0.204-0.31,0-0.428c-0.203-0.117-0.538-0.117-0.741,0
				c-0.205,0.118-0.205,0.31,0,0.428C1814.725,363.884,1815.06,363.884,1815.263,363.767z"/>
		</g>
		<g>
			<polygon fill="#999572" points="1857.364,356.698 1861.545,354.371 1853.436,349.69 1849.271,352.097 			"/>
			<polygon fill="#DEEBF8" points="1860.725,354.365 1854.138,350.563 1850.787,352.498 1857.366,356.233 			"/>
			<polygon fill="#3F3D34" points="1861.545,354.371 1861.468,354.916 1857.403,357.264 1857.364,356.698 			"/>
			<polygon fill="#7C7752" points="1849.271,352.097 1849.311,352.592 1857.403,357.264 1857.364,356.698 			"/>
			<path fill="#FFFFFF" d="M1852.448,351.332c0.204-0.117,0.204-0.31,0-0.428c-0.204-0.117-0.538-0.117-0.741,0
				c-0.204,0.117-0.204,0.311,0,0.428C1851.91,351.45,1852.244,351.45,1852.448,351.332z"/>
		</g>
		<g>
			<path fill="#BA9E66" d="M1827.945,373.169c-0.996,0-1.926-0.221-2.619-0.621c-0.656-0.378-1.017-0.871-1.017-1.387
				c0-0.517,0.361-1.01,1.017-1.388c0.693-0.4,1.623-0.621,2.619-0.621c0.995,0,1.927,0.221,2.62,0.621
				c0.656,0.378,1.017,0.872,1.017,1.388c0,0.515-0.362,1.008-1.017,1.387C1829.872,372.947,1828.942,373.169,1827.945,373.169z"/>
			<path fill="#EDDBB4" d="M1827.945,372.922c-0.957,0-1.849-0.212-2.514-0.595c-0.629-0.363-0.976-0.836-0.976-1.331
				c0-0.496,0.347-0.969,0.976-1.333c0.665-0.384,1.557-0.596,2.514-0.596c0.956,0,1.849,0.212,2.514,0.597
				c0.631,0.363,0.976,0.836,0.976,1.331c0,0.495-0.347,0.968-0.976,1.331C1829.794,372.711,1828.901,372.922,1827.945,372.922z"/>
			<path fill="#BA9E66" d="M1827.945,372.142c-0.612,0-1.184-0.135-1.609-0.382c-0.404-0.233-0.626-0.535-0.626-0.852
				c0-0.316,0.222-0.62,0.626-0.853c0.425-0.246,0.997-0.381,1.609-0.381c0.613,0,1.184,0.135,1.611,0.381
				c0.402,0.233,0.624,0.536,0.624,0.853c0,0.317-0.222,0.62-0.624,0.852C1829.129,372.007,1828.558,372.142,1827.945,372.142z"/>
			<path fill="#BA9E66" d="M1831.336,368.289c-0.349-0.24-0.784-0.238-0.896-0.232c-0.031,0.015-0.342,0.179,0.003,0.405
				l0.029-0.002c0,0,0.293-0.02,0.512,0.13c0.179,0.121,0.27,0.329,0.27,0.616c0,0.285-0.089,0.493-0.266,0.615
				c-0.218,0.152-0.805,0.187-0.805,0.187l-0.028-0.003c0,0-0.372,0.173-0.003,0.405c0.015,0.001,0.035,0.001,0.06,0.001
				c0.166,0,0.821-0.08,1.124-0.289c0.295-0.201,0.444-0.509,0.444-0.917C1831.78,368.801,1831.63,368.491,1831.336,368.289z"/>
			<path fill="#F0EDE3" d="M1826.373,371.34c-0.442-0.254-0.658-0.591-0.649-0.927c0.01-0.323-0.68-1.201-0.38-2.407
				c0.24-0.969,5.067-0.833,5.216,0.154c0.167,1.116-0.394,1.944-0.394,2.273c0,0.33-0.216,0.658-0.648,0.908
				C1828.653,371.839,1827.237,371.839,1826.373,371.34z"/>
			<path fill="#CAC4B8" d="M1826.094,369.229c-1.019-0.589-1.019-1.55,0-2.139c1.018-0.587,2.683-0.587,3.702,0
				c1.018,0.589,1.018,1.551,0,2.139C1828.777,369.816,1827.112,369.816,1826.094,369.229z"/>
			<path fill="#EDDBB4" d="M1827.945,369.521c-0.676,0-1.307-0.149-1.777-0.421c-0.444-0.257-0.689-0.591-0.689-0.941
				c0-0.349,0.245-0.684,0.689-0.941c0.471-0.272,1.102-0.42,1.777-0.42s1.307,0.149,1.777,0.42c0.445,0.257,0.69,0.592,0.69,0.942
				c0,0.349-0.245,0.683-0.69,0.94C1829.252,369.372,1828.622,369.521,1827.945,369.521z"/>
			<path fill="#9E6931" d="M1827.945,369.529c0.677,0,1.308-0.15,1.777-0.421c0.166-0.095,0.304-0.202,0.412-0.316
				c-0.107-0.115-0.246-0.22-0.412-0.316c-0.469-0.272-1.101-0.421-1.777-0.421c-0.676,0-1.307,0.15-1.777,0.421
				c-0.166,0.095-0.304,0.201-0.411,0.316c0.107,0.114,0.245,0.221,0.411,0.316C1826.638,369.38,1827.27,369.529,1827.945,369.529z"
				/>
		</g>
		<g>
			<path fill="#BA9E66" d="M1852.064,361.254c-0.996,0-1.926-0.221-2.619-0.621c-0.656-0.378-1.016-0.871-1.016-1.387
				c0-0.517,0.36-1.01,1.016-1.388c0.693-0.399,1.623-0.62,2.619-0.62c0.996,0,1.926,0.221,2.62,0.62
				c0.657,0.378,1.018,0.873,1.018,1.388c0,0.516-0.362,1.008-1.018,1.387C1853.99,361.034,1853.061,361.254,1852.064,361.254z"/>
			<path fill="#EDDBB4" d="M1852.064,361.009c-0.956,0-1.849-0.212-2.514-0.596c-0.629-0.363-0.976-0.836-0.976-1.331
				c0-0.496,0.347-0.969,0.976-1.333c0.665-0.384,1.557-0.596,2.514-0.596c0.957,0,1.849,0.212,2.514,0.597
				c0.63,0.363,0.976,0.836,0.976,1.331c0,0.494-0.347,0.967-0.976,1.331C1853.913,360.797,1853.021,361.009,1852.064,361.009z"/>
			<path fill="#BA9E66" d="M1852.064,360.229c-0.612,0-1.184-0.135-1.61-0.382c-0.403-0.233-0.625-0.536-0.625-0.852
				c0-0.317,0.221-0.62,0.625-0.854c0.426-0.245,0.998-0.38,1.61-0.38c0.614,0,1.184,0.136,1.611,0.38
				c0.403,0.235,0.625,0.537,0.625,0.854c0,0.316-0.222,0.619-0.625,0.852C1853.248,360.094,1852.677,360.229,1852.064,360.229z"/>
			<path fill="#BA9E66" d="M1855.455,356.375c-0.349-0.241-0.785-0.238-0.896-0.232c-0.032,0.014-0.342,0.179,0.003,0.405
				l0.028-0.003c0.003,0,0.293-0.019,0.513,0.13c0.179,0.121,0.27,0.329,0.27,0.617c0,0.285-0.09,0.492-0.266,0.615
				c-0.217,0.152-0.805,0.187-0.805,0.187l-0.029-0.002c0,0-0.371,0.173-0.002,0.405c0.015,0.001,0.034,0.001,0.06,0.001
				c0.166,0,0.821-0.08,1.124-0.288c0.295-0.201,0.444-0.51,0.444-0.917C1855.899,356.887,1855.75,356.576,1855.455,356.375z"/>
			<path fill="#F0EDE3" d="M1850.492,359.426c-0.442-0.254-0.658-0.592-0.649-0.927c0.01-0.323-0.68-1.201-0.38-2.408
				c0.241-0.968,5.068-0.832,5.216,0.154c0.167,1.117-0.394,1.944-0.394,2.273c0,0.33-0.217,0.659-0.648,0.908
				C1852.772,359.926,1851.356,359.926,1850.492,359.426z"/>
			<path fill="#CAC4B8" d="M1850.214,357.315c-1.019-0.588-1.019-1.549,0-2.138c1.018-0.588,2.683-0.588,3.702,0
				c1.017,0.588,1.017,1.551,0,2.138C1852.897,357.902,1851.231,357.902,1850.214,357.315z"/>
			<path fill="#EDDBB4" d="M1852.064,357.607c-0.676,0-1.307-0.149-1.777-0.42c-0.444-0.257-0.689-0.592-0.689-0.942
				c0-0.349,0.245-0.683,0.689-0.941c0.471-0.271,1.102-0.42,1.777-0.42c0.676,0,1.307,0.149,1.778,0.42
				c0.445,0.257,0.69,0.591,0.69,0.941c0,0.349-0.245,0.684-0.69,0.941C1853.371,357.458,1852.74,357.607,1852.064,357.607z"/>
			<path fill="#9E6931" d="M1852.064,357.616c0.677,0,1.308-0.15,1.778-0.422c0.166-0.095,0.304-0.201,0.411-0.316
				c-0.107-0.114-0.245-0.219-0.411-0.316c-0.47-0.271-1.101-0.421-1.778-0.421c-0.676,0-1.307,0.15-1.776,0.421
				c-0.166,0.095-0.304,0.202-0.412,0.316c0.107,0.115,0.246,0.221,0.412,0.316C1850.757,357.466,1851.388,357.616,1852.064,357.616
				z"/>
		</g>
		<g>
			<path fill="#BA9E66" d="M1842.609,355.574c0.996,0,1.927-0.221,2.62-0.621c0.656-0.378,1.016-0.871,1.016-1.387
				c0-0.517-0.36-1.01-1.016-1.388c-0.693-0.4-1.624-0.621-2.62-0.621c-0.995,0-1.926,0.221-2.619,0.621
				c-0.657,0.378-1.018,0.873-1.018,1.388c0,0.516,0.362,1.008,1.018,1.387C1840.683,355.353,1841.613,355.574,1842.609,355.574z"/>
			<path fill="#EDDBB4" d="M1842.609,355.328c0.957,0,1.849-0.212,2.514-0.596c0.629-0.363,0.976-0.836,0.976-1.331
				c0-0.495-0.347-0.969-0.976-1.332c-0.665-0.384-1.557-0.596-2.514-0.596c-0.956,0-1.849,0.212-2.514,0.596
				c-0.63,0.363-0.976,0.836-0.976,1.331c0,0.495,0.347,0.968,0.976,1.331C1840.761,355.116,1841.653,355.328,1842.609,355.328z"/>
			<path fill="#BA9E66" d="M1842.609,354.549c0.612,0,1.184-0.135,1.61-0.382c0.404-0.233,0.626-0.536,0.626-0.853
				c0-0.316-0.222-0.62-0.626-0.853c-0.426-0.245-0.998-0.38-1.61-0.38c-0.613,0-1.184,0.136-1.611,0.38
				c-0.402,0.234-0.624,0.537-0.624,0.853c0,0.317,0.222,0.62,0.624,0.853C1841.425,354.413,1841.997,354.549,1842.609,354.549z"/>
			<path fill="#BA9E66" d="M1839.219,350.695c0.35-0.241,0.785-0.239,0.896-0.232c0.032,0.015,0.342,0.179-0.002,0.404l-0.029-0.002
				c0,0-0.293-0.019-0.513,0.131c-0.178,0.121-0.27,0.328-0.27,0.617c0,0.285,0.089,0.492,0.266,0.615
				c0.217,0.152,0.805,0.186,0.805,0.186l0.029-0.002c0,0,0.371,0.173,0.002,0.405c-0.014,0.001-0.034,0.001-0.06,0.001
				c-0.166,0-0.821-0.08-1.124-0.288c-0.295-0.201-0.444-0.51-0.444-0.917C1838.775,351.207,1838.924,350.896,1839.219,350.695z"/>
			<path fill="#F0EDE3" d="M1844.181,353.746c0.442-0.254,0.658-0.593,0.649-0.927c-0.01-0.323,0.68-1.201,0.38-2.408
				c-0.241-0.969-5.067-0.832-5.216,0.154c-0.167,1.118,0.394,1.944,0.394,2.274c0,0.33,0.216,0.658,0.648,0.908
				C1841.902,354.245,1843.318,354.245,1844.181,353.746z"/>
			<path fill="#CAC4B8" d="M1844.46,351.634c1.019-0.589,1.019-1.549,0-2.139c-1.018-0.587-2.683-0.587-3.702,0
				c-1.018,0.589-1.018,1.551,0,2.139C1841.777,352.221,1843.443,352.221,1844.46,351.634z"/>
			<path fill="#EDDBB4" d="M1842.609,351.927c0.676,0,1.308-0.149,1.778-0.421c0.444-0.256,0.689-0.591,0.689-0.942
				c0-0.349-0.245-0.683-0.689-0.94c-0.47-0.271-1.102-0.42-1.778-0.42c-0.675,0-1.306,0.149-1.777,0.42
				c-0.446,0.257-0.691,0.591-0.691,0.941c0,0.349,0.245,0.684,0.691,0.94C1841.303,351.778,1841.933,351.927,1842.609,351.927z"/>
			<path fill="#9E6931" d="M1842.609,351.935c-0.676,0-1.307-0.15-1.777-0.422c-0.167-0.095-0.304-0.201-0.412-0.316
				c0.108-0.114,0.245-0.219,0.412-0.316c0.469-0.272,1.101-0.421,1.777-0.421s1.308,0.149,1.777,0.421
				c0.166,0.095,0.304,0.202,0.412,0.316c-0.107,0.115-0.246,0.221-0.412,0.316C1843.917,351.786,1843.286,351.935,1842.609,351.935
				z"/>
		</g>
		<g>
			<path fill="#BA9E66" d="M1823.64,363.529c0.995,0,1.926-0.221,2.619-0.621c0.656-0.378,1.017-0.871,1.017-1.387
				c0-0.517-0.361-1.01-1.017-1.388c-0.693-0.4-1.624-0.621-2.619-0.621c-0.996,0-1.927,0.221-2.62,0.621
				c-0.656,0.378-1.018,0.872-1.018,1.388c0,0.516,0.363,1.008,1.018,1.387C1821.712,363.309,1822.643,363.529,1823.64,363.529z"/>
			<path fill="#EDDBB4" d="M1823.64,363.284c0.956,0,1.849-0.212,2.514-0.596c0.629-0.363,0.976-0.836,0.976-1.331
				s-0.347-0.969-0.976-1.333c-0.665-0.384-1.558-0.595-2.514-0.595s-1.849,0.211-2.514,0.596c-0.63,0.363-0.975,0.836-0.975,1.331
				s0.347,0.967,0.975,1.331C1821.791,363.071,1822.683,363.284,1823.64,363.284z"/>
			<path fill="#BA9E66" d="M1823.64,362.504c0.612,0,1.184-0.135,1.609-0.382c0.404-0.232,0.626-0.535,0.626-0.852
				c0-0.317-0.222-0.62-0.626-0.854c-0.426-0.245-0.998-0.38-1.609-0.38c-0.613,0-1.184,0.136-1.611,0.38
				c-0.402,0.233-0.624,0.537-0.624,0.854c0,0.317,0.222,0.62,0.624,0.852C1822.455,362.369,1823.027,362.504,1823.64,362.504z"/>
			<path fill="#BA9E66" d="M1820.249,358.65c0.349-0.241,0.784-0.239,0.895-0.233c0.032,0.015,0.343,0.179-0.002,0.405l-0.03-0.002
				c0,0-0.292-0.02-0.511,0.13c-0.179,0.121-0.27,0.328-0.27,0.616c0,0.286,0.088,0.493,0.266,0.616
				c0.218,0.151,0.805,0.186,0.805,0.186l0.029-0.002c0,0,0.372,0.173,0.003,0.405c-0.015,0.001-0.035,0.001-0.06,0.001
				c-0.167,0-0.821-0.08-1.124-0.288c-0.295-0.201-0.444-0.51-0.444-0.917C1819.805,359.162,1819.954,358.852,1820.249,358.65z"/>
			<path fill="#F0EDE3" d="M1825.211,361.701c0.442-0.254,0.658-0.592,0.649-0.927c-0.009-0.323,0.68-1.201,0.381-2.408
				c-0.241-0.969-5.068-0.832-5.216,0.154c-0.167,1.118,0.395,1.944,0.395,2.274c0,0.33,0.216,0.658,0.648,0.908
				C1822.932,362.201,1824.347,362.201,1825.211,361.701z"/>
			<path fill="#CAC4B8" d="M1825.49,359.59c1.02-0.588,1.02-1.549,0-2.139c-1.017-0.587-2.683-0.587-3.701,0
				c-1.018,0.589-1.018,1.551,0,2.139C1822.807,360.177,1824.473,360.177,1825.49,359.59z"/>
			<path fill="#EDDBB4" d="M1823.64,359.882c0.676,0,1.307-0.149,1.777-0.421c0.444-0.257,0.689-0.591,0.689-0.942
				c0-0.349-0.245-0.683-0.689-0.94c-0.471-0.272-1.102-0.42-1.777-0.42s-1.307,0.149-1.777,0.42
				c-0.446,0.257-0.69,0.591-0.69,0.941c0,0.349,0.245,0.683,0.69,0.94C1822.333,359.733,1822.963,359.882,1823.64,359.882z"/>
			<path fill="#9E6931" d="M1823.64,359.89c-0.677,0-1.308-0.149-1.777-0.421c-0.166-0.095-0.304-0.201-0.412-0.316
				c0.107-0.115,0.246-0.219,0.412-0.316c0.469-0.272,1.101-0.421,1.777-0.421c0.676,0,1.307,0.148,1.776,0.421
				c0.167,0.095,0.304,0.201,0.412,0.316c-0.107,0.115-0.245,0.221-0.412,0.316C1824.946,359.741,1824.315,359.89,1823.64,359.89z"
				/>
		</g>
		<g>
			<path fill="#21201F" d="M1856.824,382.885c0,0,0.401,1.156,0.31,2.445c-0.109,1.547-0.72,3.301-0.811,3.719
				c0,0-0.256,0.25-0.888,0.129l-0.065-1.91c0,0-1.101,1.246-1.85,1.679c-0.885,0.508-1.439,0.585-3.188,0.43
				c0,0-0.937-0.069-1.542-0.754c-0.683-0.772,0.163-1.059,1.314-1.379c2.63-0.728,3.927-4.117,4.138-4.725L1856.824,382.885z"/>
			<path fill="#21201F" d="M1864.477,379.973c0,0,0.424,1.196,0.333,2.463c-0.109,1.52-0.66,2.919-0.752,3.317
				c0,0-0.316,0.405-0.948,0.141l-0.065-1.927c0,0-1.101,0.997-1.851,1.257c-0.885,0.305-1.433,0.393-3.183-0.162
				c0,0-0.942-0.236-1.547-1.06c-0.683-0.929,0.163-1.022,1.313-1.078c2.63-0.127,4.205-2.804,4.417-3.366L1864.477,379.973z"/>
			<path fill="#191818" d="M1861.562,379.946c-0.098,1.098,3.351,1.496,3.109,0.1c0,0-0.853-16.156-3.629-17.396
				c-1.746-0.78-0.84-2.572-2.019-2.364l0,0c-2.85-0.016-3.382,2.727-2.713,3.625
				C1858.784,367.239,1861.562,379.946,1861.562,379.946z"/>
			<path fill="#2D2D2D" d="M1853.939,382.772c0.063,1.418,3.259,1.566,3.199,0.148c0,0,2.259-14.498,0.032-18.372
				c-1.399-2.431-4.702-0.268-4.288,1.853C1853.99,372.086,1853.939,382.772,1853.939,382.772z"/>
		</g>
		<g>
			<path fill="#0C0C0C" d="M1836.407,392.639c0,0,0.213,3.085,0,4.059c0,0-1.892,0.703-3.601,0.268v-0.907
				c0,0-2.919,1.293-6.206,1.051c0,0-1.81-0.179-2.113-1.453c-0.302-1.275,1.408-1.342,2.884-1.677s3.321-1.341,3.589-2.112
				L1836.407,392.639z"/>
			<path fill="#0C0C0C" d="M1830.858,396.883c0,0,0.213,3.085,0,4.059c0,0-1.892,0.703-3.601,0.268v-0.907
				c0,0-2.919,1.293-6.206,1.051c0,0-1.81-0.179-2.112-1.453c-0.302-1.275,1.408-1.342,2.885-1.677
				c1.475-0.335,3.32-1.341,3.588-2.114L1830.858,396.883z"/>
			<path fill="#02353A" d="M1830.953,392.486c0,1.728,5.548,1.728,5.548,0v-16.815c0-1.73-1.242-3.132-2.776-3.132l0,0
				c-1.531,0-2.773,1.402-2.773,3.132V392.486z"/>
			<path fill="#054049" d="M1825.064,396.723c0,1.73,5.889,1.73,5.889,0v-16.815c0-1.727-1.321-3.129-2.947-3.129l0,0
				c-1.623,0-2.942,1.401-2.942,3.129V396.723z"/>
		</g>
		<g>
			<polygon fill="#3A3837" points="1828.553,393.259 1823.732,407.219 1824.317,407.557 1831.279,395.661 			"/>
			<polygon fill="#3A3837" points="1893.633,375.11 1896.87,387.147 1896.208,387.529 1890.891,377.102 			"/>
			<polygon fill="#3A3837" points="1841.626,403.822 1842.427,417.914 1843.366,417.914 1845.107,403.822 			"/>
			<polygon fill="#DC6833" points="1824.317,389.238 1842.958,399.998 1896.87,368.701 1877.809,357.694 			"/>
			<polygon fill="#C1502C" points="1824.317,389.238 1824.317,395.386 1842.957,406.148 1842.958,399.998 			"/>
			<polygon fill="#B43626" points="1842.957,406.148 1896.87,374.849 1896.87,368.701 1842.958,399.998 			"/>
		</g>
		<g>
			<path fill="#575858" d="M1852.872,340.551c0.106,1.404,1.018,2.211,2.423,2.106l11.195,0.373
				c1.404-0.099,3.153-0.585,3.036-3.021l0,0c-0.104-1.406-1.329-2.461-2.734-2.355l-12.128,0.898
				C1853.257,338.656,1852.769,339.147,1852.872,340.551L1852.872,340.551z"/>
			<g>
				<path fill="#F5B47E" d="M1845.304,336.829l-0.971-0.294c0,0-2.485-1.33-3.476-1.196c-0.991,0.132-3.648,1.33-1.946,1.762
					c1.701,0.43,1.137-0.014,2.398,0.726c1.259,0.74,1.496,1.053,2.108,0.826l1.039,0.181L1845.304,336.829z"/>
				<path fill="#F0EAEC" d="M1846.949,337.125l-2.1-0.634c0,0-1.395,0.708-0.989,2.713l2.186,0.662
					C1846.047,339.866,1845.32,338.126,1846.949,337.125z"/>
				<path fill="#575858" d="M1845.828,339.924l6.824,2.322c2.94,1.039,2.776-0.291,3.162-1.566c0,0-0.788-1.799-1.984-2.16
					l-6.949-1.607C1845.684,336.549,1844.63,339.563,1845.828,339.924z"/>
			</g>
			<path fill="#191818" d="M1860.7,366.792c12.614,7.957,17.304,3.343,17.304,3.343c4.478-5.05,1.039-10.917-0.56-11.285
				l-3.384,1.161c-1.596-0.37-3.724-1.546-4.066-0.065l-0.261,3.731l-10.217-3.357
				C1859.173,361.803,1859.561,366.073,1860.7,366.792z"/>
			<path fill="#2D2D2D" d="M1857.005,370.198c14.386,5.882,19.038,1.182,19.038,1.182c4.478-5.05,1.693-9.753,0.095-10.121
				l-3.384,1.163c-1.596-0.37-3.724-1.547-4.066-0.065l-0.262,3.732l-13.003-2.586
				C1855.079,364.986,1855.758,369.688,1857.005,370.198z"/>
			<polygon fill="#F5B47E" points="1866.756,337.299 1865.327,334.715 1862.851,338.21 1864.063,340.102 			"/>
			<path fill="#575858" d="M1867.365,336.688l-1.082-1.143c0,0-3.418,3.307-2.5,6.342L1867.365,336.688z"/>
			<path fill="#F0EAEC" d="M1867.365,336.688c0,0,6.907-0.742,6.755,10.594c-0.085,6.289,5.527,12.559,5.527,12.559
				s-1.719,4.343-5.773,4.611c0,0-4.769,0.432-5.984-1.196l-6.253-15.71C1861.637,347.548,1861.209,341.677,1867.365,336.688z"/>
			<g>
				<path fill="#575858" d="M1866.056,359.534c1.379-0.289,2.058-1.3,1.768-2.68l-1.118-11.142
					c-0.288-1.379-1.003-3.048-3.399-2.609l0,0c-1.38,0.292-2.261,1.645-1.969,3.022l2.502,11.902
					C1864.128,359.406,1864.68,359.823,1866.056,359.534L1866.056,359.534z"/>
				<g>
					<path fill="#F5B47E" d="M1857.859,360.788l-0.897,0.474c0,0-2.703,0.8-3.312,1.594c-0.612,0.792-1.658,3.511-0.144,2.621
						c1.511-0.891,0.798-0.807,2.217-1.169c1.414-0.358,1.802-0.305,2.078-0.895l0.866-0.604L1857.859,360.788z"/>
					<path fill="#F0EAEC" d="M1859.235,359.842l-1.938,1.024c0,0-0.494,1.485,1.205,2.623l2.019-1.064
						C1860.521,362.425,1858.781,361.701,1859.235,359.842z"/>
					<path fill="#575858" d="M1860.408,362.619l6.484-3.15c1.107-0.583,1.178-1.478,0.555-2.657c0,0-1.234-1.402-2.34-0.819
						l-6.068,3.745C1857.932,360.32,1859.301,363.205,1860.408,362.619z"/>
				</g>
			</g>
			<path fill="#F5B47E" d="M1861.831,326.44c0,0-1.662,1.689-1.571,4.961c0.088,3.275-0.504,8.394,2.942,7.015
				c3.444-1.371,6.084-1.591,6.853-7.373C1870.823,325.258,1864.288,323.853,1861.831,326.44z"/>
			<path fill="#BAA230" d="M1862.765,333.857c0,0,2.79,6.909,0.767,8.813c0,0,7.17,0.462,7.523-2.108c0,0,1.457-15.436-6.453-15.931
				C1864.602,324.631,1855.219,324.943,1862.765,333.857z"/>
		</g>
		<g>
			<path fill="#053F49" d="M1828.424,359.484c0.314,1.108,1.489,1.845,2.622,1.644l9.651-0.682c1.133-0.2,1.959-2.323,1.645-3.432
				l0,0c-0.316-1.108-1.489-1.845-2.624-1.643l-9.808,1.742C1828.773,357.314,1828.109,358.376,1828.424,359.484L1828.424,359.484z"
				/>
			<path fill="#F5B47E" d="M1838.205,355.135c0,0,0.475-2.734,1.946-4.837c1.472-2.104,1.831-6.703-2.075-8.144
				c-3.906-1.443-6.481,0.596-6.867,1.704c-0.383,1.111-0.407,4.197-0.617,5.643c-0.21,1.446-0.666,6.577,2.765,5.338l1.851,5.332
				L1838.205,355.135z"/>
			<path fill="#775221" d="M1835.633,353.774l2.957-0.148c0,0,2.489-3.436,3.563-4.313c0,0,2.031-6.3-3.617-8.316
				c-5.65-2.013-10.311,1.972-7.567,4.095c0,0,1.242,2.73,1.188,3.649c0,0,0.966-3.366,1.773-0.127
				C1834.739,351.849,1835.633,353.774,1835.633,353.774z"/>
			<g>
				<path fill="#F5B47E" d="M1821.189,357.028l-0.917-0.343c0,0-1.704,0.071-2.65-0.314c0,0-2.05-0.146-0.638-0.713
					c0,0,0.171-0.055,0.943-0.098c0,0-0.601-1.333-1.669-1.015c-1.07,0.315-1.236-0.222-0.494-0.862
					c0.743-0.645,0.676-1.158,2.775-0.436c2.099,0.723,2.005,1.125,2.536,1.621l0.814,0.309L1821.189,357.028z"/>
				<path fill="#E6F5FC" d="M1823.608,355.459l-2.19-0.822c0,0-1.137,0.363-1.173,2.246l2.313,1.112
					C1822.558,357.996,1821.836,356.323,1823.608,355.459z"/>
				<path fill="#053F49" d="M1822.186,357.93l6.099,3.1c1.07,0.404,3.573-0.145,3.938-1.114v-1.073
					c0.366-0.969-1.81-1.37-2.883-1.773l-6.078-1.897C1822.193,354.771,1821.113,357.527,1822.186,357.93z"/>
			</g>
			<path fill="#02353A" d="M1831.334,374.688c-0.814,1.58-0.192,3.523,1.39,4.337l14.152,7.288c1.582,0.816,3.523,0.194,4.337-1.389
				l0,0c0.814-1.579,0.194-3.522-1.388-4.334l-14.152-7.29C1834.091,372.487,1832.148,373.106,1831.334,374.688L1831.334,374.688z"
				/>
			<path fill="#054049" d="M1851.746,379.772c0,0,1.846,4.962-2.225,7.822c-4.071,2.862-4.661,4.045-8.245,2.633v-6.119
				L1851.746,379.772z"/>
			<path fill="#E6F5FC" d="M1839.681,354.638c0,0-0.688-0.612-1.126-0.944c0,0-5.119,3.331-3.768,7.764L1839.681,354.638z"/>
			<path fill="#054049" d="M1825.469,378.211c-0.863,1.556-0.301,3.515,1.256,4.377l14.436,7.92
				c1.555,0.862,4.476,0.523,5.119-0.847l0,0c0.863-1.557,0.786-3.92-0.77-4.783l-15.178-8.326
				C1828.776,375.69,1826.332,376.654,1825.469,378.211L1825.469,378.211z"/>
			<path fill="#0D4D5E" d="M1839.681,354.638c0,0,6.101,1.468,7.527,9.005c1.428,7.539,4.955,16.129,4.955,16.129
				s-3.655,5.568-8.633,5.672c0,0-2.722-0.105-4.116-2.158l-4.395-14.865C1835.02,368.42,1831.86,360.382,1839.681,354.638z"/>
			<g>
				<path fill="#F5B47E" d="M1830.915,375.02l-1.109,0.216c0,0-3.129,0.022-4.038,0.64c-0.913,0.616-2.928,3.045-1.029,2.589
					c1.898-0.455,1.117-0.581,2.734-0.533c1.621,0.05,2.014,0.218,2.5-0.296l1.122-0.355L1830.915,375.02z"/>
				<g>
					<path fill="#E6F5FC" d="M1832.318,374.253l-2.297,0.445c0,0-1.053,1.691,0.308,3.258l2.394-0.465
						C1832.724,377.491,1831.261,375.915,1832.318,374.253z"/>
					<g>
						<path fill="#053F49" d="M1840.686,376.397c1.263-0.621,2.07-1.638,1.42-2.957l-3.111-11.044
							c-0.577-0.937-2.216-2.937-4.437-1.924l0,0c-1.261,0.623-2.036,3.183-1.386,4.501l4.358,10.712
							C1838.179,377.01,1839.425,377.023,1840.686,376.397L1840.686,376.397z"/>
						<path fill="#053F49" d="M1832.603,377.777l7.844-0.857c1.31-0.257,2.164-1.526,1.908-2.835l0,0
							c-0.254-1.308-1.522-2.162-2.831-1.908l-7.375,1.92C1830.84,374.35,1831.294,378.032,1832.603,377.777z"/>
					</g>
				</g>
			</g>
			<path fill="#9E6C32" d="M1842.154,349.307c0,0,2.032-6.3-3.616-8.316c-5.651-2.013-10.313,1.971-7.568,4.095
				C1830.97,345.086,1837.82,350.102,1842.154,349.307z"/>
		</g>
		<g>
			<polygon fill="#C1502C" points="1840.223,398.463 1843.03,380.013 1845.692,381.55 1842.885,399.998 			"/>
			<polygon fill="#F37E55" points="1843.03,380.013 1896.942,348.713 1899.605,350.251 1845.692,381.55 			"/>
			<polygon fill="#B43626" points="1899.605,350.251 1896.799,368.698 1842.885,399.998 1845.692,381.55 			"/>
		</g>
		<g>
			<polygon fill="#805221" points="1808.142,390.111 1808.142,401.728 1823.232,410.438 1823.232,398.823 			"/>
			<polygon fill="#9A6026" points="1808.142,390.111 1811.818,387.888 1826.908,396.6 1823.232,398.823 			"/>
			<polygon fill="#432815" points="1826.908,396.6 1826.908,408.216 1823.232,410.438 1823.232,398.823 			"/>
			<g>
				<polygon fill="#C1AB30" points="1810.338,390.173 1812.311,389.031 1813.297,389.601 1811.326,390.742 				"/>
				<polygon fill="#C1AB30" points="1822.236,396.968 1824.21,395.828 1825.196,396.397 1823.223,397.537 				"/>
				<polygon fill="#C1AB30" points="1813.656,392.34 1815.629,391.2 1816.615,391.769 1814.642,392.91 				"/>
				<polygon fill="#C1AB30" points="1818.686,395.259 1820.659,394.119 1821.646,394.691 1819.673,395.828 				"/>
				<g>
					<path fill="#432815" d="M1820.872,394.974l-0.707,0.415l-0.705-0.415v-1.64c0-0.849-0.645-1.964-1.38-2.389l-1.564-0.905
						c-0.25-0.144-0.44-0.161-0.518-0.117c-0.078,0.046-0.157,0.219-0.157,0.509v1.637l-0.706,0.435l-0.705-0.435v-1.637
						c0-0.784,0.315-1.416,0.863-1.733c0.548-0.316,1.251-0.273,1.93,0.119l1.563,0.904c1.17,0.675,2.087,2.261,2.087,3.612V394.974
						z"/>
				</g>
			</g>
		</g>
	</g>
	
		<text transform="matrix(1 0 0 1 1767.47 304.1699)" opacity="0.2" fill="#E3E3E9" font-family="'Roboto-Thin'" font-size="34.9182">?</text>
	<g opacity="0.2">
		<text transform="matrix(1 0 0 1 1877.1057 342.1777)" fill="#E3E3E9" font-family="'Roboto-Thin'" font-size="40.9204">?</text>
	</g>
	
		<text transform="matrix(1 0 0 1 1681.4172 306.4287)" opacity="0.2" fill="#E3E3E9" font-family="'Roboto-Thin'" font-size="43.1702">?</text>
	<g>
		<path opacity="0.1" d="M1682.743,400.213c-6.221,3.591-16.409,3.588-22.64-0.007c-6.227-3.599-6.212-9.475,0.033-13.062
			c6.246-3.587,16.435-3.582,22.638,0.01C1688.978,390.745,1688.964,396.623,1682.743,400.213z"/>
		<path opacity="0.1" d="M1711.206,417.309c-6.221,3.59-16.409,3.589-22.639-0.007c-6.227-3.599-6.212-9.475,0.033-13.062
			c6.246-3.588,16.435-3.583,22.638,0.009C1717.441,407.84,1717.427,413.718,1711.206,417.309z"/>
		<path opacity="0.1" d="M1755.735,406.976c-6.22,3.591-16.409,3.588-22.639-0.006c-6.228-3.599-6.212-9.476,0.032-13.063
			c6.247-3.587,16.436-3.582,22.638,0.009C1761.97,397.507,1761.957,403.385,1755.735,406.976z"/>
		<g>
			<path fill="#141314" d="M1677.456,386.412c0,0,2.269,3.404,4.239,4.145c1.97,0.738,2.38,2.913-0.697,2.626
				c-3.078-0.288-4.397-0.437-6.285-2.324v0.614l-2.668-1.273l0.177-3.816l2.919-2L1677.456,386.412z"/>
			<path fill="#02353A" d="M1671.496,366.608l-7.308-20.945c0.009-1.542,13.091-2.661,13.081-1.119l1.358,22.119
				C1678.619,368.205,1671.486,368.147,1671.496,366.608z"/>
			<path fill="#02353A" d="M1678.294,385.924c0,1.536-6.848,1.479-6.848-0.057c0,0-2.85-11.678,0.05-19.259
				c1.273-3.327,7.621-1.651,7.131,0.055C1676.882,372.753,1678.294,385.924,1678.294,385.924z"/>
			<path fill="#21201F" d="M1664.341,391.775c0,0,1.702,2.954,3.672,3.692c1.97,0.738,2.38,2.913-0.7,2.626
				c-3.076-0.288-4.229-0.706-6.117-2.593v0.614l-2.666-1.27l0.176-3.816l3.325-1.457L1664.341,391.775z"/>
			<path fill="#053F49" d="M1680.787,327.793c0.754,1.185,0.927,3.961-0.261,4.713h-0.439c-1.185,0.759-2.837-0.79-3.591-1.978
				l-7.462-9.248c-0.757-1.185-1.228-3.799,1.18-5.336l0,0c1.184-0.755,2.745,0.06,3.514,0.779
				C1676.694,319.484,1680.787,327.793,1680.787,327.793z"/>
			<path fill="#054049" d="M1661.255,369.785l-2.148-24.284c0.207-1.528,14.571-0.782,14.365,0.746l-4.843,22.934
				C1668.424,370.709,1661.05,371.313,1661.255,369.785z"/>
			<path fill="#054049" d="M1665.36,391.835c-0.329,1.506-6.967,1.468-6.655-0.806c0.86-4.222-1.208-15.445,2.551-21.244
				c3.373-5.204,8.193-4.483,7.516-1.273C1665.294,377.093,1665.36,391.835,1665.36,391.835z"/>
			<path fill="#0D4D5E" d="M1658.693,348.807c0,0,1.034-5.457,0.554-13.9c-0.299-5.267-4.565-11.281-1.255-15.821
				c0,0,4.01-1.347,8.137-4.397c2.418-1.788,8.349,1.778,9.603,6.858c1.253,5.083,1.4,20.704,2.074,26.383
				C1677.806,347.929,1672.544,351.44,1658.693,348.807z"/>
			<path fill="#CE8F62" d="M1665.117,315.624l0.192-4.889l1.904-1.775l3.025,3.281l0.391,6.425l-0.391,3.994
				C1670.237,322.66,1665.268,319.47,1665.117,315.624z"/>
			<g>
				<path fill="#D2D6E5" d="M1665.089,315.475c0,0,1.882,4.694,4.784,5.029c0,0,0.831-3.194-0.436-5.781l0.574,0.302
					c0,0,4.606,7.171,2.885,14.778c0,0-8.513-10.23-8.707-13.791L1665.089,315.475z"/>
				<polygon fill="#18181A" points="1669.838,320.74 1669.388,322.523 1670.302,323.261 1670.93,327.472 1673.026,330.114 
					1673.473,326.923 1671.125,322.915 1671.278,321.725 				"/>
				<path fill="#053F49" d="M1662.346,317.201c0,0,4.196,9.874,10.98,15.028c0,0,2.956-9.278-0.575-14.729
					c0,0-1.266-1.852-2.74-2.474c0,0,4.452,7.437,2.885,14.778c0,0-7.94-9.667-8.728-13.892
					C1664.167,315.911,1662.694,316.724,1662.346,317.201z"/>
			</g>
			<path fill="#F5B47E" d="M1676.865,306.222c0,0-0.329,3.298-0.756,5.103c-0.431,1.808-0.97,8.282-4.895,6.897
				c0,0-3.201-1.108-3.19-4.998l-2.506-1.962c0,0-0.908-6.918,2.585-8.208C1671.598,301.759,1674.887,301.728,1676.865,306.222z"/>
			<path fill="#A9A735" d="M1668.023,313.223c0,0-2.706-2.502-0.713-4.315c0,0,1.29-0.411,1.758,1.528l0.017,0.578l0.44-0.013
				c0,0,0.293-2.104,1.031-2.944c0.739-0.839,4.415,0.467,6.322-1.286c1.909-1.75-1.006-6.31-5.74-6.628
				c-3.266-0.22-7.589,0.809-6.95,6.76c0.005,0.057,1.041,6.169,1.041,6.169L1668.023,313.223z"/>
			<path fill="#F5B47E" d="M1668.324,329.343c0,0-2.721-0.373-4.302,0.08c-1.58,0.452,0.593,3.78,0.593,3.78l2.984-0.678
				l0.461-1.089L1668.324,329.343z"/>
			<path fill="#053F49" d="M1665.824,329.9c0.722,1.361,3.629,6.31,2.266,7.029c0,0-4.185,1.898-6.743-3.457l-3.163-5.533
				c-2.109-1.599-2.9-7.797-0.192-8.853c0,0,4.098,2.346,6.02,6.782L1665.824,329.9z"/>
			<g>
				<path fill="#D2D6E5" d="M1673.656,330.355l2.013-0.881c0,0,2.45,1.191,1.303,3.111l-2.347,0.809
					C1674.625,333.395,1675.013,331.024,1673.656,330.355z"/>
				<path fill="#053F49" d="M1674.832,333.545l-6.285,3.182c-1.292,0.499-2.783,0.041-3.321-1.02l0,0
					c-0.544-1.062,0.294-3.325,2.636-3.682l5.864-1.953C1675.019,329.573,1676.124,333.046,1674.832,333.545z"/>
			</g>
			<g>
				<path fill="#D2D6E5" d="M1670.532,332.16l-2.82-0.068c0,0-1.024-1.885,0.102-2.987l2.74,0.027
					C1670.554,329.132,1669.868,330.991,1670.532,332.16z"/>
				<path fill="#0B464C" d="M1670.505,328.822l8.548-0.543c1.377,0.08,2.437,1.257,2.361,2.639l0,0
					c-0.081,1.383-1.261,2.439-2.638,2.359l-8.353-0.845C1669.041,332.355,1669.126,328.742,1670.505,328.822z"/>
			</g>
		</g>
		<g>
			<g>
				<path fill="#F5B47E" d="M1712.725,326.358l0.694-0.634c0,0-0.027-1.19,0.305-1.958c0.33-0.768,0.631-1.597,1.116-1.207
					c0.487,0.39,0.104,1.202,0.104,1.202s1.439-0.702,1.868-1.569c0.429-0.867,0.874-2.349,1.816-1.133
					c0.942,1.218,1.096,2.376-0.167,3.786c-1.263,1.41-2.648,2.642-3.51,2.595l-1.018,0.678L1712.725,326.358z"/>
				<path fill="#141314" d="M1692.532,384.346c0,0-2.375-20.358-0.997-23.96c1.377-3.605,8.389-3.268,8.359-1.158l-0.396,25.118
					C1699.467,386.456,1692.505,386.456,1692.532,384.346z"/>
				<g>
					<path fill="#F5B47E" d="M1694.585,327.037c0,0-0.479-3.255-2.156-5.795c-1.679-2.539-1.962-8.003,2.716-9.591
						c4.676-1.587,7.665,0.908,8.087,2.234c0.421,1.328,0.353,4.99,0.557,6.71c0.202,1.721,0.583,7.819-3.448,6.242l-0.54,4.657
						L1694.585,327.037z"/>
					<path fill="#2A2B2A" d="M1697.677,325.505l-3.5-0.268c0,0-2.843-4.15-4.087-5.228c0,0-2.211-7.534,4.549-9.745
						c6.758-2.211,12.161,2.66,8.843,5.093c0,0-1.539,4.105-1.503,5.195l-0.405,0.011c-0.109-1.497-1.184-3.669-1.937-0.959
						c-0.078,0.281,0.468,1.595,0.389,1.856C1699.042,324.779,1697.677,325.505,1697.677,325.505z"/>
				</g>
				<path d="M1692.181,404.781c0,0-0.252,3.659,0,4.812c0,0,2.244,0.836,4.271,0.318v-1.072c0,0,3.462,1.531,7.36,1.242
					c0,0,2.148-0.209,2.506-1.72c0.358-1.511-1.671-1.591-3.421-1.989c-1.75-0.398-3.938-1.591-4.256-2.507L1692.181,404.781z"/>
				<path fill="#141314" d="M1698.982,409.873c0,0-0.252,3.662,0,4.814c0,0,2.243,0.836,4.271,0.319v-1.073
					c0,0,3.462,1.531,7.36,1.242c0,0,2.148-0.209,2.506-1.72c0.358-1.514-1.67-1.594-3.422-1.992
					c-1.75-0.398-3.937-1.591-4.255-2.505L1698.982,409.873z"/>
				<path fill="#141314" d="M1698.652,404.197c0,2.052-6.584,2.052-6.584,0c0,0-3.011-14.496,0.464-19.851
					c2.035-3.138,7.443-3.928,6.965-0.395C1699.02,387.485,1698.652,404.197,1698.652,404.197z"/>
				<g>
					<path fill="#F6DCDC" d="M1710.731,327.016l2.314-1.531c0,0,1.411,0.121,1.952,2.291l-2.385,1.895
						C1712.613,329.672,1713.009,327.546,1710.731,327.016z"/>
					<g>
						<path fill="#341F12" d="M1707.939,333.098c-0.339,1.325-1.707,2.231-3.06,2.03l-11.459-0.516
							c-1.351-0.203-2.396-2.694-2.059-4.019l0,0c0.339-1.322,1.71-2.236,3.062-2.03l11.683,1.77
							C1707.457,330.536,1708.276,331.776,1707.939,333.098L1707.939,333.098z"/>
						<path fill="#341F12" d="M1713.028,329.496l-6.239,5.188c-1.134,0.752-2.413-0.06-3.09-1.086l0,0
							c-0.678-1.023-0.309-2.461,0.824-3.213l6.532-3.791C1712.188,325.845,1714.16,328.747,1713.028,329.496z"/>
					</g>
				</g>
				<path fill="#232323" d="M1706.359,409.25c0,2.052-7.707,2.025-7.707-0.028c0,0-3.461-18.701,0-22.857
					c2.677-3.215,8.372-1.388,8.194-0.719C1704.705,393.681,1706.359,409.25,1706.359,409.25z"/>
				<path fill="#232323" d="M1706.847,359.16c0.011-0.238-0.155-0.403-0.425-0.524l0.025-0.113l-15.516-1.756
					c0,0-1.939,6.932,3.125,10.035l0.482,0.313c0.496,5.193,4.116,19.645,4.116,19.645c-0.469,2.013,8.101,0.996,8.194-1.114V359.16
					z"/>
				<path fill="#F6DCDC" d="M1693.585,327.878c0,0,0.478-0.985,0.807-1.547c0,0,7.122,1.336,7.646,6.806L1693.585,327.878z"/>
				<path fill="#563723" d="M1693.585,327.878c0,0-6.024,4.37-4.175,13.277c1.849,8.911,1.149,16.194,1.149,16.194
					s7.252,8.178,12.755,6.038c0,0,3.428,0.151,4.026-2.73l-2.405-19.782C1704.934,340.876,1704.76,330.632,1693.585,327.878z"/>
				<path fill="#F5B47E" d="M1720.399,349.433l1.049,0.128c0,0,1.824-0.894,3.507-0.711c0.135,0.015,0.034,0.569,0.033,0.866
					c0,0,1.001,1.555,2.243,0.376c0.43-0.406,1.559-0.945,0.985,0.569c-0.329,0.867-1.862,2.433-2.816,2.488
					c-2.315,0.126-3.727-0.12-4.348-0.968l-1.399-0.439L1720.399,349.433z"/>
				<g>
					<path fill="#F6DCDC" d="M1718.506,348.203l2.688,0.676c0,0,1.14,2.069-0.572,3.841l-2.806-0.706
						C1717.817,352.014,1719.651,350.244,1718.506,348.203z"/>
					<g>
						<path fill="#4C301B" d="M1710.63,350.407c-1.434,0.861-3.287,0.397-4.146-1.034l-8.803-10.529
							c-0.858-1.432-0.022-4.441,2.417-5.994l0,0c1.435-0.858,3.292-0.392,4.15,1.04l7.421,12.371
							C1712.529,347.696,1712.063,349.551,1710.63,350.407L1710.63,350.407z"/>
						<path fill="#4C301B" d="M1717.942,352.36l-9.234-1.518c-1.536-0.388-2.467-1.944-2.08-3.477l0,0
							c0.385-1.536,1.942-2.464,3.477-2.078l8.608,2.743C1720.249,348.417,1719.472,352.747,1717.942,352.36z"/>
					</g>
				</g>
				<path fill="#2A2B2A" d="M1703.685,324.829c0,0-0.918,0.568-1.302-0.642c-0.385-1.207-0.344-2.183-0.344-2.183l-0.54,0.015
					c0,0-0.08,4.54-0.953,4.893C1700.545,326.911,1703.132,328.237,1703.685,324.829z"/>
			</g>
			<g>
				<path fill="#141314" d="M1738.374,393.987c0,0-2.269,3.405-4.238,4.145c-1.97,0.738-2.38,2.914,0.696,2.626
					c3.078-0.288,4.398-0.437,6.285-2.324v0.614l2.668-1.273l-0.177-3.816l-2.919-2L1738.374,393.987z"/>
				<path fill="#131623" d="M1744.334,374.183l7.308-20.945c-0.009-1.542-13.091-2.661-13.082-1.119l-1.358,22.119
					C1737.211,375.78,1744.343,375.723,1744.334,374.183z"/>
				<path fill="#131623" d="M1737.536,393.499c0,1.536,6.848,1.479,6.848-0.057c0,0,2.85-11.679-0.051-19.258
					c-1.273-3.328-7.621-1.651-7.131,0.055C1738.949,380.328,1737.536,393.499,1737.536,393.499z"/>
				<path fill="#21201F" d="M1751.49,399.351c0,0-1.702,2.954-3.672,3.693c-1.969,0.738-2.38,2.914,0.7,2.625
					c3.077-0.288,4.229-0.705,6.118-2.593v0.614l2.666-1.27l-0.175-3.816l-3.325-1.457L1751.49,399.351z"/>
				<g>
					<path fill="#F5B47E" d="M1727.723,346.593l-0.995,0.473c0,0-1.767,0.65-2.321,1.225c-0.554,0.573-1.264,1.696-1.411,2.94
						c-0.148,1.245,0.564,1.834,0.686,1.89c0.122,0.055,1.078,0.531,1.798-0.156c0.719-0.688,0.261-1.473,0.859-2.068
						c0.596-0.597,1.629-0.822,2.003-1.853l0.705-0.628L1727.723,346.593z"/>
					<g>
						<path fill="#1E243E" d="M1735.653,340.573c0.343,0.483,0.349,1.356,1.713,1.696l0,0c1.363,0.346,2.746-0.484,3.086-1.848
							l4.157-11.131c0.344-1.363,2.93-4.021,0.162-4.719l-0.45-0.415c-1.365-0.343-2.702-0.805-6.41,8.586L1735.653,340.573z"/>
						<g>
							<path fill="#D2D6E5" d="M1729.237,345.08l-2.351,1.562c0,0,0.14,2.143,1.68,2.475l2.305-1.486
								C1730.871,347.631,1729.299,346.422,1729.237,345.08z"/>
							<path fill="#1E243E" d="M1730.993,347.921l7.519-4.098c1.125-0.801,1.392-2.364,0.59-3.489l0,0
								c-0.802-1.128-2.363-1.393-3.488-0.591l-6.614,5.169C1727.873,345.712,1729.868,348.723,1730.993,347.921z"/>
						</g>
					</g>
				</g>
				<path fill="#1F273F" d="M1754.574,377.361l1.077-24.394c-0.207-1.528-13.5-0.672-13.294,0.856l4.843,22.934
					C1747.406,378.285,1754.78,378.888,1754.574,377.361z"/>
				<path fill="#1F273F" d="M1750.471,399.411c0.329,1.505,6.966,1.467,6.655-0.807c-0.86-4.221,1.208-15.445-2.552-21.244
					c-3.373-5.204-8.193-4.483-7.515-1.273C1750.537,384.669,1750.471,399.411,1750.471,399.411z"/>
				<path fill="#282E49" d="M1756.732,356.826c0,0-1.299-6.795-0.819-15.239c0.299-5.267,1.727-12.63,1.925-14.926
					c0,0-4.011-1.347-8.137-4.397c-2.418-1.789-8.349,1.778-9.603,6.858c-1.254,5.083-1.006,20.844-2.896,26.547
					C1737.203,355.669,1743.848,356.826,1756.732,356.826z"/>
				<path fill="#F5B47E" d="M1750.509,324.121l1.038-4.778l-1.399-2.198l-3.75,2.42l-1.479,6.299l0.894,3.969
					C1745.814,329.832,1749.399,327.808,1750.509,324.121z"/>
				<g>
					<path fill="#D2D6E5" d="M1750.741,323.051c0,0-1.882,4.694-4.784,5.028c0,0-0.831-3.193,0.436-5.78l-0.573,0.302
						c0,0-4.606,7.171-2.885,14.778c0,0,8.512-10.23,8.707-13.791L1750.741,323.051z"/>
					<polygon fill="#121727" points="1745.992,328.315 1746.442,330.099 1745.529,330.836 1744.9,335.047 1742.805,337.69 
						1742.357,334.499 1744.706,330.491 1744.552,329.3 					"/>
					<path fill="#1E243E" d="M1753.484,324.776c0,0-4.196,9.873-10.98,15.028c0,0-2.956-9.278,0.574-14.729
						c0,0,1.266-1.851,2.741-2.474c0,0-4.453,7.437-2.885,14.778c0,0,7.94-9.667,8.728-13.892
						C1751.662,323.487,1753.136,324.299,1753.484,324.776z"/>
				</g>
				<path fill="#F5B47E" d="M1740.75,311.983c0,0-0.144,3.312,0.022,5.161c0.168,1.851-0.22,8.334,3.864,7.523
					c0,0,3.326-0.643,3.869-4.494l2.76-1.586c0,0,1.884-6.717-1.392-8.491C1746.597,308.318,1743.346,307.819,1740.75,311.983z"/>
				<path fill="#2D1B1B" d="M1748.505,320.173c0,0,3.034-2.092,1.32-4.168c0,0-1.217-0.592-1.957,1.262l-0.099,0.569l-0.435-0.077
					c0,0,0.009-2.123-0.602-3.059c-0.612-0.937-4.436-0.167-6.075-2.174c-1.641-2.004,2.086-6.407,6.766-5.615
					c3.06,0.518,6.872,2.241,5.91,7.835c-0.009,0.055-2.043,5.675-2.043,5.675L1748.505,320.173z"/>
				<path fill="#303951" d="M1756.485,343.715c0.256,1.518,1.697,2.544,3.215,2.286l0.24-0.036c1.521-0.26,2.06-1.605,1.806-3.125
					l-2.053-11.184c0.702-2.551-0.619-5.751-3.411-4.946l-0.24,0.038c-1.52,0.257-3.747,3.82-3.392,5.941L1756.485,343.715z"/>
				<g>
					<g>
						<polygon fill="#805221" points="1761.846,357.951 1761.846,369.777 1746.49,378.643 1746.49,366.821 						"/>
						<polygon fill="#9A6026" points="1761.846,357.951 1758.031,355.706 1742.671,364.575 1746.49,366.821 						"/>
						<polygon fill="#432815" points="1742.671,364.575 1742.671,376.397 1746.49,378.643 1746.49,366.821 						"/>
						<polygon fill="#6E431B" points="1761.846,357.951 1761.846,363.864 1746.49,372.729 1746.49,366.821 						"/>
						<polygon fill="#C1AB30" points="1759.639,364.009 1759.639,366.325 1758.411,367.045 1758.411,364.729 						"/>
						<polygon fill="#C1AB30" points="1750,369.546 1750,371.863 1748.772,372.583 1748.772,370.268 						"/>
						<g>
							<polygon fill="#C1AB30" points="1756.214,360.045 1754.204,358.884 1753.201,359.461 1755.207,360.622 							"/>
							<polygon fill="#C1AB30" points="1751.09,363.014 1749.085,361.855 1748.083,362.434 1750.088,363.593 							"/>
							<g>
								<path fill="#432815" d="M1748.87,362.722l0.717,0.421l0.718-0.421v-1.667c0-0.861,0.656-2,1.406-2.431l1.588-0.922
									c0.255-0.144,0.448-0.166,0.53-0.121c0.079,0.048,0.161,0.224,0.161,0.52v1.667l0.716,0.443l0.719-0.443v-1.667
									c0-0.8-0.321-1.44-0.879-1.761c-0.555-0.325-1.271-0.281-1.961,0.121l-1.592,0.918c-1.191,0.687-2.122,2.301-2.122,3.676
									V362.722z"/>
							</g>
						</g>
					</g>
					<g>
						<path fill="#F5B47E" d="M1754.24,354.356l-0.468,0.96c0,0-1.54,0.108-2.675,0.994c-1.134,0.881-1.681,0.551-1.141,1.271
							c0,0,0.543,0.52,1.731-0.148c0,0-0.336,0.609-1.021,1.62c0,0-0.445,0.795,0.912,0.682c1.357-0.117,2.989,0.85,3.703-0.808
							c0.714-1.657,0.591-1.248,0.62-2.66l0.097-1.295L1754.24,354.356z"/>
						<g>
							<path fill="#D2D6E5" d="M1757.443,353.957l-0.654,2.141c0,0-2.79,0.76-3.668-1.614l0.956-2.318
								C1754.077,352.166,1755.89,354.372,1757.443,353.957z"/>
							<path fill="#303951" d="M1753.795,352.188l2.65-9.55c0.48-1.317,1.941-2,3.26-1.517l0,0c1.321,0.481,2.723,2.917,1.37,4.867
								l-3.436,8.248C1757.163,355.558,1753.317,353.509,1753.795,352.188z"/>
						</g>
					</g>
				</g>
			</g>
		</g>
	</g>
</g>
</svg>
