<?xml version="1.0" encoding="utf-8"?>
<!-- Generator: Adobe Illustrator 17.0.0, SVG Export Plug-In . SVG Version: 6.00 Build 0)  -->
<!DOCTYPE svg PUBLIC "-//W3C//DTD SVG 1.1//EN" "http://www.w3.org/Graphics/SVG/1.1/DTD/svg11.dtd">
<svg version="1.1" id="Capa_1" xmlns="http://www.w3.org/2000/svg" xmlns:xlink="http://www.w3.org/1999/xlink" x="0px" y="0px"
	 width="149px" height="150px" viewBox="1367.5 255 149 150" enable-background="new 1367.5 255 149 150" xml:space="preserve">
<g>
	<g>
		<path fill="#FFFFFF" d="M1495.02,372.371h-108.315c-4.961,0-8.998-4.037-8.998-8.998v-96.541c0-4.962,4.037-8.998,8.998-8.998
			h108.315c4.961,0,8.998,4.037,8.998,8.998v96.541C1504.018,368.334,1499.981,372.371,1495.02,372.371z M1386.705,262.71
			c-2.272,0-4.12,1.848-4.12,4.12v96.541c0,2.272,1.848,4.12,4.12,4.12h108.315c2.272,0,4.12-1.848,4.12-4.12V266.83
			c0-2.272-1.848-4.12-4.12-4.12H1386.705z"/>
	</g>
	<g>
		<path fill="#FFFFFF" d="M1367.866,366.345c1.626,8.451,7.489,14.865,15.198,16.62c1.241,0.283-0.595,0.323,17.488,0.323
			l-0.055-5.506c-23.161-0.061-16.721,0.061-19.936-1.654c-2.978-1.594-5.133-3.974-6.575-7.261
			c-1.388-3.167-1.425-3.369-1.497-11.053l-0.073-11.595h-2.466h-2.448l0.018,11.595
			C1367.519,363.601,1367.573,364.892,1367.866,366.345z"/>
	</g>
	<g>
		<path fill="#FFFFFF" d="M1421.61,297.678h2.558v-2.723v-2.723h-2.558h-2.557v2.723v2.723H1421.61z"/>
	</g>
	<g>
		<path fill="#FFFFFF" d="M1402.156,297.678h12.369v-2.723v-2.723h-12.369h-12.369v2.723v2.723H1402.156z"/>
	</g>
	<g>
		<path fill="#FFFFFF" d="M1421.61,316.964h2.558v-2.723v-2.723h-2.558h-2.557v2.723v2.723H1421.61z"/>
	</g>
	<g>
		<path fill="#FFFFFF" d="M1402.156,316.964h12.369v-2.723v-2.723h-12.369h-12.369v2.723v2.723H1402.156z"/>
	</g>
	<g>
		<path fill="#FFFFFF" d="M1421.61,336.025h2.558v-2.723v-2.723h-2.558h-2.557v2.723v2.723H1421.61z"/>
	</g>
	<g>
		<path fill="#FFFFFF" d="M1402.156,336.026h12.369v-2.723v-2.723h-12.369h-12.369v2.723v2.723H1402.156z"/>
	</g>
	<g>
		<path fill="#FFFFFF" d="M1411.742,327.279h2.558v-2.723v-2.723h-2.558h-2.558v2.723v2.723H1411.742z"/>
	</g>
	<g>
		<path fill="#FFFFFF" d="M1397.525,327.281h7.738v-2.723v-2.723h-7.738h-7.737v2.723v2.723H1397.525z"/>
	</g>
	<g>
		<path fill="#FFFFFF" d="M1433.831,307.321h2.557v-2.723v-2.723h-2.557h-2.558v2.723v2.723H1433.831z"/>
	</g>
	<g>
		<path fill="#FFFFFF" d="M1408.009,307.321h18.222v-2.723v-2.723h-18.222h-18.222v2.723v2.723H1408.009z"/>
	</g>
	<g>
		<path fill="#FFFFFF" d="M1441.344,363.722h2.558v-2.723v-2.723h-2.558h-2.557v2.723v2.723H1441.344z"/>
	</g>
	<g>
		<rect x="1381.716" y="347.842" fill="#FFFFFF" width="117.958" height="6.952"/>
	</g>
	<g>
		<path fill="#FFFFFF" d="M1422.866,284.967h-29.489c-1.995,0-3.617-1.622-3.617-3.617v-7.737c0-1.995,1.622-3.615,3.617-3.615
			h29.489c1.995,0,3.617,1.622,3.617,3.615v7.737C1426.482,283.345,1424.86,284.967,1422.866,284.967z M1393.63,281.099h28.984
			v-7.232h-28.984V281.099z"/>
	</g>
	<g>
		<polygon fill="#FFFFFF" points="1441.165,285.677 1434.435,279.361 1424.997,279.361 1424.997,275.493 1435.966,275.493 
			1443.812,282.856 		"/>
	</g>
	<g>
		<rect x="1508.98" y="280.455" fill="#FFFFFF" width="5.551" height="51.635"/>
	</g>
	<g>
		<rect x="1477.528" y="329.062" fill="#FFFFFF" width="5.551" height="12.446"/>
	</g>
	<g>
		<rect x="1443.217" y="329.062" fill="#FFFFFF" width="5.551" height="12.446"/>
	</g>
	<g>
		<path fill="#FFFFFF" d="M1457.782,271.01c-3.489,1.321-6.696,4.574-8.017,8.063c-0.896,2.405-0.991,3.678-0.991,11.176
			c0,10.328,0.378,12.45,2.876,15.232c0.991,1.179,1.839,2.311,1.839,2.546c0,0.237-2.5,1.037-5.517,1.745
			c-6.65,1.604-8.489,2.452-10.611,4.998c-2.405,2.783-2.735,4.48-2.735,13.865v8.3h2.593h2.594v-8.158
			c0-11.506,0.048-11.554,10.846-14.242c3.772-0.943,7.074-1.933,7.404-2.216c0.424-0.33,0.613-1.792,0.613-4.15v-3.678
			l-1.839-1.461c-2.782-2.217-2.971-3.065-2.782-12.921l0.141-8.724l1.415-2.028c1.745-2.452,4.857-4.198,7.498-4.198
			c2.546,0,5.754,1.65,7.546,3.913l1.461,1.839l0.141,9.667l0.141,9.667l-2.358,2.311c-2.405,2.358-2.405,2.405-2.405,5.329
			c0,4.339,0.378,4.622,8.206,6.602c6.65,1.65,8.159,2.358,9.902,4.715c0.896,1.179,0.991,2.076,1.132,9.526l0.141,8.206h2.594
			h2.641l-0.189-8.865c-0.141-8.772-0.141-8.818-1.557-11.317c-1.981-3.678-4.291-5.046-11.224-6.791
			c-3.159-0.802-5.942-1.65-6.224-1.887c-0.235-0.235,0.141-0.896,1.037-1.744c0.802-0.708,1.933-2.263,2.546-3.396
			c1.037-1.981,1.085-2.594,1.085-11.978c0.047-9.431,0-9.998-1.085-12.402c-1.461-3.254-5.281-6.744-8.535-7.781
			C1464.809,269.69,1460.942,269.784,1457.782,271.01z"/>
	</g>
	<g>
		<path fill="#FFFFFF" d="M1482.237,405h-82.75c-3.849,0-6.98-3.131-6.98-6.98v-0.672c0-3.849,3.131-6.98,6.98-6.98h82.75
			c3.849,0,6.98,3.131,6.98,6.98v0.672C1489.218,401.868,1486.087,405,1482.237,405z M1399.488,394.235
			c-1.716,0-3.112,1.396-3.112,3.111v0.672c0,1.716,1.396,3.111,3.112,3.111h82.75c1.716,0,3.112-1.396,3.112-3.111v-0.672
			c0-1.716-1.396-3.111-3.112-3.111H1399.488z"/>
	</g>
	<g>
		
			<rect x="1418.345" y="368.693" transform="matrix(-0.8805 -0.4741 0.4741 -0.8805 2490.1243 1390.0051)" fill="#FFFFFF" width="3.869" height="24.834"/>
	</g>
	<g>
		
			<rect x="1448.575" y="379.469" transform="matrix(-0.4752 -0.8799 0.8799 -0.4752 1820.6509 1848.7406)" fill="#FFFFFF" width="26.189" height="3.869"/>
	</g>
</g>
</svg>
