<?xml version="1.0" encoding="utf-8"?>
<!-- Generator: Adobe Illustrator 17.0.0, SVG Export Plug-In . SVG Version: 6.00 Build 0)  -->
<!DOCTYPE svg PUBLIC "-//W3C//DTD SVG 1.1//EN" "http://www.w3.org/Graphics/SVG/1.1/DTD/svg11.dtd">
<svg version="1.1" id="Layer_1" xmlns="http://www.w3.org/2000/svg" xmlns:xlink="http://www.w3.org/1999/xlink" x="0px" y="0px"
	 width="60px" height="68px" viewBox="461.333 187.385 60 68" enable-background="new 461.333 187.385 60 68" xml:space="preserve">
<g>
	<g id="Rectangle_1_copy_4-2">
		<path fill="#4774E7" d="M472.996,200.073h36.634c0.551,0,0.998,0.447,0.998,0.998v44.9c0,0.551-0.447,0.998-0.998,0.998h-36.634
			c-0.551,0-0.998-0.447-0.998-0.998v-44.9C471.998,200.52,472.445,200.073,472.996,200.073z"/>
	</g>
	<g id="Rectangle_1_copy_4">
		<path fill="#4774E7" d="M509.621,248.517h-36.575c-1.321,0-2.396-1.075-2.396-2.396v-44.8c0-1.321,1.075-2.396,2.396-2.396h36.575
			c1.321,0,2.396,1.075,2.396,2.396v44.8C512.017,247.442,510.942,248.517,509.621,248.517z M473.046,199.723
			c-0.881,0-1.597,0.716-1.597,1.597v44.8c0,0.881,0.716,1.597,1.597,1.597h36.575c0.881,0,1.597-0.717,1.597-1.597v-44.8
			c0-0.881-0.716-1.597-1.597-1.597H473.046z"/>
	</g>
	<g>
		<path fill="#FFFFFF" d="M474.244,213.383v-6.788l6.788-0.048v6.788L474.244,213.383z M475.442,207.785v4.392l4.392-0.031v-4.392
			L475.442,207.785z"/>
	</g>
	<g id="Rectangle_2_copy">
		<rect x="482.349" y="207.19" fill="#FFFFFF" width="18.447" height="1.398"/>
		<path fill="#FFFFFF" d="M500.956,208.747H482.19v-1.717h18.767V208.747z M482.509,208.428h18.128v-1.078h-18.128V208.428z"/>
	</g>
	<g id="Rectangle_2_copy_1_">
		<rect x="474.316" y="215.231" fill="#FFFFFF" width="33.62" height="1.447"/>
		<path fill="#FFFFFF" d="M508.056,216.798h-33.86v-1.687h33.86V216.798z M474.436,216.558h33.381v-1.208h-33.381V216.558z"/>
	</g>
	<g id="Rectangle_2_copy_2">
		<rect x="501.795" y="207.19" fill="#FFFFFF" width="5.79" height="1.398"/>
		<path fill="#FFFFFF" d="M507.744,208.747h-6.109v-1.717h6.109V208.747z M501.954,208.428h5.47v-1.078h-5.47V208.428z"/>
	</g>
	<g id="Rectangle_2_copy_3">
		<rect x="488.219" y="211.383" fill="#FFFFFF" width="19.366" height="1.398"/>
		<path fill="#FFFFFF" d="M507.744,212.94h-19.685v-1.717h19.685V212.94z M488.379,212.62h19.046v-1.078h-19.046V212.62z"/>
	</g>
	<g id="Rectangle_2_copy_3-2">
		<rect x="482.389" y="211.383" fill="#FFFFFF" width="4.831" height="1.398"/>
		<path fill="#FFFFFF" d="M487.38,212.94h-5.151v-1.717h5.151V212.94z M482.549,212.62h4.512v-1.078h-4.512V212.62z"/>
	</g>
	<g>
		<path fill="#FFFFFF" d="M474.244,225.781v-6.788l6.788-0.048v6.788L474.244,225.781z M475.442,220.182v4.392l4.392-0.031v-4.392
			L475.442,220.182z"/>
	</g>
	<g id="Rectangle_2_copy_3_">
		<rect x="482.349" y="219.587" fill="#FFFFFF" width="18.447" height="1.398"/>
		<path fill="#FFFFFF" d="M500.956,221.145H482.19v-1.717h18.767V221.145z M482.509,220.825h18.128v-1.078h-18.128V220.825z"/>
	</g>
	<g id="Rectangle_2_copy_2_1_">
		<rect x="501.795" y="219.587" fill="#FFFFFF" width="5.79" height="1.398"/>
		<path fill="#FFFFFF" d="M507.744,221.145h-6.109v-1.717h6.109V221.145z M501.954,220.825h5.47v-1.078h-5.47V220.825z"/>
	</g>
	<g id="Rectangle_2_copy_3_1_">
		<rect x="488.219" y="223.78" fill="#FFFFFF" width="19.366" height="1.398"/>
		<path fill="#FFFFFF" d="M507.744,225.337h-19.685v-1.717h19.685V225.337z M488.379,225.018h19.046v-1.078h-19.046V225.018z"/>
	</g>
	<g id="Rectangle_2_copy_3-2_1_">
		<rect x="482.389" y="223.78" fill="#FFFFFF" width="4.831" height="1.398"/>
		<path fill="#FFFFFF" d="M487.38,225.337h-5.151v-1.717h5.151V225.337z M482.549,225.018h4.512v-1.078h-4.512V225.018z"/>
	</g>
	<g>
		<path fill="#FFFFFF" d="M474.244,235.124v-6.788l6.788-0.048v6.788L474.244,235.124z M475.442,229.525v4.392l4.392-0.031v-4.392
			L475.442,229.525z"/>
	</g>
	<g id="Rectangle_2_copy_2_">
		<rect x="482.349" y="228.93" fill="#FFFFFF" width="18.447" height="1.398"/>
		<path fill="#FFFFFF" d="M500.956,230.488H482.19v-1.717h18.767V230.488z M482.509,230.168h18.128v-1.078h-18.128V230.168z"/>
	</g>
	<g id="Rectangle_2_copy_2_2_">
		<rect x="501.795" y="228.93" fill="#FFFFFF" width="5.79" height="1.398"/>
		<path fill="#FFFFFF" d="M507.744,230.488h-6.109v-1.717h6.109V230.488z M501.954,230.168h5.47v-1.078h-5.47V230.168z"/>
	</g>
	<g id="Rectangle_2_copy_3_2_">
		<rect x="488.219" y="233.123" fill="#FFFFFF" width="19.366" height="1.398"/>
		<path fill="#FFFFFF" d="M507.744,234.68h-19.685v-1.717h19.685V234.68z M488.379,234.361h19.046v-1.078h-19.046V234.361z"/>
	</g>
	<g id="Rectangle_2_copy_3-2_2_">
		<rect x="482.389" y="233.123" fill="#FFFFFF" width="4.831" height="1.398"/>
		<path fill="#FFFFFF" d="M487.38,234.68h-5.151v-1.717h5.151V234.68z M482.549,234.361h4.512v-1.078h-4.512V234.361z"/>
	</g>
	<g>
		<path fill="#FFFFFF" d="M474.244,244.227v-6.788l6.788-0.048v6.788L474.244,244.227z M475.442,238.629v4.392l4.392-0.031v-4.392
			L475.442,238.629z"/>
	</g>
	<g id="Rectangle_2_copy_4_">
		<rect x="482.349" y="238.034" fill="#FFFFFF" width="18.447" height="1.398"/>
		<path fill="#FFFFFF" d="M500.956,239.591H482.19v-1.717h18.767V239.591z M482.509,239.272h18.128v-1.078h-18.128V239.272z"/>
	</g>
	<g id="Rectangle_2_copy_2_3_">
		<rect x="501.795" y="238.034" fill="#FFFFFF" width="5.79" height="1.398"/>
		<path fill="#FFFFFF" d="M507.744,239.591h-6.109v-1.717h6.109V239.591z M501.954,239.272h5.47v-1.078h-5.47V239.272z"/>
	</g>
	<g id="Rectangle_2_copy_3_3_">
		<rect x="488.219" y="242.226" fill="#FFFFFF" width="19.366" height="1.398"/>
		<path fill="#FFFFFF" d="M507.744,243.784h-19.685v-1.717h19.685V243.784z M488.379,243.464h19.046v-1.078h-19.046V243.464z"/>
	</g>
	<g id="Rectangle_2_copy_3-2_3_">
		<rect x="482.389" y="242.226" fill="#FFFFFF" width="4.831" height="1.398"/>
		<path fill="#FFFFFF" d="M487.38,243.784h-5.151v-1.717h5.151V243.784z M482.549,243.464h4.512v-1.078h-4.512V243.464z"/>
	</g>
	<g>
		<path fill="#FFFFFF" d="M482.229,197.407h4.825c0,0,0.947-2.667,4.008-2.755c3.279,0.048,4.141,2.755,4.141,2.755h5.194
			c0.551,0,0.998,0.447,0.998,0.998v3.993c0,0.551-0.447,0.998-0.998,0.998h-18.168c-0.551,0-0.998-0.447-0.998-0.998v-3.993
			C481.231,197.854,481.678,197.407,482.229,197.407z"/>
		<path fill="#4774E7" d="M500.397,203.796h-18.168c-0.771,0-1.398-0.627-1.398-1.398v-3.993c0-0.771,0.627-1.398,1.398-1.398h4.563
			c0.134-0.281,0.395-0.746,0.823-1.215c0.617-0.675,1.714-1.491,3.435-1.54l0.009,0l0.009,0c1.836,0.027,2.965,0.844,3.589,1.525
			c0.432,0.472,0.686,0.943,0.816,1.23h4.924c0.771,0,1.398,0.627,1.398,1.398v3.993
			C501.795,203.169,501.168,203.796,500.397,203.796z M482.229,197.807c-0.33,0-0.599,0.269-0.599,0.599v3.993
			c0,0.33,0.269,0.599,0.599,0.599h18.168c0.33,0,0.599-0.269,0.599-0.599v-3.993c0-0.33-0.269-0.599-0.599-0.599h-5.486
			l-0.089-0.278c-0.002-0.005-0.208-0.625-0.778-1.236c-0.749-0.804-1.752-1.221-2.98-1.241c-1.142,0.035-2.097,0.458-2.839,1.258
			c-0.567,0.611-0.794,1.226-0.796,1.233l-0.095,0.263l-0.28,0.001H482.229z"/>
	</g>
	<g id="Ellipse_1_copy">
		<circle fill="#4774E7" cx="491.114" cy="198.306" r="2.296"/>
	</g>
</g>
</svg>
