<?xml version="1.0" encoding="utf-8"?>
<!-- Generator: Adobe Illustrator 17.0.0, SVG Export Plug-In . SVG Version: 6.00 Build 0)  -->
<!DOCTYPE svg PUBLIC "-//W3C//DTD SVG 1.1//EN" "http://www.w3.org/Graphics/SVG/1.1/DTD/svg11.dtd">
<svg version="1.1" id="Layer_1" xmlns="http://www.w3.org/2000/svg" xmlns:xlink="http://www.w3.org/1999/xlink" x="0px" y="0px"
	 width="640px" height="270px" viewBox="1432.463 0 640 270" enable-background="new 1432.463 0 640 270" xml:space="preserve">
<g>
	<path fill="#F6F7F7" d="M2077.423-12.997v160.758l-247.404,97.012c0,0-61.271,25.22-72.875,25.22
		c-15.047,0.348-48.893-13.925-48.893-13.925L1427.503,146.06V-13.384L2077.423-12.997z"/>
	<path fill="#4975E6" d="M2077.423-12.997v123.16l-247.404,97.012c0,0-61.271,25.22-72.875,25.22
		c-15.047,0.348-48.893-13.925-48.893-13.925l-280.748-110.009V-13.384L2077.423-12.997z"/>
	
		<linearGradient id="SVGID_1_" gradientUnits="userSpaceOnUse" x1="1574.3973" y1="441.2256" x2="2224.3174" y2="441.2256" gradientTransform="matrix(1 0 0 1 -152 -341)">
		<stop  offset="0" style="stop-color:#4975E6"/>
		<stop  offset="1" style="stop-color:#8B54E8"/>
	</linearGradient>
	<path fill="url(#SVGID_1_)" d="M2077.423-12.997V91.597l-247.404,97.012c0,0-61.271,25.22-72.875,25.22
		c-15.047,0.348-48.893-13.925-48.893-13.925L1427.503,89.895V-13.384L2077.423-12.997z"/>
</g>
<rect x="1614.034" y="267.53" fill="#CECFD2" width="276.858" height="2.47"/>
<g>
	<g id="People_4_">
		<g>
			<g id="gear-5-icon_4_">
				<path fill="#DADCE1" d="M1855.828,187.27l-3.918-0.28l-0.896-3.135c-0.615-0.224-1.175-0.503-1.734-0.84l-3.079,1.175
					l-2.574-2.967l1.623-2.854c-0.28-0.616-0.448-1.175-0.615-1.848l-3.022-1.343l0.28-3.918l3.134-0.896
					c0.224-0.616,0.503-1.175,0.84-1.735l-1.175-3.079l2.967-2.574l2.854,1.623c0.616-0.28,1.231-0.448,1.848-0.616l1.343-3.022
					l3.917,0.28l0.896,3.135c0.615,0.224,1.175,0.503,1.736,0.84l3.079-1.175l2.574,2.967l-1.623,2.854
					c0.28,0.616,0.448,1.175,0.615,1.848l3.022,1.343l-0.28,3.918l-3.134,0.896c-0.224,0.616-0.503,1.175-0.84,1.736l1.175,3.079
					l-2.967,2.574l-2.854-1.623c-0.615,0.28-1.175,0.448-1.848,0.616L1855.828,187.27z M1852.526,186.262l2.854,0.224l1.231-2.854
					l0.168-0.056c0.728-0.168,1.4-0.391,2.014-0.671l0.168-0.056l2.742,1.568l2.183-1.903l-1.12-2.91l0.112-0.168
					c0.391-0.616,0.728-1.231,0.952-1.903l0.056-0.168l3.022-0.84l0.224-2.854l-2.854-1.231l-0.056-0.168
					c-0.168-0.728-0.391-1.4-0.671-2.014l-0.056-0.168l1.568-2.742l-1.903-2.183l-2.911,1.119l-0.168-0.112
					c-0.615-0.391-1.231-0.728-1.903-0.952l-0.168-0.056l-0.84-3.022l-2.854-0.224l-1.288,2.854l-0.168,0.056
					c-0.671,0.168-1.4,0.391-2.014,0.671l-0.168,0.056l-2.742-1.568l-2.183,1.903l1.12,2.911l-0.112,0.168
					c-0.391,0.616-0.728,1.231-0.952,1.903l-0.056,0.168l-3.022,0.84l-0.224,2.854l2.854,1.288l0.056,0.168
					c0.168,0.671,0.391,1.4,0.671,2.014l0.056,0.168l-1.568,2.742l1.903,2.183l2.91-1.119l0.168,0.112
					c0.615,0.391,1.231,0.728,1.903,0.952l0.168,0.056L1852.526,186.262z M1854.821,179.769c-0.112,0-0.28,0-0.391,0
					c-1.511-0.112-2.854-0.783-3.807-1.903c-0.953-1.121-1.455-2.574-1.343-4.086c0.112-1.511,0.783-2.854,1.903-3.807
					c1.12-0.952,2.574-1.455,4.085-1.343c3.079,0.224,5.43,2.911,5.206,5.989c-0.112,1.511-0.783,2.854-1.903,3.807
					C1857.452,179.322,1856.164,179.769,1854.821,179.769z M1854.765,169.302c-1.175,0-2.295,0.391-3.191,1.175
					c-1.008,0.84-1.568,2.014-1.68,3.302l0,0c-0.112,1.288,0.337,2.574,1.175,3.526c0.84,1.008,2.014,1.568,3.302,1.68
					s2.574-0.337,3.526-1.175c1.008-0.84,1.568-2.014,1.68-3.302c0.168-2.686-1.848-4.982-4.478-5.206
					C1855.045,169.302,1854.876,169.302,1854.765,169.302z"/>
			</g>
			<g id="gear-5-icon_3_">
				<path fill="#DADCE1" d="M1835.621,173.836l-2.127-1.511l0.896-2.239c-0.224-0.391-0.391-0.728-0.559-1.175l-2.295-0.616
					l-0.224-2.967l2.183-0.951c0.112-0.391,0.224-0.84,0.391-1.231l-1.175-2.071l1.959-2.239l2.183,0.84
					c0.391-0.224,0.783-0.391,1.175-0.559l0.616-2.295l2.967-0.224l0.951,2.183c0.391,0.112,0.84,0.224,1.231,0.391l2.071-1.175
					l2.239,1.959l-0.951,2.351l-0.671-0.28l0.728-1.903l-1.455-1.231l-1.959,1.062l-0.168-0.056
					c-0.448-0.224-0.952-0.391-1.455-0.503l-0.168-0.056l-0.896-2.014l-1.903,0.112l-0.615,2.127l-0.168,0.056
					c-0.448,0.168-0.952,0.391-1.343,0.671l-0.168,0.112l-2.071-0.84l-1.231,1.455l1.062,1.959l-0.056,0.168
					c-0.224,0.448-0.391,0.952-0.503,1.455l-0.056,0.168l-2.014,0.896l0.112,1.903l2.127,0.616l0.056,0.168
					c0.168,0.448,0.391,0.952,0.671,1.343l0.112,0.168l-0.783,2.014l1.231,0.896l2.183-1.288l0.391,0.616L1835.621,173.836z
					 M1840.323,169.973c-0.896,0-1.68-0.337-2.351-0.896c-0.728-0.616-1.175-1.511-1.231-2.463c-0.056-0.952,0.224-1.903,0.896-2.63
					c0.616-0.728,1.511-1.175,2.463-1.231c1.959-0.112,3.694,1.343,3.863,3.358c0.056,0.952-0.224,1.903-0.896,2.63
					c-0.616,0.728-1.511,1.175-2.463,1.231C1840.492,169.973,1840.379,169.973,1840.323,169.973z M1840.323,163.481
					c-0.056,0-0.112,0-0.224,0c-0.783,0.056-1.455,0.391-1.959,0.951c-0.503,0.559-0.728,1.343-0.671,2.071l0,0
					c0.056,0.783,0.391,1.455,0.952,1.959c0.559,0.503,1.343,0.728,2.071,0.728c0.783-0.056,1.455-0.391,1.959-0.951
					c0.503-0.559,0.728-1.343,0.671-2.071C1843.066,164.657,1841.835,163.481,1840.323,163.481z"/>
			</g>
		</g>
		<g>
			<g>
				
					<rect x="1747.355" y="147.644" transform="matrix(-0.1417 0.9899 -0.9899 -0.1417 2142.8062 -1560.1077)" fill="#DADCE1" width="0.783" height="2.519"/>
			</g>
			<g>
				
					<rect x="1749.31" y="146.245" transform="matrix(-0.1416 0.9899 -0.9899 -0.1416 2143.5833 -1565.5013)" fill="#DADCE1" width="2.463" height="0.783"/>
			</g>
			<g>
				
					<rect x="1752.422" y="148.465" transform="matrix(-0.1417 0.9899 -0.9899 -0.1417 2149.3208 -1564.2821)" fill="#DADCE1" width="0.783" height="2.351"/>
			</g>
			<g>
				
					<rect x="1748.462" y="151.507" transform="matrix(-0.1417 0.9899 -0.9899 -0.1417 2148.0569 -1558.6705)" fill="#DADCE1" width="2.574" height="0.783"/>
			</g>
		</g>
		<g>
			<path fill="#DADCE1" d="M1760.839,137.341l-4.757-0.671l0.671-4.59l4.757,0.671L1760.839,137.341z M1757.034,135.942l3.134,0.448
				l0.448-3.022l-3.135-0.448L1757.034,135.942z"/>
		</g>
		<g>
			<g>
				
					<rect x="1711.296" y="144.08" transform="matrix(-0.1417 0.9899 -0.9899 -0.1417 2097.4993 -1529.1831)" fill="#DADCE1" width="0.783" height="1.288"/>
			</g>
			<g>
				
					<rect x="1712.489" y="143.126" transform="matrix(-0.1416 0.9899 -0.9899 -0.1416 2097.7896 -1532.0313)" fill="#DADCE1" width="1.288" height="0.783"/>
			</g>
			<g>
				
					<rect x="1713.987" y="144.528" transform="matrix(-0.1417 0.9899 -0.9899 -0.1417 2100.9871 -1531.3684)" fill="#DADCE1" width="0.783" height="1.231"/>
			</g>
			<g>
				
					<rect x="1712.081" y="145.884" transform="matrix(-0.1416 0.9899 -0.9899 -0.1416 2100.0857 -1528.5052)" fill="#DADCE1" width="1.343" height="0.783"/>
			</g>
		</g>
		<g>
			<polygon fill="#DADCE1" points="1722.722,131.744 1720.371,129.337 1717.964,131.744 1717.404,131.183 1720.371,128.216 
				1723.281,131.183 			"/>
		</g>
		<g>
			<path fill="#DADCE1" d="M1662.157,167.064c-0.671,0-1.008-0.224-1.288-0.448c-0.28-0.168-0.503-0.337-1.008-0.337
				c-0.505,0-0.728,0.168-1.008,0.337c-0.28,0.224-0.671,0.448-1.288,0.448c-0.671,0-1.008-0.224-1.288-0.448
				c-0.28-0.168-0.503-0.337-1.008-0.337c-0.505,0-0.728,0.168-1.008,0.337c-0.28,0.224-0.671,0.448-1.288,0.448h-0.224V137.06
				h0.503v29.499c0.337-0.056,0.559-0.168,0.783-0.337c0.28-0.224,0.671-0.448,1.288-0.448c0.671,0,1.008,0.224,1.288,0.448
				c0.28,0.168,0.503,0.337,1.008,0.337c0.505,0,0.728-0.168,1.008-0.337c0.28-0.224,0.671-0.448,1.288-0.448
				c0.671,0,1.008,0.224,1.288,0.448c0.28,0.168,0.503,0.337,1.008,0.337c0.503,0,0.728-0.168,1.008-0.337
				c0.28-0.224,0.671-0.448,1.288-0.448v0.503c-0.503,0-0.728,0.168-1.008,0.337
				C1663.164,166.839,1662.828,167.064,1662.157,167.064z"/>
		</g>
		<g>
			<rect x="1675.647" y="137.061" fill="#DADCE1" width="0.503" height="20.318"/>
		</g>
		<g>
			<polygon fill="#DADCE1" points="1671.617,170.478 1650.29,170.478 1650.29,136.781 1657.454,136.781 1657.454,137.285 
				1650.795,137.285 1650.795,170.029 1671.617,170.029 			"/>
		</g>
		<g>
			<polygon fill="#DADCE1" points="1678.446,169.079 1677.942,169.079 1677.942,137.285 1671.113,137.285 1671.113,136.781 
				1678.446,136.781 			"/>
		</g>
		<g>
			<path fill="#DADCE1" d="M1669.434,138.908h-10.076v-2.63c0-1.455,1.175-2.63,2.63-2.63h4.87c1.456,0,2.63,1.175,2.63,2.63v2.63
				H1669.434z M1659.806,138.405h9.069v-2.127c0-1.175-0.952-2.127-2.127-2.127h-4.87c-1.175,0-2.127,0.952-2.127,2.127
				L1659.806,138.405L1659.806,138.405z"/>
		</g>
		<g>
			<polygon fill="#DADCE1" points="1657.287,147.025 1655.608,145.345 1655.944,145.008 1657.287,146.353 1660.142,143.498 
				1660.477,143.834 			"/>
		</g>
		<g>
			<polygon fill="#DADCE1" points="1657.287,154.357 1655.608,152.678 1655.944,152.342 1657.287,153.686 1660.142,150.831 
				1660.477,151.166 			"/>
		</g>
		<g>
			<rect x="1662.66" y="145.121" fill="#DADCE1" width="9.74" height="0.503"/>
		</g>
		<g>
			<rect x="1662.66" y="152.565" fill="#DADCE1" width="4.59" height="0.503"/>
		</g>
		<g>
			<path fill="#DADCE1" d="M1658.072,161.634c-1.008,0-1.792-0.783-1.792-1.792s0.783-1.792,1.792-1.792s1.792,0.783,1.792,1.792
				C1659.862,160.793,1659.022,161.634,1658.072,161.634z M1658.072,158.555c-0.728,0-1.288,0.559-1.288,1.288
				s0.559,1.288,1.288,1.288c0.728,0,1.288-0.559,1.288-1.288C1659.358,159.115,1658.743,158.555,1658.072,158.555z"/>
		</g>
		<g>
			<g>
				<rect x="1848.047" y="124.187" fill="#DADCE1" width="0.728" height="22.782"/>
			</g>
			<g>
				<g>
					<polygon fill="#DADCE1" points="1846.425,127.49 1845.808,127.041 1848.439,123.515 1850.903,127.041 1850.286,127.49 
						1848.384,124.802 					"/>
				</g>
			</g>
		</g>
		<g>
			<g>
				<path fill="#DADCE1" d="M1661.709,201.152c-1.008,0-2.014-0.112-3.022-0.337c-3.526-0.783-6.493-2.91-8.396-5.989
					c-3.918-6.269-2.014-14.61,4.254-18.584c6.269-3.918,14.61-2.014,18.584,4.254c1.903,3.022,2.519,6.661,1.735,10.187
					c-0.783,3.526-2.91,6.493-5.989,8.395C1666.691,200.48,1664.228,201.152,1661.709,201.152z M1661.653,174.901
					c-2.351,0-4.702,0.671-6.773,1.959c-5.989,3.751-7.78,11.643-4.031,17.632c1.792,2.911,4.646,4.925,7.948,5.653
					c3.302,0.783,6.773,0.168,9.628-1.623c5.989-3.751,7.78-11.643,4.031-17.632c-1.792-2.91-4.646-4.925-7.948-5.653
					C1663.612,175.012,1662.606,174.901,1661.653,174.901z"/>
			</g>
			<g>
				<path fill="#DADCE1" d="M1660.31,194.883c-1.959-0.448-3.638-1.623-4.702-3.303c-1.12-1.68-1.455-3.638-1.062-5.541l0.671,0.168
					c-0.391,1.68-0.056,3.47,0.952,4.981c1.008,1.511,2.519,2.574,4.31,3.022L1660.31,194.883z"/>
			</g>
			<g>
				<path fill="#DADCE1" d="M1659.637,197.905c-2.742-0.616-5.094-2.295-6.661-4.646c-1.568-2.407-2.071-5.206-1.455-7.948
					l0.671,0.168c-0.559,2.519-0.112,5.15,1.4,7.389c1.455,2.239,3.694,3.807,6.214,4.366L1659.637,197.905z"/>
			</g>
			<g>
				<path fill="#DADCE1" d="M1662.269,198.297c-0.503,0-0.952-0.056-1.455-0.112l0.112-0.671c0.503,0.056,1.008,0.112,1.511,0.112
					v0.671C1662.381,198.297,1662.325,198.297,1662.269,198.297z M1664.059,198.129l-0.112-0.671
					c0.503-0.112,0.952-0.224,1.455-0.391l0.224,0.671C1665.067,197.905,1664.564,198.017,1664.059,198.129z M1667.026,197.066
					l-0.337-0.616c0.448-0.224,0.84-0.503,1.231-0.84l0.448,0.559C1667.978,196.505,1667.53,196.786,1667.026,197.066z
					 M1669.546,195.05l-0.503-0.448c0.337-0.391,0.616-0.783,0.896-1.175l0.616,0.391
					C1670.217,194.21,1669.882,194.659,1669.546,195.05z M1671.281,192.364l-0.615-0.28c0.168-0.448,0.337-0.952,0.448-1.4
					l0.671,0.168C1671.673,191.356,1671.505,191.86,1671.281,192.364z"/>
			</g>
			<g>
				<path fill="#DADCE1" d="M1671.897,190.012l-0.671-0.168c0.559-2.519,0.056-5.15-1.4-7.389c-1.455-2.183-3.751-3.807-6.27-4.366
					l0.168-0.671c2.686,0.616,5.15,2.351,6.661,4.702C1672.009,184.472,1672.512,187.326,1671.897,190.012z"/>
			</g>
			<g>
				<path fill="#DADCE1" d="M1652.417,184.527l-0.671-0.168c0.112-0.503,0.28-1.008,0.503-1.511l0.671,0.28
					C1652.697,183.576,1652.529,184.023,1652.417,184.527z M1653.537,181.784l-0.616-0.391c0.28-0.448,0.616-0.896,0.952-1.288
					l0.503,0.448C1654.097,180.946,1653.818,181.393,1653.537,181.784z M1655.495,179.601l-0.448-0.559
					c0.391-0.337,0.896-0.616,1.343-0.896l0.337,0.616C1656.335,178.986,1655.888,179.266,1655.495,179.601z M1658.127,178.146
					l-0.224-0.671c0.503-0.168,1.008-0.28,1.568-0.391l0.112,0.671C1659.078,177.866,1658.575,177.978,1658.127,178.146z
					 M1662.493,177.866c-0.503-0.112-1.008-0.112-1.511-0.112v-0.671c0.503,0,1.063,0.056,1.568,0.168L1662.493,177.866z"/>
			</g>
			<g>
				
					<rect x="1666.42" y="199.864" transform="matrix(-0.8475 0.5309 -0.5309 -0.8475 3186.0376 -513.2129)" fill="#DADCE1" width="0.671" height="2.576"/>
			</g>
			<g>
				
					<rect x="1671.437" y="196.638" transform="matrix(-0.8317 0.5552 -0.5552 -0.8317 3172.1099 -565.5876)" fill="#DADCE1" width="0.671" height="2.63"/>
			</g>
			<g>
				<path fill="#DADCE1" d="M1667.978,206.917l-2.127-3.414l8.396-5.262l2.127,3.414L1667.978,206.917z M1666.803,203.726l1.4,2.239
					l7.221-4.534l-1.4-2.239L1666.803,203.726z"/>
			</g>
			<g>
				
					<rect x="1671.609" y="204.515" transform="matrix(-0.8539 0.5204 -0.5204 -0.8539 3208.5972 -481.9681)" fill="#DADCE1" width="0.671" height="9.683"/>
			</g>
			<g>
				
					<rect x="1679.736" y="200.542" transform="matrix(-0.8596 0.5109 -0.5109 -0.8596 3232.2888 -465.3601)" fill="#DADCE1" width="0.671" height="21.6"/>
			</g>
		</g>
		<g>
			<g>
				<g opacity="0.1">
					<path fill="#101011" d="M1826.722,223.933l-37.167,21.774c0.951-1.792,0.448-3.694-1.736-4.925
						c-3.358-1.903-9.291-1.68-13.154,0.616l-10.075,5.765c-3.918,2.239-4.366,5.709-1.063,7.613
						c2.295,1.343,5.765,1.568,9.012,0.896l-4.422,2.574L1788.714,270l59.221-33.473L1826.722,223.933z"/>
					<path fill="#101011" d="M1779.368,238.767l22.557-12.985c8.788-5.094,9.852-12.762,2.351-17.128
						c-7.501-4.31-20.823-3.694-29.611,1.343l-15.114,8.732c-0.168-0.056-0.337-0.112-0.503-0.112l29.89-16.904l-21.214-12.651
						l-58.605,34.312l20.598,11.754l6.102-3.47c0.337,0.728,0.951,1.4,1.903,1.959c1.903,1.119,4.646,1.455,7.333,1.175
						c0.616,2.014,2.127,3.807,4.646,5.262C1757.201,244.477,1770.579,243.86,1779.368,238.767z"/>
				</g>
				<g>
					<polygon fill="#3A3938" points="1713.821,208.204 1708.504,223.541 1709.119,223.933 1716.787,210.836 					"/>
					<polygon fill="#3A3938" points="1785.413,188.222 1788.995,201.432 1788.267,201.879 1782.39,190.405 					"/>
					<polygon fill="#3A3938" points="1728.207,219.79 1729.046,235.352 1730.11,235.352 1732.013,219.79 					"/>
					<polygon fill="#DB6930" points="1709.119,203.782 1729.662,215.593 1788.995,181.169 1768.005,169.023 					"/>
					<polygon fill="#C1522B" points="1709.119,203.782 1706.209,181.784 1709.119,183.464 1712.086,205.462 					"/>
					<polygon fill="#DB6930" points="1706.209,181.784 1765.541,147.304 1768.508,148.984 1709.119,183.464 					"/>
					<polygon fill="#F27E55" points="1768.508,148.984 1771.419,170.982 1712.086,205.462 1709.119,183.464 					"/>
					<polygon fill="#C1522B" points="1709.119,203.782 1709.119,210.555 1729.662,222.366 1729.662,215.593 					"/>
					<polygon fill="#B33927" points="1729.662,222.366 1788.995,187.942 1788.995,181.169 1729.662,215.593 					"/>
				</g>
				<g>
					<g>
						<path fill="#E9DAD8" d="M1749.924,187.829c-0.112,1.288-1.231,2.295-2.519,2.183l0,0c-1.288-0.112-2.295-1.231-2.183-2.519
							l-0.448-11.027c0.112-1.623-0.671-3.638,3.807-3.302l0,0c1.288,0.112,2.295,1.231,2.183,2.519L1749.924,187.829z"/>
						<g>
							<path fill="#F2B37D" d="M1752.891,195.442l0.728,0.783c0,0,0.616,1.792,1.4,2.63c0,0,0.952,2.071,1.008,0.337
								c0,0,0-0.224-0.28-1.008c0,0,1.568,1.008,1.623,2.295c0.055,1.286,0.728,1.175,1.12,0.112
								c0.391-1.062,0.783-2.071-0.783-3.918c-1.623-1.848-1.68-1.792-2.407-2.071l-0.671-0.671L1752.891,195.442z"/>
							<path fill="#D54A29" d="M1753.787,192.419l1.736,1.959c0,0-0.616,1.903-2.071,1.848l-1.734-1.848
								C1751.716,194.323,1753.452,193.651,1753.787,192.419z"/>
							<path fill="#E9DAD8" d="M1751.548,194.603l-5.822-5.43c-0.84-1.008,2.742-3.974,3.526-2.967l4.757,6.158
								C1754.906,193.316,1752.387,195.555,1751.548,194.603z"/>
						</g>
					</g>
					<path fill="#181314" d="M1757.257,218.056c0,0,2.127,3.135,3.918,3.863c1.848,0.671,2.183,2.686-0.671,2.463
						c-2.854-0.28-4.085-0.391-5.822-2.183v0.559l-2.463-1.175l0.168-3.526l2.686-1.848L1757.257,218.056z"/>
					<g>
						<path fill="#191818" d="M1756.585,201.936c-0.728,1.231-1.734,0.783-4.142,1.848c-2.407,1.008-21.327-2.351-21.327-2.351
							c-1.231-0.728,0.28-4.757,1.008-5.989l0.671-1.175c0.728-1.231,2.686-2.574,3.918-1.848l19.647,4.813
							c1.231,0.728,1.623,2.295,0.896,3.526L1756.585,201.936z"/>
						<path fill="#191818" d="M1757.649,217.553c0,1.455-5.43,1.4-5.43,0c0,0-2.463-14.274-1.175-15.281
							c1.511-1.175,1.736-5.038,3.135-5.038h0.84c1.455,0,2.742,1.623,2.574,2.574
							C1756.754,204.733,1757.649,217.553,1757.649,217.553z"/>
					</g>
					<g>
						<path fill="#181314" d="M1744.664,227.347c0,0,1.568,2.742,3.414,3.414c1.848,0.671,2.183,2.686-0.671,2.463
							c-2.854-0.28-3.918-0.671-5.653-2.407v0.559l-2.463-1.175l0.168-3.526l3.079-1.343L1744.664,227.347z"/>
						<g>
							<path fill="#2D2E2D" d="M1739.962,211.339c-5.933-0.391-15.057-8.732-15.057-8.732c-2.463-1.623-2.351-5.541-1.623-6.773
								l3.47,0.616c0.728-1.231,5.038-1.062,6.269-0.337l12.035,10.746C1747.573,212.01,1741.921,211.451,1739.962,211.339z"/>
							<path fill="#2D2E2D" d="M1744.607,227.235c-0.112,1.4-5.486,1.062-5.374-0.337c0,0-2.742-14.385,0-17.296
								c1.008-1.062,6.773-2.519,6.324-0.168C1744.384,215.481,1744.607,227.235,1744.607,227.235z"/>
						</g>
					</g>
					<path fill="#C03B28" d="M1722.833,196.002c0,0,8.788-19.703,13.154-23.173c0.896-0.337,5.318-2.351,10.802-1.792
						c2.799,0.28,4.142,5.709,2.014,10.075c-2.127,4.366-7.669,10.746-9.74,15.896
						C1739.065,197.01,1733.748,201.599,1722.833,196.002z"/>
					<path fill="#E3A174" d="M1744.719,171.206l2.183-4.142l2.854-0.448l1.288,3.973l-2.63,5.374l-2.519,1.735
						C1745.895,177.755,1743.32,174.507,1744.719,171.206z"/>
					<g>
						<path fill="#E9DAD8" d="M1744.886,170.813c0,0-0.728,4.59,1.12,6.549c0,0,2.519-1.792,3.135-4.366l0.224,0.559
							c0,0-0.224,3.247-2.183,6.605c-0.056,0.168-1.288-2.407-1.288-2.407s-3.302,1.4-3.302,1.288c0.056-3.303,0.448-6.773,1.4-8.06
							L1744.886,170.813z"/>
					</g>
					<path fill="#F2B37D" d="M1758.153,165.609c0,0-0.671,3.022-1.231,4.646c-0.616,1.623-1.792,7.557-5.262,5.822
						c0,0-2.854-1.343-2.407-4.925l-2.127-2.071c0,0-0.112-6.493,3.247-7.277C1753.731,160.906,1756.809,161.242,1758.153,165.609z"
						/>
					<path fill="#B7A031" d="M1748.469,170.029c0,0-1.511-1.511,0.559-2.967c0,0,1.231-0.224,1.456,1.568l-0.056,0.559l0.391,0.056
						c0,0,0.503-1.903,1.288-2.574c0.784-0.671,4.031,0.896,5.989-0.503c1.959-1.4-0.224-5.597-4.646-5.989
						c-2.854-0.28-6.381-0.448-6.829,4.813c0,0.056-1.119,4.757-1.119,4.757l1.063,1.062L1748.469,170.029z"/>
					<path fill="#87772E" d="M1755.97,173.052c0,0-5.597,0.84-5.206-3.358l-0.337-0.112l-1.4,2.911c0,0,0.448,3.638,4.198,4.031
						C1756.922,176.915,1755.858,174.451,1755.97,173.052z"/>
					<path fill="#E9DAD8" d="M1746.51,191.245c0.559,1.735,1.119,3.079,0,3.973l-0.84,2.239c-2.799-0.783-3.247-2.91-4.31-4.869
						l-5.038-10.019c-0.391-0.168-2.967-5.541-2.239-6.773l0.168-0.112c1.119-0.896,6.549,2.967,7.78,4.478L1746.51,191.245z"/>
					<g>
						<path fill="#F2B37D" d="M1757.089,200.928l1.119,0.616c0,0,0.896,1.456,1.959,1.792c1.064,0.28,2.854,0.168,3.414-0.671
							s0.337-1.848-0.224-2.63c0,0-1.008-0.448-1.4-0.112c0,0-1.343-0.168-0.783-0.616c0,0,1.4-0.168,1.568-0.616
							c0,0-0.168-0.84-0.448-0.728c-0.337,0.168-0.84,0.28-1.735,0.28c-0.896,0-1.68,0.112-2.014,0.448l-0.671-0.224
							L1757.089,200.928z"/>
						<path fill="#D54A29" d="M1756.585,197.457l1.903,0.84c0,0,0.84,2.239-0.84,3.358l-1.792-0.84
							C1755.802,200.871,1757.201,198.632,1756.585,197.457z"/>
						<path fill="#E9DAD8" d="M1755.802,201.152l-10.131-3.638c-1.12-0.168-0.056-5.653,1.062-5.486l9.963,5.318
							C1757.818,197.457,1756.922,201.32,1755.802,201.152z"/>
					</g>
				</g>
				<g>
					<g>
						<path fill="#931E20" d="M1780.263,171.093c-1.231,0.224-2.519-0.448-2.854-1.568l-5.709-10.691
							c-0.337-1.119,0.616-3.191,1.903-3.414l0,0c1.231-0.224,2.519,0.448,2.854,1.568l4.702,11.867
							C1781.494,169.973,1781.55,170.87,1780.263,171.093L1780.263,171.093z"/>
						<path fill="#E9A776" d="M1778.695,209.044c0,0,1.231,4.366,3.807,5.262c2.574,0.896,0.337,2.183-0.168,2.239
							c-0.504,0.056-3.022,0.28-4.646-1.4c-1.568-1.68-3.022-2.686-3.022-2.686s0.503-2.854,1.343-4.478l0.728-0.448
							L1778.695,209.044z"/>
						<path fill="#7E1D1F" d="M1782.334,216.601c-0.503,0.056-3.022,0.28-4.646-1.4c-1.568-1.623-3.022-2.686-3.022-2.686
							s-0.391-1.959,0.559-3.191c0.168,0.952-0.224,2.127,3.022,4.366c2.071,1.4,3.023,0.84,3.47,0.28
							c0.224,0.168,0.503,0.28,0.728,0.391C1785.02,215.258,1782.839,216.544,1782.334,216.601z"/>
						<path fill="#E9A776" d="M1778.695,209.044c-0.112,1.455-2.742,0.728-2.63-0.671c0,0-2.799-14.497,0-17.912
							c1.008-2.407,0.559-1.68,1.959-1.568l1.12-0.391c2.183-0.448,3.023,2.014,1.792,5.765
							C1778.527,201.32,1778.695,209.044,1778.695,209.044z"/>
						<path fill="#F2B37D" d="M1774.946,210.331c-0.224,1.4-2.911,1.062-2.686-0.337c0,0-4.869-14.61-1.12-18.863
							c0.728-0.84,0.951-1.231,2.071-1.231h0.503c1.4,0.224,3.079,0.952,2.014,3.973
							C1773.77,199.304,1774.946,210.331,1774.946,210.331z"/>
						<path fill="#343433" d="M1757.481,175.963c0,0-6.381,6.437-1.062,11.923c3.47,3.638,13.322,7.277,13.322,7.277
							s8.172-6.045,10.971-6.325c0,0-5.038-4.646-12.091-8.004c0,0,0.28-2.911-0.224-4.534c-0.503-1.623-3.974-1.511-3.974-1.511
							L1757.481,175.963z"/>
						<path fill="#B02427" d="M1773.546,154.021c0,0,1.959,1.623,2.407,6.605c0.559,6.381-0.28,7.389-3.247,9.012
							c0,0-4.086,7.557-3.917,9.069c0,0-5.822,1.792-11.251-2.686c0,0,2.967-3.135,3.807-6.605
							c1.288-5.374-0.168-12.258,2.295-13.491C1768.956,153.237,1773.546,154.021,1773.546,154.021z"/>
						<path fill="#DA9F75" d="M1768.787,154.133l2.295-3.973l1.288-3.303l2.407,3.358l-1.063,5.933l-1.68,3.47
							C1772.091,159.563,1768.452,157.716,1768.787,154.133z"/>
						<g>
							<path fill="#FFFFFF" d="M1769.011,154.077c0,0,0.448,4.142,2.967,5.15c0,0,1.511-2.63,1.008-5.262l0.448,0.391
								c0,0,2.071,1.456-1.343,7.836c0,0-4.646-4.646-3.918-7.892L1769.011,154.077z"/>
						</g>
						<path fill="#F2B37D" d="M1774.946,210.331c0,0,1.511,4.925,4.086,5.822c2.574,0.896,0.337,2.183-0.168,2.239
							c-0.503,0.056-3.022,0.28-4.646-1.4c-1.568-1.68-3.022-2.686-3.022-2.686s0.337-2.967,1.008-4.366l1.063-0.559
							L1774.946,210.331z"/>
						<path fill="#A62525" d="M1778.863,218.447c-0.503,0.056-3.022,0.28-4.646-1.4c-1.568-1.68-3.022-2.686-3.022-2.686
							s-0.391-1.959,0.559-3.191c0.168,0.952-0.224,2.127,3.022,4.366c2.071,1.4,3.023,0.84,3.47,0.28
							c0.224,0.168,0.503,0.28,0.728,0.391C1781.55,217.104,1779.368,218.335,1778.863,218.447z"/>
						<path fill="#775321" d="M1771.139,143.218c0.112-0.616-0.168-1.511-0.337-2.071c-0.337-1.008-0.951-1.68-2.014-1.735
							c-2.239-0.168-3.863,1.455-4.646,3.414c-1.848,4.646,0.28,9.46,1.792,13.825c0.28,0.896,0.503,1.735,0.671,2.686
							c0.112,0.616,0.224,1.175,0.28,1.792c0.056,0.559,0.112,1.062,0.168,1.623c0,0.28,0,0.559,0.056,0.84
							c0,0.112,0.112,0.783,0,0.84c0,0,3.863-3.247,3.079-6.94c-0.783-3.694-1.68-5.653-0.728-7.389
							C1770.411,148.311,1770.188,147.977,1771.139,143.218z"/>
						<path fill="#F2B37D" d="M1778.527,145.008c0,0,0.168,3.079,0,4.813c-0.112,1.735-1.792,6.717-2.967,6.549
							c0,0-4.031-0.337-4.422-4.422l-2.295-0.728c0,0-1.792-6.214,1.231-7.892C1773.043,141.651,1776.065,141.148,1778.527,145.008z
							"/>
						<path fill="#9F6D33" d="M1777.8,145.177c0,0-2.63,3.135-5.709,3.974c0,0-0.503-1.511-1.568-0.448
							c-1.062,1.062-0.337,2.799,0.616,3.247c0,0-1.12,1.231-1.848,1.735c0,0-5.709-8.732,1.903-11.979
							c5.989-2.574,9.46,3.582,7.333,8.06C1778.527,149.823,1778.975,146.297,1777.8,145.177z"/>
					</g>
					<g>
						<path fill="#F2B37D" d="M1784.348,161.858c0.337-0.337,0.896-0.952,1.343-1.119c0.616-0.28,1.008-0.28,1.568-0.671
							c0.391-0.224,1.008-0.559,1.231-1.008c0.168-0.391,0.671,0.448,0.112,0.952c-0.224,0.168-0.337,0.391-0.448,0.559
							c0.616,0.168,1.231,0.224,1.792-0.448c2.463-2.854,2.519-0.224,2.519-0.224c-0.896,2.183-1.568,2.239-2.351,2.63
							c-1.175,0.503-4.031,0.616-4.031,0.616l-0.728,1.231l-1.903-0.896c0.168-0.337,0.337-0.671,0.503-1.008
							C1784.069,162.193,1784.182,162.025,1784.348,161.858z"/>
						<path fill="#FFFFFF" d="M1782.222,164.152l1.68-1.959c0,0,1.288-0.28,2.351,1.511l-1.623,2.295
							C1784.629,166,1784.404,164.041,1782.222,164.152z"/>
						<path fill="#931E20" d="M1784.909,165.776l-3.414,5.486c-0.84,0.951-2.183,0.559-3.023-0.168l0,0
							c-0.896-0.728-0.84-1.288-0.056-2.239l3.974-5.15C1783.23,162.697,1785.749,164.768,1784.909,165.776z"/>
					</g>
					<path fill="#CB464A" d="M1771.083,174.284c0.559,0.952,1.511,0.896,2.63,0.224l0.503-0.391c1.12-0.671,0.671-1.511,0.056-2.463
						l-6.773-12.651c-0.559-0.951-3.302-2.911-4.422-2.239l-0.503,0.728c-1.12,2.239-0.168,3.974,0.391,4.982L1771.083,174.284z"/>
					<g>
						<path fill="#F2B37D" d="M1784.182,178.482c0.056,0,0.168,0,0.224-0.056c0.224,0,0.448-0.056,0.615,0
							c0.671,0,1.288,0.056,1.903,0.168c0.28,0.056,0.559-0.112,0.84-0.056c0.337,0.056,0.224,0.337,0.112,0.559
							c0.559,0.28,2.854,1.792,1.68,2.967c-0.783,0.783-3.302,0.616-4.254,0.168c-1.623-0.84-1.623-0.84-2.183-1.511l-0.84-0.448
							l0.952-2.239L1784.182,178.482z"/>
						<g>
							<path fill="#FFFFFF" d="M1782.726,177.362l-1.623,2.63l2.239,1.231c0,0,1.623-1.008,1.568-2.686L1782.726,177.362z"/>
							<path fill="#CB464A" d="M1771.083,172.885c-0.615,0.952,0.728,2.407,1.455,2.854l9.181,4.757
								c0.728,0.503,2.63-2.351,1.903-2.799l-8.788-5.374c-0.728-0.448-2.574-0.951-3.191,0L1771.083,172.885z"/>
						</g>
					</g>
				</g>
				<g>
					<g>
						<g>
							<polygon fill="#3A3938" points="1753.339,217.775 1754.29,232.778 1754.849,232.778 1756.641,218.112 							"/>
							<polygon fill="#3A3938" points="1764.982,224.661 1766.772,240.166 1767.221,240.166 1768.564,224.661 							"/>
							<path fill="#686869" d="M1765.654,225.556c-0.84-0.503-0.84-1.288,0-1.792c0.84-0.503,1.4-0.503,2.295,0
								c0.84,0.503,0.84,1.288,0,1.792C1767.053,226.06,1766.493,226.06,1765.654,225.556z"/>
							<path fill="#686869" d="M1754.011,218.728c-0.896-0.503-0.896-1.288,0-1.792c0.84-0.503,1.231-0.503,2.071,0
								c0.896,0.503,0.896,1.288,0,1.792C1755.186,219.231,1754.849,219.231,1754.011,218.728z"/>
						</g>
						<g>
							<polygon fill="#3A3938" points="1787.764,197.794 1788.714,212.794 1789.275,212.794 1791.066,198.129 							"/>
							<polygon fill="#3A3938" points="1799.406,204.621 1801.197,220.183 1801.645,220.183 1802.989,204.678 							"/>
							<path fill="#686869" d="M1800.078,205.573c-0.84-0.503-0.84-1.288,0-1.792c0.84-0.503,1.4-0.503,2.295,0
								c0.84,0.503,0.84,1.288,0,1.792C1801.477,206.077,1800.974,206.077,1800.078,205.573z"/>
							<path fill="#686869" d="M1788.435,198.745c-0.896-0.503-0.896-1.288,0-1.792c0.84-0.503,1.231-0.503,2.071,0
								c0.896,0.503,0.896,1.288,0,1.792C1789.666,199.193,1789.275,199.193,1788.435,198.745z"/>
						</g>
					</g>
					<g>
						<path opacity="0.3" fill="#50A19B" enable-background="new    " d="M1753.955,211.898c-8.788,5.094-9.852,12.762-2.351,17.128
							c7.501,4.31,20.823,3.694,29.611-1.343l22.557-12.985c8.788-5.094,9.852-12.762,2.351-17.128
							c-7.501-4.31-20.823-3.694-29.611,1.343L1753.955,211.898z"/>
						<path opacity="0.3" fill="#50A19B" enable-background="new    " d="M1753.955,210.164c-8.788,5.094-9.852,12.762-2.351,17.128
							c7.501,4.31,20.823,3.694,29.611-1.343l22.557-12.985c8.788-5.094,9.852-12.762,2.351-17.128
							c-7.501-4.31-20.823-3.694-29.611,1.343L1753.955,210.164z"/>
					</g>
				</g>
				<g>
					<polygon fill="#AAABAB" points="1747.91,219.79 1757.705,214.138 1771.866,222.366 1762.296,228.075 					"/>
					<polygon fill="#FFFFFF" points="1749.477,219.79 1757.705,215.033 1770.355,222.366 1762.296,227.181 					"/>
					<polygon fill="#646767" points="1747.91,219.79 1762.296,228.075 1762.296,228.524 1747.91,220.239 					"/>
					<polygon fill="#646767" points="1762.296,228.075 1771.866,222.366 1771.866,222.757 1762.296,228.524 					"/>
					<polygon fill="#646767" points="1751.716,217.609 1753.284,218.391 1756.026,216.769 1754.57,215.929 					"/>
				</g>
				<g>
					<polygon fill="#979372" points="1764.198,216.32 1768.845,213.746 1759.889,208.597 1755.298,211.283 					"/>
					<polygon fill="#DDE9F7" points="1767.949,213.746 1760.672,209.547 1756.978,211.731 1764.198,215.817 					"/>
					<polygon fill="#413E34" points="1768.845,213.746 1768.732,214.361 1764.255,216.936 1764.198,216.32 					"/>
					<polygon fill="#7C7853" points="1755.298,211.283 1755.355,211.788 1764.255,216.936 1764.198,216.32 					"/>
					<path fill="#FFFFFF" d="M1758.824,210.443c0.224-0.112,0.224-0.337,0-0.448c-0.224-0.112-0.615-0.112-0.84,0
						c-0.224,0.112-0.224,0.337,0,0.448C1758.208,210.555,1758.6,210.555,1758.824,210.443z"/>
				</g>
				<g>
					<polygon fill="#979372" points="1805.172,202.662 1809.761,200.088 1800.806,194.938 1796.272,197.569 					"/>
					<polygon fill="#DDE9F7" points="1808.866,200.088 1801.589,195.89 1797.895,198.017 1805.172,202.103 					"/>
					<polygon fill="#413E34" points="1809.761,200.088 1809.649,200.705 1805.172,203.279 1805.172,202.662 					"/>
					<polygon fill="#7C7853" points="1796.272,197.569 1796.272,198.129 1805.172,203.279 1805.172,202.662 					"/>
					<path fill="#FFFFFF" d="M1799.742,196.73c0.224-0.112,0.224-0.337,0-0.448c-0.224-0.112-0.615-0.112-0.84,0
						c-0.224,0.112-0.224,0.337,0,0.448C1799.126,196.842,1799.518,196.841,1799.742,196.73z"/>
				</g>
				<g>
					<path fill="#B99C64" d="M1772.762,220.743c-1.12,0-2.127-0.224-2.911-0.671c-0.728-0.391-1.12-0.952-1.12-1.511
						c0-0.56,0.391-1.119,1.12-1.511c0.783-0.448,1.792-0.671,2.911-0.671c1.119,0,2.127,0.224,2.91,0.671
						c0.728,0.391,1.12,0.952,1.12,1.511c0,0.56-0.391,1.119-1.12,1.511C1774.889,220.52,1773.882,220.743,1772.762,220.743z"/>
					<path fill="#ECDAB3" d="M1772.762,220.52c-1.063,0-2.014-0.224-2.742-0.671c-0.671-0.391-1.063-0.896-1.063-1.455
						s0.391-1.062,1.063-1.456c0.728-0.448,1.734-0.671,2.742-0.671c1.063,0,2.014,0.224,2.742,0.671
						c0.671,0.391,1.062,0.896,1.062,1.456c0,0.559-0.391,1.062-1.062,1.455C1774.833,220.239,1773.826,220.52,1772.762,220.52z"/>
					<path fill="#B99C64" d="M1772.762,219.624c-0.671,0-1.288-0.168-1.792-0.448c-0.448-0.28-0.671-0.616-0.671-0.952
						s0.224-0.671,0.671-0.952c0.448-0.28,1.12-0.391,1.792-0.391c0.671,0,1.288,0.168,1.792,0.391
						c0.448,0.28,0.671,0.616,0.671,0.952s-0.224,0.671-0.671,0.952C1774.049,219.512,1773.434,219.624,1772.762,219.624z"/>
					<path fill="#B99C64" d="M1776.512,215.424c-0.391-0.28-0.84-0.28-1.008-0.28c-0.056,0-0.391,0.224,0,0.448h0.056
						c0,0,0.337,0,0.559,0.168c0.224,0.112,0.28,0.337,0.28,0.671c0,0.336-0.112,0.559-0.28,0.671
						c-0.224,0.168-0.896,0.224-0.896,0.224h-0.056c0,0-0.391,0.168,0,0.448h0.056c0.168,0,0.896-0.112,1.231-0.337
						c0.337-0.224,0.503-0.559,0.503-1.008C1777.016,215.985,1776.849,215.593,1776.512,215.424z"/>
					<path fill="#EDEAE1" d="M1771.028,218.784c-0.503-0.28-0.728-0.671-0.728-1.008c0-0.337-0.728-1.343-0.391-2.63
						c0.28-1.062,5.597-0.896,5.765,0.168c0.168,1.231-0.448,2.127-0.448,2.519c0,0.337-0.224,0.728-0.728,1.008
						C1773.546,219.287,1771.979,219.287,1771.028,218.784z"/>
					<path fill="#C9C3B7" d="M1770.747,216.432c-1.12-0.671-1.12-1.68,0-2.351c1.119-0.671,2.967-0.671,4.085,0
						c1.12,0.671,1.12,1.68,0,2.351C1773.714,217.104,1771.866,217.104,1770.747,216.432z"/>
					<path fill="#ECDAB3" d="M1772.762,216.769c-0.728,0-1.456-0.168-1.959-0.448c-0.503-0.28-0.783-0.671-0.783-1.062
						s0.28-0.728,0.783-1.062c0.503-0.28,1.231-0.448,1.959-0.448s1.455,0.168,1.959,0.448c0.503,0.28,0.783,0.671,0.783,1.062
						c0,0.391-0.28,0.728-0.783,1.008C1774.217,216.601,1773.49,216.769,1772.762,216.769z"/>
					<path fill="#9E6A32" d="M1772.762,216.769c0.728,0,1.455-0.168,1.959-0.448c0.168-0.112,0.337-0.224,0.448-0.337
						c-0.112-0.112-0.28-0.224-0.448-0.337c-0.503-0.28-1.231-0.448-1.959-0.448s-1.456,0.168-1.959,0.448
						c-0.168,0.112-0.337,0.224-0.448,0.337c0.112,0.112,0.28,0.224,0.448,0.337
						C1771.307,216.601,1772.035,216.769,1772.762,216.769z"/>
				</g>
				<g>
					<path fill="#B99C64" d="M1799.294,207.644c-1.12,0-2.127-0.224-2.911-0.671c-0.728-0.391-1.12-0.952-1.12-1.511
						c0-0.559,0.391-1.119,1.12-1.511c0.783-0.448,1.792-0.671,2.911-0.671s2.127,0.224,2.91,0.671
						c0.728,0.391,1.12,0.952,1.12,1.511c0,0.559-0.391,1.119-1.12,1.511C1801.421,207.421,1800.413,207.644,1799.294,207.644z"/>
					<path fill="#ECDAB3" d="M1799.294,207.364c-1.062,0-2.014-0.224-2.742-0.671c-0.671-0.391-1.063-0.896-1.063-1.456
						c0-0.559,0.391-1.062,1.063-1.455c0.728-0.448,1.735-0.671,2.742-0.671c1.063,0,2.014,0.224,2.742,0.671
						c0.671,0.391,1.063,0.896,1.063,1.455c0,0.559-0.391,1.062-1.063,1.456C1801.365,207.141,1800.358,207.364,1799.294,207.364z"
						/>
					<path fill="#B99C64" d="M1799.294,206.525c-0.671,0-1.288-0.168-1.792-0.448c-0.448-0.28-0.671-0.616-0.671-0.952
						s0.224-0.671,0.671-0.952c0.448-0.28,1.12-0.391,1.792-0.391c0.671,0,1.288,0.168,1.792,0.391
						c0.448,0.28,0.671,0.616,0.671,0.952s-0.224,0.671-0.671,0.952C1800.637,206.357,1800.022,206.525,1799.294,206.525z"/>
					<path fill="#B99C64" d="M1803.045,202.27c-0.391-0.28-0.84-0.28-1.008-0.28c-0.056,0-0.391,0.224,0,0.448h0.056
						c0,0,0.337,0,0.559,0.168c0.224,0.112,0.28,0.337,0.28,0.671c0,0.335-0.112,0.559-0.28,0.671
						c-0.224,0.168-0.896,0.224-0.896,0.224h-0.056c0,0-0.391,0.168,0,0.448h0.056c0.168,0,0.896-0.112,1.231-0.337
						c0.337-0.224,0.503-0.559,0.503-1.008C1803.548,202.831,1803.38,202.495,1803.045,202.27z"/>
					<path fill="#EDEAE1" d="M1797.615,205.63c-0.503-0.28-0.728-0.671-0.728-1.008c0-0.337-0.728-1.343-0.391-2.63
						c0.28-1.062,5.597-0.896,5.765,0.168c0.168,1.231-0.448,2.127-0.448,2.519c0,0.337-0.224,0.728-0.728,1.008
						C1800.078,206.189,1798.566,206.189,1797.615,205.63z"/>
					<path fill="#C9C3B7" d="M1797.279,203.335c-1.12-0.671-1.12-1.68,0-2.351s2.967-0.671,4.085,0c1.12,0.671,1.12,1.68,0,2.351
						C1800.246,203.95,1798.398,203.95,1797.279,203.335z"/>
					<path fill="#ECDAB3" d="M1799.294,203.615c-0.728,0-1.456-0.168-1.959-0.448c-0.503-0.28-0.783-0.671-0.783-1.062
						s0.28-0.728,0.783-1.008c0.503-0.281,1.231-0.448,1.959-0.448s1.455,0.168,1.959,0.448c0.503,0.28,0.783,0.671,0.783,1.062
						c0,0.391-0.28,0.728-0.783,1.062C1800.749,203.503,1800.078,203.615,1799.294,203.615z"/>
					<path fill="#9E6A32" d="M1799.294,203.671c0.728,0,1.455-0.168,1.959-0.448c0.168-0.112,0.337-0.224,0.448-0.337
						c-0.112-0.112-0.28-0.224-0.448-0.337c-0.503-0.28-1.231-0.448-1.959-0.448s-1.456,0.168-1.959,0.448
						c-0.168,0.112-0.337,0.224-0.448,0.337c0.112,0.112,0.28,0.224,0.448,0.337
						C1797.895,203.503,1798.566,203.671,1799.294,203.671z"/>
				</g>
				<g>
					<path fill="#B99C64" d="M1788.939,201.376c1.12,0,2.127-0.224,2.911-0.671c0.728-0.391,1.12-0.952,1.12-1.511
						c0-0.56-0.391-1.119-1.12-1.511c-0.783-0.448-1.792-0.671-2.911-0.671c-1.119,0-2.127,0.224-2.911,0.671
						c-0.728,0.391-1.12,0.952-1.12,1.511c0,0.56,0.391,1.119,1.12,1.511C1786.812,201.152,1787.82,201.376,1788.939,201.376z"/>
					<path fill="#ECDAB3" d="M1788.939,201.152c1.063,0,2.014-0.224,2.742-0.671c0.671-0.391,1.063-0.896,1.063-1.455
						s-0.391-1.062-1.063-1.456c-0.728-0.448-1.734-0.671-2.742-0.671c-1.062,0-2.014,0.224-2.742,0.671
						c-0.671,0.391-1.062,0.896-1.062,1.456s0.391,1.062,1.062,1.455C1786.868,200.871,1787.876,201.152,1788.939,201.152z"/>
					<path fill="#B99C64" d="M1788.939,200.256c0.671,0,1.288-0.168,1.792-0.448c0.448-0.28,0.671-0.616,0.671-0.952
						c0-0.337-0.224-0.671-0.671-0.952c-0.448-0.28-1.12-0.391-1.792-0.391c-0.671,0-1.288,0.168-1.792,0.391
						c-0.448,0.28-0.671,0.616-0.671,0.952s0.224,0.671,0.671,0.952C1787.596,200.144,1788.211,200.256,1788.939,200.256z"/>
					<path fill="#B99C64" d="M1785.189,196.058c0.391-0.28,0.84-0.28,1.008-0.28c0.056,0,0.391,0.224,0,0.448h-0.056
						c0,0-0.337,0-0.559,0.168c-0.168,0.112-0.28,0.337-0.28,0.671c0,0.336,0.112,0.559,0.28,0.671
						c0.224,0.168,0.896,0.224,0.896,0.224h0.056c0,0,0.391,0.168,0,0.448h-0.056c-0.168,0-0.896-0.112-1.231-0.337
						c-0.337-0.224-0.503-0.559-0.503-1.008C1784.685,196.617,1784.853,196.226,1785.189,196.058z"/>
					<path fill="#EDEAE1" d="M1790.618,199.416c0.503-0.28,0.728-0.671,0.728-1.008c0-0.337,0.728-1.343,0.391-2.63
						c-0.28-1.062-5.597-0.896-5.765,0.168c-0.168,1.231,0.448,2.127,0.448,2.519c0,0.337,0.224,0.728,0.728,1.008
						C1788.155,199.92,1789.666,199.92,1790.618,199.416z"/>
					<path fill="#C9C3B7" d="M1790.954,197.066c1.12-0.671,1.12-1.68,0-2.351c-1.119-0.671-2.967-0.671-4.086,0
						c-1.119,0.671-1.119,1.736,0,2.351C1787.987,197.738,1789.834,197.738,1790.954,197.066z"/>
					<path fill="#ECDAB3" d="M1788.939,197.401c0.728,0,1.455-0.168,1.959-0.448c0.503-0.28,0.783-0.671,0.783-1.062
						c0-0.391-0.28-0.728-0.783-1.008c-0.503-0.28-1.231-0.448-1.959-0.448c-0.728,0-1.455,0.168-1.959,0.448
						c-0.503,0.28-0.783,0.671-0.783,1.062c0,0.391,0.28,0.728,0.783,1.008C1787.484,197.234,1788.155,197.401,1788.939,197.401z"/>
					<path fill="#9E6A32" d="M1788.939,197.401c-0.728,0-1.455-0.168-1.959-0.448c-0.168-0.112-0.337-0.224-0.448-0.337
						c0.112-0.112,0.28-0.224,0.448-0.337c0.503-0.28,1.231-0.448,1.959-0.448c0.728,0,1.455,0.168,1.959,0.448
						c0.168,0.112,0.337,0.224,0.448,0.337c-0.112,0.112-0.28,0.224-0.448,0.337
						C1790.338,197.234,1789.666,197.401,1788.939,197.401z"/>
				</g>
				<g>
					<path fill="#B99C64" d="M1768.005,210.164c1.119,0,2.127-0.224,2.911-0.671c0.728-0.391,1.12-0.952,1.12-1.511
						c0-0.56-0.391-1.119-1.12-1.511c-0.783-0.448-1.792-0.671-2.911-0.671c-1.12,0-2.127,0.224-2.91,0.671
						c-0.728,0.391-1.119,0.952-1.119,1.511c0,0.56,0.391,1.119,1.119,1.511C1765.933,209.94,1766.94,210.164,1768.005,210.164z"/>
					<path fill="#ECDAB3" d="M1768.005,209.884c1.062,0,2.014-0.224,2.742-0.671c0.671-0.391,1.063-0.896,1.063-1.455
						c0-0.559-0.391-1.062-1.063-1.455c-0.728-0.448-1.736-0.671-2.742-0.671c-1.064,0-2.014,0.224-2.742,0.671
						c-0.671,0.391-1.063,0.896-1.063,1.455c0,0.559,0.391,1.062,1.063,1.455C1765.989,209.659,1766.997,209.884,1768.005,209.884z"
						/>
					<path fill="#B99C64" d="M1768.005,209.044c0.671,0,1.288-0.168,1.792-0.448c0.448-0.28,0.671-0.616,0.671-0.952
						c0-0.337-0.224-0.671-0.671-0.952c-0.448-0.28-1.12-0.391-1.792-0.391c-0.671,0-1.288,0.168-1.792,0.391
						c-0.448,0.28-0.671,0.616-0.671,0.952s0.224,0.671,0.671,0.952C1766.718,208.876,1767.333,209.044,1768.005,209.044z"/>
					<path fill="#B99C64" d="M1764.31,204.79c0.391-0.28,0.84-0.28,1.008-0.28c0.056,0,0.391,0.224,0,0.448h-0.056
						c0,0-0.337,0-0.559,0.168c-0.224,0.112-0.28,0.337-0.28,0.671c0,0.337,0.112,0.559,0.28,0.671
						c0.224,0.168,0.896,0.224,0.896,0.224h0.056c0,0,0.391,0.168,0,0.448h-0.056c-0.168,0-0.896-0.112-1.231-0.337
						c-0.336-0.224-0.503-0.559-0.503-1.008C1763.806,205.35,1763.974,205.014,1764.31,204.79z"/>
					<path fill="#EDEAE1" d="M1769.739,208.148c0.503-0.28,0.728-0.671,0.728-1.008c0-0.337,0.728-1.343,0.391-2.63
						c-0.28-1.062-5.597-0.896-5.765,0.168c-0.168,1.231,0.448,2.127,0.448,2.519c0,0.337,0.224,0.728,0.728,1.008
						C1767.277,208.709,1768.787,208.709,1769.739,208.148z"/>
					<path fill="#C9C3B7" d="M1770.076,205.798c1.119-0.671,1.119-1.68,0-2.351c-1.12-0.671-2.967-0.671-4.087,0
						c-1.119,0.671-1.119,1.68,0,2.351C1767.109,206.47,1768.956,206.47,1770.076,205.798z"/>
					<path fill="#ECDAB3" d="M1768.005,206.133c0.728,0,1.455-0.168,1.959-0.448c0.503-0.28,0.783-0.671,0.783-1.062
						c0-0.391-0.28-0.728-0.783-1.008c-0.503-0.281-1.231-0.448-1.959-0.448c-0.728,0-1.455,0.168-1.959,0.448
						c-0.503,0.28-0.783,0.671-0.783,1.062s0.28,0.728,0.783,1.008C1766.606,205.965,1767.277,206.133,1768.005,206.133z"/>
					<path fill="#9E6A32" d="M1768.005,206.133c-0.728,0-1.455-0.168-1.959-0.448c-0.168-0.112-0.337-0.224-0.448-0.337
						c0.112-0.112,0.28-0.224,0.448-0.337c0.503-0.28,1.231-0.448,1.959-0.448c0.728,0,1.455,0.168,1.959,0.448
						c0.168,0.112,0.337,0.224,0.448,0.337c-0.112,0.112-0.28,0.224-0.448,0.337C1769.46,205.965,1768.787,206.133,1768.005,206.133
						z"/>
				</g>
				<g>
					<path fill="#21201F" d="M1804.556,231.49c0,0,0.448,1.288,0.337,2.686c-0.112,1.68-0.783,3.638-0.896,4.086
						c0,0-0.28,0.28-0.951,0.168l-0.056-2.127c0,0-1.231,1.4-2.014,1.848c-0.952,0.559-1.568,0.671-3.526,0.448
						c0,0-1.008-0.056-1.68-0.84c-0.728-0.84,0.168-1.175,1.455-1.511c2.911-0.783,4.31-4.534,4.534-5.206L1804.556,231.49z"/>
					<path fill="#21201F" d="M1813.008,228.243c0,0,0.448,1.343,0.391,2.686c-0.112,1.68-0.728,3.191-0.84,3.638
						c0,0-0.337,0.448-1.062,0.168l-0.056-2.127c0,0-1.231,1.119-2.014,1.4c-0.952,0.337-1.568,0.448-3.526-0.168
						c0,0-1.062-0.28-1.68-1.175c-0.728-1.008,0.168-1.119,1.455-1.175c2.911-0.168,4.646-3.079,4.869-3.694L1813.008,228.243z"/>
					<path fill="#191818" d="M1809.761,228.243c-0.112,1.231,3.694,1.623,3.414,0.112c0,0-0.952-17.8-3.974-19.143
						c-1.903-0.84-0.952-2.854-2.239-2.574l0,0c-3.135,0-3.751,3.022-2.967,3.973
						C1806.738,214.25,1809.761,228.243,1809.761,228.243z"/>
					<path fill="#2D2E2D" d="M1801.365,231.322c0.056,1.568,3.582,1.736,3.526,0.168c0,0,2.463-15.953,0.056-20.206
						c-1.568-2.686-5.15-0.28-4.702,2.014C1801.421,219.567,1801.365,231.322,1801.365,231.322z"/>
				</g>
				<g>
					<path fill="#0F0F0F" d="M1782.11,242.18c0,0,0.224,3.414,0,4.478c0,0-2.071,0.783-3.974,0.28v-1.008c0,0-3.191,1.4-6.829,1.175
						c0,0-2.014-0.224-2.351-1.623c-0.337-1.4,1.568-1.456,3.191-1.848s3.638-1.455,3.974-2.351L1782.11,242.18z"/>
					<path fill="#0F0F0F" d="M1775.953,246.883c0,0,0.224,3.414,0,4.478c0,0-2.071,0.783-3.974,0.28v-1.008
						c0,0-3.191,1.4-6.829,1.175c0,0-2.014-0.224-2.351-1.623c-0.337-1.4,1.568-1.456,3.191-1.848
						c1.623-0.391,3.638-1.455,3.974-2.351L1775.953,246.883z"/>
					<path fill="#04353A" d="M1776.065,242.013c0,1.903,6.102,1.903,6.102,0v-18.527c0-1.903-1.343-3.47-3.079-3.47l0,0
						c-1.68,0-3.079,1.568-3.079,3.47L1776.065,242.013L1776.065,242.013z"/>
					<path fill="#084049" d="M1769.572,246.715c0,1.903,6.493,1.903,6.493,0v-18.527c0-1.903-1.455-3.47-3.247-3.47l0,0
						c-1.792,0-3.247,1.568-3.247,3.47V246.715L1769.572,246.715z"/>
				</g>
				<g>
					<polygon fill="#3A3938" points="1773.434,242.909 1768.116,258.245 1768.787,258.638 1776.457,245.539 					"/>
					<polygon fill="#3A3938" points="1845.082,222.926 1848.664,236.135 1847.936,236.584 1842.059,225.108 					"/>
					<polygon fill="#3A3938" points="1787.82,254.496 1788.714,270 1789.722,270 1791.681,254.496 					"/>
					<polygon fill="#DB6930" points="1768.787,238.486 1789.275,250.297 1848.664,215.873 1827.673,203.726 					"/>
					<polygon fill="#C1522B" points="1768.787,238.486 1768.787,245.204 1789.275,257.071 1789.275,250.297 					"/>
					<polygon fill="#B33927" points="1789.275,257.071 1848.664,222.646 1848.664,215.873 1789.275,250.297 					"/>
				</g>
				<g>
					<path fill="#595A59" d="M1800.19,184.863c0.112,1.568,1.12,2.407,2.686,2.295l12.314,0.391c1.568-0.112,3.47-0.671,3.358-3.302
						l0,0c-0.112-1.568-1.455-2.686-3.023-2.574l-13.378,1.008C1800.637,182.792,1800.078,183.295,1800.19,184.863L1800.19,184.863z
						"/>
					<g>
						<path fill="#F2B37D" d="M1791.905,180.777l-1.064-0.337c0,0-2.742-1.455-3.807-1.343c-1.063,0.168-4.031,1.455-2.127,1.959
							c1.848,0.448,1.231,0,2.63,0.783c1.4,0.84,1.623,1.175,2.295,0.896l1.119,0.224L1791.905,180.777z"/>
						<path fill="#EFE8E9" d="M1793.697,181.113l-2.295-0.671c0,0-1.511,0.783-1.063,2.967l2.407,0.728
							C1792.69,184.135,1791.905,182.177,1793.697,181.113z"/>
						<path fill="#595A59" d="M1792.465,184.191l7.501,2.574c3.247,1.119,3.079-0.337,3.47-1.735c0,0-0.84-1.959-2.183-2.351
							l-7.669-1.792C1792.297,180.441,1791.122,183.8,1792.465,184.191z"/>
					</g>
					<path fill="#191818" d="M1808.809,213.746c13.882,8.732,19.031,3.694,19.031,3.694c4.925-5.541,1.12-12.035-0.616-12.426
						l-3.751,1.288c-1.736-0.391-4.087-1.68-4.478-0.056l-0.28,4.086l-11.251-3.694
						C1807.13,208.26,1807.579,212.962,1808.809,213.746z"/>
					<path fill="#2D2E2D" d="M1804.779,217.496c15.842,6.493,20.934,1.288,20.934,1.288c4.925-5.541,1.848-10.746,0.112-11.14
						l-3.751,1.288c-1.735-0.391-4.085-1.68-4.478-0.056l-0.28,4.086l-14.329-2.854
						C1802.653,211.788,1803.38,216.936,1804.779,217.496z"/>
					<polygon fill="#F2B37D" points="1815.471,181.281 1813.903,178.426 1811.217,182.288 1812.504,184.359 					"/>
					<path fill="#595A59" d="M1816.142,180.609l-1.175-1.231c0,0-3.751,3.638-2.742,6.998L1816.142,180.609z"/>
					<path fill="#EFE8E9" d="M1816.142,180.609c0,0,7.613-0.84,7.445,11.643c-0.112,6.94,6.102,13.825,6.102,13.825
						s-1.903,4.757-6.381,5.094c0,0-5.262,0.503-6.605-1.343l-6.829-17.241C1809.874,192.588,1809.369,186.095,1816.142,180.609z"/>
					<g>
						<path fill="#595A59" d="M1814.743,205.742c1.511-0.337,2.239-1.455,1.959-2.967l-1.231-12.258
							c-0.337-1.511-1.12-3.358-3.751-2.854l0,0c-1.511,0.337-2.463,1.792-2.183,3.302l2.742,13.098
							C1812.616,205.63,1813.232,206.077,1814.743,205.742L1814.743,205.742z"/>
						<g>
							<path fill="#F2B37D" d="M1805.675,207.141l-1.008,0.503c0,0-2.967,0.896-3.638,1.735c-0.671,0.896-1.848,3.863-0.168,2.911
								c1.68-1.008,0.896-0.896,2.463-1.288c1.568-0.391,1.959-0.337,2.295-1.008l0.951-0.671L1805.675,207.141z"/>
							<path fill="#EFE8E9" d="M1807.186,206.077l-2.127,1.119c0,0-0.559,1.623,1.343,2.91l2.239-1.175
								C1808.641,208.932,1806.738,208.148,1807.186,206.077z"/>
							<path fill="#595A59" d="M1808.529,209.156l7.165-3.47c1.231-0.616,1.288-1.623,0.615-2.91c0,0-1.343-1.568-2.574-0.896
								l-6.661,4.142C1805.787,206.638,1807.298,209.828,1808.529,209.156z"/>
						</g>
					</g>
					<path fill="#F2B37D" d="M1810.097,169.358c0,0-1.848,1.848-1.736,5.486c0.112,3.582-0.559,9.236,3.247,7.724
						c3.807-1.511,6.717-1.736,7.557-8.116C1819.949,168.015,1812.785,166.503,1810.097,169.358z"/>
					<path fill="#B7A031" d="M1811.105,177.474c0,0,3.079,7.613,0.84,9.684c0,0,7.892,0.503,8.285-2.295
						c0,0,1.623-17.017-7.109-17.52C1813.12,167.343,1802.82,167.679,1811.105,177.474z"/>
				</g>
				<g>
					<path fill="#073F49" d="M1773.323,205.686c0.337,1.231,1.623,2.014,2.91,1.792l10.635-0.728
						c1.231-0.224,2.183-2.574,1.792-3.807l0,0c-0.337-1.231-1.623-2.014-2.911-1.792l-10.802,1.903
						C1773.658,203.335,1772.93,204.51,1773.323,205.686L1773.323,205.686z"/>
					<path fill="#F2B37D" d="M1784.069,200.928c0,0,0.503-3.022,2.127-5.318c1.623-2.295,2.014-7.389-2.295-8.956
						c-4.31-1.568-7.109,0.671-7.557,1.903c-0.448,1.231-0.448,4.646-0.671,6.214c-0.223,1.568-0.728,7.221,3.023,5.877l2.014,5.877
						L1784.069,200.928z"/>
					<path fill="#775321" d="M1781.215,199.416l3.247-0.168c0,0,2.742-3.807,3.917-4.757c0,0,2.239-6.94-3.974-9.181
						c-6.214-2.239-11.362,2.183-8.339,4.534c0,0,1.343,3.022,1.288,4.031c0,0,1.062-3.694,1.959-0.168
						C1780.263,197.289,1781.215,199.416,1781.215,199.416z"/>
					<g>
						<path fill="#F2B37D" d="M1765.317,203l-1.008-0.391c0,0-1.903,0.056-2.911-0.337c0,0-2.239-0.168-0.728-0.783
							c0,0,0.168-0.056,1.063-0.112c0,0-0.671-1.456-1.848-1.119c-1.175,0.337-1.343-0.224-0.559-0.952
							c0.84-0.728,0.728-1.288,3.079-0.503c2.295,0.783,2.183,1.231,2.799,1.792l0.896,0.337L1765.317,203z"/>
						<path fill="#E8F6FB" d="M1768.005,201.264l-2.407-0.896c0,0-1.231,0.391-1.288,2.463l2.519,1.231
							C1766.828,204.062,1766.045,202.216,1768.005,201.264z"/>
						<path fill="#073F49" d="M1766.437,204.006l6.717,3.414c1.175,0.448,3.918-0.168,4.31-1.231v-1.175
							c0.391-1.062-2.014-1.511-3.191-1.959l-6.717-2.071C1766.437,200.536,1765.262,203.559,1766.437,204.006z"/>
					</g>
					<path fill="#04353A" d="M1776.512,222.422c-0.896,1.736-0.224,3.863,1.511,4.757l15.562,8.004
						c1.736,0.896,3.863,0.224,4.757-1.511l0,0c0.896-1.735,0.224-3.863-1.511-4.757l-15.562-8.004
						C1779.535,220.015,1777.409,220.686,1776.512,222.422L1776.512,222.422z"/>
					<path fill="#084049" d="M1798.958,228.019c0,0,2.014,5.486-2.463,8.62c-4.478,3.135-5.15,4.478-9.069,2.91v-6.717
						L1798.958,228.019z"/>
					<path fill="#E8F6FB" d="M1785.693,200.368c0,0-0.783-0.671-1.231-1.062c0,0-5.653,3.694-4.142,8.564L1785.693,200.368z"/>
					<path fill="#084049" d="M1770.02,226.341c-0.952,1.736-0.337,3.863,1.4,4.813l15.896,8.732
						c1.736,0.952,4.925,0.559,5.653-0.952l0,0c0.952-1.735,0.84-4.31-0.84-5.262l-16.736-9.181
						C1773.658,223.541,1770.971,224.604,1770.02,226.341L1770.02,226.341z"/>
					<path fill="#144E5E" d="M1785.693,200.368c0,0,6.717,1.623,8.284,9.907c1.568,8.284,5.43,17.744,5.43,17.744
						s-4.031,6.158-9.516,6.269c0,0-3.023-0.112-4.534-2.351l-4.813-16.345C1780.543,215.537,1777.072,206.692,1785.693,200.368z"/>
					<g>
						<path fill="#F2B37D" d="M1776.065,222.813l-1.231,0.224c0,0-3.47,0-4.422,0.728c-1.008,0.671-3.247,3.358-1.12,2.854
							c2.071-0.503,1.231-0.616,3.023-0.559c1.792,0.056,2.239,0.224,2.742-0.337l1.231-0.391L1776.065,222.813z"/>
						<g>
							<path fill="#E8F6FB" d="M1777.577,221.975l-2.519,0.503c0,0-1.175,1.848,0.337,3.582l2.63-0.503
								C1778.024,225.556,1776.4,223.765,1777.577,221.975z"/>
							<g>
								<path fill="#073F49" d="M1786.812,224.324c1.4-0.671,2.295-1.792,1.568-3.247l-3.414-12.146
									c-0.616-1.008-2.463-3.247-4.869-2.127l0,0c-1.4,0.671-2.239,3.526-1.511,4.981l4.813,11.811
									C1784.013,224.998,1785.413,224.998,1786.812,224.324L1786.812,224.324z"/>
								<path fill="#073F49" d="M1777.912,225.836l8.62-0.952c1.456-0.28,2.407-1.68,2.127-3.135l0,0
									c-0.28-1.455-1.68-2.407-3.134-2.127l-8.116,2.127C1775.953,222.086,1776.457,226.116,1777.912,225.836z"/>
							</g>
						</g>
					</g>
					<path fill="#9F6D33" d="M1788.435,194.49c0,0,2.239-6.94-3.974-9.181c-6.214-2.239-11.362,2.183-8.339,4.534
						C1776.121,189.845,1783.621,195.386,1788.435,194.49z"/>
				</g>
				<g>
					<polygon fill="#C1522B" points="1786.308,248.618 1789.386,228.299 1792.297,229.978 1789.219,250.297 					"/>
					<polygon fill="#F27E55" points="1789.386,228.299 1848.72,193.875 1851.63,195.555 1792.297,229.978 					"/>
					<polygon fill="#B33927" points="1851.63,195.555 1848.552,215.873 1789.219,250.297 1792.297,229.978 					"/>
				</g>
				<g>
					<polygon fill="#815421" points="1750.988,239.438 1750.988,252.2 1767.557,261.772 1767.557,249.01 					"/>
					<polygon fill="#996126" points="1750.988,239.438 1755.018,236.975 1771.643,246.547 1767.557,249.01 					"/>
					<polygon fill="#432917" points="1771.643,246.547 1771.643,259.365 1767.557,261.772 1767.557,249.01 					"/>
					<g>
						<polygon fill="#C2AB31" points="1753.396,239.495 1755.578,238.206 1756.641,238.879 1754.458,240.109 						"/>
						<polygon fill="#C2AB31" points="1766.493,246.994 1768.677,245.707 1769.739,246.322 1767.557,247.611 						"/>
						<polygon fill="#C2AB31" points="1757.034,241.9 1759.217,240.614 1760.28,241.229 1758.153,242.518 						"/>
						<polygon fill="#C2AB31" points="1762.575,245.091 1764.758,243.86 1765.821,244.477 1763.639,245.707 						"/>
						<g>
							<path fill="#432917" d="M1764.982,244.757l-0.783,0.448l-0.783-0.448v-1.792c0-0.952-0.728-2.183-1.511-2.63l-1.734-1.008
								c-0.28-0.168-0.503-0.168-0.559-0.112c-0.112,0.056-0.168,0.224-0.168,0.559v1.792l-0.783,0.503l-0.783-0.503v-1.792
								c0-0.84,0.337-1.568,0.952-1.903c0.616-0.337,1.4-0.28,2.127,0.112l1.735,1.008c1.288,0.728,2.295,2.463,2.295,3.973
								L1764.982,244.757L1764.982,244.757z"/>
						</g>
					</g>
				</g>
			</g>
			<g>
				<polygon opacity="0.1" fill="#101011" enable-background="new    " points="1690.2,249.682 1701.283,256.062 1716.732,248.449 
					1705.146,241.229 				"/>
				<g>
					<g>
						<polygon fill="#21201F" points="1693.167,232.553 1690.2,249.682 1690.704,249.961 1695.013,233.561 						"/>
						<polygon fill="#21201F" points="1700.556,236.863 1701.283,256.062 1701.787,256.119 1702.57,237.424 						"/>
						<polygon fill="#21201F" points="1713.429,229.53 1716.732,248.449 1717.291,248.449 1715.5,229.811 						"/>
						<polygon fill="#21201F" points="1702.403,226.732 1705.201,241.621 1705.705,241.621 1704.473,226.901 						"/>
					</g>
					<g>
						<polygon fill="#525453" points="1701.675,213.522 1716.676,204.846 1716.676,231.322 1701.618,239.942 						"/>
						<polygon fill="#343433" points="1701.675,213.522 1690.2,206.917 1690.2,233.337 1701.618,239.942 						"/>
						<polygon fill="#C7C6C6" points="1690.2,206.917 1705.201,198.241 1716.676,204.846 1701.675,213.522 						"/>
						<polygon fill="#F8C41D" points="1702.57,214.025 1715.724,206.413 1715.724,218.615 1702.57,226.228 						"/>
						<polygon fill="#C0BEBE" points="1702.57,227.235 1715.724,219.624 1715.724,230.707 1702.57,238.318 						"/>
						<polygon fill="#343433" points="1707.273,212.794 1711.022,210.611 1711.022,211.898 1707.273,214.081 						"/>
					</g>
					<polygon fill="#323230" points="1720.986,232.553 1707.216,224.55 1708.839,223.597 1714.772,220.183 1720.986,223.709 					
						"/>
					<polygon fill="#646767" points="1713.821,220.743 1714.772,220.183 1721.098,223.709 1720.035,224.269 					"/>
					<polygon fill="#F8C41D" points="1708.839,230.763 1721.995,223.206 1721.995,234.288 1708.839,241.845 					"/>
					<polygon fill="#8B8B8B" points="1721.995,223.206 1721.155,222.646 1707.776,230.37 1708.839,230.763 					"/>
					<polygon fill="#323230" points="1707.776,230.37 1707.776,241.173 1708.839,241.845 1708.839,230.763 					"/>
					<polygon fill="#343433" points="1713.541,229.195 1717.291,227.012 1717.291,228.299 1713.541,230.482 					"/>
					<polygon fill="#323230" points="1707.776,240.389 1702.57,237.424 1702.57,228.578 1707.776,231.601 					"/>
					<polygon fill="#646767" points="1702.57,228.578 1702.57,227.46 1707.776,230.426 1707.776,231.601 					"/>
					<polygon fill="#34AFA0" points="1707.776,230.426 1706.041,229.418 1716.676,223.43 1718.3,224.269 					"/>
					<polygon fill="#A02524" points="1704.585,228.636 1714.997,222.87 1716.34,223.597 1706.041,229.418 					"/>
					<polygon fill="#4273A5" points="1704.585,228.636 1703.242,227.852 1713.541,222.254 1714.772,222.982 					"/>
				</g>
			</g>
		</g>
	</g>
</g>
</svg>
