<?xml version="1.0" encoding="utf-8"?>
<!-- Generator: Adobe Illustrator 17.0.0, SVG Export Plug-In . SVG Version: 6.00 Build 0)  -->
<!DOCTYPE svg PUBLIC "-//W3C//DTD SVG 1.1//EN" "http://www.w3.org/Graphics/SVG/1.1/DTD/svg11.dtd">
<svg version="1.1" id="Layer_1" xmlns="http://www.w3.org/2000/svg" xmlns:xlink="http://www.w3.org/1999/xlink" x="0px" y="0px"
	 width="22.042px" height="19.083px" viewBox="0 0 22.042 19.083" enable-background="new 0 0 22.042 19.083" xml:space="preserve">
<g>
	<g id="_x35__21_">
		<path fill="#5D5D5D" d="M18.662,2.373c-1.817-0.098-3.13,1.547-3.22,3.221c0.065,1.197,0.612,2.046,1.36,2.552
			c-0.726,1.09-1.452,2.18-2.178,3.271c-0.406-0.212-0.858-0.341-1.314-0.365c-0.643-0.035-1.213,0.183-1.672,0.547
			c-0.831-0.929-1.663-1.857-2.493-2.785C9.288,8.514,9.376,8.188,9.394,7.86c0.067-1.25-1.065-2.154-2.216-2.217
			C5.928,5.576,5.023,6.709,4.961,7.86C4.98,8.206,5.067,8.521,5.202,8.803c-0.683,0.792-1.366,1.583-2.049,2.375
			c-0.302-0.213-0.671-0.345-1.089-0.368c-1.075-0.058-1.853,0.916-1.906,1.906c-0.058,1.075,0.917,1.852,1.906,1.905
			c1.075,0.058,1.853-0.916,1.906-1.905c-0.019-0.361-0.125-0.683-0.289-0.96c0.52-0.603,1.041-1.207,1.562-1.81
			c0.142-0.166,0.285-0.331,0.428-0.496c0.385,0.365,0.903,0.593,1.506,0.626C7.779,10.109,8.3,9.861,8.686,9.469
			c0.804,0.898,1.608,1.796,2.411,2.694c-0.362,0.496-0.585,1.104-0.618,1.718c0.086,1.6,1.23,2.743,2.83,2.83
			c1.597,0.086,2.75-1.36,2.83-2.83c0.044-0.819-0.316-1.52-0.875-2.021c0.746-1.12,1.491-2.239,2.236-3.359
			c1.832,0.661,4.24-0.308,4.381-2.908C21.979,3.776,20.335,2.463,18.662,2.373z"/>
	</g>
</g>
</svg>
