<?xml version="1.0" encoding="utf-8"?>
<!-- Generator: Adobe Illustrator 17.0.0, SVG Export Plug-In . SVG Version: 6.00 Build 0)  -->
<!DOCTYPE svg PUBLIC "-//W3C//DTD SVG 1.1//EN" "http://www.w3.org/Graphics/SVG/1.1/DTD/svg11.dtd">
<svg version="1.1" id="Layer_1" xmlns="http://www.w3.org/2000/svg" xmlns:xlink="http://www.w3.org/1999/xlink" x="0px" y="0px"
	 width="22.042px" height="19.083px" viewBox="0 0 22.042 19.083" enable-background="new 0 0 22.042 19.083" xml:space="preserve">
<g>
	<g>
		<path fill="#5D5D5D" d="M17.722,2.838c-3.26-3.261-8.471-3.661-12.189-1.014C4.405,1.191,3.048,1.941,3.048,3.23
			c0,0.304,0.087,0.594,0.239,0.848c-2.626,3.717-2.22,8.911,1.032,12.163C6.147,18.068,8.602,19,11.03,19
			c1.893,0,3.826-0.575,5.455-1.726c0.254,0.152,0.543,0.238,0.846,0.238c0.919,0,1.663-0.743,1.663-1.663
			c0-0.304-0.087-0.594-0.239-0.848C21.381,11.284,20.974,6.09,17.722,2.838z M10.466,17.871c-1.95-0.131-3.892-0.943-5.363-2.415
			c-1.471-1.471-2.283-3.414-2.414-5.363h2.235c0.075,0.841,0.336,1.703,0.766,2.467c-0.44,0.643-0.383,1.532,0.197,2.112
			c0.583,0.583,1.471,0.634,2.108,0.201c0.765,0.431,1.629,0.682,2.471,0.758L10.466,17.871L10.466,17.871z M10.466,14.519
			c-0.614-0.068-1.251-0.254-1.815-0.553c0.187-0.634-0.003-1.237-0.412-1.646c-0.427-0.427-1.066-0.54-1.632-0.386
			c-0.307-0.571-0.498-1.218-0.567-1.841H9.46c0.168,0.47,0.537,0.839,1.007,1.007L10.466,14.519L10.466,14.519z M10.466,7.978
			C9.997,8.145,9.627,8.515,9.46,8.985H6.033c0.251-2.244,1.995-4.146,4.433-4.417L10.466,7.978L10.466,7.978z M10.466,3.459
			C7.404,3.737,5.182,6.129,4.92,8.985H2.694C2.79,7.526,3.269,6.05,4.142,4.788c0.181,0.066,0.371,0.105,0.57,0.105
			c0.918,0,1.663-0.743,1.663-1.663c0-0.198-0.04-0.389-0.105-0.57c1.263-0.873,2.739-1.352,4.197-1.448L10.466,3.459L10.466,3.459z
			 M11.575,4.568c0.911,0.101,1.826,0.453,2.579,1.053l-2.421,2.421c-0.051-0.025-0.104-0.045-0.158-0.065V4.568z M11.575,3.459
			V1.207c1.775,0.119,3.546,0.809,4.953,2.041l-1.589,1.589C13.964,4.027,12.771,3.568,11.575,3.459z M11.575,11.1
			c0.47-0.168,0.839-0.541,1.007-1.01h3.41c-0.272,2.445-2.18,4.186-4.417,4.437V11.1z M17.889,14.306
			c-1.131-0.385-2.222,0.41-2.222,1.543c0,0.198,0.039,0.389,0.105,0.57c-1.263,0.873-2.739,1.352-4.197,1.448v-2.25
			c2.99-0.276,5.256-2.56,5.525-5.526h2.247C19.251,11.554,18.769,13.039,17.889,14.306z"/>
	</g>
</g>
</svg>
