<?xml version="1.0" encoding="utf-8"?>
<!-- Generator: Adobe Illustrator 23.0.5, SVG Export Plug-In . SVG Version: 6.00 Build 0)  -->
<svg version="1.1" id="Capa_1" xmlns="http://www.w3.org/2000/svg" xmlns:xlink="http://www.w3.org/1999/xlink" x="0px" y="0px"
	 viewBox="0 0 512 512" style="enable-background:new 0 0 512 512;" xml:space="preserve">
<style type="text/css">
	.st0{fill:#4675E4;}
</style>
<g>
	<g>
		<path class="st0" d="M161.29,353c-1.86-1.86-4.44-2.93-7.07-2.93s-5.21,1.07-7.07,2.93c-1.86,1.86-2.93,4.44-2.93,7.07
			c0,2.63,1.07,5.21,2.93,7.07c1.86,1.86,4.44,2.93,7.07,2.93s5.21-1.07,7.07-2.93c1.86-1.86,2.93-4.44,2.93-7.07
			C164.22,357.44,163.15,354.86,161.29,353z"/>
	</g>
</g>
<g>
	<g>
		<path class="st0" d="M495.23,364.05l-72.29-72.29c-10.79-10.79-25.14-16.73-40.39-16.73c-15.26,0-29.6,5.94-40.39,16.73
			l-25.21,25.21c0,0,0,0,0,0s0,0,0,0l-10.07,10.07l-122-122l35.29-35.29c22.27-22.27,22.27-58.52,0-80.79l-72.23-72.23
			c-22.27-22.27-58.51-22.27-80.79,0L48.07,35.78c-64.04,64.04-64.04,168.24,0,232.27l70.25,70.25c3.9,3.9,10.24,3.9,14.14,0
			c3.9-3.9,3.9-10.24,0-14.14l-70.25-70.25C10.45,202.16,6.33,120.53,49.83,64.01l75.94,75.94c1.95,1.95,4.51,2.93,7.07,2.93
			s5.12-0.98,7.07-2.93c3.9-3.9,3.91-10.24,0-14.14l-76.8-76.8l18.14-18.14c14.48-14.47,38.03-14.48,52.51,0L206,103.11
			c14.48,14.48,14.48,38.03,0,52.51l-42.36,42.36c-1.88,1.88-2.93,4.42-2.93,7.07s1.05,5.2,2.93,7.07l136.15,136.15
			c3.91,3.91,10.24,3.9,14.14,0L324,338.18l123.95,123.95C422.86,481.5,392.26,492,360.04,492c-38.53,0-74.75-15-101.99-42.25
			l-71.25-71.25c-3.9-3.9-10.24-3.9-14.14,0c-3.9,3.9-3.9,10.24,0,14.14l71.25,71.25c31.02,31.02,72.27,48.1,116.14,48.1
			c43.87,0,85.12-17.08,116.14-48.11l19.05-19.05c10.79-10.79,16.73-25.14,16.73-40.39C511.96,389.19,506.02,374.84,495.23,364.05z
			 M481.09,430.7l-18.14,18.14l-124.8-124.8l18.14-18.14c7.01-7.01,16.33-10.88,26.25-10.88c9.92,0,19.24,3.86,26.25,10.88
			l72.3,72.3c7.01,7.01,10.88,16.34,10.88,26.25C491.96,414.36,488.1,423.69,481.09,430.7z"/>
	</g>
</g>
<g>
	<g>
		<path class="st0" d="M164.2,150.1c-1.86-1.87-4.44-2.93-7.07-2.93s-5.21,1.06-7.07,2.93c-1.86,1.86-2.93,4.43-2.93,7.07
			c0,2.63,1.07,5.21,2.93,7.07c1.86,1.86,4.44,2.93,7.07,2.93s5.21-1.07,7.07-2.93c1.86-1.86,2.93-4.44,2.93-7.07
			S166.06,151.96,164.2,150.1z"/>
	</g>
</g>
<g>
	<g>
		<path class="st0" d="M421.55,72.24c-1.18-17.15-15-30.97-32.15-32.15c-9.73-0.66-18.99,2.61-26.09,9.24
			c-7,6.53-11.02,15.77-11.02,25.35c0,5.52,4.48,10,10,10s10-4.48,10-10c0-4.11,1.66-7.92,4.66-10.73c3-2.8,6.93-4.19,11.07-3.9
			c7.24,0.5,13.07,6.33,13.57,13.57c0.51,7.32-4.29,13.79-11.41,15.38c-7.79,1.74-13.23,8.51-13.23,16.47v18.01
			c0,5.52,4.48,10,10,10s10-4.48,10-10v-15.59C412.45,103.26,422.68,88.65,421.55,72.24z"/>
	</g>
</g>
<g>
	<g>
		<path class="st0" d="M394.03,151.98c-1.86-1.86-4.44-2.92-7.07-2.92s-5.21,1.06-7.07,2.92c-1.86,1.87-2.93,4.44-2.93,7.08
			c0,2.63,1.07,5.21,2.93,7.07s4.44,2.93,7.07,2.93s5.21-1.07,7.07-2.93c1.86-1.86,2.93-4.44,2.93-7.07
			C396.96,156.42,395.89,153.85,394.03,151.98z"/>
	</g>
</g>
<g>
	<g>
		<path class="st0" d="M461.96,0h-150c-27.57,0-50,22.43-50,50v113.97c0,27.57,22.43,50,50,50h37.92l29.27,38.12
			c1.89,2.46,4.82,3.91,7.93,3.91c0.01,0,0.01,0,0.02,0c3.11-0.01,6.05-1.46,7.93-3.94l29.03-38.09h37.89c27.57,0,50-22.43,50-50V50
			C511.96,22.43,489.53,0,461.96,0z M491.96,163.97L491.96,163.97c0,16.54-13.46,30-30,30h-42.84c-3.12,0-6.06,1.46-7.95,3.94
			l-24.11,31.63l-24.31-31.66c-1.89-2.46-4.82-3.91-7.93-3.91h-42.85c-16.54,0-30-13.46-30-30V50c0-16.54,13.46-30,30-30h150
			c16.54,0,30,13.46,30,30V163.97z"/>
	</g>
</g>
</svg>
