<?xml version="1.0" encoding="utf-8"?>
<!-- Generator: Adobe Illustrator 23.0.5, SVG Export Plug-In . SVG Version: 6.00 Build 0)  -->
<svg version="1.1" id="Layer_1" xmlns="http://www.w3.org/2000/svg" xmlns:xlink="http://www.w3.org/1999/xlink" x="0px" y="0px"
	 viewBox="0 0 496 496" style="enable-background:new 0 0 496 496;" xml:space="preserve">
<style type="text/css">
	.st0{fill:#4675E4;}
</style>
<path class="st0" d="M64,304h16v16H64V304z"/>
<path class="st0" d="M112,304h16v16h-16V304z"/>
<path class="st0" d="M160,304h16v16h-16V304z"/>
<path class="st0" d="M480,312h-64v-32h48c17.65,0,32-14.35,32-32c0-15.07-10.48-27.74-24.52-31.12C468.02,193.79,448.05,176,424,176
	c-2.7,0-5.37,0.31-8,0.77V48h-32V0H112v16.77c-5.6,0.96-11.01,2.87-16,5.8C88.66,18.26,80.46,16,72,16
	c-24.05,0-44.02,17.79-47.48,40.88C10.48,60.26,0,72.93,0,88c0,17.65,14.35,32,32,32h48v152H16v176H0v48h496v-48h-16V312z M456,224
	v8h8c8.82,0,16,7.18,16,16s-7.18,16-16,16H336c-8.82,0-16-7.18-16-16s7.18-16,16-16h8v-8c0-17.65,14.35-32,32-32
	c6.86,0,13.5,2.27,19.18,6.56l4.82,3.64l4.82-3.64c5.68-4.29,12.32-6.56,19.18-6.56C441.65,192,456,206.35,456,224z M400,182.57
	c-7.34-4.31-15.54-6.57-24-6.57c-20.85,0-38.6,13.39-45.21,32H272v16h42.9c-6.67,5.87-10.9,14.44-10.9,24c0,17.65,14.35,32,32,32h64
	v32H256V64h144V182.57z M368,48H256V16h112V48z M240,16v32H128V16H240z M32,104c-8.82,0-16-7.18-16-16s7.18-16,16-16h8v-8
	c0-17.65,14.35-32,32-32c6.86,0,13.5,2.27,19.18,6.56L96,42.2l4.82-3.64c3.42-2.58,7.21-4.34,11.18-5.4V48H80v56H32z M96,64h144v248
	h-16v-40H96V64z M32,288h176v72h224v-16H224v-16h240v16h-16v16h16v88h-16v-72h-64v72h-16v-72h-64v72h-16v-72h-64v72h-48V336h-16v112
	h-32V336h-16v112H80V336H64v112H32V288z M432,448h-32v-56h32V448z M352,448h-32v-56h32V448z M272,448h-32v-56h32V448z M480,480H16
	v-16h464V480z"/>
<path class="st0" d="M112,80h112v16H112V80z"/>
<path class="st0" d="M112,144h112v16H112V144z"/>
<path class="st0" d="M112,208h112v16H112V208z"/>
<path class="st0" d="M128,112h16v16h-16V112z"/>
<path class="st0" d="M160,112h16v16h-16V112z"/>
<path class="st0" d="M192,112h16v16h-16V112z"/>
<path class="st0" d="M128,176h16v16h-16V176z"/>
<path class="st0" d="M160,176h16v16h-16V176z"/>
<path class="st0" d="M192,176h16v16h-16V176z"/>
<path class="st0" d="M128,240h16v16h-16V240z"/>
<path class="st0" d="M160,240h16v16h-16V240z"/>
<path class="st0" d="M192,240h16v16h-16V240z"/>
<path class="st0" d="M272,80h112v16H272V80z"/>
<path class="st0" d="M272,144h112v16H272V144z"/>
<path class="st0" d="M288,112h16v16h-16V112z"/>
<path class="st0" d="M320,112h16v16h-16V112z"/>
<path class="st0" d="M352,112h16v16h-16V112z"/>
<path class="st0" d="M288,176h16v16h-16V176z"/>
<path class="st0" d="M320,176h16v16h-16V176z"/>
</svg>
