<?xml version="1.0" encoding="utf-8"?>
<!-- Generator: Adobe Illustrator 23.0.5, SVG Export Plug-In . SVG Version: 6.00 Build 0)  -->
<svg version="1.1" id="Layer_1" xmlns="http://www.w3.org/2000/svg" xmlns:xlink="http://www.w3.org/1999/xlink" x="0px" y="0px"
	 viewBox="0 0 1401 439.4" style="enable-background:new 0 0 1401 439.4;" xml:space="preserve">
<style type="text/css">
	.st0{fill:#F6F6F6;enable-background:new    ;}
	.st1{fill:none;}
	.st2{fill:#4A73E5;enable-background:new    ;}
	.st3{fill:url(#SVGID_5_);}
	.st4{opacity:0.4;fill:#A8C4E5;enable-background:new    ;}
	.st5{fill:#BC4073;}
	.st6{fill:#EFB79E;}
	.st7{fill:#91B8DB;}
	.st8{fill:#514677;}
	.st9{fill:#423A66;}
	.st10{fill:#424268;}
	.st11{fill:#E8A78E;}
	.st12{fill:#D0E7F4;}
	.st13{fill:#A8C4E5;}
	.st14{fill:#46466B;}
	.st15{fill:#FFFFFF;}
	.st16{fill:#FFECB9;}
	.st17{fill:#EA8A6C;}
	.st18{opacity:0.29;fill:#45446C;enable-background:new    ;}
	.st19{fill:#8585FF;}
	.st20{fill:#7878EA;}
	.st21{fill:#E9E9FF;}
	.st22{fill:#A1A1E5;}
	.st23{fill:#565682;}
	.st24{fill:#6B6B9B;}
	.st25{fill:#45446C;}
	.st26{fill:#FBB68D;}
	.st27{fill:#FCFEFF;}
	.st28{fill:#15253D;}
	.st29{fill:#894E4E;}
	.st30{fill:#915350;}
	.st31{opacity:0.46;fill:#FFFFFF;enable-background:new    ;}
	.st32{fill:#513554;}
	.st33{fill:#CEAB8B;}
	.st34{fill:#E1EAF4;}
	.st35{fill:#51517A;}
	.st36{fill:#C76E34;}
	.st37{fill:#E5C2A5;}
	.st38{fill:#FFD22D;}
	.st39{fill:#FCD24C;}
	.st40{fill:#9BB7D3;}
	.st41{fill:url(#SVGID_6_);}
	.st42{fill:#90969C;}
	.st43{fill:url(#SVGID_7_);}
	.st44{fill:#C2CAD2;}
	.st45{fill:#6271F0;}
	.st46{fill:#A7D1E8;}
	.st47{fill:#D84177;}
	.st48{opacity:0.45;fill:#45446C;enable-background:new    ;}
	.st49{fill:#91C5DB;}
	.st50{fill:#DCF4FF;}
	.st51{fill:#353559;}
	.st52{fill:#27E0C0;}
	.st53{fill:#7B8EFF;}
	.st54{fill:#E5AE00;}
	.st55{fill:#FF619A;}
	.st56{fill:#EF487C;}
	.st57{fill:#17C6A5;}
	.st58{fill:#CAEFFF;}
	.st59{fill:#F8C0A1;}
	.st60{fill:#F2A786;}
	.st61{fill:#591A00;}
	.st62{fill:#492817;}
	.st63{fill:#F8C0A1;stroke:#F8C0A1;stroke-miterlimit:10;}
	.st64{fill:#7B7BC6;}
	.st65{fill:#F6AD84;}
	.st66{fill:#F1A32F;}
	.st67{fill:#DD4078;}
	.st68{fill:#CE3A77;}
	.st69{fill:none;stroke:#BACED8;stroke-width:0.334;stroke-miterlimit:10;}
	.st70{fill:#5B5B84;}
	.st71{fill:url(#SVGID_8_);}
	.st72{fill:url(#SVGID_9_);}
	.st73{fill:#FDCE74;}
	.st74{fill:#644968;}
	.st75{fill:#FFDE73;}
	.st76{enable-background:new    ;}
	.st77{fill:#353453;}
	.st78{clip-path:url(#SVGID_11_);enable-background:new    ;}
	.st79{fill:#242338;}
	.st80{fill:#25253A;}
	.st81{fill:#27263C;}
	.st82{fill:#28273F;}
	.st83{fill:#292941;}
	.st84{fill:#2B2A43;}
	.st85{fill:#2C2C45;}
	.st86{fill:#2E2D47;}
	.st87{fill:#2F2E49;}
	.st88{fill:#30304C;}
	.st89{fill:#32314E;}
	.st90{fill:#333250;}
	.st91{fill:#343452;}
	.st92{fill:#363554;}
	.st93{fill:#373656;}
	.st94{clip-path:url(#SVGID_13_);enable-background:new    ;}
	.st95{fill:#DD3C76;}
	.st96{clip-path:url(#SVGID_15_);enable-background:new    ;}
	.st97{fill:#393859;}
	.st98{fill:#3A395B;}
	.st99{fill:#3B3A5D;}
	.st100{fill:#3D3C5F;}
	.st101{fill:#3E3D61;}
	.st102{fill:#3F3F63;}
	.st103{fill:#414066;}
	.st104{fill:#424168;}
	.st105{fill:#44436A;}
	.st106{fill:#5B5A7E;}
	.st107{fill:#656485;}
	.st108{fill:#6C6B8B;}
	.st109{fill:#72718F;}
	.st110{fill:#777693;}
	.st111{fill:#A16751;}
	.st112{fill:#000102;}
	.st113{fill:#373059;stroke:#373059;stroke-width:2;stroke-miterlimit:10;}
</style>
<g>
	<defs>
		<polygon id="SVGID_1_" points="1401,33.1 0,33.1 0,295.1 1029.8,371.1 1401,241.1 		"/>
	</defs>
	<clipPath id="SVGID_2_">
		<use xlink:href="#SVGID_1_"  style="overflow:visible;"/>
	</clipPath>
</g>
<polygon class="st0" points="1401,33.1 0,33.1 0,295.1 1029.8,371.1 1401,241.1 "/>
<polygon class="st1" points="1.1,0 1401,-53 1401,371.1 1.1,371.1 "/>
<g>
	<defs>
		<polygon id="SVGID_3_" points="0,40.1 1401,40.1 1401,235.1 1027,359.1 0,285.1 		"/>
	</defs>
	<clipPath id="SVGID_4_">
		<use xlink:href="#SVGID_3_"  style="overflow:visible;"/>
	</clipPath>
</g>
<polygon class="st2" points="0,40.1 1401,40.1 1401,235.1 1027,359.1 0,285.1 "/>
<polygon class="st1" points="1.1,0 1401,-53 1401,371.1 1.1,371.1 "/>
<linearGradient id="SVGID_5_" gradientUnits="userSpaceOnUse" x1="0" y1="400.3806" x2="1401" y2="400.3806" gradientTransform="matrix(1 0 0 -1 0 573.0156)">
	<stop  offset="0" style="stop-color:#4C73E6"/>
	<stop  offset="0.986" style="stop-color:#8A54E8"/>
</linearGradient>
<polygon class="st3" points="0,0.1 1401,0.1 1401,220.1 1024.7,345.1 0,275.1 "/>
<g>
	<path class="st4" d="M897.1,377.3c-6.5,3.7-17,3.7-23.6,0c-6.6-3.9-6.6-9.9-0.1-13.7c6.5-3.7,17-3.7,23.6,0
		S903.6,373.6,897.1,377.3z"/>
	<path class="st4" d="M869.6,293c6.2,3.5,16.1,3.5,22.3,0c6.2-3.6,6.3-9.3,0.1-12.9c-6.2-3.5-16.1-3.5-22.3,0S863.4,289.4,869.6,293
		z"/>
	<g>
		<g>
			<path class="st5" d="M873.4,211.7c1.9-1.8,5.2-2.6,7.7-2.6c0.4,0,0.4-0.6,0-0.6c-2.7,0-6.2,0.8-8.1,2.7
				C872.7,211.5,873.2,212,873.4,211.7L873.4,211.7z"/>
		</g>
	</g>
	<g>
		<g>
			<path class="st6" d="M889.4,211.5c-0.3,3-0.5,5.9-0.9,8.9c-0.1,1.5-0.3,3.1-0.6,4.5c-0.3,1-1.3,2.5-0.1,2.3c-3.2,0.3-3.4,5.3,0,5
				c3.6-0.3,4.5-3.9,5-6.8c0.9-4.5,0.9-9.3,1.5-14.1C894.8,208.2,889.8,208.2,889.4,211.5L889.4,211.5z"/>
		</g>
	</g>
	<g>
		<g>
			<path class="st7" d="M881.5,210.3c0.5,6.7,1.5,13.2,3,19.6c1,4.8,8.4,2.7,7.4-2.1c-1.4-5.8-2.2-11.7-2.7-17.7
				C888.7,205.4,881.1,205.4,881.5,210.3L881.5,210.3z"/>
		</g>
	</g>
	<g>
		<path class="st8" d="M880.1,284.4l0.3-0.3c0.3-0.1,0.3-0.3,0.1-0.5l0,0c-0.1-0.3-0.3-0.3-0.5-0.1l-0.3,0.3
			c-0.3,0.1-0.3,0.3-0.1,0.5l0,0C879.7,284.5,879.9,284.5,880.1,284.4z"/>
		<path class="st9" d="M880.6,283.9v-1.7c0-0.3-0.3-0.3-0.3-0.3l0,0c-0.3,0-0.3,0.3-0.3,0.3v1.7c0,0.3,0.3,0.3,0.3,0.3l0,0
			C880.5,284.3,880.6,284.1,880.6,283.9z"/>
		<g>
			<path class="st10" d="M878.7,279.4c0.4,1.9,0.8,4.6,0.8,4.6l0.6,0.1l-0.1-2.1c0.1-0.3,0.6,0,0.9,0.3c1.3,1.8,0.4,3,1.7,3.9
				c0,0,2.8,1.3,5.7,0.8c0,0,1.4-0.5,0.8-1.4c-1.2-1.5-5.4-6.2-6.3-7.2l-0.3-0.1l-1.5-2.5c-0.5-0.3-1.7,0.8-2.1,1.5
				C878.7,277.9,878.7,278.6,878.7,279.4z"/>
			<path class="st11" d="M881.6,275.9l1.3,1c0,0,3.2,5,3.9,6.1c0.8,1.2-3.5,3.2-6.5-3.7C878.1,275.6,881.6,275.9,881.6,275.9z"/>
		</g>
	</g>
	<g>
		<g>
			<path class="st11" d="M882.5,236.5c0.3,13.7-0.5,27.2-2.8,40.7c-0.5,3.2,4.4,4.5,4.9,1.4c2.3-14.1,3.2-27.9,3-42.1
				C887.7,233.1,882.5,233.1,882.5,236.5L882.5,236.5z"/>
		</g>
	</g>
	<g>
		<g>
			<path class="st6" d="M876.1,240.4c-0.8,13.7-2.1,27.4-2.1,41.1c0,3.4,5,3.4,5,0c0-13.7,1.3-27.4,2.1-41.1
				C881.2,237.1,876.2,237.1,876.1,240.4L876.1,240.4z"/>
		</g>
	</g>
	<path class="st5" d="M871,241.9c0.5,7.1,5,7.7,9.6,5c4.5-2.7,7.1-8.6,7.1-13.9c0,0-2.6-7.9-7.1-5.2
		C876.2,230.6,870.5,233.7,871,241.9z"/>
	<path class="st12" d="M886.7,212.7c0,0,3,4.8,2.7,7.6c-0.3,1.8-1.5,3.9-1.7,4.5c-1.5,4.8-0.8,6.3-0.9,7.5c0,0-1,4.5-12.3,0.3
		l-4.6-13.8L886.7,212.7z"/>
	<path class="st12" d="M870.7,221.8c-0.4-0.3-0.5-0.9-0.5-0.9c-0.3-2.5-1.5-3.6,1-7.9c0.4-0.6,6.3-3.7,10.7-4.5
		c2.1-0.4,4.3,0.9,5,2.7c0.5,1.2,0.9,3.5,0.9,3.5c0.3,4.5-1.8-1.4-2.1,1c0-0.1,0-0.1,0-0.3c0,0-0.5,4.3-0.9,7.5
		c-0.3,2.1-0.4,3.5-0.4,3.7l0,0l-7.6,6.1l-4-7.2l0,0L870.7,221.8z"/>
	<path class="st6" d="M881.6,208.4c0,0,3.9,3.9,0.5,6.8c-3.4,2.7-8.9-3.5-8.9-3.5C876.1,209.9,878.9,208.6,881.6,208.4z"/>
	<path class="st5" d="M887.8,233.1l1.5,24.4c0,0.3-0.1,0.6-0.3,0.9c-1.2,1.8-3.2,8-14.6,5.3c-1.3-0.3-1.8-0.4-1.7-1.5l-1.5-20.8
		l6.8-0.1L887.8,233.1z"/>
	<path class="st6" d="M880.7,209.8l1.5-6.8l-4.6,1.3l-1.3,5.4C875.7,211.2,879.4,213.3,880.7,209.8z"/>
	<g>
		<path class="st8" d="M874.7,287.4l0.3-0.3c0.3-0.1,0.3-0.3,0.1-0.5l0,0c-0.1-0.3-0.3-0.3-0.5-0.1l-0.3,0.3
			c-0.3,0.1-0.3,0.3-0.1,0.5l0,0C874.3,287.4,874.5,287.5,874.7,287.4z"/>
		<path class="st9" d="M875.2,286.8v-1.7c0-0.3-0.3-0.3-0.3-0.3l0,0c-0.3,0-0.3,0.3-0.3,0.3v1.7c0,0.3,0.3,0.3,0.3,0.3l0,0
			C875,287.2,875.2,287,875.2,286.8z"/>
		<g>
			<path class="st10" d="M873.4,282.3c0.4,1.9,0.8,4.6,0.8,4.6l0.6,0.1l-0.1-2.1c0.1-0.3,0.6,0,0.9,0.3c1.3,1.8,0.4,3,1.7,3.9
				c0,0,2.8,1.3,5.7,0.8c0,0,1.4-0.5,0.8-1.4c-1.2-1.5-5.4-6.2-6.3-7.2l-0.3-0.1l-1.5-2.5c-0.5-0.3-1.7,0.8-2.1,1.5
				C873.4,280.9,873.2,281.6,873.4,282.3z"/>
			<path class="st6" d="M876.1,278.8l1.3,1c0,0,3.2,5,3.9,6.1c0.8,1.2-3.5,3.2-6.5-3.7C872.7,278.6,876.1,278.8,876.1,278.8z"/>
		</g>
	</g>
	<path class="st13" d="M871.8,220.5c0.4,0.9,0.9,1.7,1.5,2.7c1.7,2.2,4.5,3.4,7.2,2.7c4-0.9,8.1-3,8.1-3s-1.7,5.6-1.2,8.8
		c0.3,1.5,0.1,1.3,0.1,1.3c-0.1,1.4-2.5,1-2.5,1c-5,1.5-10.6-1.2-10.6-1.2l-3.4-9.6L871.8,220.5z"/>
	<path class="st14" d="M888.2,232.4L888.2,232.4c0.1,0.3-0.1,0.6-0.3,0.9c-0.9,0.8-3.5,2.3-7.5,1.9c-3.4-0.3-5.4-1.2-6.3-1.5
		c-0.4-0.3-0.6-0.6-0.4-1l0.1-0.3c0.3-0.4,0.8-0.8,1.2-0.5c1.8,0.8,6.2,2.3,9.2,1.4c1.4-0.4,2.3-0.9,2.8-1.3
		C887.3,231.3,888.1,231.7,888.2,232.4z"/>
	<path class="st15" d="M882.4,235.3l1.9-0.4c0.6-0.1,1.2-0.8,1.2-1.4l0,0c0-0.6-0.5-1-1.2-0.9l-1.9,0.4c-0.6,0.1-1.2,0.8-1.2,1.4
		l0,0C881.2,235.1,881.8,235.5,882.4,235.3z"/>
	<g>
		<g>
			<path class="st5" d="M882,209c0.1,1.9,1.8,4.5-0.3,5.7c-2.7,1.8-6.3-1.5-8.3-3.4c-0.3-0.3-0.8,0.3-0.4,0.4c2.1,2.1,5.4,5,8.5,3.6
				c1.2-0.5,2.1-1.2,1.8-2.6c-0.3-1.4-0.6-2.7-0.8-4C882.7,208.6,882,208.6,882,209L882,209z"/>
		</g>
	</g>
	<g>
		<g>
			<path class="st16" d="M884,196.4c0.3,1.8,1.4,3.4,1.8,5c0.3,0.9-0.5,1.4-0.9,2.1c-0.3,0.8-0.4,1.5-0.4,2.3c0,1.9,3,1.9,3,0
				c0-1.2,0.8-1.5,1-2.6c0.3-0.6,0.3-1.4,0.3-2.1c-0.3-2.1-1.5-3.6-1.9-5.7C886.5,193.6,883.6,194.5,884,196.4L884,196.4z"/>
		</g>
	</g>
	<circle class="st16" cx="873.8" cy="197" r="4.5"/>
	<path class="st6" d="M880.5,209h1.5c2.3,0.1,4.3-1.7,4.4-4l0.3-7.6c0.1-2.3-1.7-4.3-4-4.4H881c-2.3-0.1-4.3,1.7-4.4,4l-0.3,7.6
		C876.3,207.1,878.1,209,880.5,209z"/>
	<path class="st16" d="M879.3,199.3c1.7-2.1,5,0.4,6.7-0.3c1.9-0.8,1.3-2.7,0-4.3c-0.6-0.9-1.5-1.5-3.4-2.2
		c-4.9-1.8-9.8,0.3-9.9,5.7c0,0-0.4,7.5,3.9,8.6l0.3-1c0,0-1.5-2.2,1-3.9c0.6-0.4,0.1-0.6,0.1-1.5
		C878.1,199.6,878.8,200,879.3,199.3z"/>
	<path class="st6" d="M875.6,204.9c0.6,0.5,1.5,0.3,1.7-0.4c0.3-0.8,0-1.9-0.8-2.5c-0.6-0.5-1.5-0.3-1.7,0.4
		C874.5,203.2,874.9,204.2,875.6,204.9z"/>
	<g>
		<g>
			<path class="st16" d="M877,198.3c0,2.3-0.3,4.9-1.8,6.7c-1.7,2.1-1.4,3.2-0.9,5.7c0.3,1.9,3.2,1,2.8-0.8
				c-0.3-1.5-0.4-1.9,0.6-3.2c0.5-0.6,0.9-1.3,1.3-2.1c0.8-2.1,0.9-4.1,1-6.3C880.1,196.4,877.1,196.4,877,198.3L877,198.3z"/>
		</g>
	</g>
	<path class="st6" d="M892,213.3L892,213.3c1.4,0,2.5-1,2.5-2.5l0,0c0-1.4-1-2.5-2.5-2.5l0,0c-1.4,0-2.5,1-2.5,2.5l0,0
		C889.5,212.2,890.7,213.3,892,213.3z"/>
	<path class="st6" d="M890.8,211.8h0.3c0.3,0,0.5-0.3,0.5-0.5v-5.9c0-0.3-0.3-0.5-0.5-0.5h-0.3c-0.3,0-0.5,0.3-0.5,0.5v5.9
		C890.3,211.6,890.7,211.8,890.8,211.8z"/>
	<g>
		<g>
			<path class="st6" d="M868.2,214.6c-1.9,3.4-4.3,6.5-5.6,10.1c-2.5,7,4.1,12.3,7.6,17.4c1.8,2.7,6.2,0.1,4.4-2.6
				c-3.1-4.5-9.4-9.3-6.3-15.2c1.3-2.5,2.8-4.8,4.4-7.2C874.3,214.4,869.9,211.8,868.2,214.6L868.2,214.6z"/>
		</g>
	</g>
	<g>
		<g>
			<path class="st12" d="M869.5,212.9c-2.5,3.1-5.6,5.9-7.1,9.7c-1.7,3.9-0.4,7.9,1.4,11.6c1.8,3.6,7.2,0.4,5.4-3.2
				c-1-2.1-1.9-4.3-0.8-6.5c1.4-2.6,3.7-4.8,5.6-7C876.5,214.3,872.1,209.6,869.5,212.9L869.5,212.9z"/>
		</g>
	</g>
	<path class="st6" d="M871.7,245.7L871.7,245.7c1.4,0.1,2.6-0.9,2.7-2.2l0.3-2.6c0.1-1.4-0.9-2.6-2.2-2.7l0,0
		c-1.4-0.1-2.6,0.9-2.7,2.2l-0.3,2.6C869.4,244.4,870.3,245.5,871.7,245.7z"/>
	<path class="st17" d="M881.1,209c-0.5,0-1.9-0.4-2.5-0.9c0,0,0.9,1.5,2.1,1.9L881.1,209z"/>
	<path class="st18" d="M1057.8,365.5l-149.5-86.2c-6.2-3.5-5.7-9.4,0.8-13.2l41.7-24c6.6-3.7,16.8-3.9,23-0.4l149.5,86.4
		c6.2,3.5,5.7,9.4-0.8,13.2l-41.7,24C1074.1,368.8,1063.9,368.9,1057.8,365.5z"/>
	<path class="st4" d="M865,333.2c-6.2,3.5-16.1,3.5-22.3,0c-6.2-3.5-6.3-9.3-0.1-12.9c6.2-3.5,16.1-3.5,22.3,0
		C871,323.9,871.2,329.6,865,333.2z"/>
	<g>
		<path class="st19" d="M870.7,261.3c-1.4,0.9-3.6,0.9-5,0c-1.4-0.9-1.4-2.1,0-2.8c1.4-0.9,3.6-0.9,5,0
			C872.1,259.2,872.1,260.5,870.7,261.3z"/>
		<rect x="864.6" y="254.1" class="st19" width="7.1" height="5.7"/>
		<path class="st20" d="M869.6,254.1v5.7l0,0c0,0.5-0.3,1-1,1.5c-0.4,0.3-0.9,0.4-1.5,0.5c1.3,0.3,2.7,0.1,3.6-0.5
			c0.8-0.4,1-0.9,1-1.5l0,0v-5.7H869.6z"/>
		<path class="st21" d="M870.7,255.6c-1.4,0.9-3.6,0.9-5,0c-1.4-0.9-1.4-2.1,0-2.8c1.4-0.9,3.6-0.9,5,0
			C872.1,253.4,872.1,254.7,870.7,255.6z"/>
		<path class="st22" d="M870.3,255.2c-1.2,0.6-3,0.6-4.1,0c-1.2-0.6-1.2-1.7,0-2.5c1.2-0.6,3-0.6,4.1,0
			C871.4,253.5,871.4,254.6,870.3,255.2z"/>
		<path class="st23" d="M870.3,253.9c-1.2-0.6-3.1-0.6-4.1,0c-0.3,0.3-0.5,0.4-0.8,0.6c0.1,0.3,0.4,0.5,0.8,0.8
			c1.2,0.6,3.1,0.6,4.1,0c0.3-0.3,0.5-0.4,0.8-0.6C870.9,254.3,870.5,254.1,870.3,253.9z"/>
		<path class="st24" d="M866.1,255.2c-0.3-0.3-0.5-0.4-0.8-0.6c0.1-0.1,0.3-0.3,0.3-0.4c0.9-0.3,2.1,0,2.8,0.4
			c0.3,0.3,0.5,0.4,0.8,0.6c0.1,0.1,0.1,0.3,0.1,0.3c-0.3,0-0.3,0.1-0.4,0.1C867.9,255.9,866.8,255.7,866.1,255.2z"/>
		<g>
			<g>
				<path class="st25" d="M870,257.3c0.3,0.1,0.3,0.3,0.5,0.3c0.1,0,0.1,0.1,0.3,0.1c0.3,0.3,0.3,0.3,0.1,0c0,0.4,0,0.9,0,1.3
					c0,0.3,0,0.3,0,0.5c0,0.1,0,0.3,0,0.3c-0.1,0.5,0.3,0.4,0.9-0.3c-0.3-0.1-0.5-0.3-0.8-0.3c-1.3-0.6-2.3,1.3-1,1.9
					c0.4,0.3,1,0.6,1.5,0.6c0.9,0,1.4-0.9,1.5-1.8c0-0.9,0.1-2.1-0.1-2.8c-0.3-0.9-1-1.3-1.9-1.7C869.9,254.7,868.8,256.6,870,257.3
					L870,257.3z"/>
			</g>
		</g>
	</g>
	<g>
		<g>
			<path class="st26" d="M840.6,246.4c-6.8,10.5-5,24.8-3.9,36.7c0.3,3.2,5.4,3.4,5,0c-1-10.8-3.1-24.4,3.1-34.1
				C846.8,246.2,842.4,243.7,840.6,246.4L840.6,246.4z"/>
		</g>
	</g>
	<path class="st25" d="M840.3,245.9c-2.1,2.2-3.4,5.7-4.5,9.3c-0.5,0.9,0,2.1,0.9,2.5l3.9,1.3c0.9,0.3,1.5-0.3,1.9-1l3.2-9.2
		c0.5-1.5-0.1-3.2-1.4-3.9l-0.3-0.1C842.6,244,842,244.4,840.3,245.9z"/>
	<g>
		<g>
			<path class="st27" d="M835.9,254.4c1.4,0.9,3.2,1.9,4.9,1.9c1.5,0,1.5-2.6,0-2.6c-1.2,0-2.7-0.9-3.6-1.5
				C835.9,251.3,834.6,253.5,835.9,254.4L835.9,254.4z"/>
		</g>
	</g>
	<path class="st28" d="M850.3,325.6c-0.1,0.1-1.8,0.9-1.9,1c-0.3,0.1-0.6,0.5-0.9,0.8c-0.6,0.4-1.9,2.1-4.1,0.9
		c-3.2-1.8,4.4-6.8,4.4-6.8l3.4-1.7c0.4-0.3,0.9-0.3,1.3,0l0,0c0.8,0.4,1,1.4,0.6,2.1C852.3,323.2,852.3,323.9,850.3,325.6z"/>
	<path class="st29" d="M850,324.7c-0.1,0.1-1.8,0.9-1.9,1c-0.3,0.1-0.6,0.5-0.9,0.8c-0.6,0.4-1.9,2.1-4.1,0.9
		c-3.2-1.8,4.4-6.8,4.4-6.8l3.4-1.7c0.4-0.3,0.9-0.3,1.3,0l0,0c0.8,0.4,1,1.4,0.6,2.1C851.9,322.2,851.8,323,850,324.7z"/>
	<path class="st30" d="M852.1,322.2c0.3-0.3,0.4-0.9,0.6-1.4c0.4-0.8,0.1-1.5-0.8-2.1c-0.4-0.3-0.9-0.3-1.3,0l-1.5,0.9
		C850,320,851.2,320.9,852.1,322.2z"/>
	<path class="st26" d="M838.9,285.8L838.9,285.8c-1.2,0-2.1-0.9-2.1-2.1v-4.1c0-1.2,0.9-2.1,2.1-2.1l0,0c1.2,0,2.1,0.9,2.1,2.1v4.1
		C841.1,284.9,840.1,285.8,838.9,285.8z"/>
	<g>
		<path class="st31" d="M857.1,233.7v0.8c0,0-0.1,2.1-2.1,0.9c-2.1-1.3-1.7-3.9-1.7-3.9S854.8,231.2,857.1,233.7z"/>
		<path class="st32" d="M854.8,235.3c2.7,1.7,2.7-0.9,2.7-0.9l0,0v-0.9c-2.7-3-4.8-3-4.8-3S852.3,233.7,854.8,235.3z M853.4,231.5
			c0,0,1.5,0.1,3.7,2.3v0.6c0,0-0.1,1.9-2.1,0.6C853,233.7,853.4,231.5,853.4,231.5z"/>
		<polygon class="st32" points="858.5,235.1 857.1,234.2 857.1,233.3 858.5,234.2 		"/>
		<path class="st32" d="M853,231.5l-0.3-0.3c-0.1-0.1-0.3-0.3-0.3-0.5l0,0c0-0.3,0.1-0.3,0.3-0.3l0.3,0.3c0.1,0.1,0.3,0.3,0.3,0.5
			l0,0C853.2,231.3,853.1,231.5,853,231.5z"/>
		<path class="st32" d="M863,237.1l-0.3-0.3c-0.1-0.1-0.3-0.3-0.3-0.5l0,0c0-0.3,0.1-0.3,0.3-0.3l0.3,0.3c0.1,0.1,0.3,0.3,0.3,0.5
			l0,0C863.3,237.1,863.2,237.3,863,237.1z"/>
		<g>
			<path class="st31" d="M858.6,234.7v0.8c0,0,0.1,2.2,2.1,3.2c1.9,0.9,1.5-2.1,1.5-2.1S860.7,234.8,858.6,234.7z"/>
			<path class="st32" d="M862.9,236.5c0,0-1.9-2.2-4.8-2.6v0.9l0,0c0,0,0.1,2.7,2.7,4C863.4,240.1,862.9,236.5,862.9,236.5z
				 M860.7,238.3c-1.9-0.9-2.1-3-2.1-3v-0.6c2.1,0.3,3.7,1.9,3.7,1.9S862.7,239.3,860.7,238.3z"/>
			<path class="st27" d="M859,236L859,236c-0.1-0.1-0.1-0.3,0-0.3l0.5-0.5c0,0,0.1,0,0.3,0.1l0,0c0.1,0.1,0.1,0.3,0,0.3l-0.5,0.5
				C859.2,236,859.2,236,859,236z"/>
		</g>
		<path class="st27" d="M853.5,232.5L853.5,232.5c-0.1-0.1-0.1-0.3,0-0.3l0.5-0.5c0,0,0.1,0,0.3,0.1l0,0c0.1,0.1,0.1,0.3,0,0.3
			l-0.5,0.5C853.6,232.6,853.5,232.6,853.5,232.5z"/>
	</g>
	<path class="st28" d="M862,332.8c-0.1,0.1-2.1,0.5-2.1,0.6c-0.3,0.1-0.8,0.4-1,0.5c-0.8,0.3-2.3,1.7-4.3,0.1
		c-2.7-2.3,5.7-5.7,5.7-5.7l3.6-1c0.4-0.1,0.9,0,1.3,0.3l0,0c0.6,0.5,0.9,1.5,0.3,2.2C864.5,330.7,864.3,331.5,862,332.8z"/>
	<path class="st29" d="M861.9,331.9c-0.1,0.1-2.1,0.5-2.1,0.6c-0.3,0.1-0.8,0.4-1,0.5c-0.8,0.3-2.3,1.7-4.3,0.1
		c-2.7-2.3,5.7-5.7,5.7-5.7l3.6-1c0.4-0.1,0.9,0,1.3,0.3l0,0c0.6,0.5,0.9,1.5,0.3,2.2C864.3,329.8,864.2,330.6,861.9,331.9z"/>
	<g>
		<g>
			<path class="st33" d="M851.7,288.4c4.4,13.3,1.3,26.6,1.5,40c0.1,4.9,7.6,4.9,7.5,0c-0.3-14.2,2.7-28.1-1.8-42.1
				C857.5,281.8,850.1,283.7,851.7,288.4L851.7,288.4z"/>
		</g>
	</g>
	<g>
		<g>
			<path class="st33" d="M839.9,281.8c1.9,7,3.4,15.4,2.7,22.7c-0.6,5.9-1.7,11.9-1.7,17.9c0,4.9,7.5,4.9,7.5,0c0-5.9,1-12,1.7-17.9
				c0.9-7.9-0.9-17.2-3-24.8C846,275.1,838.6,277,839.9,281.8L839.9,281.8z"/>
		</g>
	</g>
	<g>
		<g>
			<path class="st34" d="M859.3,328c-1.3,1-3.9,0.9-4.8-0.4c0,0.8,0,1.5,0,2.2c0.1,3.1,4.9,3.1,4.8,0
				C859.3,329.3,859.3,328.7,859.3,328z"/>
		</g>
	</g>
	<g>
		<path class="st33" d="M845.6,289.3L845.6,289.3c0.5,0.6-1.8-2.3-1-1.9c1.5,0.9,9.6,6.3,11.2,6.5c2.1,0,0.9-1.9,2.3-3.4
			c1.5-1.3,1.8-3.4,1.9-5.3c0-0.5,0.1-1-0.1-1.5c-0.3-0.5-0.8-0.9-1.2-1.3c-3.6-2.7-10.7-9.6-15.9-7.4
			C837.1,277.4,842.9,286.3,845.6,289.3z"/>
	</g>
	<path class="st35" d="M841.4,246.1c-1,1.4-0.9,2.2-0.9,4.1c0,1.8,1.3,3.4,3.1,3.9l18.2,5c0,0,1-7-2.6-9c-1.9-1.2-4.9-3-7.2-4.4
		C848.3,243.6,843.8,242.8,841.4,246.1z"/>
	<path class="st26" d="M849.6,245.8l1.5-6.8l4.1,2.7L854,248C853.9,249,849.4,248.1,849.6,245.8z"/>
	<path class="st26" d="M852.8,228.8c0,0-3.9-3.4-4.5,3.7c-0.5,4.9,2.1,9.4,5.9,11.7c2.3,1.4,5.7,0.3,5.9-2.2
		c0.9-3.5,1.3-6.8,0.3-9.8c0.4-3-1.7-2.1-5.2-2.6L852.8,228.8z"/>
	<path class="st36" d="M849.1,242.2c0,0-4.6-2.2-3.5-8.9c1.2-7.2,7.9-5.9,11.7-5.9c1.7,0,2.8-0.1,4.4,1.5c1.4,1.5-0.3,4.5-2.6,4.5
		c-0.9,0-0.8,2.5-0.9,3.2c-0.4,1.4-1.4,2.1-1.9,3.4c-0.4,1.3-2.6,3.2-3.9,3.2C850,243.1,849.1,242.2,849.1,242.2z"/>
	<path class="st35" d="M840.3,278.7c-1.2-0.4-0.9-20.3,0.1-31.2l20.4,9.7c-0.1,9.3-1.3,16.7-0.3,28L840.3,278.7z"/>
	<path class="st35" d="M854,287.4c-5-1.8-9.9-3.9-12.7-7.4c-1.4-0.9-1.2-2.2,0.4-3.2l0,0c1.5-0.9,4-1,5.4-0.3l12.7,7.4
		c1.4,0.9,1.2,2.2-0.4,3.2l0,0C857.7,288,855.3,288.1,854,287.4z"/>
	<path class="st25" d="M860.8,257.3l-3.4-1.5c-0.1,9.2-1.3,16.4-0.1,27.5h-0.1c0,0.6-0.4,1.3-1.3,1.8l0,0c-1.5,0.9-4,1-5.4,0.3
		c-2.5-0.9-4.8-1.8-6.8-2.8c2.7,2.1,6.5,3.6,10.3,5c1.4,0.9,3.9,0.8,5.4-0.3l0,0c0.9-0.5,1.4-1.2,1.3-1.8h0.1
		C859.6,273.9,860.8,266.6,860.8,257.3z"/>
	<path class="st37" d="M853.2,327.1v2.1c0,0.1,0,0.3,0.1,0.3c0.3,0.4,1.5,1.9,3.9,1.5c2.1-0.3,3.1-0.9,3.5-1.3
		c0.1-0.1,0.3-0.3,0.3-0.4l-0.3-2.1c0-0.3-0.4-0.5-0.6-0.3c-1,0.6-3.4,1.5-6.2-0.1C853.6,326.5,853.2,326.7,853.2,327.1z"/>
	<path class="st30" d="M864.3,329.8c0.3-0.3,0.6-0.9,0.9-1.2c0.5-0.6,0.4-1.5-0.3-2.1c-0.4-0.3-0.9-0.4-1.3-0.3l-1.8,0.5
		C862.9,327.4,863.7,328.3,864.3,329.8z"/>
	<g>
		<g>
			<path class="st34" d="M847.2,321.7c-1.3,1-3.9,0.9-4.8-0.4c0,0.8,0,1.5,0,2.2c0.1,3.1,4.9,3.1,4.8,0
				C847.2,322.9,847.2,322.3,847.2,321.7z"/>
		</g>
	</g>
	<path class="st37" d="M841.1,320.8v2.1c0,0.1,0,0.3,0.1,0.3c0.3,0.4,1.5,1.9,3.9,1.5c2.1-0.3,3.1-0.9,3.5-1.3
		c0.1-0.1,0.3-0.3,0.3-0.4l-0.3-2.1c0-0.3-0.4-0.5-0.6-0.3c-1,0.6-3.4,1.5-6.2-0.1C841.5,320.3,841.1,320.4,841.1,320.8z"/>
	<path class="st32" d="M862.9,237.4h-6.3c-0.3,0-0.4-0.3-0.4-0.4l0,0c0-0.3,0.3-0.4,0.4-0.4h6.3c0.3,0,0.4,0.3,0.4,0.4l0,0
		C863.3,237.3,863.2,237.4,862.9,237.4z"/>
	<path class="st26" d="M857.5,238.6c0,1.2-0.8,2.1-1.5,2.1c-0.1,0-0.3,0-0.3,0c-0.8-0.3-1.3-1-1.3-2.1c0-1.2,0.8-2.1,1.5-2.1
		C856.8,236.5,857.5,237.4,857.5,238.6z"/>
	<path class="st15" d="M856.7,248.6c-4.6-0.8-7.9,2.2-8.9-4.5l0,0c0.6-0.4,1.5-0.3,2.1,0.4c0.9,1.2,2.6,1.9,4.4,1.7
		c0.5-0.1,1.2,0.3,1.4,0.6L856.7,248.6z"/>
	<g>
		<g>
			<path class="st26" d="M856.3,252.8c0.3,4,1,8,2.6,11.7c1.2,2.8,2.5,7.1,5,9.2c5.8,4.5,9.8-7.5,11.2-10.8c1.3-3-3.1-5.6-4.4-2.6
				c-1,2.5-2.2,5-3.5,7.4c-0.4,0.8-0.8,1.4-1.3,1.9c-0.4,0.3,0,0.4,1.2,0.3c-0.4-0.3-0.6-0.8-0.9-1.2c-2.8-4.9-4.5-10.3-5-15.9
				C861.1,249.5,856.1,249.5,856.3,252.8L856.3,252.8z"/>
		</g>
	</g>
	<path class="st35" d="M855.3,253.4l2.5,9.9c1.4,2.7,7.5-0.1,6.7-2.5l-3.2-9.3c-0.6-1.5-2.2-2.2-3.7-1.8l0,0
		C855.8,250.3,854.8,251.9,855.3,253.4z"/>
	<g>
		<g>
			<path class="st27" d="M857.9,263c2.3,0,4.5-0.9,6.3-2.7c1-1.2-0.6-3-1.8-1.8c-1.2,1.3-2.7,2.1-4.5,2.1
				C856.3,260.4,856.3,263,857.9,263L857.9,263z"/>
		</g>
	</g>
	<rect x="850.8" y="210" class="st12" width="6.1" height="6.1"/>
	<path class="st12" d="M856.1,217.7c-1.2,0.8-3.2,0.8-4.4,0c-1.2-0.8-1.3-1.8,0-2.6c1.2-0.8,3.2-0.8,4.4,0
		C857.2,215.8,857.2,216.9,856.1,217.7z"/>
	<path class="st12" d="M855.3,218.6c-0.9,0.5-2.2,0.5-3.1,0c-0.9-0.5-0.9-1.3,0-1.7c0.9-0.5,2.2-0.5,3.1,0
		C856.2,217.4,856.2,218.2,855.3,218.6z"/>
	<rect x="849.7" y="211.3" class="st12" width="8.3" height="1.5"/>
	<path class="st12" d="M856.8,213c-1.5,0.9-4.3,0.9-5.8,0c-1.5-0.9-1.5-2.5,0-3.4c1.5-0.9,4.3-0.9,5.8,0
		C858.4,210.6,858.4,212,856.8,213z"/>
	<path class="st12" d="M856.8,214.4c-1.5,0.9-4.3,0.9-5.8,0c-1.5-0.9-1.5-2.5,0-3.4c1.5-0.9,4.3-0.9,5.8,0
		C858.4,212,858.4,213.5,856.8,214.4z"/>
	<g>
		<path class="st38" d="M861.4,202.4c0-3.9-3.4-6.8-7.5-6.8s-7.5,3.1-7.5,6.8c0,2.1,0.9,3.9,2.6,5.2c0.9,0.9,1.3,2.1,1.5,3
			s0.8,1.5,1.5,1.8c1.3,0.4,2.6,0.5,3.7,0c0.8-0.3,1.3-0.9,1.5-1.7c0.3-0.8,0.5-1.9,1.4-2.8c0,0,0-0.1,0.1-0.1
			C860.2,206.5,861.4,204.6,861.4,202.4z"/>
	</g>
	<g>
		<g>
			<g>
				<path class="st39" d="M859.8,203.2c0-3-2.7-5.4-5.9-5.4s-5.9,2.5-5.9,5.4c0,1.5,0.8,3.1,2.1,4.1c1.3,1.4,1.3,3.9,1.3,3.9
					c1.7,0.9,3.4,0.9,5,0c0,0,0.1-2.6,1.3-3.9c0,0,0,0,0.1-0.1C858.9,206.4,859.8,204.9,859.8,203.2z"/>
			</g>
		</g>
	</g>
	<g>
		<g>
			<path class="st40" d="M1025.8,311.4c0,0-0.9,0.4-0.9,0.5c0,0-0.3,0.3-0.4,0.4c-0.1,0.1-0.4,0.3-0.5,0.4
				c-0.3,0.1-36.8,22.6-36.8,22.6v6.1l36.3-22.3c0.3-0.1,0.4-0.3,0.5-0.4c0.1,0,0.1-0.1,0.3-0.1c0.1-0.1,0.3-0.3,0.3-0.3l0,0
				c0.1-0.1,0.3-0.3,0.3-0.3l0.1-0.1l0.1-0.1c0,0,0-0.1,0.1-0.1c0.1-0.1,0.1-0.3,0.3-0.3c0,0,0-0.1,0.1-0.1v0c0-0.1,0.1-0.3,0.1-0.3
				s0-0.1,0.1-0.1c0,0,0,0,0-0.1c0-0.1,0.1-0.3,0.1-0.3v-0.1c0,0,0,0,0-0.1c0-0.1,0-0.3,0-0.3v-0.1c0,0,0,0,0-0.1L1025.8,311.4z"/>
			<path class="st34" d="M987.1,335.4c-0.3,0.1-0.5,0.3-0.8,0.4c-0.1,0-0.3,0.1-0.3,0.1c-0.3,0.1-0.6,0.3-0.9,0.3l0,0
				c-0.3,0.1-0.5,0.3-0.9,0.3l0,0c-0.3,0.1-0.4,0.1-0.8,0.1h-0.1c-0.3,0.1-0.6,0.1-0.9,0.1c-0.1,0-0.3,0-0.3,0c-0.3,0-0.3,0-0.5,0
				c-0.1,0-0.3,0-0.4,0c-0.1,0-0.3,0-0.4,0c-0.1,0-0.3,0-0.4,0c-0.1,0-0.3,0-0.4,0c-0.1,0-0.3,0-0.4,0c-0.1,0-0.3,0-0.4,0
				c-0.1,0-0.3,0-0.4-0.1c-0.1,0-0.3,0-0.4-0.1c-0.1,0-0.3,0-0.4-0.1c-0.3,0-0.3-0.1-0.5-0.1c-0.1,0-0.3,0-0.3-0.1
				c-0.3-0.1-0.6-0.3-0.9-0.3c-0.1-0.1-0.3-0.1-0.4-0.3c-0.1,0-0.1-0.1-0.3-0.1c-0.3-0.1-0.4-0.3-0.6-0.3l-28.3-15.9
				c-1.7-0.9-2.6-0.5-2.6-1.8v4.1c0,1.3,0.9,2.7,2.6,3.6l28,16.3c0.3,0.1,0.4,0.3,0.6,0.3c0.1,0,0.1,0.1,0.3,0.1
				c0.1,0.1,0.3,0.1,0.4,0.3c0,0,0,0,0.1,0c0.3,0.1,0.6,0.3,0.9,0.3c0,0,0,0,0.1,0c0.1,0,0.3,0,0.3,0.1c0.3,0,0.3,0.1,0.5,0.1h0.1
				c0.1,0,0.3,0,0.3,0c0.1,0,0.3,0.1,0.4,0.1h0.1c0.1,0,0.3,0,0.3,0c0.1,0,0.3,0,0.4,0c0.1,0,0.1,0,0.3,0c0.1,0,0.3,0,0.3,0
				c0.1,0,0.3,0,0.4,0c0.1,0,0.1,0,0.3,0c0.1,0,0.1,0,0.3,0c0.1,0,0.3,0,0.4,0c0.1,0,0.1,0,0.3,0c0.1,0,0.1,0,0.3,0
				c0.3,0,0.3,0,0.5,0c0.1,0,0.1,0,0.3,0h0.1c0.3,0,0.6-0.1,0.9-0.1c0,0,0,0,0.1,0l0,0c0.3,0,0.4-0.1,0.8-0.1h0.1
				c0.3-0.1,0.5-0.1,0.9-0.3l0,0l0,0c0.3-0.1,0.6-0.3,0.9-0.3c0.1,0,0.3-0.1,0.3-0.1c0.3-0.1,0.5-0.3,0.8-0.4h0.1c0,0,0,0,0.1,0
				L987.1,335.4C987.2,335.4,987.1,335.4,987.1,335.4z"/>
			<g>
				<g>
					
						<linearGradient id="SVGID_6_" gradientUnits="userSpaceOnUse" x1="943.8809" y1="391.8609" x2="1025.7114" y2="391.8609" gradientTransform="matrix(1 0 0 -1 0 707)">
						<stop  offset="0" style="stop-color:#E1EAF4"/>
						<stop  offset="0.5566" style="stop-color:#ABC6E6"/>
						<stop  offset="0.6486" style="stop-color:#A8C4E5"/>
					</linearGradient>
					<path class="st41" d="M1023.1,307.9c3.4,1.9,3.5,5,0.3,7.1l-36.3,22.3c-3.4,2.1-9.2,2.1-12.7,0.1l-28-16.3
						c-3.5-2.1-3.4-5.3,0.1-7.4l38.3-21c3.4-1.9,8.9-1.8,12.3,0.1L1023.1,307.9z"/>
				</g>
			</g>
		</g>
		<polygon class="st18" points="961.5,305.7 1001,328.8 1010.5,323.1 971.5,300.5 		"/>
		<polygon class="st18" points="1001,328.8 1001,332.8 1012.9,325.6 1012.9,321.8 		"/>
	</g>
	<path class="st42" d="M1107.1,246.2L1107.1,246.2c0-0.1,0-0.1,0-0.3s0-0.1,0-0.3l0,0l0,0v-0.1c0-0.1,0-0.1,0-0.3v-0.1l0,0
		c0,0,0,0,0-0.1c0-0.1,0-0.1,0-0.3c0-0.1,0-0.1,0-0.3l0,0l0,0c0-0.1,0-0.1,0-0.3s0-0.1,0-0.3l0,0l0,0v-0.1c0-0.1,0-0.1-0.1-0.3v-0.1
		l0,0l0,0c0-0.1,0-0.1-0.1-0.3c0-0.1,0-0.1-0.1-0.3c0,0,0,0,0-0.1l0,0c0,0,0,0,0-0.1c0-0.1,0-0.1-0.1-0.3s0-0.1-0.1-0.3l0,0l0,0
		c0-0.1-0.1-0.1-0.1-0.3c0-0.1-0.1-0.1-0.1-0.1s0-0.1-0.1-0.1l0,0c0-0.1-0.1-0.3-0.1-0.3v-0.1l0,0c-0.1-0.1-0.1-0.3-0.3-0.3l0,0l0,0
		c0,0,0-0.1-0.1-0.1c0-0.1-0.1-0.1-0.1-0.3c0,0,0,0,0-0.1l0,0c0,0,0,0,0-0.1l-0.1-0.1l-0.1-0.1l0,0l0,0l-0.1-0.1
		c0,0-0.1-0.1-0.3-0.1l0,0l0,0l-0.1-0.1c-0.1,0-0.1-0.1-0.3-0.1l0,0l0,0l-0.1-0.1c-0.1,0-0.1-0.1-0.3-0.1l0,0l0,0l0,0
		c0,0-0.1,0-0.1-0.1c-0.1,0-0.1-0.1-0.3-0.1l-0.9-0.5l-5.2,2.7l1.3,0.8c0.1,0,0.1,0.1,0.3,0.1s0.1,0.1,0.3,0.1
		c0.1,0,0.1,0.1,0.3,0.1c0,0,0,0,0.1,0.1c0.1,0.1,0.3,0.1,0.3,0.3l0,0l0,0c0.1,0.1,0.3,0.3,0.3,0.3l0,0c0.1,0.1,0.1,0.3,0.3,0.3l0,0
		c0.1,0.1,0.1,0.3,0.3,0.3l0,0c0.1,0.1,0.1,0.3,0.3,0.3l0.1,0.1c0,0.1,0.1,0.1,0.1,0.3c0,0.1,0.1,0.1,0.1,0.3l0.1,0.1
		c0,0,0,0.1,0.1,0.1c0,0.1,0.1,0.1,0.1,0.3c0,0,0,0,0,0.1s0.1,0.3,0.1,0.3l0,0c0,0.1,0.1,0.3,0.1,0.3l0,0c0,0.1,0.1,0.3,0.1,0.3l0,0
		c0,0.1,0.1,0.3,0.1,0.3l0,0c0,0.1,0.1,0.3,0.1,0.3l0,0c0,0.1,0,0.3,0.1,0.3l0,0c0,0.1,0,0.3,0,0.3l0,0c0,0.1,0,0.3,0,0.3
		s0,0.1,0,0.3c0,0.1,0,0.1,0,0.3c0,0.1,0,0.1,0,0.3c0,0.1,0,0.1,0,0.3s0,0.1,0,0.3c0,0.1,0,0.1,0,0.3c0,0,0,0.1,0,0.3l-17.8,110.4
		c-0.1,0.5-2.1,3.9-1.7,3.6l4.9-4.1c1-0.9,1.7-2.1,1.9-3.4l17.6-108.3c0.1-0.5,0.3-1.3,0.3-1.3c0-0.1,0-0.1,0-0.3v-0.1l0,0l0,0l0,0
		c0-0.1,0-0.1,0-0.3C1107.1,246.3,1107.1,246.3,1107.1,246.2L1107.1,246.2z"/>
	<g>
		
			<linearGradient id="SVGID_7_" gradientUnits="userSpaceOnUse" x1="904.0302" y1="453.1382" x2="1102.3036" y2="453.1382" gradientTransform="matrix(1 0 0 -1 0 707)">
			<stop  offset="0" style="stop-color:#E1EAF4"/>
			<stop  offset="0.5566" style="stop-color:#ABC6E6"/>
			<stop  offset="0.6486" style="stop-color:#A8C4E5"/>
		</linearGradient>
		<path class="st43" d="M1098.8,243c2.3,1.4,3.9,4.5,3.5,6.8L1084,361.7c-0.4,2.5-2.7,3.4-4.9,2.1l-171.6-99
			c-2.3-1.4-3.9-4.5-3.5-6.8L922.3,146c0.4-2.5,2.7-3.4,4.9-2.1L1098.8,243z"/>
	</g>
	<path class="st44" d="M1104.7,226.4l-170-98.1l0,0l0,0l-0.3-0.1l0,0c-0.3-0.1-0.4-0.3-0.4-0.3c-0.1,0-0.1-0.1-0.3-0.1
		c-0.1,0-0.1-0.1-0.3-0.1c-0.1,0-0.1,0-0.3-0.1c-0.1,0-0.1,0-0.3-0.1c-0.1,0-0.1,0-0.3-0.1c-0.1,0-0.1,0-0.3-0.1l0,0l0,0l0,0
		c-0.1,0-0.1,0-0.3,0h-0.1c0,0,0,0-0.1,0c0,0,0,0-0.1,0c-0.1,0-0.1,0-0.3,0l0,0l0,0c-0.1,0-0.3,0-0.3,0l0,0h-0.1h-0.1l0,0
		c-0.1,0-0.1,0-0.3,0h0.5l0,0c-0.1,0-0.3,0.1-0.3,0.1l0,0l0,0c-0.1,0-0.3,0.1-0.4,0.3l-5,2.8c0.1-0.1,0.3-0.1,0.4-0.3
		c0,0,0.1,0,0.3,0s0.1,0,0.3-0.1c0.1,0,0.3,0,0.3,0h0.1c0.1,0,0.3,0,0.3,0s0,0,0.1,0c0.1,0,0.3,0,0.3,0l0,0c0.1,0,0.3,0,0.4,0.1l0,0
		c0.1,0,0.3,0.1,0.4,0.1l0,0c0.1,0.1,0.3,0.1,0.4,0.3c0.1,0,0.1,0.1,0.3,0.1c0,0,0.1,0,0.1,0.1l0.9,0.5l0,0l170.3,98.2
		c0.3,0.1,0.4,0.1,0.6,0l3.7-2.1C1105.2,227.3,1105.2,226.7,1104.7,226.4z M933.1,128.7L933.1,128.7L933.1,128.7L933.1,128.7z"/>
	<path class="st42" d="M1109.3,233.1L1109.3,233.1c0-0.1,0-0.1,0-0.3c0-0.1,0-0.1,0-0.3l0,0l0,0v-0.1c0-0.1,0-0.1,0-0.3v-0.1l0,0
		c0,0,0,0,0-0.1c0-0.1,0-0.1,0-0.3c0-0.1,0-0.1,0-0.3l0,0l0,0c0-0.1,0-0.1,0-0.3s0-0.1,0-0.3l0,0l0,0v-0.1c0-0.1,0-0.1-0.1-0.3v-0.1
		l0,0l0,0c0-0.1,0-0.1-0.1-0.3c0-0.1,0-0.1-0.1-0.3c0,0,0,0,0-0.1l0,0c0,0,0,0,0-0.1c0-0.1,0-0.1-0.1-0.3c0-0.1,0-0.1-0.1-0.3l0,0
		l0,0c0-0.1-0.1-0.1-0.1-0.3c0-0.1-0.1-0.1-0.1-0.1s0-0.1-0.1-0.1l0,0c0-0.1-0.1-0.3-0.1-0.3v-0.1l0,0c-0.1-0.1-0.1-0.3-0.3-0.3l0,0
		l0,0c0,0,0-0.1-0.1-0.1c0-0.1-0.1-0.1-0.1-0.3c0,0,0,0,0-0.1l0,0c0,0,0,0,0-0.1l-0.1-0.1l-0.1-0.1l0,0l0,0l-0.1-0.1
		c0,0-0.1-0.1-0.3-0.1l0,0l0,0l-0.1-0.1c-0.1,0-0.1-0.1-0.3-0.1l0,0l0,0l-0.1-0.1c-0.1,0-0.1-0.1-0.3-0.1l0,0l0,0l0,0
		c0,0-0.1,0-0.1-0.1c-0.1,0-0.1-0.1-0.3-0.1c0,0-4.1-2.3-4.1-2.5l-5,3.1c0,0,4.4,2.3,4.5,2.3s0.1,0.1,0.3,0.1c0.1,0,0.1,0.1,0.3,0.1
		s0.1,0.1,0.3,0.1c0,0,0,0,0.1,0.1c0.1,0.1,0.3,0.1,0.3,0.3l0,0l0,0c0.1,0.1,0.3,0.3,0.3,0.3l0,0c0.1,0.1,0.1,0.3,0.3,0.3l0,0
		c0.1,0.1,0.1,0.3,0.3,0.3l0,0c0.1,0.1,0.1,0.3,0.3,0.3l0.1,0.1c0,0.1,0.1,0.1,0.1,0.3c0,0.1,0.1,0.1,0.1,0.3l0.1,0.1
		c0,0,0,0.1,0.1,0.1c0,0.1,0.1,0.1,0.1,0.3c0,0,0,0,0,0.1c0,0.1,0.1,0.3,0.1,0.3l0,0c0,0.1,0.1,0.3,0.1,0.3l0,0
		c0,0.1,0.1,0.3,0.1,0.3l0,0c0,0.1,0.1,0.3,0.1,0.3l0,0c0,0.1,0.1,0.3,0.1,0.3l0,0c0,0.1,0,0.3,0.1,0.3l0,0c0,0.1,0,0.3,0,0.3l0,0
		c0,0.1,0,0.3,0,0.3c0,0.1,0,0.1,0,0.3c0,0.1,0,0.1,0,0.3s0,0.1,0,0.3c0,0.1,0,0.1,0,0.3c0,0.1,0,0.1,0,0.3s0,0.1,0,0.3
		c0,0,0,0.1,0,0.3l-17.8,110.4c-0.1,0.5-2.1,3.9-1.7,3.6l4.9-4.1c1-0.9,1.7-2.1,1.9-3.4l17.6-108.3c0.1-0.5,0.3-1.3,0.3-1.3
		c0-0.1,0-0.1,0-0.3v-0.1l0,0l0,0l0,0c0-0.1,0-0.1,0-0.3C1109.3,233.3,1109.3,233.3,1109.3,233.1L1109.3,233.1z"/>
	<g>
		<g>
			<path class="st25" d="M1100.7,229.9c2.3,1.4,3.9,4.5,3.5,6.8L1086,348.7c-0.4,2.5-2.7,3.4-4.9,2.1l-171.6-99
				c-2.3-1.4-3.9-4.5-3.5-6.8L924.2,133c0.4-2.5,2.7-3.4,4.9-2.1L1100.7,229.9z"/>
		</g>
	</g>
	<g>
		<path class="st45" d="M1094.5,237.1c2.2,1.3,3.7,3.9,3.4,6.1l-16.4,94c-0.3,2.1-2.5,2.7-4.6,1.5L914,246.6
			c-2.2-1.3-3.7-3.9-3.4-6.1l16.4-94c0.3-2.1,2.5-2.7,4.6-1.5L1094.5,237.1z"/>
	</g>
	<path class="st15" d="M1016.7,187.8c0,1-0.8,1.5-1.7,0.9c-0.9-0.5-1.7-1.8-1.7-3c0-1,0.8-1.5,1.7-0.9
		C1016,185.5,1016.7,186.8,1016.7,187.8z"/>
	<path class="st46" d="M1068.7,322.2l-128.2-74c-2.1-1.3-3.5-4.5-3-7.4l11.1-68.4c0.4-2.8,2.6-4.1,4.6-3l128.2,74
		c2.1,1.3,3.5,4.5,3,7.4l-11.1,68.4C1072.8,322.2,1070.7,323.5,1068.7,322.2z"/>
	<path class="st25" d="M1083.1,258.6l1.4-8.4c0.4-2.5-1.3-5.7-3.7-7l-126.9-73.3c-2.5-1.4-4.8-0.5-5.2,1.9l-1.4,8.4L1083.1,258.6z"
		/>
	<path class="st38" d="M958.4,180.2c-0.3,1-1.3,1.5-2.3,0.9c-1-0.6-1.9-2.1-1.7-3.2c0.3-1,1.3-1.5,2.3-0.9
		C957.8,177.8,958.6,179.2,958.4,180.2z"/>
	<path class="st47" d="M966.6,185c-0.3,1-1.3,1.5-2.3,0.9c-1-0.6-1.9-2.1-1.7-3.2c0.3-1,1.3-1.5,2.3-0.9
		C966.1,182.4,966.8,183.8,966.6,185z"/>
	<path class="st45" d="M974.7,189.8c-0.3,1-1.3,1.5-2.3,0.9c-1-0.6-1.9-2.1-1.7-3.2c0.3-1,1.3-1.5,2.3-0.9
		C974.1,187.2,974.8,188.6,974.7,189.8z"/>
	<path class="st48" d="M985.8,208.4L959.1,193c-1.4-0.8-2.7,0.1-3,1.9l-7.9,48.3c-0.3,1.8,0.5,3.9,1.9,4.8l26.7,15.4
		c1.4,0.8,2.7-0.1,3-1.9l7.9-48.3C988,211.2,987.2,209,985.8,208.4z"/>
	<path class="st15" d="M970.4,265.8l-26.7-15.4c-1.4-0.8-2.2-2.8-1.9-4.8l7.9-48.3c0.3-1.8,1.5-2.7,3-1.9l26.7,15.4
		c1.4,0.8,2.2,2.8,1.9,4.8l-7.9,48.3C973.2,265.7,971.7,266.6,970.4,265.8z"/>
	<path class="st47" d="M974.3,221.5l-20.8-12c-0.9-0.5-1.5-2.1-1.4-3.4l0,0c0.3-1.4,1.2-1.9,2.2-1.4l20.8,12
		c0.9,0.5,1.5,2.1,1.4,3.4l0,0C976.4,221.5,975.3,222.2,974.3,221.5z"/>
	<polygon class="st46" points="974.7,231.1 951.1,217.4 951.7,213.5 975.3,227.2 	"/>
	<polygon class="st46" points="973.4,239.7 949.7,226 950.3,222.2 974.1,236 	"/>
	<polygon class="st46" points="972,248.5 948.2,234.8 948.9,231.1 972.5,244.8 	"/>
	<polygon class="st46" points="958.4,249.8 946.9,243.1 947.6,239.3 959.1,245.9 	"/>
	<path class="st15" d="M1060.3,310.1l-72.2-41.7c-1.4-0.8-2.2-2.8-1.9-4.8l7.9-48.3c0.3-1.8,1.5-2.7,3-1.9l72.2,41.7
		c1.4,0.8,2.2,2.8,1.9,4.8l-7.9,48.3C1063,310.1,1061.6,310.9,1060.3,310.1z"/>
	<g>
		<path class="st47" d="M1063.3,265.3l-64.3-37c-0.9-0.5-1.5-2.1-1.4-3.4l0,0c0.3-1.4,1.2-1.9,2.2-1.4l64.3,37
			c0.9,0.5,1.5,2.1,1.4,3.4l0,0C1065.2,265.3,1064.2,265.9,1063.3,265.3z"/>
		<path class="st38" d="M1061.5,273.4l-25-14.5c-0.8-0.4-1.3-1.7-1-2.7l0,0c0.3-1,0.9-1.5,1.7-1l25,14.5c0.8,0.4,1.3,1.7,1,2.7l0,0
			C1062.9,273.4,1062.1,273.9,1061.5,273.4z"/>
		<path class="st38" d="M1023.2,251.5l-25-14.5c-0.8-0.4-1.3-1.7-1-2.7l0,0c0.3-1,0.9-1.5,1.7-1l25,14.5c0.8,0.4,1.3,1.7,1,2.7l0,0
			C1024.9,251.5,1024,252,1023.2,251.5z"/>
		<polygon class="st46" points="1061.5,283.1 1033.4,267 1034.1,263.1 1062.1,279.2 		"/>
		<polygon class="st46" points="1023.2,261 995.4,244.9 996,241.1 1023.9,257.2 		"/>
		<polygon class="st46" points="1059.9,291.8 1032.1,275.6 1032.8,271.9 1060.5,288 		"/>
		<polygon class="st46" points="1021.9,269.8 993.9,253.7 994.6,249.8 1022.5,265.9 		"/>
		<polygon class="st46" points="1004.1,268.6 992.6,261.9 993.2,258.2 1004.7,264.8 		"/>
		<polygon class="st46" points="1042.2,290.6 1030.7,283.9 1031.4,280.1 1042.9,286.8 		"/>
	</g>
	<path class="st46" d="M884.9,375c-4.8,2.7-12.5,2.7-17.3,0c-4.8-2.7-4.8-7.2-0.1-9.9c4.8-2.7,12.5-2.7,17.3,0
		C889.5,367.8,889.6,372.2,884.9,375z"/>
	<polygon class="st46" points="858.3,352.8 864.1,370.4 888.3,370.8 893.9,353.8 	"/>
	<path class="st49" d="M887,353.7l-5.6,17.4l0,0c-0.3,1-1.5,2.7-3.5,3.9c-1.5,0.9-3.2,1.4-5,1.7c4.1,0.8,8.6,0.3,11.9-1.7
		c2.1-1.2,3.2-2.8,3.5-3.9l0,0l5.6-17.4H887L887,353.7z"/>
	<path class="st50" d="M889,359.1c-7,4-18.5,4-25.4,0c-7.1-4-7.1-10.7-0.1-14.7s18.5-4,25.4,0C896.1,348.4,896.1,355,889,359.1z"/>
	<path class="st51" d="M887,357.7c-6.1,3.5-15.9,3.5-21.8,0c-6.1-3.5-6.1-9.2-0.1-12.7c6.1-3.5,15.9-3.5,21.8,0
		C893.1,348.6,893.1,354.2,887,357.7z"/>
	<g>
		<path class="st52" d="M864.3,347.8L864.3,347.8c-0.9-1.2-1.7-2.6-1.5-4.1c0.1-0.8,0.4-1.4,0.9-1.8c1.4-1.3,3.4-0.4,4.5,0.8
			c1,1,1.7,2.3,2.8,3.2c-1.4-4.5-2.7-8.9-4.3-13.4c-0.5-1.7-1-3.5-0.3-5.2c0.5-0.9,1.5-1.5,2.6-1.4c2.7,0.4,2.3,5,4.6,6.3
			c-1.7-3.4-3-6.8-3.5-10.6c-0.4-2.7-0.5-5.7,1.4-7.7c1-1.2,2.7-1.8,4.3-1.4c2.7,0.9,3.4,4.3,3.4,7c0.1,3.5,0.3,6.8,0.3,10.5
			c0.6-2.6,1.5-5.4,3.4-7.2c0.9-0.9,2.6-0.3,2.7,0.9c0.3,4-0.4,8.1-2.3,11.7c0.3-0.5,0.8-1,1.3-1.5c1.4-1,3.4-0.1,3.4,1.7
			c-0.1,3.9-1.7,8-4.5,10.7l1.4-1.5c0.6-0.8,1.8-0.3,1.8,0.8c0,2.7-1.2,5.3-3.2,7.1C877.4,358,868.5,353.2,864.3,347.8z"/>
	</g>
	<path class="st48" d="M1039.9,280.1l-41.4-24c-1.2-0.6-3,0.1-3.4,1.5l-5.6,27.9c-0.3,1.2,0.3,2.2,1.3,2.7l4.5,2.6l0,0l34.7,20.1
		l0,0l2.6,1.5c1,0.6,2.7-0.1,3-1.4l5.6-28.1C1041.3,281.7,1040.9,280.6,1039.9,280.1z"/>
	<path class="st15" d="M1027.1,312.8l-41.7-24.1c-0.9-0.5-1.5-1.5-1.3-2.7l5.6-27.9c0.3-1.4,2.1-2.1,3.4-1.5l41.6,24
		c0.9,0.5,1.5,1.5,1.3,2.7l-5.6,28.1C1029.7,312.7,1028.1,313.4,1027.1,312.8z"/>
	<path class="st52" d="M989.8,291.4l7.6-5.9c1.8-1.4,4.4-1,4.9,0.8l3.6,11.7l8.6-8.4c1.8-1.8,4.9-1.4,5.3,0.6l4.5,21.3L989.8,291.4z
		"/>
	<path class="st38" d="M1004.7,273.3c-0.4,1.9-1.9,2.8-3.5,2.1c-1.5-0.9-2.5-3.2-2.1-5c0.4-1.9,1.9-2.8,3.5-2.1
		C1004.1,269,1005.2,271.4,1004.7,273.3z"/>
	<polygon class="st46" points="1061.8,283.4 1047.5,275 1049.2,269.2 1062.7,277.3 	"/>
	<polygon class="st46" points="1060.3,293.3 1046,285 1047.8,279.1 1061.3,287.4 	"/>
	<path class="st18" d="M999.9,387.4l60.8,35.1c1.2,0.8,3.4,0.6,4.8-0.3l14.1-8.1c1.4-0.9,1.5-2.1,0.3-2.7l-60.8-35.1
		c-1.2-0.8-3.4-0.6-4.8,0.3l-14.1,8.1C998.8,385.5,998.7,386.6,999.9,387.4z"/>
	<path class="st53" d="M999.9,385.3l60.8,35.1c1.2,0.8,3.4,0.6,4.8-0.3l14.1-8.1c1.4-0.9,1.5-2.1,0.3-2.7l-60.8-35.1
		c-1.2-0.8-3.4-0.6-4.8,0.3l-14.1,8.1C998.8,383.4,998.7,384.6,999.9,385.3z"/>
	<polygon class="st38" points="1016.4,364.7 1004.5,357.8 1016.4,351 1028.1,357.8 	"/>
	<polygon class="st54" points="1016.4,389.9 1004.5,382.9 1004.5,357.8 1016.4,364.7 	"/>
	<polygon class="st25" points="1016.4,389.9 1028.4,382.9 1028.4,357.8 1016.4,364.7 	"/>
	<polygon class="st55" points="1032.1,358.6 1020.1,351.8 1032.1,345.1 1043.9,351.8 	"/>
	<polygon class="st56" points="1020.3,351.8 1020.3,366.6 1020.3,391.8 1032.1,398.6 1032.1,358.6 	"/>
	<polygon class="st25" points="1032.1,358.6 1032.1,398.6 1044.2,391.8 1044.2,351.8 	"/>
	<polygon class="st52" points="1047.1,382.9 1035.5,376.2 1047.1,369.3 1059.1,376.2 	"/>
	<polygon class="st57" points="1047.3,408.1 1035.5,401.3 1035.5,376.2 1047.3,382.9 	"/>
	<polygon class="st25" points="1047.3,408.1 1059,401.3 1059,376.2 1047.3,382.9 	"/>
	<polygon class="st58" points="1063.1,402 1051.3,395 1063,388.2 1074.7,395.2 	"/>
	<polygon class="st25" points="1062.9,417.9 1075,410.6 1075,395.2 1062.9,402 	"/>
	<g>
		<polygon class="st46" points="1063.1,417.9 1063.1,402 1051.4,395 1051.4,410.9 		"/>
	</g>
	<path class="st25" d="M928.4,240.5l-28.1-16.3c-1.5-0.9-2.6-3.4-2.2-5.3l9.6-58.1c0.3-2.1,1.9-3,3.4-2.1l28.1,16.3
		c1.5,0.9,2.6,3.4,2.2,5.3l-9.6,58.1C931.5,240.5,929.8,241.4,928.4,240.5z"/>
	<path class="st47" d="M917.8,179.1l-6.1-3.5c-1.3-0.8-2.1-2.6-1.8-4.1l0,0c0.3-1.5,1.5-2.3,2.7-1.5l6.1,3.5
		c1.3,0.8,2.1,2.6,1.8,4.1l0,0C920.2,179.1,918.9,179.8,917.8,179.1z"/>
	<path class="st15" d="M924.5,193.9l-9.2-5.3c-0.9-0.5-1.5-2.1-1.4-3.4l0,0c0.3-1.3,1.2-1.8,2.1-1.3l9.2,5.3
		c0.9,0.5,1.5,2.1,1.4,3.4l0,0C926.4,193.9,925.5,194.5,924.5,193.9z"/>
	<path class="st46" d="M930.4,208.7l-16.8-9.7c-0.9-0.5-1.5-2.1-1.4-3.4l0,0c0.3-1.3,1.2-1.8,2.1-1.3l16.8,9.7
		c0.9,0.5,1.5,2.1,1.4,3.4l0,0C932.4,208.7,931.5,209.3,930.4,208.7z"/>
	<path class="st15" d="M921.1,214.7l-9.2-5.3c-0.9-0.5-1.5-2.1-1.4-3.4l0,0c0.3-1.3,1.2-1.8,2.1-1.3l9.2,5.3
		c0.9,0.5,1.5,2.1,1.4,3.4l0,0C923.1,214.7,922,215.3,921.1,214.7z"/>
	<path class="st47" d="M911.6,220l-6.3-3.6c-0.9-0.5-1.5-2.1-1.4-3.4l0,0c0.3-1.3,1.2-1.8,2.1-1.3l6.3,3.6c0.9,0.5,1.5,2.1,1.4,3.4
		l0,0C913.5,220,912.5,220.5,911.6,220z"/>
	<path class="st18" d="M972.6,312.4l-52.5,35.1c-1.2,0.8-1.5,2.5-0.8,3.6c0.8,1.2,2.5,1.5,3.6,0.8l54.6-36.4L972.6,312.4z"/>
	<path class="st18" d="M950.2,303.6l-5-2.8l-48.4,32.3c-1.2,0.8-1.5,2.5-0.8,3.6c0.8,1.2,2.5,1.5,3.6,0.8L950.2,303.6z"/>
	<path class="st48" d="M1101.6,216.7c-0.8-1.3-2.2-1.5-3.4-0.9c-2.6,1.2-4.9,2.7-7,4.5c-2.1,1.7-4,3.5-5.4,5.7
		c-1.8,3-2.2,6.2-2.1,9.4c0.3,4.8,0.5,9.4,0.8,14.2c0,0.1,0,0.3,0,0.3c-0.8,1-1.5,2.3-1.9,3c-1.2,1.3-2.2,2.6-2.7,3.4
		c-0.6,0.9,0.8,1.4,0.8,1.4c2.8,0.5,5.7-0.8,5.7-0.8c1.3-0.9,0.4-2.1,1.7-3.9c0.3-0.3,0.8-0.6,0.9-0.3l-0.1,2.1l0.6-0.1
		c0,0,0.4-2.8,0.8-4.6c0.1-0.8,0-1.5-0.3-1.8c-0.1-0.3-0.3-0.4-0.5-0.6c0-0.1,0-0.1-0.1-0.3c-0.3-3.5-0.4-7.1-0.5-10.6
		c-0.1-2.3-0.3-4.6,0.8-6.8c1-2.1,2.8-3.7,4.6-5.2c1.9-1.7,4-3.1,6.3-4.1C1102,219.6,1102.2,217.8,1101.6,216.7z"/>
	<path class="st48" d="M1094.1,217.7c-2.6,0.4-5.2,1-7.5,2.3c-3,1.7-5,4.3-6.5,7.2c-2.1,4.3-4.3,8.5-6.3,12.8c0,0.1-0.1,0.1-0.1,0.3
		c-1.2,0.6-2.5,1.3-3.1,1.7c-1.5,0.5-3.2,1.2-4,1.5c-0.9,0.4,0,1.5,0,1.5c2.2,1.9,5.4,2.2,5.4,2.2c1.5-0.1,1.4-1.5,3.4-2.6
		c0.3-0.3,0.9-0.3,0.9,0.1l-1,1.7l0.6,0.3c0,0,1.7-2.2,3-3.7c0.5-0.6,0.8-1.3,0.6-1.7c0-0.3,0-0.5-0.1-0.9c0-0.1,0-0.1,0-0.3
		c1.5-3.2,3.2-6.3,4.8-9.6c1-2.1,2.1-4.3,4.1-5.7c1.9-1.4,4.4-1.8,6.7-2.2C1097.5,222.2,1096.8,217.1,1094.1,217.7z"/>
	<g>
		<g>
			<path class="st59" d="M1090,192.2c-0.8,4.5-2.3,7.7-4.5,11.6c-2.5,4.1-3.4,7.1-7.9,9.4c-2.8,1.5-0.3,5.8,2.6,4.4
				c4.4-2.2,6.5-5,8.6-9.3c2.6-5,5.2-8.9,6.2-14.7C1095.3,190.3,1090.5,189,1090,192.2L1090,192.2z"/>
		</g>
	</g>
	<g>
		<g>
			<path class="st60" d="M1093.3,214.7c-7.5,3.5-14.8,10.1-14.5,19c0.3,5,0.5,10.1,0.9,15.1c0.3,3.4,5.2,3.4,5,0
				c-0.3-4.1-0.4-8.3-0.6-12.4c-0.1-2.1-0.3-4,0.1-6.1c1-5,7.5-9.2,11.7-11.1C1098.8,217.7,1096.3,213.3,1093.3,214.7L1093.3,214.7z
				"/>
		</g>
	</g>
	<g>
		<g>
			<path class="st7" d="M1090,191.8c-1.5,4.4-3.6,8.5-5.3,12.8c-1.2,3.1,3.7,4.4,4.9,1.4c1.7-4.3,3.7-8.4,5.3-12.8
				C1095.9,190.2,1091,188.9,1090,191.8L1090,191.8z"/>
		</g>
	</g>
	<g>
		<g>
			<path class="st59" d="M1068.8,241.1c3.4-3.6,5.8-7.7,9.3-11.2c3.2-3.2,4.9-1.7,8.8-1.2c3.9,0.6,7.5-0.4,10.6-2.6
				c2.7-1.7,0.3-6.2-2.6-4.4c-4.1,2.7-7.5,2.1-11.7,0.8c-2.8-0.9-5.7,1-7.7,2.8c-4.1,3.5-6.7,8.1-10.3,12.1
				C1063.1,240,1066.6,243.6,1068.8,241.1L1068.8,241.1z"/>
		</g>
	</g>
	<path class="st8" d="M1066,244.4l-0.1-0.3c-0.1-0.3,0-0.4,0.3-0.5l0,0c0.3-0.1,0.4,0,0.5,0.3l0.1,0.3c0.1,0.3,0,0.4-0.3,0.5l0,0
		C1066.4,244.6,1066.1,244.5,1066,244.4z"/>
	<path class="st9" d="M1065.8,243.6l0.9-1.4c0.1-0.3,0.3-0.3,0.5-0.1l0,0c0.3,0.1,0.3,0.3,0.1,0.5l-0.9,1.4
		c-0.1,0.3-0.3,0.3-0.5,0.1l0,0C1065.7,244,1065.7,243.7,1065.8,243.6z"/>
	<path class="st15" d="M1070.7,239.5c0.1-0.9-0.3-2.2-0.8-2.5l-2.7,1l-0.3-0.1c-1.3,0.3-7.5,1.5-9.3,2.1c-0.9,0.3-0.3,1.5-0.3,1.5
		c2.1,2.1,5,2.8,5,2.8c1.5,0.1,1.5-1.4,3.6-2.1c0.3-0.1,0.9-0.1,0.9,0.3l-1.3,1.5l0.6,0.3c0,0,2.1-2.1,3.4-3.4
		C1070.5,240.6,1070.9,240,1070.7,239.5z"/>
	<path class="st59" d="M1069.8,236.6l-1.7,0.1c0,0-5.7,2.1-6.7,2.6c-1.3,0.5,0.9,4.6,7.4,0.9
		C1072.8,238.4,1069.8,236.6,1069.8,236.6z"/>
	<path class="st5" d="M1089.7,211.3c-8.6,5.4-13.9,10.5-13.6,12.9c0,0,4.3-2.3,7.6-0.4s2.7,3.6,1.8,4.5c-0.3,0.3-0.1,0.8,0.3,0.8
		c4,0.1,17.9,0.1,18.2-7.5c0.3-6.3-0.6-7.1-0.6-7.1S1094.5,217.4,1089.7,211.3z"/>
	<g>
		<g>
			<path class="st5" d="M1106.9,191.7c-2.1-2.3-5.8-3.4-8.8-3.5c-1.9-0.1-1.9,2.8,0,3c2.2,0.1,5.2,0.9,6.7,2.7
				C1106,195.3,1108.2,193.3,1106.9,191.7L1106.9,191.7z"/>
		</g>
	</g>
	<path class="st12" d="M1092.3,193.4c0,0-3.4,4.5-3.1,7.5c0.1,1.8,1.3,3.9,1.5,4.5c1.3,4.9,0.3,6.3,0.4,7.5c0,0,0.8,4.5,12.3,0.9
		l5-13.4L1092.3,193.4z"/>
	<path class="st12" d="M1107.1,203.6c0.1-0.3,1.2-1.9,1.3-2.1c0.5-2.2,1.8-4-0.6-7c-0.5-0.6-6.1-4-10.5-5c-2.1-0.5-4.3,0.5-5.3,2.6
		c-0.5,1.2-1.2,3.4-1.2,3.4c-0.4,4.5,1.9-1.3,2.1,1.2c0-0.1,0-0.1,0-0.3c0,0,0.3,4.3,0.5,7.5c0.1,2.1,0.3,3.5,0.3,3.7l0,0l7.4,6.5
		l4.5-7l0,0L1107.1,203.6z"/>
	<path class="st59" d="M1097.6,189.4c0,0-4,3.7-0.9,6.7c3.2,3,9.2-3,9.2-3C1103,191.1,1100.3,189.8,1097.6,189.4z"/>
	<path class="st13" d="M1108.3,201.5c-0.5,0.3-1.9,2.1-3,3c-2.1,1.8-5,3-7.7,2.1c-3.9-1.2-7.9-3.4-7.9-3.4s1.4,5.7,0.6,8.8
		c-0.3,1.5-0.1,1.2-0.1,1.2c0,1.5,2.3,1.2,2.3,1.2c5,1.8,10.7-0.5,10.7-0.5l3.9-9.3L1108.3,201.5z"/>
	<path class="st14" d="M1089.1,211.8L1089.1,211.8c-0.1,0.3-0.1,0.6,0.3,0.9c0.9,0.9,3,2.8,7,3.2c3.4,0.3,5.6-0.1,6.6-0.4
		c0.4-0.1,0.8-0.5,0.6-1v-0.3c-0.1-0.5-0.5-0.9-1-0.8c-1.9,0.4-6.5,1.2-9.3-0.3c-1.3-0.6-2.1-1.3-2.6-1.8
		C1090.1,211.1,1089.3,211.3,1089.1,211.8z"/>
	<path class="st15" d="M1094.1,216l-1.8-0.8c-0.6-0.3-1-0.9-0.9-1.5l0,0c0.1-0.6,0.8-0.9,1.3-0.8l1.8,0.8c0.6,0.3,1,0.9,0.9,1.5l0,0
		C1095.4,215.8,1094.8,216.2,1094.1,216z"/>
	<path class="st14" d="M1093.9,215.2l-1-0.4c-0.3-0.1-0.6-0.5-0.5-0.9l0,0c0.1-0.3,0.4-0.5,0.8-0.4l1,0.4c0.3,0.1,0.6,0.5,0.5,0.9
		l0,0C1094.5,215.2,1094.2,215.5,1093.9,215.2z"/>
	<g>
		<g>
			<path class="st5" d="M1096.3,189.8c-0.3,1.4-0.8,2.7-1,3.9c-0.3,1.4,0.3,2.1,1.4,2.7c3.2,2.2,7.2-0.9,9.6-2.8
				c0.6-0.5-0.3-1.4-0.9-0.9c-1.9,1.5-4.5,3.7-7.1,3.1c-3-0.8-0.9-3.9-0.6-5.7C1097.5,189.3,1096.3,188.9,1096.3,189.8L1096.3,189.8
				z"/>
		</g>
	</g>
	<path class="st8" d="M1084.2,253.7l-0.3-0.3c-0.3-0.1-0.3-0.3-0.1-0.5l0,0c0.1-0.3,0.3-0.3,0.5-0.1l0.3,0.3
		c0.3,0.1,0.3,0.3,0.1,0.5l0,0C1084.6,253.7,1084.3,253.8,1084.2,253.7z"/>
	<path class="st9" d="M1083.7,253.2v-1.7c0-0.3,0.3-0.3,0.3-0.3l0,0c0.3,0,0.3,0.3,0.3,0.3v1.7c0,0.3-0.3,0.3-0.3,0.3l0,0
		C1083.8,253.5,1083.7,253.3,1083.7,253.2z"/>
	<path class="st15" d="M1085.2,246.8c-0.4-0.8-1.5-1.7-2.1-1.5l-1.5,2.5l-0.3,0.1c-0.9,1-5,5.7-6.3,7.2c-0.6,0.9,0.8,1.4,0.8,1.4
		c2.8,0.5,5.7-0.8,5.7-0.8c1.3-0.9,0.4-2.1,1.7-3.9c0.3-0.3,0.8-0.6,0.9-0.3l-0.1,2.1l0.6-0.1c0,0,0.4-2.8,0.8-4.6
		C1085.6,248,1085.5,247.3,1085.2,246.8z"/>
	<path class="st60" d="M1082.8,245.1l-1.3,1c0,0-3.2,5-3.9,6.1c-0.8,1.2,3.5,3.2,6.5-3.7C1086.1,244.9,1082.8,245.1,1082.8,245.1z"
		/>
	<g>
		<g>
			<path class="st59" d="M1098.6,201.4c-0.5,0.3-1,0.5-1.7,0.5c-0.8,0.1-0.1,0,0.1,0.3c-0.6-0.9-0.9-1.9-1.2-2.7
				c-1.3-3.5-3.4-6.5-6.1-8.9c-2.5-2.2-5.9,1.4-3.6,3.6c3.2,3,4.4,6.3,6.1,10.2c1.4,3.1,4.6,3.2,7.5,2.1
				C1103,205.1,1101.7,200.2,1098.6,201.4L1098.6,201.4z"/>
		</g>
	</g>
	<g>
		<path class="st61" d="M1089.7,182c-0.6,1.7-0.8,3.6,0.3,5c0.3,0.3,0.4,0.5,0.6,0.8c0.5,0.6,1,1.3,1.5,2.1c0.1,0.1,0.1,0.3,0.3,0.3
			c0.3,0.3,0.6,0.1,0.9-0.3c0.3-0.3,0.3-0.5,0.5-0.9c0.5-0.9,11.9,5.8,12.4,5c0.8-1-2.1-13.7-2.3-15c-0.4-1.7-8.6,0.5-10.1-0.5
			c-0.3-0.3-0.5-0.4-0.9-0.6l0,0c-0.3-0.3-0.6-1-1.3-0.9c-0.4,0.3-0.6,1-0.8,1.4C1090.8,179.7,1090.1,180.9,1089.7,182z"/>
	</g>
	<path class="st59" d="M1098.1,192l-2.1-7.6l4.8,1.5l1.5,6.3C1102.9,193,1099.7,195.8,1098.1,192z"/>
	<path class="st17" d="M1097.7,190.4c0,0,2.1-1,2.1-1.2c0,0-0.8,1.5-1.8,2.2L1097.7,190.4z"/>
	<path class="st59" d="M1098,190.4h-1.5c-2.3,0.1-4.3-1.7-4.4-4l-0.3-7.6c-0.1-2.3,1.7-4.3,4-4.4h1.5c2.3-0.1,4.3,1.7,4.4,4l0.3,7.6
		C1102.1,188.3,1100.3,190.3,1098,190.4z"/>
	<path class="st61" d="M1099,180.7c-1.7-2.1-5,0.4-6.7-0.3c-1.9-0.8-1.3-2.7,0-4.3c0.6-0.9,1.5-1.5,3.4-2.2c4.9-1.8,9.8,0.3,9.9,5.7
		c0,0,0.4,7.5-3.9,8.6l-0.3-1c0,0,2.6-2.7-0.3-4.5c-0.6-0.4-0.6-0.4-0.6-1.3C1100.7,180.6,1099.7,181.4,1099,180.7z"/>
	<ellipse class="st62" cx="1093.2" cy="183.2" rx="0.3" ry="0.6"/>
	<path class="st61" d="M1098.8,180.3c0,0,4.9,6.3,4.5,10.5c-0.3,3.4-4.1,5.7-4.8,10.8c-0.1,1,1.3,1.7,1.9,0.8c0.9-1,1.9-2.2,3.4-3.2
		c3.4-2.2,3.9-4.5,3.5-6.3c-0.3-1.7-1.7-14.3-1.7-14.3l-7.5-0.8L1098.8,180.3z"/>
	<path class="st59" d="M1102.9,186.2c-0.6,0.5-1.5,0.3-1.7-0.4c-0.3-0.8,0-1.9,0.8-2.5c0.6-0.5,1.5-0.3,1.7,0.4
		C1103.8,184.5,1103.4,185.6,1102.9,186.2z"/>
	<path class="st61" d="M1091.1,184.7c0,0,0.1-2.6,6.2-5.8c6.1-3.4,0.3-0.1,0.3-0.1l-5.9-1.4C1091.5,177.4,1089.2,180.1,1091.1,184.7
		z"/>
	<path class="st15" d="M1092.9,182.3l-6.1,4l1.4,2.1l6.1-4c0.3-0.3,0.3-0.9,0-1.5C1093.9,182.3,1093.3,182,1092.9,182.3z"/>
	<path class="st15" d="M1091.5,182.5l-8.6,5.7l2.1,3.1l8.6-5.7c0.5-0.3,0.5-1.3-0.1-2.1C1092.9,182.7,1092,182.2,1091.5,182.5z"/>
	<path class="st25" d="M1086,185.4L1086,185.4l-10.6,6.7l0,0l0,0c-0.8,0.5-0.6,2.1,0.3,3.4c0.9,1.4,2.2,2.1,3,1.5l0,0l0,0l10.2-7.4
		l0,0c0.8-0.5,0.8-1.9-0.1-3.1C1087.9,185.4,1086.6,184.9,1086,185.4z"/>
	<g>
		<path class="st53" d="M1079,189.3L1079,189.3l-5.2,2.8l4.4,6.2l4.5-3.6l0,0c0.9-0.6,0.9-2.3-0.1-3.9
			C1081.5,189.3,1080,188.6,1079,189.3z"/>
		
			<ellipse transform="matrix(0.8311 -0.5562 0.5562 0.8311 73.2169 631.3752)" class="st46" cx="1075.9" cy="195.2" rx="2.7" ry="3.7"/>
		
			<ellipse transform="matrix(0.8311 -0.5562 0.5562 0.8311 73.2172 631.3747)" class="st25" cx="1075.9" cy="195.2" rx="2.1" ry="2.8"/>
	</g>
	<path class="st59" d="M1083.8,188.6L1083.8,188.6c0.8-0.9,2.1-1,3.1-0.3l3.4,2.6c0.9,0.8,1,2.1,0.3,3.1l0,0c-0.8,0.9-2.1,1-3.1,0.3
		l-3.4-2.6C1083.1,190.9,1083.1,189.5,1083.8,188.6z"/>
	<path class="st63" d="M1079,217h-2.1c-1.3,0-2.3-1-2.3-2.3l0,0c0-1.3,1-2.3,2.3-2.3h2.1c1.3,0,2.3,1,2.3,2.3l0,0
		C1081.3,216,1080.3,217,1079,217z"/>
	<path class="st64" d="M1075.3,193.9c-0.3-0.5-0.9-0.6-1.3-0.1s-0.3,1.3,0.6,2.5C1076.3,198.5,1076.2,196,1075.3,193.9z"/>
	
		<ellipse transform="matrix(0.7813 -0.6242 0.6242 0.7813 114.0725 713.5422)" class="st15" cx="1075.2" cy="194" rx="0.4" ry="0.5"/>
	<g>
		<g>
			<path class="st65" d="M953.9,307.9c-3.7,5.7-5.3,12.8-6.8,19.4c-0.3,1.4-0.6,2.5-0.1,3.9c1.7,4.4,2.7,8.9,3.2,13.4
				c0.3,3.2,5.4,3.2,5,0c-0.4-4.1-1.3-8.1-2.5-12.3c-0.3-1-0.6-2.1-1-3.1c0.1,0.3-0.3,1.7,0.1-0.3c1.4-6.3,2.8-13.2,6.5-18.6
				C960.1,307.8,955.6,305.2,953.9,307.9L953.9,307.9z"/>
		</g>
	</g>
	<path class="st66" d="M953.4,309.7c-2.5,4.4-4.4,11.7-5.9,17.7c-0.6,1.5-0.3,3.1,0.9,3.1l3.5,0.5c0.9-0.1,2.5-1.9,2.8-3.4l4.4-15.2
		c0.8-2.5,0.3-4.5-1.3-4.9h-0.3C957.3,306.7,955.3,306.7,953.4,309.7z"/>
	<g>
		<g>
			<path class="st67" d="M944.2,331.3l1.2,13.8c0,0.3,0.3,0.3,0.3,0.3l15.5-10.8c0.1,0,0.1-0.1,0.1-0.3l-1.2-13.8
				c0-0.3-0.3-0.3-0.3-0.3L944.4,331C944.2,331.1,944.2,331.1,944.2,331.3z"/>
			
				<rect x="945.7" y="344.8" transform="matrix(0.4222 -0.9065 0.9065 0.4222 233.7809 1056.8947)" class="st67" width="0.5" height="0.5"/>
			
				<rect x="960" y="320.1" transform="matrix(0.4222 -0.9065 0.9065 0.4222 264.3862 1055.5535)" class="st67" width="0.5" height="0.5"/>
		</g>
		<path class="st68" d="M944.6,331.4l1.2,13.8c0,0.3,0.3,0.3,0.3,0.3l15.5-10.8c0.1,0,0.1-0.1,0.1-0.3l-1.2-13.8
			c0-0.3-0.3-0.3-0.3-0.3l-15.5,10.8C944.6,331.3,944.6,331.3,944.6,331.4z"/>
		<polygon class="st34" points="944.6,332 945.7,344 948.9,345.6 948,333.6 		"/>
		<g>
			<path class="st67" d="M947.2,332.5l1.2,13.8c0,0.3,0.3,0.3,0.3,0.3l15.5-10.8c0.1,0,0.1-0.1,0.1-0.3l-1.2-13.8
				c0-0.3-0.3-0.3-0.3-0.3l-15.5,10.8C947.2,332.4,947.2,332.4,947.2,332.5z"/>
			
				<rect x="948.6" y="346.1" transform="matrix(0.4222 -0.9065 0.9065 0.4222 234.2402 1060.297)" class="st67" width="0.5" height="0.5"/>
			
				<rect x="962.9" y="321.7" transform="matrix(0.4222 -0.9065 0.9065 0.4222 264.7401 1059.0415)" class="st67" width="0.5" height="0.3"/>
		</g>
		<path class="st56" d="M947.6,332.8l1.2,13.8c0,0.3,0.3,0.3,0.3,0.3l15.5-10.8c0.1,0,0.1-0.1,0.1-0.3l-1.2-13.8
			c0-0.3-0.3-0.3-0.3-0.3l-15.5,10.8C947.6,332.5,947.6,332.7,947.6,332.8z"/>
		<polygon class="st67" points="944.4,331 960.1,320.2 963.1,321.6 947.6,332.5 		"/>
		<line class="st69" x1="946.8" y1="344.5" x2="945.8" y2="333.1"/>
		<line class="st69" x1="947.9" y1="345.1" x2="946.8" y2="333.4"/>
		<line class="st69" x1="946.2" y1="344.3" x2="945.3" y2="332.7"/>
		<path class="st19" d="M946.4,339.9c0,0-1.7,0.9-2.7,0.4l-0.1-1.2c0,0,2.1,0,2.7-0.4L946.4,339.9z"/>
	</g>
	<path class="st65" d="M983.9,323.6l1.3,1.5c0.9,1,2.3,1.2,3.4,0.4l0,0c1-0.9,1.2-2.3,0.4-3.4l-1.3-1.5c-0.9-1-2.3-1.2-3.4-0.4l0,0
		C983.2,321.2,983,322.7,983.9,323.6z"/>
	<g>
		<path class="st56" d="M978.3,347.1C978.3,347.1,978.3,347,978.3,347.1L978.3,347.1l3-8.4c0.9-2.3-0.3-5-2.5-5.9
			c-2.1-0.9-4.5,0.1-5.4,2.3l-2.8,8.3l0,0v0.1c-0.9,2.3,0.3,5,2.5,5.9C975.2,350.5,977.5,349.5,978.3,347.1z"/>
		<polygon class="st35" points="972,339.1 988.6,291.8 993.3,292.9 975.9,343.3 		"/>
		<path class="st70" d="M993.3,292.9c1.8,1.2,1.8-0.9,3.5,1.3l-16.5,47.1c-1.9,2.7-3.4,3-4.6,2.1L993.3,292.9z"/>
		<path class="st34" d="M980.1,342.2L980.1,342.2L980.1,342.2l0.6-1.7c-0.9,2.1-3.2,2.8-5.3,1.9c-2.2-1-3.4-3.7-2.6-6.1v-0.1l0,0
			l-0.8,2.1l0,0v0.1C970.6,342.9,978.7,346.6,980.1,342.2z"/>
		<path class="st34" d="M975.3,342.5c2.2,1,4.4,0.9,5.2-1.5l0.3-0.9l0,0l0.5-1.5c-1.2,2.8-9.3,0.3-7.9-4.1v-0.1l0,0l-0.8,2.1l0,0
			v0.1C972,338.7,973.2,341.5,975.3,342.5z"/>
		<path class="st34" d="M997,294.1l-1.7-11.1l-6.7,8.3C988.6,294.3,996.4,296.5,997,294.1z"/>
		<path class="st56" d="M995.6,282.3l0.5,5.6c0,0,0,0.6-1,0.4c-1-0.3-0.9,0.5-1.9,0c-1.2-0.4-1.3-0.9-1.3-0.9L995.6,282.3z"/>
	</g>
	<path class="st4" d="M978.6,397.5c-6.2,3.5-16.1,3.5-22.3,0c-6.2-3.6-6.3-9.3-0.1-12.9c6.2-3.5,16.1-3.5,22.3,0
		C984.8,388.2,984.8,393.9,978.6,397.5z"/>
	<path class="st65" d="M955.6,345.1l-1.3,0.5c-0.9,0.4-2.1,0-2.6-0.9l0,0c-0.4-0.9,0-2.1,0.9-2.6l1.3-0.5c0.9-0.4,2.1,0,2.6,0.9l0,0
		C957,343.5,956.6,344.7,955.6,345.1z"/>
	<path class="st28" d="M963.9,388.2c-0.1,0.1-1.8,0.9-1.9,1c-0.3,0.1-0.6,0.5-0.9,0.8c-0.6,0.4-1.9,2.1-4.1,0.9
		c-3.2-1.8,4.4-6.8,4.4-6.8l3.4-1.7c0.4-0.3,0.9-0.3,1.3,0l0,0c0.8,0.4,1,1.4,0.6,2.1C965.8,385.7,965.7,386.4,963.9,388.2z"/>
	
		<linearGradient id="SVGID_8_" gradientUnits="userSpaceOnUse" x1="3733.4446" y1="321.2958" x2="3744.1013" y2="321.2958" gradientTransform="matrix(-1 0 0 -1 4699.7925 707)">
		<stop  offset="0" style="stop-color:#E1EAF4"/>
		<stop  offset="0.5566" style="stop-color:#ABC6E6"/>
		<stop  offset="0.6486" style="stop-color:#A8C4E5"/>
	</linearGradient>
	<path class="st71" d="M963.5,387.1c-0.1,0.1-1.8,0.9-1.9,1c-0.3,0.1-0.6,0.5-0.9,0.8c-0.6,0.4-1.9,2.1-4.1,0.9
		c-3.2-1.8,4.4-6.8,4.4-6.8l3.4-1.7c0.4-0.3,0.9-0.3,1.3,0l0,0c0.8,0.4,1,1.4,0.6,2.1C965.4,384.8,965.4,385.6,963.5,387.1z"/>
	<g>
		<path class="st31" d="M970.3,296v0.8c0,0,0.1,2.1-2.1,1c-2.2-1-2.1-3.9-2.1-3.9S967.9,293.8,970.3,296z"/>
		<path class="st32" d="M968.2,297.8c2.7,1.5,2.7-1,2.7-1l0,0l-0.1-0.9c-3.1-2.7-5-2.6-5-2.6S965.5,296.5,968.2,297.8z M966.3,294.1
			c0,0,1.5-0.1,3.9,2.1v0.6c0,0,0.1,1.9-2.1,0.8C966.2,296.4,966.3,294.1,966.3,294.1z"/>
		<polygon class="st32" points="972,297.2 970.4,296.5 970.3,295.6 971.9,296.4 		"/>
		<path class="st32" d="M966.1,294.1l-0.3-0.1c-0.1-0.1-0.3-0.3-0.3-0.5l0,0c0-0.3,0.1-0.3,0.3-0.3l0.3,0.1c0.1,0.1,0.3,0.3,0.3,0.5
			l0,0C966.2,294.1,966.2,294.2,966.1,294.1z"/>
		<path class="st32" d="M976.6,299l-0.3-0.1c-0.1-0.1-0.3-0.3-0.3-0.5l0,0c0-0.3,0.1-0.3,0.3-0.3l0.3,0.1c0.1,0.1,0.3,0.3,0.3,0.5
			l0,0C976.9,298.9,976.8,299,976.6,299z"/>
		<g>
			<path class="st31" d="M972.1,296.9l0.1,0.8c0,0,0.3,2.2,2.3,3c2.1,0.8,1.5-2.1,1.5-2.1S974.2,296.8,972.1,296.9z"/>
			<path class="st32" d="M976.4,298.2c0,0-2.1-2.1-5-2.1l0.1,0.9l0,0c0,0,0.4,2.7,3.1,3.7C977.3,301.8,976.4,298.2,976.4,298.2z
				 M974.6,300.3c-2.1-0.8-2.3-2.7-2.3-2.7l-0.1-0.6c2.1,0,3.9,1.5,3.9,1.5S976.5,301,974.6,300.3z"/>
			<path class="st27" d="M972.5,297.9L972.5,297.9c-0.1-0.1-0.1-0.3,0-0.3l0.5-0.5c0,0,0.1,0,0.3,0.1l0,0c0.1,0.1,0.1,0.3,0,0.3
				l-0.5,0.5C972.8,298.1,972.6,298.1,972.5,297.9z"/>
		</g>
		<path class="st27" d="M966.7,295.2L966.7,295.2c-0.1-0.1-0.1-0.3,0-0.3l0.5-0.5c0,0,0.1,0,0.3,0.1l0,0c0.1,0.1,0.1,0.3,0,0.3
			l-0.5,0.5C966.8,295.2,966.8,295.2,966.7,295.2z"/>
	</g>
	<path class="st28" d="M975.6,395.4c-0.1,0.1-2.1,0.5-2.1,0.6c-0.3,0.1-0.8,0.4-1,0.5c-0.8,0.3-2.3,1.7-4.3,0.1
		c-2.7-2.3,5.7-5.7,5.7-5.7l3.6-1c0.4-0.1,0.9,0,1.3,0.3l0,0c0.6,0.5,0.9,1.5,0.3,2.2C978.1,393.3,977.8,394.1,975.6,395.4z"/>
	
		<linearGradient id="SVGID_9_" gradientUnits="userSpaceOnUse" x1="3720.6489" y1="314.3569" x2="3732.3433" y2="314.3569" gradientTransform="matrix(-1 0 0 -1 4699.7925 707)">
		<stop  offset="0" style="stop-color:#E1EAF4"/>
		<stop  offset="0.5566" style="stop-color:#ABC6E6"/>
		<stop  offset="0.6486" style="stop-color:#A8C4E5"/>
	</linearGradient>
	<path class="st72" d="M975.3,394.4c-0.1,0.1-2.1,0.5-2.1,0.6c-0.3,0.1-0.8,0.4-1,0.5c-0.8,0.3-2.3,1.7-4.3,0.1
		c-2.7-2.3,5.7-5.7,5.7-5.7l3.6-1c0.4-0.1,0.9,0,1.3,0.3l0,0c0.6,0.5,0.9,1.5,0.3,2.2C977.8,392.4,977.5,393.1,975.3,394.4z"/>
	<g>
		<g>
			<path class="st32" d="M965.3,351c4.4,13.3,1.3,26.6,1.5,40c0.1,4.9,7.6,4.9,7.5,0c-0.3-14.2,2.7-28.1-1.8-42.1
				C971,344.4,963.7,346.2,965.3,351L965.3,351z"/>
		</g>
	</g>
	<g>
		<g>
			<path class="st32" d="M953.5,344.4c1.9,7,3.4,15.4,2.7,22.7c-0.6,5.9-1.7,11.9-1.7,17.9c0,4.9,7.5,4.9,7.5,0c0-5.9,1-12,1.7-17.9
				c0.9-7.9-0.9-17.2-3-24.8C959.6,337.7,952.2,339.6,953.5,344.4L953.5,344.4z"/>
		</g>
	</g>
	<g>
		<g>
			<path class="st34" d="M972.8,390.6c-1.3,1-3.9,0.9-4.8-0.4c0,0.8,0,1.5,0,2.2c0.1,3.1,4.9,3.1,4.8,0
				C972.8,391.8,972.8,391.2,972.8,390.6z"/>
		</g>
	</g>
	<g>
		<path class="st32" d="M959.1,351.9L959.1,351.9c0.5,0.6-1.8-2.3-1-1.9c1.5,0.9,9.6,6.3,11.2,6.5c2.1,0,0.9-1.9,2.3-3.4
			c1.5-1.3,1.8-3.4,1.9-5.3c0-0.5,0.1-1-0.1-1.5c-0.3-0.5-0.8-0.9-1.2-1.3c-3.6-2.7-10.7-9.6-15.9-7.4
			C950.7,340,956.5,348.9,959.1,351.9z"/>
	</g>
	<path class="st38" d="M954.8,308.5c-1,1.4-0.9,2.2-0.9,4.1c0,1.8,1.3,3.4,3.1,3.9l18.2,5c0,0,1-7-2.6-9c-1.9-1.2-4.9-3-7.2-4.4
		C961.9,306.1,957.3,305.4,954.8,308.5z"/>
	<path class="st65" d="M963.1,308.4l1.5-6.8l4.1,2.7l-1.3,6.3C967.5,311.5,962.8,310.7,963.1,308.4z"/>
	<path class="st65" d="M965.7,291.6c0,0-4.1-2.8-4.3,4.1c0,4.9,3,9.2,7,11.1c2.6,1.2,5.7-0.3,5.7-2.7c0.6-3.6,0.6-6.8-0.5-9.8
		c0.3-3-1.9-1.9-5.4-2.1L965.7,291.6z"/>
	<path class="st73" d="M963.2,305.3c0,0-4.8-1.8-4.4-8.6c0.5-7.4,7.2-6.7,11.1-7.1c1.7-0.3,2.8-0.4,4.5,1.2c1.5,1.4,0.1,4.5-2.1,4.6
		c-0.9,0.1-0.5,2.5-0.6,3.4c-0.3,1.5-1.2,2.1-1.5,3.6c-0.3,1.4-2.2,3.4-3.5,3.6C964.2,306.1,963.2,305.3,963.2,305.3z"/>
	<path class="st38" d="M953.9,341.3c-1.2-0.4-0.9-20.3,0.1-31.2l20.4,9.7c-0.1,9.3-1.3,16.7-0.3,28L953.9,341.3z"/>
	<path class="st38" d="M967.5,349.8c-5-1.8-9.9-3.9-12.7-7.4c-1.4-0.9-1.2-2.2,0.4-3.2l0,0c1.5-0.9,4-1,5.4-0.3l12.7,7.4
		c1.4,0.9,1.2,2.2-0.4,3.2l0,0C971.3,350.5,968.9,350.6,967.5,349.8z"/>
	<path class="st66" d="M974.4,319.9l-3.4-1.5c-0.1,9.2-1.3,16.4-0.1,27.5h-0.1c0,0.6-0.4,1.3-1.3,1.8l0,0c-1.5,0.9-4,1-5.4,0.3
		c-2.5-0.9-4.8-1.8-6.8-2.8c2.7,2.1,6.5,3.6,10.3,5c1.4,0.9,3.9,0.8,5.4-0.3l0,0c0.9-0.5,1.4-1.2,1.3-1.8h0.1
		C973.2,336.5,974.3,329.2,974.4,319.9z"/>
	<path class="st74" d="M966.8,389.6v2.1c0,0.1,0,0.3,0.1,0.3c0.3,0.4,1.5,1.9,3.9,1.5c2.1-0.3,3.1-0.9,3.5-1.3
		c0.1-0.1,0.3-0.3,0.3-0.4l-0.3-2.1c0-0.3-0.4-0.5-0.6-0.3c-1,0.6-3.4,1.5-6.2-0.1C967.1,389.1,966.8,389.3,966.8,389.6z"/>
	<g>
		<g>
			<path class="st34" d="M960.6,384.3c-1.3,1-3.9,0.9-4.8-0.4c0,0.8,0,1.5,0,2.2c0.1,3.1,4.9,3.1,4.8,0
				C960.6,385.5,960.6,385,960.6,384.3z"/>
		</g>
	</g>
	<path class="st74" d="M954.6,383.4v2.1c0,0.1,0,0.3,0.1,0.3c0.3,0.4,1.5,1.9,3.9,1.5c2.1-0.3,3.1-0.9,3.5-1.3
		c0.1-0.1,0.3-0.3,0.3-0.4l-0.3-2.1c0-0.3-0.4-0.5-0.6-0.3c-1,0.6-3.4,1.5-6.2-0.1C955,382.8,954.6,383,954.6,383.4z"/>
	<path class="st32" d="M976.5,299.2l-6.3,0.6c-0.3,0-0.4-0.1-0.4-0.3l0,0c0-0.3,0.1-0.4,0.3-0.4l6.3-0.6c0.3,0,0.4,0.1,0.4,0.3l0,0
		C976.9,299,976.8,299.1,976.5,299.2z"/>
	<path class="st75" d="M970.3,311.2c-4.6-0.8-7.9,2.2-8.9-4.5l0,0c0.6-0.4,1.5-0.3,2.1,0.4c0.9,1.2,2.6,1.9,4.4,1.7
		c0.5-0.1,1.2,0.3,1.4,0.6L970.3,311.2z"/>
	<g>
		<g>
			<path class="st65" d="M970.4,317.3c0.3,3.7,0.9,7.2,2.3,10.7c1.3,2.8,2.7,6.8,5.3,8.6c6.3,4.6,10.5-6.5,11.7-10.6
				c0.9-3.1-3.9-4.5-4.9-1.4c-0.8,2.5-1.5,5-3.4,7.1c-0.9,1.2-0.9,0.8-1.8-0.6c-2.6-4.4-4-8.8-4.5-13.9
				C975.2,314.1,970.1,314.1,970.4,317.3L970.4,317.3z"/>
		</g>
	</g>
	<path class="st38" d="M969.2,317.3c1.2,9.7,4.1,15.9,8.4,18.8c2.2,1.3,4.3-2.2,3.4-4.4c-4.3-3.7-5.7-9.6-6.1-16.1
		c-0.5-1.4-2.1-2.1-3.6-1.7l0,0C969.8,314.3,968.8,315.8,969.2,317.3z"/>
	<path class="st73" d="M967.7,302.9c-0.3,0.3-0.8,5,3.4,4.3c4.1-0.9,3.4-4.9,3.4-4.9s-3.4,0.9-4.1-3.2
		C969.3,294.8,967.7,302.9,967.7,302.9z"/>
	<path class="st65" d="M971.2,300.8c0.1,1.2-0.5,2.1-1.4,2.2c-0.1,0-0.3,0-0.3,0c-0.8-0.1-1.4-0.9-1.4-2.1c-0.1-1.2,0.5-2.1,1.4-2.2
		C970.4,298.7,971.1,299.6,971.2,300.8z"/>
	<path class="st25" d="M1067.3,267.2c-9.3-5.7-18.3-1.2-20.3,10.3c-1.9,11.4,4,25.3,13.3,31c9.3,5.7,18.3,1.2,20.3-10.3
		C1082.5,286.8,1076.6,273,1067.3,267.2z M1078,296.7c-1.5,9.7-9.3,13.6-17.3,8.6c-7.9-4.9-12.9-16.7-11.4-26.3
		c1.5-9.7,9.3-13.6,17.3-8.6C1074.6,275.2,1079.7,287,1078,296.7z"/>
	<path class="st25" d="M1082.9,291.8c0-0.3,0-0.5,0-0.8v-0.1c0-0.1,0-0.3,0-0.3c0-0.1,0-0.3,0-0.4c0-0.1,0-0.3,0-0.3
		c0-0.1,0-0.3,0-0.4c0-0.1,0-0.3,0-0.3c0-0.1,0-0.3,0-0.3c0-0.1,0-0.3,0-0.4c0-0.1,0-0.1,0-0.3c0-0.3,0-0.3-0.1-0.5
		c0-0.1,0-0.3,0-0.3v-0.1c0-0.3-0.1-0.6-0.1-0.9l0,0v-0.4c0-0.3-0.1-0.5-0.1-0.9v-0.1c0-0.1,0-0.3-0.1-0.3c0-0.1-0.1-0.3-0.1-0.4
		c0-0.1,0-0.3-0.1-0.3c0-0.1-0.1-0.3-0.1-0.3s0-0.3-0.1-0.3c0-0.3-0.1-0.3-0.1-0.5c0-0.1,0-0.3-0.1-0.3v-0.1
		c-0.1-0.3-0.3-0.5-0.3-0.9l0,0c0-0.1-0.1-0.3-0.1-0.3c-0.1-0.3-0.1-0.4-0.3-0.6v-0.1c-0.1-0.3-0.1-0.3-0.3-0.5
		c0-0.1-0.1-0.3-0.1-0.4c0,0,0,0,0-0.1c-0.3-0.4-0.3-0.9-0.5-1.4v0c0-0.1-0.1-0.3-0.1-0.3c-0.1-0.3-0.3-0.4-0.3-0.5
		c-0.1-0.3-0.1-0.3-0.3-0.5c-0.1-0.3-0.3-0.3-0.3-0.5c0-0.1-0.1-0.1-0.1-0.3c-0.1-0.1-0.1-0.3-0.3-0.4c0-0.1-0.1-0.3-0.1-0.3
		c-0.3-0.3-0.3-0.6-0.5-0.9l0,0l0,0l0,0c-0.3-0.3-0.4-0.6-0.6-0.9l0,0c-0.1-0.3-0.3-0.4-0.4-0.8l-0.1-0.1l0,0
		c-0.3-0.3-0.4-0.5-0.5-0.9l0,0c-0.1-0.1-0.1-0.3-0.3-0.3c-0.1-0.3-0.3-0.3-0.4-0.5c0,0,0-0.1-0.1-0.1c-0.1-0.1-0.3-0.3-0.3-0.3
		c-0.1-0.1-0.3-0.3-0.3-0.3l-0.1-0.1c-0.1-0.1-0.3-0.3-0.3-0.3c-0.1-0.1-0.3-0.3-0.3-0.3l-0.1-0.1c-0.1-0.1-0.3-0.3-0.3-0.3
		c-0.1-0.1-0.1-0.1-0.3-0.3c-0.1-0.1-0.1-0.1-0.3-0.3c-0.1-0.1-0.3-0.3-0.3-0.3c-0.1-0.1-0.1-0.1-0.3-0.3c-0.1-0.1-0.1-0.1-0.3-0.3
		c-0.1-0.1-0.3-0.3-0.3-0.3c-0.1,0-0.1-0.1-0.3-0.1c-0.1-0.1-0.3-0.1-0.3-0.3c-0.1-0.1-0.3-0.3-0.3-0.3l-0.1-0.1
		c-0.1-0.1-0.3-0.3-0.4-0.3c-0.1-0.1-0.3-0.1-0.3-0.3c0,0,0,0-0.1,0c-0.3-0.3-0.4-0.3-0.8-0.5l0,0l0,0c-0.3-0.1-0.4-0.3-0.6-0.4
		c-0.1,0-0.1-0.1-0.3-0.1c-0.3-0.1-0.3-0.3-0.5-0.3c-0.1,0-0.1-0.1-0.3-0.1c-0.1,0-0.3-0.1-0.3-0.1s-0.1-0.1-0.3-0.1
		c-0.1-0.1-0.3-0.1-0.3-0.3c-0.1,0-0.3-0.1-0.3-0.1h-0.1c-0.3-0.1-0.4-0.3-0.6-0.3l0,0c-0.3-0.1-0.4-0.3-0.8-0.3h-0.1
		c-0.1,0-0.3-0.1-0.3-0.1c-0.1,0-0.3-0.1-0.3-0.1c-0.1,0-0.1,0-0.3,0c-0.1,0-0.3-0.1-0.3-0.1s-0.3,0-0.3-0.1c-0.1,0-0.3,0-0.3-0.1
		c-0.1,0-0.3,0-0.3-0.1c-0.1,0-0.1,0-0.3,0c-0.1,0-0.3,0-0.3,0c-0.1,0-0.3,0-0.3-0.1h-0.1c-0.1,0-0.3,0-0.3,0c-0.1,0-0.3,0-0.4,0
		h-0.1c-0.1,0-0.3,0-0.3,0c-0.1,0-0.3,0-0.4,0h-0.1c-0.3,0-0.3,0-0.5,0c0,0,0,0-0.1,0c-0.1,0-0.3,0-0.4,0s-0.3,0-0.3,0
		c-0.1,0-0.1,0-0.3,0c-0.3,0-0.4,0.1-0.6,0.1l0,0c-0.1,0-0.1,0-0.3,0c-0.3,0-0.3,0.1-0.5,0.1c-0.1,0-0.3,0-0.3,0.1
		c-0.1,0-0.3,0.1-0.3,0.1h-0.1c-0.3,0.1-0.3,0.1-0.5,0.3c-0.1,0-0.3,0.1-0.3,0.1c-0.3,0.1-0.5,0.3-0.8,0.3l-4,2.1
		c0.3-0.1,0.5-0.3,0.8-0.3c0.1,0,0.3-0.1,0.3-0.1c0.3-0.1,0.3-0.1,0.5-0.3c0.1,0,0.3-0.1,0.4-0.1c0.1,0,0.3,0,0.3-0.1
		c0.3,0,0.3-0.1,0.5-0.1c0.1,0,0.1,0,0.3,0c0.3,0,0.4-0.1,0.6-0.1c0.1,0,0.1,0,0.3,0c0.3,0,0.4,0,0.6,0c0,0,0,0,0.1,0
		c0.3,0,0.4,0,0.6,0c0.1,0,0.3,0,0.4,0s0.3,0,0.4,0c0.1,0,0.3,0,0.4,0c0.1,0,0.3,0,0.4,0s0.3,0,0.3,0.1c0.1,0,0.3,0.1,0.4,0.1
		c0.1,0,0.3,0,0.3,0.1c0.3,0,0.3,0.1,0.5,0.1c0.1,0,0.3,0.1,0.3,0.1c0.3,0,0.3,0.1,0.5,0.3c0.1,0,0.3,0.1,0.3,0.1
		c0.3,0.1,0.5,0.3,0.8,0.3l0,0l0,0c0.3,0.1,0.5,0.3,0.8,0.3c0.1,0,0.3,0.1,0.3,0.1c0.3,0.1,0.4,0.3,0.5,0.3c0.1,0,0.3,0.1,0.3,0.1
		c0.3,0.1,0.5,0.3,0.8,0.4c0.3,0.3,0.5,0.3,0.9,0.5l0,0c0.3,0.3,0.5,0.3,0.8,0.5c0.1,0.1,0.3,0.1,0.3,0.3c0.3,0.1,0.3,0.3,0.5,0.4
		c0.1,0.1,0.3,0.3,0.3,0.3c0.1,0.1,0.3,0.3,0.4,0.4c0.1,0.1,0.3,0.3,0.3,0.3c0.1,0.1,0.3,0.3,0.4,0.4c0.1,0.1,0.3,0.3,0.3,0.3
		c0.1,0.1,0.3,0.3,0.4,0.4c0.1,0.1,0.3,0.3,0.3,0.3c0.1,0.1,0.3,0.3,0.4,0.4c0.1,0.1,0.3,0.3,0.3,0.3c0.1,0.1,0.3,0.3,0.4,0.5
		c0.1,0.1,0.3,0.3,0.3,0.3c0.1,0.3,0.3,0.4,0.4,0.5c0.1,0.1,0.1,0.1,0.3,0.3c0.3,0.3,0.4,0.5,0.6,0.9l0.1,0.1
		c0.3,0.3,0.3,0.5,0.5,0.8c0.3,0.3,0.4,0.6,0.6,0.9l0,0l0,0c0.3,0.3,0.3,0.6,0.5,0.9c0,0.1,0.1,0.3,0.1,0.3c0.1,0.3,0.3,0.4,0.3,0.6
		c0.1,0.3,0.3,0.3,0.3,0.5c0.1,0.3,0.3,0.3,0.3,0.5c0.1,0.3,0.3,0.3,0.3,0.5c0.1,0.1,0.1,0.3,0.3,0.4c0.3,0.4,0.4,0.9,0.5,1.4
		c0.1,0.3,0.1,0.3,0.3,0.5c0.1,0.3,0.1,0.3,0.3,0.5c0.1,0.3,0.3,0.5,0.3,0.8c0,0.1,0.1,0.3,0.1,0.3c0.1,0.3,0.3,0.6,0.3,0.9
		c0,0.1,0,0.3,0.1,0.3c0.1,0.3,0.1,0.5,0.3,0.8c0,0.1,0.1,0.3,0.1,0.3c0.1,0.3,0.1,0.5,0.3,0.8c0,0.1,0,0.3,0.1,0.3
		c0.1,0.3,0.1,0.6,0.3,0.9c0,0,0,0,0,0.1c0.1,0.3,0.1,0.6,0.3,1c0,0.1,0,0.3,0,0.3c0,0.3,0.1,0.4,0.1,0.8c0,0.1,0,0.3,0,0.4
		s0,0.4,0.1,0.6c0,0.1,0,0.3,0,0.4s0,0.4,0,0.6c0,0.1,0,0.3,0,0.3c0,0.3,0,0.6,0,0.9v0.1c0,0.3,0,0.6,0,1c0,0.1,0,0.3,0,0.3
		c0,0.3,0,0.5,0,0.8c0,0.1,0,0.3,0,0.3c0,0.3,0,0.4-0.1,0.6c0,0.1,0,0.3,0,0.3c0,0.3-0.1,0.6-0.1,0.9c-0.1,0.3-0.1,0.6-0.3,0.9
		c0,0.1,0,0.3-0.1,0.3c0,0.3-0.1,0.4-0.1,0.6c0,0.1-0.1,0.3-0.1,0.3c0,0.3-0.1,0.3-0.1,0.5c0,0.1-0.1,0.3-0.1,0.4
		c-0.1,0.3-0.1,0.3-0.3,0.5c0,0.1-0.1,0.3-0.3,0.4c-0.1,0.1-0.1,0.3-0.3,0.4c-0.1,0.3-0.1,0.3-0.3,0.5c-0.1,0.1-0.1,0.3-0.3,0.4
		s-0.3,0.4-0.3,0.5c-0.1,0.1-0.1,0.3-0.3,0.3c0,0.1-0.1,0.1-0.1,0.3c-0.1,0.3-0.3,0.4-0.3,0.5c0,0,0,0.1-0.1,0.1
		c-0.1,0.3-0.3,0.4-0.4,0.6l0,0c-0.3,0.3-0.3,0.4-0.5,0.6l-0.1,0.1c-0.1,0.1-0.3,0.3-0.4,0.4c-0.1,0.1-0.1,0.1-0.3,0.3
		s-0.3,0.3-0.4,0.4l-0.1,0.1c-0.3,0.3-0.3,0.3-0.5,0.4c0,0,0,0-0.1,0.1c-0.3,0.1-0.3,0.3-0.5,0.3c-0.1,0-0.1,0.1-0.3,0.1
		c-0.1,0.1-0.3,0.3-0.4,0.3c-0.1,0-0.1,0.1-0.3,0.1c-0.3,0.1-0.4,0.3-0.6,0.3l4-2.1c0.3-0.1,0.4-0.3,0.6-0.3c0.1,0,0.1-0.1,0.3-0.1
		c0.1-0.1,0.3-0.3,0.4-0.3c0.1,0,0.1-0.1,0.3-0.1c0.3-0.1,0.3-0.3,0.5-0.3c0,0,0,0,0.1-0.1c0.3-0.1,0.3-0.3,0.5-0.4l0.1-0.1
		c0.1-0.1,0.3-0.3,0.4-0.4c0.1-0.1,0.1-0.1,0.3-0.3c0.1-0.1,0.3-0.3,0.4-0.4l0.1-0.1l0,0c0.1-0.3,0.3-0.4,0.4-0.6l0,0
		c0.1-0.3,0.3-0.4,0.4-0.6l0,0c0,0,0-0.1,0.1-0.1c0.1-0.3,0.3-0.4,0.3-0.5c0-0.1,0.1-0.1,0.1-0.3c0,0,0-0.1,0.1-0.1
		c0-0.1,0.1-0.1,0.1-0.3c0.1-0.3,0.3-0.4,0.3-0.5c0,0,0-0.1,0.1-0.1c0-0.1,0.1-0.1,0.1-0.3c0.1-0.3,0.1-0.3,0.3-0.5
		c0-0.1,0.1-0.1,0.1-0.3c0-0.1,0.1-0.1,0.1-0.3c0.1-0.1,0.1-0.3,0.3-0.4c0-0.1,0.1-0.1,0.1-0.3c0-0.1,0.1-0.3,0.1-0.3
		c0-0.1,0.1-0.3,0.1-0.4c0-0.1,0-0.1,0.1-0.3c0-0.1,0.1-0.3,0.1-0.3l0.1-0.3V297c0-0.3,0.1-0.3,0.1-0.5c0-0.1,0-0.3,0.1-0.3
		c0,0,0,0,0-0.1c0.1-0.3,0.1-0.5,0.3-0.9l0,0c0-0.3,0.1-0.5,0.1-0.9v-0.1c0-0.1,0-0.3,0-0.3c0-0.1,0-0.3,0-0.4c0-0.1,0-0.3,0-0.3
		c0-0.1,0-0.3,0-0.3c0-0.1,0-0.1,0-0.3c0-0.3,0-0.3,0-0.5c0-0.1,0-0.3,0-0.3v-0.1c0-0.3,0-0.6,0-0.9l0,0
		C1082.9,291.8,1082.9,291.8,1082.9,291.8z"/>
	<g class="st76">
		<g>
			<polygon class="st77" points="1093.1,306.3 1096,304.9 1095,310.6 1092,312 			"/>
		</g>
		<g>
			<g>
				<polygon class="st12" points="1078.2,297.7 1081.3,296.3 1095,304.7 1092,306.1 				"/>
			</g>
		</g>
		<g>
			<polygon class="st15" points="1091.5,305.6 1090.4,311.4 1076.7,303 1077.7,297.2 			"/>
		</g>
	</g>
	<g class="st76">
		<g class="st76">
			<g>
				<g>
					<g>
						<defs>
							<path id="SVGID_10_" d="M1088.8,301.6l4-2.1c0.3-0.1,0.5-0.1,0.8,0.1l-4,2.1C1089.2,301.4,1089.1,301.4,1088.8,301.6z"/>
						</defs>
						<clipPath id="SVGID_11_">
							<use xlink:href="#SVGID_10_"  style="overflow:visible;"/>
						</clipPath>
						<g class="st78">
							<path class="st79" d="M1088.8,301.6l4-2.1h0.1L1088.8,301.6C1088.8,301.4,1088.8,301.4,1088.8,301.6"/>
							<path class="st80" d="M1088.9,301.4l4-2.1c0,0,0,0,0.1,0L1088.9,301.4L1088.9,301.4"/>
							<path class="st81" d="M1088.9,301.4l4-2.1c0,0,0,0,0.1,0L1088.9,301.4C1089.1,301.4,1089.1,301.4,1088.9,301.4"/>
							<path class="st82" d="M1089.1,301.4l4-2.1c0,0,0,0,0.1,0L1089.1,301.4L1089.1,301.4"/>
							<path class="st83" d="M1089.1,301.4l4-2.1l0,0L1089.1,301.4L1089.1,301.4"/>
							<path class="st84" d="M1089.1,301.4l4-2.1l0,0L1089.1,301.4L1089.1,301.4"/>
							<path class="st85" d="M1089.1,301.4l4-2.1l0,0L1089.1,301.4C1089.2,301.4,1089.2,301.4,1089.1,301.4"/>
							<path class="st86" d="M1089.2,301.4l4-2.1l0,0L1089.2,301.4L1089.2,301.4"/>
							<path class="st87" d="M1089.2,301.4l4-2.1l0,0L1089.2,301.4C1089.3,301.4,1089.2,301.4,1089.2,301.4"/>
							<path class="st88" d="M1089.3,301.4l4-2.1l0,0L1089.3,301.4L1089.3,301.4"/>
							<path class="st89" d="M1089.3,301.4l4-2.1l0,0L1089.3,301.4L1089.3,301.4"/>
							<path class="st90" d="M1089.3,301.6l4-2.1l0,0L1089.3,301.6C1089.5,301.6,1089.5,301.6,1089.3,301.6"/>
							<path class="st91" d="M1089.5,301.6l4-2.1l0,0L1089.5,301.6L1089.5,301.6"/>
							<path class="st92" d="M1089.5,301.6l4-2.1l0,0L1089.5,301.6C1089.6,301.6,1089.5,301.6,1089.5,301.6"/>
							<path class="st93" d="M1089.6,301.6l4-2.1l0,0L1089.6,301.6L1089.6,301.6"/>
						</g>
					</g>
				</g>
			</g>
		</g>
		<g class="st76">
			<g>
				<g>
					<g>
						<defs>
							<path id="SVGID_12_" d="M1116.8,325.1l-4,2.1c0.4-0.3,0.8-0.8,0.9-1.4l4-2.1C1117.7,324.4,1117.2,324.8,1116.8,325.1z"/>
						</defs>
						<clipPath id="SVGID_13_">
							<use xlink:href="#SVGID_12_"  style="overflow:visible;"/>
						</clipPath>
						<g class="st94">
							<polyline class="st89" points="1113.7,325.8 1117.9,323.6 1117.9,323.6 1113.7,325.8 1113.7,325.8 							"/>
							<path class="st88" d="M1113.7,325.8l4-2.1v0.1L1113.7,325.8L1113.7,325.8"/>
							<path class="st87" d="M1113.7,325.8l4-2.1v0.1L1113.7,325.8C1113.6,325.8,1113.6,325.8,1113.7,325.8"/>
							<path class="st86" d="M1113.6,326l4-2.1v0.1L1113.6,326L1113.6,326"/>
							<path class="st85" d="M1113.6,326.1l4-2.1v0.1L1113.6,326.1L1113.6,326.1"/>
							<path class="st84" d="M1113.6,326.2l4-2.1v0.1L1113.6,326.2L1113.6,326.2"/>
							<path class="st83" d="M1113.6,326.3l4-2.1v0.1L1113.6,326.3L1113.6,326.3"/>
							<path class="st82" d="M1113.6,326.5l4-2.1c0,0,0,0.1-0.1,0.1L1113.6,326.5L1113.6,326.5"/>
							<path class="st81" d="M1113.5,326.5l4-2.1c0,0,0,0.1-0.1,0.1L1113.5,326.5C1113.5,326.6,1113.5,326.5,1113.5,326.5"/>
							<path class="st80" d="M1113.5,326.6l4-2.1l-0.1,0.1L1113.5,326.6C1113.3,326.7,1113.3,326.7,1113.5,326.6"/>
							<path class="st79" d="M1113.3,326.7l4-2.1c-0.1,0.1-0.3,0.3-0.4,0.3l-4,2.1C1113.1,327,1113.1,327,1113.3,326.7"/>
						</g>
					</g>
				</g>
			</g>
		</g>
		<g>
			<polygon class="st77" points="1114.8,319.9 1118.8,317.8 1117.9,323.6 1113.7,325.8 			"/>
		</g>
		<g>
			<g>
				<path class="st95" d="M1088.8,301.3l2.6-1.3c0.9-0.4,2.1-0.4,2.8,0.1l22.2,13.6l-4,2.1L1088.8,301.3z"/>
			</g>
		</g>
		<g class="st76">
			<g>
				<g>
					<g>
						<defs>
							<path id="SVGID_14_" d="M1113.1,316.1l4-2.1c1.2,0.8,1.9,2.3,1.5,3.9l-4,2.1C1114.9,318.5,1114.2,316.8,1113.1,316.1z"/>
						</defs>
						<clipPath id="SVGID_15_">
							<use xlink:href="#SVGID_14_"  style="overflow:visible;"/>
						</clipPath>
						<g class="st96">
							<path class="st93" d="M1113.1,316.1l4-2.1l0,0L1113.1,316.1L1113.1,316.1"/>
							<path class="st97" d="M1113.1,316.1l4-2.1c0,0,0.1,0,0.1,0.1L1113.1,316.1C1113.2,316.1,1113.1,316.1,1113.1,316.1"/>
							<path class="st98" d="M1113.2,316.1l4-2.1c0,0,0.1,0,0.1,0.1L1113.2,316.1C1113.2,316.3,1113.2,316.3,1113.2,316.1"/>
							<path class="st99" d="M1113.3,316.3l4-2.1c0,0,0.1,0,0.1,0.1L1113.3,316.3L1113.3,316.3"/>
							<path class="st100" d="M1113.3,316.3l4-2.1c0,0,0.1,0,0.1,0.1L1113.3,316.3C1113.5,316.3,1113.5,316.3,1113.3,316.3"/>
							<path class="st101" d="M1113.5,316.3l4-2.1c0,0,0.1,0,0.1,0.1L1113.5,316.3C1113.6,316.4,1113.6,316.4,1113.5,316.3"/>
							<path class="st102" d="M1113.6,316.4l4-2.1l0.1,0.1L1113.6,316.4C1113.6,316.5,1113.6,316.4,1113.6,316.4"/>
							<path class="st103" d="M1113.6,316.5l4-2.1l0.1,0.1L1113.6,316.5L1113.6,316.5"/>
							<path class="st104" d="M1113.7,316.7l4-2.1l0.1,0.1L1113.7,316.7L1113.7,316.7"/>
							<path class="st105" d="M1113.9,316.8l4-2.1c0,0,0,0.1,0.1,0.1L1113.9,316.8L1113.9,316.8"/>
							<path class="st25" d="M1113.9,316.9l4-2.1c0,0,0,0.1,0.1,0.1L1113.9,316.9C1114,316.9,1113.9,316.9,1113.9,316.9"/>
							<path class="st106" d="M1114,316.9l4-2.1c0,0,0,0.1,0.1,0.1L1114,316.9L1114,316.9"/>
							<path class="st107" d="M1114.1,316.9l4-2.1c0,0,0,0.1,0.1,0.1L1114.1,316.9C1114.1,317.1,1114.1,317.1,1114.1,316.9"/>
							<path class="st108" d="M1114.1,317.1l4-2.1l0.1,0.1L1114.1,317.1C1114.2,317.2,1114.1,317.2,1114.1,317.1"/>
							<path class="st109" d="M1114.2,317.3l4-2.1c0,0.1,0.1,0.1,0.1,0.3l-4,2.1C1114.2,317.4,1114.2,317.3,1114.2,317.3"/>
							<path class="st110" d="M1114.2,317.4l4-2.1c0,0.1,0.1,0.3,0.1,0.3l-4,2.1C1114.4,317.6,1114.2,317.4,1114.2,317.4"/>
							<path class="st109" d="M1114.4,317.7l4-2.1c0,0.1,0.1,0.1,0.1,0.3l-4,2.1C1114.5,317.8,1114.4,317.7,1114.4,317.7"/>
							<path class="st108" d="M1114.5,318l4-2.1v0.1L1114.5,318L1114.5,318"/>
							<path class="st107" d="M1114.5,318.1l4-2.1v0.1L1114.5,318.1C1114.6,318.1,1114.6,318.1,1114.5,318.1"/>
							<path class="st106" d="M1114.6,318.1l4-2.1v0.1L1114.6,318.1C1114.6,318.2,1114.6,318.1,1114.6,318.1"/>
							<path class="st25" d="M1114.6,318.2l4-2.1v0.1L1114.6,318.2C1114.6,318.3,1114.6,318.2,1114.6,318.2"/>
							<path class="st105" d="M1114.6,318.3l4-2.1v0.1L1114.6,318.3C1114.8,318.5,1114.6,318.3,1114.6,318.3"/>
							<path class="st104" d="M1114.8,318.5l4-2.1v0.1L1114.8,318.5C1114.8,318.6,1114.8,318.5,1114.8,318.5"/>
							<path class="st103" d="M1114.8,318.6l4-2.1v0.1L1114.8,318.6L1114.8,318.6"/>
							<path class="st102" d="M1114.8,318.6l4-2.1v0.1L1114.8,318.6L1114.8,318.6"/>
							<path class="st101" d="M1114.8,318.7l4-2.1v0.1L1114.8,318.7L1114.8,318.7"/>
							<path class="st100" d="M1114.8,318.9l4-2.1v0.1L1114.8,318.9C1114.8,319,1114.8,319,1114.8,318.9"/>
							<path class="st99" d="M1114.8,319l4-2.1v0.1L1114.8,319C1114.9,319.1,1114.8,319.1,1114.8,319"/>
							<path class="st98" d="M1114.9,319.1l4-2.1v0.1L1114.9,319.1C1114.9,319.2,1114.9,319.2,1114.9,319.1"/>
							<path class="st97" d="M1114.9,319.2l4-2.1v0.1L1114.9,319.2L1114.9,319.2"/>
							<path class="st93" d="M1114.9,319.2l4-2.1v0.1L1114.9,319.2C1114.9,319.4,1114.9,319.4,1114.9,319.2"/>
							<path class="st92" d="M1114.9,319.4l4-2.1v0.1L1114.9,319.4C1114.9,319.5,1114.9,319.5,1114.9,319.4"/>
							<path class="st91" d="M1114.9,319.5l4-2.1v0.1L1114.9,319.5C1114.8,319.6,1114.8,319.6,1114.9,319.5"/>
							<path class="st90" d="M1114.8,319.6l4-2.1v0.1L1114.8,319.6C1114.8,319.8,1114.8,319.8,1114.8,319.6"/>
							<path class="st89" d="M1114.8,319.8l4-2.1v0.1L1114.8,319.8C1114.8,319.9,1114.8,319.9,1114.8,319.8"/>
						</g>
					</g>
				</g>
			</g>
		</g>
		<g>
			<g>
				<path class="st56" d="M1113.1,316.1c1.2,0.8,1.9,2.3,1.5,3.9l-0.9,5.8c-0.3,1.4-1.4,1.9-2.5,1.3l-23.6-14.6
					c-0.5-0.3-0.9-1.2-0.8-1.8l1.5-8.5c0.1-0.6,0.6-0.9,1.2-0.6L1113.1,316.1z"/>
			</g>
		</g>
	</g>
	<path class="st4" d="M1096.3,388.7c6.2,3.5,16.1,3.5,22.3,0c6.2-3.6,6.3-9.3,0.1-12.9c-6.2-3.5-16.1-3.5-22.3,0
		C1090.1,379.3,1090.1,385.1,1096.3,388.7z"/>
	<path class="st28" d="M1111,379.3c0.1,0.1,1.8,0.9,1.9,1c0.3,0.1,0.6,0.5,0.9,0.8c0.6,0.4,1.9,2.1,4.1,0.9c3.2-1.8-4.4-6.8-4.4-6.8
		l-3.4-1.7c-0.4-0.3-0.9-0.3-1.3,0l0,0c-0.8,0.4-1,1.4-0.6,2.1C1109.1,377,1109.1,377.6,1111,379.3z"/>
	<path class="st15" d="M1111.4,378.4c0.1,0.1,1.8,0.9,1.9,1c0.3,0.1,0.6,0.5,0.9,0.8c0.6,0.4,1.9,2.1,4.1,0.9
		c3.2-1.8-4.4-6.8-4.4-6.8l-3.4-1.7c-0.4-0.3-0.9-0.3-1.3,0l0,0c-0.8,0.4-1,1.4-0.6,2.1C1109.5,376,1109.5,376.8,1111.4,378.4z"/>
	<path class="st28" d="M1099.3,386.5c0.1,0.1,2.1,0.5,2.1,0.6c0.3,0.1,0.8,0.4,1,0.5c0.8,0.3,2.3,1.7,4.3,0.1
		c2.7-2.3-5.7-5.7-5.7-5.7l-3.6-1c-0.4-0.1-0.9,0-1.3,0.3l0,0c-0.6,0.5-0.9,1.5-0.3,2.2C1096.8,384.6,1097.1,385.2,1099.3,386.5z"/>
	<path class="st15" d="M1099.4,385.6c0.1,0.1,2.1,0.5,2.1,0.6c0.3,0.1,0.8,0.4,1,0.5c0.8,0.3,2.3,1.7,4.3,0.1
		c2.7-2.3-5.7-5.7-5.7-5.7l-3.6-1c-0.4-0.1-0.9,0-1.3,0.3l0,0c-0.6,0.5-0.9,1.5-0.3,2.2C1097,383.5,1097.2,384.3,1099.4,385.6z"/>
	<g>
		<g>
			<path class="st38" d="M1102.2,340.2c-4.5,13.9-1.5,27.9-1.8,42.1c-0.1,4.9,7.5,4.9,7.5,0c0.3-13.4-2.8-26.7,1.5-40
				C1111.2,337.4,1103.8,335.5,1102.2,340.2L1102.2,340.2z"/>
		</g>
	</g>
	<g>
		<g>
			<path class="st38" d="M1114.1,333.6c-1.3,4.6-1.9,9.6-2.5,14.3c-0.3,3.2-0.9,6.6-0.6,9.8c0.6,6.2,1.7,12.3,1.7,18.5
				c0,4.9,7.5,4.9,7.5,0c0-5.7-0.9-11.6-1.5-17.2c-0.9-7.5,0.8-16,2.7-23.4C1122.6,330.7,1115.4,328.8,1114.1,333.6L1114.1,333.6z"
				/>
		</g>
	</g>
	<path class="st34" d="M1102.1,381.7c1.3,1,3.9,0.9,4.8-0.4c0,0.8,0,1.5,0,2.2c-0.1,3.1-4.9,3.1-4.8,0
		C1102.1,383,1102.1,382.4,1102.1,381.7z"/>
	<g>
		<path class="st38" d="M1115.8,343.1L1115.8,343.1c-0.5,0.6,1.8-2.3,1-1.9c-1.5,0.9-9.6,6.3-11.2,6.5c-2.1,0-0.9-1.9-2.3-3.4
			c-1.5-1.3-1.8-3.4-1.9-5.3c0-0.5-0.1-1,0.1-1.5c0.3-0.5,0.8-0.9,1.2-1.3c3.6-2.7,10.7-9.6,15.9-7.4
			C1124.2,331.3,1118.4,340.2,1115.8,343.1z"/>
	</g>
	<path class="st52" d="M1120.1,299.8c1,1.4,0.9,2.2,0.9,4.1c0,1.8-1.3,3.4-3.1,3.9l-18.2,5c0,0-1-7,2.6-9c1.9-1.2,4.9-3,7.2-4.4
		C1113,297.3,1117.6,296.5,1120.1,299.8z"/>
	<path class="st111" d="M1111.8,299.5l-1.5-6.8l-4.1,2.7l1.3,6.3C1107.4,302.7,1112.1,301.8,1111.8,299.5z"/>
	<path class="st111" d="M1109.2,282.7c0,0,4.1-2.8,4.3,4.1c0,4.9-3,9.2-7,11.1c-2.6,1.2-5.7-0.3-5.7-2.7c-0.6-3.6-0.6-6.8,0.5-9.8
		c-0.3-3,1.9-1.9,5.4-2.1L1109.2,282.7z"/>
	<path class="st112" d="M1111.7,296.5c0,0,4.8-1.8,4.4-8.6c-0.5-7.4-7.2-6.7-11.1-7.1c-1.7-0.1-2.8-0.4-4.5,1.2
		c-1.5,1.4-0.1,4.5,2.1,4.6c0.9,0.1,0.5,2.5,0.6,3.4c0.3,1.5,1.2,2.1,1.5,3.6c0.3,1.4,2.2,3.4,3.5,3.6
		C1110.6,297.2,1111.7,296.5,1111.7,296.5z"/>
	<path class="st52" d="M1121,332.4c1.2-0.4,0.9-20.3-0.1-31.2l-20.4,9.7c0.1,9.3,1.3,16.7,0.3,28L1121,332.4z"/>
	<path class="st52" d="M1107.4,341.1c5-1.8,9.9-3.9,12.7-7.4c1.4-0.9,1.2-2.2-0.4-3.2l0,0c-1.5-0.9-4-1-5.4-0.3l-12.7,7.4
		c-1.4,0.9-1.2,2.2,0.4,3.2l0,0C1103.5,341.7,1106,341.8,1107.4,341.1z"/>
	<path class="st52" d="M1100.4,311l3.4-1.5c0.1,9.2,1.3,16.4,0.1,27.5h0.1c0,0.6,0.4,1.3,1.3,1.8l0,0c1.5,0.9,4,1,5.4,0.3
		c2.5-0.9,4.8-1.8,6.8-2.8c-2.7,2.1-6.5,3.6-10.3,5c-1.4,0.9-3.9,0.8-5.4-0.3l0,0c-0.9-0.5-1.4-1.2-1.3-1.8h-0.1
		C1101.7,327.6,1100.4,320.4,1100.4,311z"/>
	<path class="st74" d="M1108.2,381v2.1c0,0.1,0,0.3-0.1,0.3c-0.3,0.4-1.5,1.9-3.9,1.5c-2.1-0.3-3.1-0.9-3.5-1.3
		c-0.1-0.1-0.3-0.3-0.3-0.4l0.3-2.1c0-0.3,0.4-0.5,0.6-0.3c1,0.6,3.4,1.5,6.2-0.1C1107.7,380.3,1108.2,380.4,1108.2,381z"/>
	<path class="st34" d="M1114.2,375.5c1.3,1,3.9,0.9,4.8-0.4c0,0.8,0,1.5,0,2.2c-0.1,3.1-4.9,3.1-4.8,0
		C1114.2,376.7,1114.2,376.2,1114.2,375.5z"/>
	<path class="st74" d="M1120.2,374.5v2.1c0,0.1,0,0.3-0.1,0.3c-0.3,0.4-1.5,1.9-3.9,1.5c-2.1-0.3-3.1-0.9-3.5-1.3
		c-0.1-0.1-0.3-0.3-0.3-0.4l0.3-2.1c0-0.3,0.4-0.5,0.6-0.3c1,0.6,3.4,1.5,6.2-0.1C1119.9,374,1120.2,374.2,1120.2,374.5z"/>
	<path class="st75" d="M1104.7,302.5c4.6-0.8,7.9,2.2,8.9-4.5l0,0c-0.6-0.4-1.5-0.3-2.1,0.4c-0.9,1.2-2.6,1.9-4.4,1.7
		c-0.5-0.1-1.2,0.3-1.4,0.6L1104.7,302.5z"/>
	<g>
		<g>
			<path class="st111" d="M1101.1,306.7c-1.9,4.9-4.8,8.4-8.4,12c-0.9,0.9-1.5-1.4-2.1-2.3c-1.5-3-2.5-6.2-3.6-9.3
				c-1-3.1-5.9-1.7-4.9,1.4c1.4,3.7,4.5,17.8,11.1,15.6c3.1-1,5.3-4.1,7.5-6.6c2.5-2.7,3.9-6.1,5.3-9.4
				C1107.1,305,1102.2,303.6,1101.1,306.7L1101.1,306.7z"/>
		</g>
	</g>
	<path class="st52" d="M1107.1,308.5c-3.9,8.9-8.6,13.9-13.6,15.6c-2.5,0.5-3.4-3.4-2.1-5.2c5-2.3,8.1-7.5,10.5-13.7
		c0.9-1.2,2.7-1.4,3.9-0.5l0,0C1107.5,305.4,1108.1,307.2,1107.1,308.5z"/>
	<path class="st111" d="M1103.7,292c-0.1,1.2,0.5,2.1,1.4,2.2c0.1,0,0.3,0,0.3,0c0.8-0.1,1.4-0.9,1.4-2.1c0.1-1.2-0.5-2.1-1.4-2.2
		C1104.6,289.9,1103.8,290.8,1103.7,292z"/>
	<path class="st45" d="M1065.2,267.2c-9.3-5.7-18.3-1.2-20.3,10.3c-1.9,11.4,4,25.3,13.3,31c9.3,5.7,18.3,1.2,20.3-10.3
		C1080.4,286.8,1074.5,273,1065.2,267.2z M1075.9,296.7c-1.5,9.7-9.3,13.6-17.3,8.6c-7.9-4.9-12.9-16.7-11.4-26.3
		c1.5-9.7,9.3-13.6,17.3-8.6C1072.6,275.2,1077.7,287,1075.9,296.7z"/>
	<path class="st113" d="M897.4,338.4l-0.3-0.1c-0.6-0.4-0.9-1.5-0.8-2.7L925.1,228c0.3-1,1-1.5,1.7-1.2l0.3,0.1
		c0.6,0.4,0.9,1.5,0.8,2.7l-28.8,107.5C898.8,338.2,898,338.7,897.4,338.4z"/>
	<path class="st113" d="M921.1,351.8l-0.3-0.1c-0.6-0.4-0.9-1.5-0.8-2.7l28.8-107.5c0.3-1,1-1.5,1.7-1.2l0.3,0.1
		c0.6,0.4,0.9,1.5,0.8,2.7l-28.8,107.5C922.5,351.6,921.8,352.2,921.1,351.8z"/>
	<path class="st113" d="M921.1,243.7l0.4-1.4c0.1-0.6,0.6-0.9,0.9-0.6l24.9,14.2c0.4,0.3,0.5,0.9,0.4,1.5l-0.4,1.4
		c-0.1,0.6-0.6,0.9-0.9,0.6l-24.9-14.2C921.1,244.9,920.9,244.4,921.1,243.7z"/>
	<path class="st113" d="M916.1,262.2l0.4-1.4c0.1-0.6,0.6-0.9,0.9-0.6l24.9,14.2c0.4,0.3,0.5,0.9,0.4,1.5l-0.4,1.4
		c-0.1,0.6-0.6,0.9-0.9,0.6l-24.9-14.2C916.1,263.5,916,262.8,916.1,262.2z"/>
	<path class="st113" d="M911.2,280.8l0.4-1.4c0.1-0.6,0.6-0.9,0.9-0.6l24.9,14.2c0.4,0.3,0.5,0.9,0.4,1.5l-0.4,1.4
		c-0.1,0.6-0.6,0.9-0.9,0.6l-25-14.2C911.2,281.9,911.1,281.3,911.2,280.8z"/>
	<path class="st113" d="M906.3,299.2l0.4-1.4c0.1-0.6,0.6-0.9,0.9-0.6l24.9,14.2c0.4,0.3,0.5,0.9,0.4,1.5l-0.4,1.4
		c-0.1,0.6-0.6,0.9-0.9,0.6l-24.9-14.2C906.3,300.5,906,299.8,906.3,299.2z"/>
	<path class="st113" d="M901.2,317.7l0.4-1.4c0.1-0.6,0.6-0.9,0.9-0.6l24.9,14.2c0.4,0.3,0.5,0.9,0.4,1.5l-0.4,1.4
		c-0.1,0.6-0.6,0.9-0.9,0.6l-24.9-14.2C901.4,319,901.1,318.3,901.2,317.7z"/>
</g>
</svg>
