<?xml version="1.0" encoding="utf-8"?>
<!-- Generator: Adobe Illustrator 23.0.5, SVG Export Plug-In . SVG Version: 6.00 Build 0)  -->
<svg version="1.1" id="Capa_1" xmlns="http://www.w3.org/2000/svg" xmlns:xlink="http://www.w3.org/1999/xlink" x="0px" y="0px"
	 viewBox="0 0 512 512" style="enable-background:new 0 0 512 512;" xml:space="preserve">
<style type="text/css">
	.st0{fill:#4675E4;}
</style>
<g id="XMLID_1300_">
	<g id="XMLID_80_">
		<path id="XMLID_89_" class="st0" d="M470.95,192.17l-32.93-32.94V93.96c0-22.06-17.95-40-40-40h-65.21L281.83,2.94
			c-1.88-1.88-4.42-2.93-7.07-2.93L237.5,0c0,0,0,0,0,0c-2.65,0-5.19,1.05-7.07,2.93l-51.06,51.02h-65.39c-22.06,0-40,17.95-40,40
			v65.38l-32.91,32.83c-9.74,9.73-15.1,22.67-15.1,36.44v231.88c0,13.88,5.52,26.48,14.48,35.75c0.19,0.23,0.39,0.46,0.61,0.68
			c0.22,0.22,0.44,0.42,0.67,0.61C51.01,506.47,63.61,512,77.49,512H211c5.52,0,10-4.48,10-10c0-5.52-4.48-10-10-10H77.49
			c-5.05,0-9.82-1.2-14.05-3.32L181.32,370.8l38.38,38.36c9.73,9.72,22.66,15.08,36.41,15.08h0.02c13.76,0,26.69-5.37,36.42-15.1
			l38.22-38.24l117.79,117.79c-4.23,2.12-9,3.32-14.05,3.32h-133.5c-5.52,0-10,4.48-10,10c0,5.52,4.48,10,10,10h133.51
			c13.88,0,26.48-5.53,35.75-14.48c0.23-0.19,0.46-0.39,0.67-0.61c0.22-0.22,0.42-0.45,0.61-0.68c8.95-9.27,14.48-21.87,14.48-35.75
			V228.59C486.03,214.84,480.67,201.9,470.95,192.17L470.95,192.17z M438.02,187.53l18.78,18.79c1.73,1.74,3.23,3.64,4.5,5.67
			l-23.28,23.29V187.53z M241.64,20l28.97,0.01l33.92,33.94h-96.86L241.64,20z M55.21,206.32l18.77-18.73v47.66l-23.27-23.26
			C51.97,209.96,53.47,208.05,55.21,206.32z M49.3,474.54c-2.12-4.23-3.32-9-3.32-14.05V235.54l121.2,121.12L49.3,474.54z
			 M278.4,394.99c-5.95,5.95-13.86,9.23-22.28,9.24c0,0-0.01,0-0.01,0c-8.41,0-16.32-3.28-22.28-9.22L93.98,255.24V93.96
			c0-11.03,8.97-20,20-20h284.03c11.03,0,20,8.97,20,20v68.14c-0.1,0.8-0.1,1.6,0,2.39v90.8L278.4,394.99z M466.02,460.49
			c0,5.05-1.2,9.82-3.32,14.05L344.91,356.74l121.11-121.19V460.49z"/>
		<path id="XMLID_135_" class="st0" d="M256,491.99c-2.63,0-5.21,1.07-7.07,2.93c-1.86,1.86-2.93,4.44-2.93,7.07
			c0,2.63,1.07,5.21,2.93,7.07c1.86,1.87,4.44,2.93,7.07,2.93c2.63,0,5.21-1.06,7.07-2.93c1.86-1.86,2.93-4.44,2.93-7.07
			c0-2.63-1.07-5.21-2.93-7.07C261.21,493.07,258.63,491.99,256,491.99L256,491.99z"/>
		<path id="XMLID_136_" class="st0" d="M256,115.9c-52.07,0-94.43,42.36-94.43,94.43c0,52.78,42.94,95.72,95.72,95.72h60.79
			c5.52,0,10-4.48,10-10c0-5.52-4.48-10-10-10h-60.79c-41.75,0-75.72-33.97-75.72-75.72c0-41.04,33.39-74.42,74.43-74.42
			s74.42,33.39,74.42,74.42v20.5c0,7.88-6.41,14.28-14.29,14.28c-7.88,0-14.29-6.41-14.29-14.28v-23.15
			c0-27.38-22.28-49.66-49.66-49.66c-28.79,0-52.22,23.42-52.22,52.22c0,28.79,23.42,52.22,52.22,52.22h15.91c5.52,0,10-4.48,10-10
			s-4.48-10-10-10H252.2c-17.76,0-32.21-14.45-32.21-32.22c0-17.76,14.45-32.21,32.21-32.21c16.35,0,29.66,13.3,29.66,29.66v23.15
			c0,18.91,15.38,34.29,34.29,34.29c18.91,0,34.29-15.38,34.29-34.29v-20.5C350.43,158.25,308.07,115.9,256,115.9L256,115.9z"/>
	</g>
</g>
</svg>
