<?xml version="1.0" encoding="utf-8"?>
<!-- Generator: Adobe Illustrator 23.0.5, SVG Export Plug-In . SVG Version: 6.00 Build 0)  -->
<svg version="1.1" id="Layer_1" xmlns="http://www.w3.org/2000/svg" xmlns:xlink="http://www.w3.org/1999/xlink" x="0px" y="0px"
	 viewBox="0 0 1401 439.4" style="enable-background:new 0 0 1401 439.4;" xml:space="preserve">
<style type="text/css">
	.st0{fill:#F6F6F6;enable-background:new    ;}
	.st1{fill:none;}
	.st2{fill:#4A73E5;enable-background:new    ;}
	.st3{fill:url(#SVGID_5_);}
	.st4{opacity:0.2;}
	.st5{fill:#E3E3E9;}
	.st6{opacity:0.1;}
	.st7{fill:#0E0E0E;}
	.st8{fill:#3A3837;}
	.st9{fill:#DC6833;}
	.st10{fill:#C1502C;}
	.st11{fill:#F37E55;}
	.st12{fill:#B43626;}
	.st13{fill:#EADBDA;}
	.st14{fill:#F5B47E;}
	.st15{fill:#D64729;}
	.st16{fill:#151011;}
	.st17{fill:#191818;}
	.st18{fill:#2D2D2D;}
	.st19{fill:#C03728;}
	.st20{fill:#E2A173;}
	.st21{fill:#BAA230;}
	.st22{fill:#87762E;}
	.st23{fill:#921B1F;}
	.st24{fill:#E8A675;}
	.st25{fill:#7D1C1D;}
	.st26{fill:#343433;}
	.st27{fill:#B02326;}
	.st28{fill:#D99E73;}
	.st29{fill:#FFFFFF;}
	.st30{fill:#A52425;}
	.st31{fill:#775221;}
	.st32{fill:#9E6C32;}
	.st33{fill:#CC444A;}
	.st34{fill:#686667;}
	.st35{opacity:0.3;fill:#51A29C;enable-background:new    ;}
	.st36{fill:#AAAAAA;}
	.st37{fill:#636565;}
	.st38{fill:#999572;}
	.st39{fill:#DEEBF8;}
	.st40{fill:#3F3D34;}
	.st41{fill:#7C7752;}
	.st42{fill:#BA9E66;}
	.st43{fill:#EDDBB4;}
	.st44{fill:#F0EDE3;}
	.st45{fill:#CAC4B8;}
	.st46{fill:#9E6931;}
	.st47{fill:#21201F;}
	.st48{fill:#0C0C0C;}
	.st49{fill:#02353A;}
	.st50{fill:#054049;}
	.st51{fill:#575858;}
	.st52{fill:#F0EAEC;}
	.st53{fill:#053F49;}
	.st54{fill:#E6F5FC;}
	.st55{fill:#0D4D5E;}
	.st56{fill:#805221;}
	.st57{fill:#9A6026;}
	.st58{fill:#432815;}
	.st59{fill:#C1AB30;}
	.st60{opacity:0.2;fill:#E3E3E9;enable-background:new    ;}
	.st61{font-family:'Roboto-Thin';}
	.st62{font-size:64.0178px;}
	.st63{font-size:75.022px;}
	.st64{font-size:79.1467px;}
	.st65{opacity:0.1;enable-background:new    ;}
	.st66{fill:#141314;}
	.st67{fill:#CE8F62;}
	.st68{fill:#D2D6E5;}
	.st69{fill:#18181A;}
	.st70{fill:#A9A735;}
	.st71{fill:#0B464C;}
	.st72{fill:#2A2B2A;}
	.st73{fill:#F6DCDC;}
	.st74{fill:#341F12;}
	.st75{fill:#232323;}
	.st76{fill:#563723;}
	.st77{fill:#4C301B;}
	.st78{fill:#131623;}
	.st79{fill:#1E243E;}
	.st80{fill:#1F273F;}
	.st81{fill:#282E49;}
	.st82{fill:#121727;}
	.st83{fill:#2D1B1B;}
	.st84{fill:#303951;}
	.st85{fill:#6E431B;}
</style>
<g>
	<defs>
		<polygon id="SVGID_1_" points="1401,33.1 0,33.1 0,295.1 1029.8,371.1 1401,241.1 		"/>
	</defs>
	<clipPath id="SVGID_2_">
		<use xlink:href="#SVGID_1_"  style="overflow:visible;"/>
	</clipPath>
</g>
<polygon class="st0" points="1401,33.1 0,33.1 0,295.1 1029.8,371.1 1401,241.1 "/>
<polygon class="st1" points="1.1,0 1401,-53 1401,371.1 1.1,371.1 "/>
<g>
	<defs>
		<polygon id="SVGID_3_" points="0,40.1 1401,40.1 1401,235.1 1027,359.1 0,285.1 		"/>
	</defs>
	<clipPath id="SVGID_4_">
		<use xlink:href="#SVGID_3_"  style="overflow:visible;"/>
	</clipPath>
</g>
<polygon class="st2" points="0,40.1 1401,40.1 1401,235.1 1027,359.1 0,285.1 "/>
<polygon class="st1" points="1.1,0 1401,-53 1401,371.1 1.1,371.1 "/>
<linearGradient id="SVGID_5_" gradientUnits="userSpaceOnUse" x1="0" y1="400.3806" x2="1401" y2="400.3806" gradientTransform="matrix(1 0 0 -1 0 573.0156)">
	<stop  offset="0" style="stop-color:#4C73E6"/>
	<stop  offset="0.986" style="stop-color:#8A54E8"/>
</linearGradient>
<polygon class="st3" points="0,0.1 1401,0.1 1401,220.1 1024.7,345.1 0,275.1 "/>
<g>
	<g class="st4">
		<g>
			<g>
				<g>
					<path class="st5" d="M1090.6,160.9h-1.5c0-14.8,12-26.8,26.8-26.8c5.9,0,11.5,1.9,16.2,5.5l-0.9,1.2c-4.4-3.4-9.7-5.2-15.3-5.2
						C1102,135.6,1090.6,146.9,1090.6,160.9z"/>
				</g>
				<g>
					<path class="st5" d="M1116,187.7c-4.4,0-8.7-1.1-12.5-3.1l0.7-1.3c3.6,1.9,7.7,2.9,11.8,2.9c14,0,25.3-11.4,25.3-25.3
						c0-5-1.5-9.9-4.3-14.1l1.2-0.8c3,4.4,4.5,9.6,4.5,14.9C1142.7,175.6,1130.7,187.7,1116,187.7z"/>
				</g>
				<g>
					<path class="st5" d="M1116,178c-0.2,0-0.3,0-0.5,0c-4.3-0.1-8.4-1.8-11.5-4.9l1-1.1c2.8,2.8,6.6,4.3,10.5,4.4
						c8.6,0.2,15.8-6.6,16.1-15.2c0.1-2.8-0.6-5.5-1.9-7.9l1.3-0.7c1.4,2.6,2.1,5.6,2.1,8.6C1132.8,170.6,1125.2,178,1116,178z
						 M1100.3,160.4h-1.5c0.3-9.4,8.2-16.9,17.6-16.6c3,0.1,5.9,0.9,8.4,2.5l-0.8,1.3c-2.3-1.4-5-2.2-7.7-2.3
						C1107.8,145,1100.5,151.8,1100.3,160.4z"/>
				</g>
				<g>
					<path class="st5" d="M1116,168.7c-4.3,0-7.9-3.5-7.9-7.9c0-4.3,3.5-7.9,7.9-7.9c0.4,0,0.8,0,1.1,0.1l-0.2,1.5
						c-0.3,0-0.6-0.1-0.9-0.1c-3.5,0-6.4,2.9-6.4,6.4s2.9,6.4,6.4,6.4s6.4-2.9,6.4-6.4c0-0.3,0-0.6-0.1-0.8l1.5-0.2
						c0,0.3,0.1,0.7,0.1,1C1123.8,165.2,1120.3,168.7,1116,168.7z"/>
				</g>
				<g>
					
						<rect x="1110.1" y="145.9" transform="matrix(0.7321 -0.6811 0.6811 0.7321 203.0278 809.5646)" class="st5" width="41.5" height="1.5"/>
				</g>
			</g>
			<g>
				<polygon class="st5" points="1148,140.9 1139.8,138.4 1138.6,129.8 1140.1,129.6 1141.2,137.2 1148.5,139.5 				"/>
			</g>
		</g>
		<g>
			<g>
				<path class="st5" d="M932.1,182.4h-7.4V175h7.4V182.4z M926.2,180.9h4.5v-4.5h-4.5V180.9z"/>
			</g>
			<g>
				<path class="st5" d="M944.7,182.4h-7.4V175h7.4V182.4z M938.8,180.9h4.5v-4.5h-4.5V180.9z"/>
			</g>
			<g>
				<path class="st5" d="M957.2,182.4h-7.4V175h7.4V182.4z M951.3,180.9h4.5v-4.5h-4.5V180.9z"/>
			</g>
			<g>
				<path class="st5" d="M957.2,195.3h-7.4v-7.4h7.4V195.3z M951.3,193.9h4.5v-4.5h-4.5V193.9z"/>
			</g>
			<g>
				<path class="st5" d="M932.1,195.3h-7.4v-7.4h7.4V195.3z M926.2,193.9h4.5v-4.5h-4.5V193.9z"/>
			</g>
			<g>
				<path class="st5" d="M944.7,195.3h-7.4v-7.4h7.4V195.3z M938.8,193.9h4.5v-4.5h-4.5V193.9z"/>
			</g>
			<g>
				<rect x="917.9" y="163.7" class="st5" width="56" height="1.5"/>
			</g>
			<g>
				<rect x="917.9" y="168.5" class="st5" width="56" height="1.5"/>
			</g>
			<g>
				<polygon class="st5" points="917,204.9 917,146.9 929.4,146.9 929.4,148.4 918.5,148.4 918.5,203.4 957.2,203.4 957.2,204.9 
									"/>
			</g>
			<g>
				<polygon class="st5" points="978.2,172.4 976.7,172.4 976.7,148.4 965.4,148.4 965.4,146.9 978.2,146.9 				"/>
			</g>
			<g>
				<rect x="938.3" y="146.9" class="st5" width="18.8" height="1.5"/>
			</g>
			<g>
				<path class="st5" d="M932.8,154.5c-1.9,0-3.5-1.6-3.5-3.5v-5.8c0-1.9,1.6-3.5,3.5-3.5s3.5,1.6,3.5,3.5v5.8
					C936.2,153,934.7,154.5,932.8,154.5z M932.8,143.3c-1.1,0-2,0.9-2,2v5.8c0,1.1,0.9,2,2,2s2-0.9,2-2v-5.8
					C934.8,144.2,933.9,143.3,932.8,143.3z"/>
			</g>
			<g>
				<path class="st5" d="M962.9,154.5c-1.9,0-3.5-1.6-3.5-3.5v-5.8c0-1.9,1.6-3.5,3.5-3.5s3.5,1.6,3.5,3.5v5.8
					C966.3,153,964.8,154.5,962.9,154.5z M962.9,143.3c-1.1,0-2,0.9-2,2v5.8c0,1.1,0.9,2,2,2s2-0.9,2-2v-5.8
					C964.9,144.2,964,143.3,962.9,143.3z"/>
			</g>
			<g>
				<path class="st5" d="M932.9,159.6c-3.6,0-6.5-2.9-6.5-6.5c0-0.1,0-0.2,0-0.3l1.5,0.1c0,0.1,0,0.1,0,0.2c0,2.8,2.3,5,5,5
					c2.8,0,5-2.3,5-5h1.5C939.4,156.7,936.5,159.6,932.9,159.6z"/>
			</g>
			<g>
				<path class="st5" d="M962.7,159.6c-3.6,0-6.5-2.9-6.5-6.5c0-0.1,0-0.2,0-0.3l1.5,0.1c0,0.1,0,0.1,0,0.2c0,2.8,2.3,5,5,5
					c2.8,0,5-2.3,5-5h1.5C969.2,156.7,966.3,159.6,962.7,159.6z"/>
			</g>
		</g>
		<g>
			<polygon class="st5" points="1120.6,282.5 1119.8,278.9 1116.3,279.6 1116,278.1 1121,277.2 1122.1,282.2 			"/>
		</g>
		<g>
			<path class="st5" d="M1006.1,137.4l-7.4-1.1l1-7.2l7.4,1.1L1006.1,137.4z M1000.3,135.1l4.5,0.6l0.6-4.3l-4.5-0.6L1000.3,135.1z"
				/>
		</g>
		<g>
			<g>
				
					<rect x="894.5" y="176.7" transform="matrix(0.3932 -0.9194 0.9194 0.3932 379.7368 930.9924)" class="st5" width="1.5" height="2.1"/>
			</g>
			<g>
				
					<rect x="897" y="175.8" transform="matrix(0.3933 -0.9194 0.9194 0.3933 382.5264 932.8402)" class="st5" width="2.1" height="1.5"/>
			</g>
			<g>
				
					<rect x="898.5" y="178.6" transform="matrix(0.3932 -0.9195 0.9195 0.3932 380.5899 935.8214)" class="st5" width="1.5" height="2"/>
			</g>
			<g>
				
					<rect x="895.2" y="179.9" transform="matrix(0.3931 -0.9195 0.9195 0.3931 377.8272 933.7819)" class="st5" width="2.2" height="1.5"/>
			</g>
		</g>
		<g>
			<path class="st5" d="M1134.9,319.9l-5.9-0.8l0.8-5.7l5.9,0.8L1134.9,319.9z M1130.7,317.8l3,0.4l0.4-2.8l-3-0.4L1130.7,317.8z"/>
		</g>
		<g>
			<polygon class="st5" points="861.8,146.5 860.6,145.6 864.4,140.3 870,144 869.2,145.3 864.8,142.3 			"/>
		</g>
		<g>
			<g>
				
					<rect x="1166.6" y="158.3" transform="matrix(0.9872 -0.1597 0.1597 0.9872 -10.4054 188.5848)" class="st5" width="3" height="1.5"/>
			</g>
			<g>
				
					<rect x="1169.8" y="154" transform="matrix(0.9872 -0.1597 0.1597 0.9872 -9.7964 188.9298)" class="st5" width="1.5" height="2.9"/>
			</g>
			<g>
				
					<rect x="1172.8" y="157.3" transform="matrix(0.9872 -0.1597 0.1597 0.9872 -10.1674 189.5459)" class="st5" width="2.8" height="1.5"/>
			</g>
			<g>
				
					<rect x="1170.8" y="160.2" transform="matrix(0.9872 -0.1598 0.1598 0.9872 -10.7883 189.2897)" class="st5" width="1.5" height="3.1"/>
			</g>
		</g>
		<g>
			<path class="st5" d="M1207.7,207.4l-5.9-0.8l0.8-5.7l5.9,0.8L1207.7,207.4z M1203.5,205.3l3,0.4l0.4-2.8l-3-0.4L1203.5,205.3z"/>
		</g>
	</g>
	<g>
		<g class="st6">
			<path class="st7" d="M1226.7,341.3l-61.9,36.3c1.6-3,0.7-6.1-2.9-8.2c-5.6-3.2-15.4-2.8-22,1l-16.7,9.6
				c-6.5,3.8-7.3,9.5-1.8,12.7c3.8,2.2,9.6,2.6,15,1.5l-7.3,4.3l34.3,19.6l98.6-55.7L1226.7,341.3z"/>
			<path class="st7" d="M1147.8,366l37.5-21.7c14.7-8.5,16.4-21.3,3.9-28.5s-34.7-6.2-49.4,2.3l-25.2,14.6c-0.3-0.1-0.6-0.2-0.9-0.2
				l49.8-28.1l-35.3-21.1l-97.6,57.2l34.3,19.6l10.2-5.8c0.6,1.2,1.6,2.3,3.2,3.2c3.2,1.8,7.7,2.4,12.2,1.9c1,3.3,3.6,6.4,7.8,8.8
				C1111,375.5,1133.2,374.4,1147.8,366z"/>
		</g>
		<g>
			<polygon class="st8" points="1038.6,315.1 1029.8,340.7 1030.9,341.3 1043.6,319.5 			"/>
			<polygon class="st8" points="1157.9,281.8 1163.9,303.9 1162.7,304.6 1152.9,285.4 			"/>
			<polygon class="st8" points="1062.6,334.4 1064.1,360.3 1065.8,360.3 1069,334.4 			"/>
			<polygon class="st9" points="1030.9,307.7 1065,327.4 1163.9,270 1128.9,249.9 			"/>
			<polygon class="st10" points="1030.9,307.7 1026,271.1 1030.9,273.9 1035.7,310.5 			"/>
			<polygon class="st9" points="1026,271.1 1124.8,213.7 1129.7,216.5 1030.9,273.9 			"/>
			<polygon class="st11" points="1129.7,216.5 1134.6,253.1 1035.7,310.5 1030.9,273.9 			"/>
			<polygon class="st10" points="1030.9,307.7 1030.9,319 1065,338.7 1065,327.4 			"/>
			<polygon class="st12" points="1065,338.7 1163.9,281.3 1163.9,270 1065,327.4 			"/>
		</g>
		<g>
			<g>
				<path class="st13" d="M1098.8,281.1c-0.2,2.2-2,3.8-4.2,3.6l0,0c-2.2-0.2-3.8-2-3.6-4.2l-0.7-18.4c0.2-2.7-1.1-6.1,6.4-5.5l0,0
					c2.2,0.2,3.8,2,3.6,4.2L1098.8,281.1z"/>
				<g>
					<path class="st14" d="M1103.7,293.9l1.2,1.3c0,0,1,3,2.3,4.3c0,0,1.6,3.4,1.7,0.5c0,0,0-0.3-0.4-1.7c0,0,2.6,1.7,2.7,3.8
						c0.1,2.1,1.2,2,1.9,0.2c0.7-1.8,1.3-3.4-1.4-6.5c-2.7-3.1-2.8-2.9-4.1-3.5l-1.1-1.2L1103.7,293.9z"/>
					<path class="st15" d="M1105.2,288.8l2.9,3.2c0,0-1,3.2-3.5,3l-2.9-3.1C1101.8,292,1104.6,290.8,1105.2,288.8z"/>
					<path class="st13" d="M1101.5,292.4l-9.7-9c-1.4-1.6,4.5-6.6,5.9-5l7.9,10.3C1107,290.3,1102.9,294,1101.5,292.4z"/>
				</g>
			</g>
			<path class="st16" d="M1111,331.5c0,0,3.5,5.3,6.6,6.4c3,1.1,3.7,4.5-1.1,4.1s-6.8-0.7-9.7-3.6v1l-4.1-2l0.3-5.9l4.5-3.1
				L1111,331.5z"/>
			<g>
				<path class="st17" d="M1109.9,304.7c-1.2,2-2.9,1.3-6.9,3s-35.5-3.9-35.5-3.9c-2-1.2,0.5-8,1.7-10l1.2-2c1.2-2.1,4.5-4.3,6.5-3
					l32.7,8c2.1,1.2,2.7,3.9,1.5,5.9L1109.9,304.7z"/>
				<path class="st17" d="M1111.6,330.7c0,2.4-9,2.4-9,0c0,0-4.1-23.8-1.9-25.4c2.5-1.9,2.9-8.4,5.2-8.4h1.4c2.4,0,4.6,2.7,4.3,4.3
					C1110.2,309.3,1111.6,330.7,1111.6,330.7z"/>
			</g>
			<g>
				<path class="st16" d="M1090,347c0,0,2.6,4.6,5.7,5.7c3,1.1,3.7,4.5-1.1,4.1c-4.8-0.4-6.5-1.1-9.5-4v1l-4.1-2l0.3-5.9l5.1-2.3
					L1090,347z"/>
				<g>
					<path class="st18" d="M1082.2,320.3c-9.9-0.6-25-14.6-25-14.6c-4.1-2.7-3.9-9.3-2.7-11.3l5.8,1.1c1.2-2,8.4-1.7,10.5-0.5
						l20,17.9C1094.9,321.4,1085.5,320.5,1082.2,320.3z"/>
					<path class="st18" d="M1089.9,346.8c-0.2,2.4-9.1,1.8-8.9-0.6c0,0-4.6-24,0-28.8c1.7-1.7,11.3-4.2,10.5-0.3
						C1089.5,327.2,1089.9,346.8,1089.9,346.8z"/>
				</g>
			</g>
			<path class="st19" d="M1053.6,294.7c0,0,14.6-32.9,21.9-38.6c1.5-0.5,8.8-4,18-3c4.6,0.5,6.9,9.5,3.3,16.8
				c-3.6,7.3-12.8,17.9-16.2,26.5C1080.7,296.5,1071.9,304.1,1053.6,294.7z"/>
			<path class="st20" d="M1090.1,253.5l3.6-6.9l4.8-0.7l2.1,6.6l-4.4,9l-4.2,2.9C1092.1,264.4,1087.8,259,1090.1,253.5z"/>
			<g>
				<path class="st13" d="M1090.4,252.8c0,0-1.3,7.7,1.8,10.9c0,0,4.2-3,5.2-7.3l0.4,0.9c0,0-0.4,5.4-3.6,11c-0.1,0.2-2.2-4-2.2-4
					s-5.5,2.3-5.5,2.1c0.1-5.5,0.8-11.3,2.4-13.4L1090.4,252.8z"/>
			</g>
			<path class="st14" d="M1112.5,244.1c0,0-1.1,5-2.1,7.7c-1,2.7-3,12.5-8.7,9.7c0,0-4.7-2.3-4-8.2l-3.5-3.5c0,0-0.2-10.8,5.4-12.1
				C1105.2,236.4,1110.2,236.9,1112.5,244.1z"/>
			<path class="st21" d="M1096.4,251.5c0,0-2.5-2.6,0.9-5c0,0,2-0.4,2.4,2.7l-0.1,0.9l0.7,0.1c0,0,0.8-3.2,2.1-4.3
				c1.3-1.2,6.7,1.5,9.9-0.8c3.2-2.3-0.4-9.3-7.7-9.9c-4.8-0.4-10.6-0.8-11.4,8c0,0.1-1.8,8-1.8,8l1.8,1.7L1096.4,251.5z"/>
			<path class="st22" d="M1108.8,256.5c0,0-9.3,1.4-8.7-5.6l-0.6-0.2l-2.4,4.8c0,0,0.7,6.1,7,6.7
				C1110.5,263,1108.7,258.9,1108.8,256.5z"/>
			<path class="st13" d="M1093.1,286.9c0.9,2.8,1.8,5.1,0,6.6l-1.4,3.7c-4.6-1.3-5.4-4.9-7.2-8.1l-8.4-16.7c-0.7-0.3-5-9.2-3.7-11.3
				l0.3-0.2c1.9-1.5,10.9,4.9,13,7.5L1093.1,286.9z"/>
			<g>
				<path class="st14" d="M1110.8,303l1.9,1.1c0,0,1.5,2.4,3.3,2.9c1.8,0.5,4.8,0.3,5.7-1.1c1-1.4,0.6-3.1-0.4-4.4
					c0,0-1.7-0.8-2.3-0.2c0,0-2.3-0.3-1.3-1.1c0,0,2.3-0.3,2.7-1.1c0,0-0.3-1.4-0.8-1.2c-0.5,0.2-1.4,0.4-2.9,0.4s-2.8,0.2-3.3,0.8
					l-1.1-0.4L1110.8,303z"/>
				<path class="st15" d="M1109.9,297.2l3.1,1.4c0,0,1.4,3.7-1.4,5.6l-3-1.4C1108.6,302.8,1110.9,299.1,1109.9,297.2z"/>
				<path class="st13" d="M1108.6,303.3l-16.9-6.1c-1.9-0.3-0.1-9.4,1.8-9.2l16.6,8.9C1112,297.2,1110.4,303.6,1108.6,303.3z"/>
			</g>
		</g>
		<g>
			<g>
				<path class="st23" d="M1149.3,253.3c-2.1,0.4-4.2-0.7-4.8-2.6l-9.5-17.8c-0.6-1.8,1.1-5.3,3.1-5.7l0,0c2.1-0.4,4.2,0.7,4.8,2.6
					l7.8,19.8C1151.3,251.4,1151.4,252.9,1149.3,253.3L1149.3,253.3z"/>
				<path class="st24" d="M1146.7,316.5c0,0,2.1,7.2,6.3,8.8c4.3,1.5,0.6,3.6-0.2,3.8c-0.8,0.1-5.1,0.4-7.7-2.3
					c-2.6-2.8-5.1-4.5-5.1-4.5s0.9-4.7,2.3-7.4l1.2-0.7L1146.7,316.5z"/>
				<path class="st25" d="M1152.8,329.1c-0.8,0.1-5.1,0.4-7.7-2.3c-2.6-2.7-5.1-4.5-5.1-4.5s-0.6-3.3,1-5.3c0.3,1.6-0.4,3.6,5,7.3
					c3.4,2.4,5,1.4,5.8,0.4c0.4,0.3,0.8,0.5,1.3,0.7C1157.3,326.9,1153.6,329,1152.8,329.1z"/>
				<path class="st24" d="M1146.7,316.5c-0.2,2.4-4.6,1.3-4.4-1.1c0,0-4.6-24.1,0-29.9c1.7-4,0.9-2.8,3.3-2.6l1.9-0.6
					c3.6-0.7,5,3.4,2.9,9.6C1146.5,303.6,1146.7,316.5,1146.7,316.5z"/>
				<path class="st14" d="M1140.5,318.7c-0.4,2.4-4.9,1.8-4.5-0.5c0,0-8.1-24.3-1.8-31.4c1.2-1.4,1.5-2,3.4-2h0.8
					c2.4,0.4,5.1,1.6,3.3,6.6C1138.5,300.2,1140.5,318.7,1140.5,318.7z"/>
				<path class="st26" d="M1111.4,261.4c0,0-10.6,10.7-1.8,19.8c5.8,6,22.2,12.1,22.2,12.1s13.6-10.1,18.3-10.6
					c0,0-8.4-7.8-20.2-13.3c0,0,0.5-4.9-0.3-7.5c-0.8-2.7-6.6-2.5-6.6-2.5L1111.4,261.4z"/>
				<path class="st27" d="M1138.1,224.8c0,0,3.3,2.7,4,11c0.9,10.6-0.5,12.3-5.4,15c0,0-6.8,12.6-6.6,15.1c0,0-9.7,2.9-18.8-4.5
					c0,0,5-5.2,6.3-11c2.1-9-0.2-20.4,3.8-22.4C1130.5,223.6,1138.1,224.8,1138.1,224.8z"/>
				<path class="st28" d="M1130.2,225.1l3.8-6.6l2.2-5.5l4,5.6l-1.7,9.8l-2.8,5.8C1135.7,234.1,1129.7,231,1130.2,225.1z"/>
				<g>
					<path class="st29" d="M1130.6,225c0,0,0.7,6.9,4.9,8.5c0,0,2.5-4.4,1.7-8.8l0.7,0.7c0,0,3.5,2.4-2.2,13c0,0-7.7-7.8-6.5-13.1
						L1130.6,225z"/>
				</g>
				<path class="st14" d="M1140.5,318.7c0,0,2.5,8.2,6.8,9.7c4.3,1.5,0.6,3.6-0.2,3.8c-0.8,0.1-5.1,0.4-7.7-2.3
					c-2.6-2.8-5.1-4.5-5.1-4.5s0.6-5,1.7-7.2l1.8-1L1140.5,318.7z"/>
				<path class="st30" d="M1147,332.1c-0.8,0.1-5.1,0.4-7.7-2.3c-2.6-2.8-5-4.5-5-4.5s-0.6-3.3,1-5.3c0.3,1.6-0.4,3.6,5,7.3
					c3.4,2.4,5,1.4,5.8,0.4c0.4,0.3,0.8,0.5,1.3,0.7C1151.5,329.9,1147.8,332,1147,332.1z"/>
				<path class="st31" d="M1134.1,206.8c0.2-1-0.3-2.5-0.6-3.5c-0.5-1.7-1.6-2.8-3.4-2.9c-3.8-0.2-6.5,2.4-7.8,5.7
					c-3.1,7.7,0.5,15.8,3,23.1c0.5,1.5,0.9,2.9,1.2,4.4c0.2,1,0.3,2,0.5,3c0.1,0.9,0.2,1.8,0.2,2.7c0,0.5,0,0.9,0.1,1.4
					c0,0.2,0.2,1.3,0,1.4c0,0,6.4-5.4,5.1-11.5c-1.3-6.2-2.8-9.5-1.2-12.4C1132.9,215.3,1132.5,214.8,1134.1,206.8z"/>
				<path class="st14" d="M1146.4,209.9c0,0,0.3,5.1,0,8c-0.2,2.9-2.9,11.2-5,10.9c0,0-6.8-0.6-7.4-7.3l-3.9-1.2c0,0-3-10.4,2-13.1
					C1137.3,204.3,1142.3,203.5,1146.4,209.9z"/>
				<path class="st32" d="M1145.2,210.1c0,0-4.4,5.2-9.5,6.6c0,0-0.8-2.5-2.6-0.7c-1.8,1.8-0.6,4.7,1,5.4c0,0-1.9,2.1-3.1,2.9
					c0,0-9.5-14.5,3.2-20c10-4.3,15.7,6,12.2,13.5C1146.5,217.8,1147.2,211.9,1145.2,210.1z"/>
			</g>
			<g>
				<path class="st14" d="M1156.1,237.9c0.6-0.6,1.5-1.6,2.2-1.9c1-0.5,1.7-0.5,2.6-1.1c0.6-0.4,1.7-1,2-1.7s1.2,0.8,0.1,1.6
					c-0.4,0.3-0.6,0.6-0.7,0.9c1,0.2,2.1,0.4,3-0.8c4.1-4.8,4.2-0.4,4.2-0.4c-1.5,3.7-2.6,3.8-3.9,4.4c-1.9,0.9-6.7,1.1-6.7,1.1
					l-1.2,2.1l-3.2-1.5c0.3-0.6,0.5-1.1,0.8-1.7C1155.6,238.5,1155.8,238.1,1156.1,237.9z"/>
				<path class="st29" d="M1152.6,241.7l2.8-3.3c0,0,2.1-0.4,3.9,2.5l-2.7,3.9C1156.5,244.8,1156.2,241.5,1152.6,241.7z"/>
				<path class="st23" d="M1157.1,244.4l-5.7,9.2c-1.4,1.6-3.6,1-5.1-0.3l0,0c-1.4-1.2-1.4-2.2-0.1-3.8l6.6-8.6
					C1154.2,239.3,1158.4,242.8,1157.1,244.4z"/>
			</g>
			<path class="st33" d="M1134,258.6c1,1.6,2.5,1.5,4.4,0.4l0.8-0.7c1.9-1.1,1.1-2.5,0.1-4.1l-11.3-21c-1-1.6-5.5-4.8-7.4-3.7
				l-0.8,1.2c-1.9,3.7-0.3,6.6,0.7,8.3L1134,258.6z"/>
			<g>
				<path class="st14" d="M1155.8,265.6c0.1,0,0.3,0,0.4,0c0.3,0,0.7-0.1,1,0c1.1,0,2.1,0.1,3.2,0.2c0.5,0.1,0.9-0.2,1.4-0.1
					s0.4,0.5,0.2,0.9c1,0.5,4.8,3,2.8,5c-1.3,1.3-5.5,1.1-7.1,0.2c-2.7-1.4-2.7-1.4-3.6-2.5l-1.4-0.8l1.6-3.7L1155.8,265.6z"/>
				<g>
					<path class="st29" d="M1153.4,263.7l-2.7,4.3l3.8,2c0,0,2.7-1.7,2.6-4.4L1153.4,263.7z"/>
					<path class="st33" d="M1134,256.3c-1.1,1.6,1.2,4,2.4,4.8l15.2,7.9c1.2,0.8,4.4-3.9,3.2-4.7l-14.6-8.9c-1.2-0.8-4.3-1.6-5.3,0
						L1134,256.3z"/>
				</g>
			</g>
		</g>
		<g>
			<g>
				<g>
					<polygon class="st8" points="1104.5,331.1 1106.1,356 1107,356 1110,331.6 					"/>
					<polygon class="st8" points="1123.9,342.5 1126.9,368.3 1127.6,368.3 1129.8,342.5 					"/>
					<path class="st34" d="M1125,344c-1.4-0.8-1.4-2.2,0-3s2.3-0.8,3.8,0c1.4,0.8,1.4,2.2,0,3C1127.3,344.8,1126.4,344.8,1125,344z"
						/>
					<path class="st34" d="M1105.6,332.6c-1.4-0.8-1.4-2.2,0-3c1.4-0.8,2-0.8,3.5,0c1.4,0.8,1.4,2.2,0,3
						C1107.6,333.4,1107,333.4,1105.6,332.6z"/>
				</g>
				<g>
					<polygon class="st8" points="1161.8,297.8 1163.4,322.7 1164.3,322.7 1167.3,298.3 					"/>
					<polygon class="st8" points="1181.2,309.2 1184.2,335 1184.9,335 1187.2,309.2 					"/>
					<path class="st34" d="M1182.3,310.7c-1.4-0.8-1.4-2.2,0-3s2.3-0.8,3.8,0c1.4,0.8,1.4,2.2,0,3
						C1184.7,311.5,1183.8,311.5,1182.3,310.7z"/>
					<path class="st34" d="M1162.9,299.3c-1.4-0.8-1.4-2.2,0-3s2-0.8,3.5,0c1.4,0.8,1.4,2.2,0,3
						C1164.9,300.1,1164.4,300.1,1162.9,299.3z"/>
				</g>
			</g>
			<g>
				<path class="st35" d="M1105.5,321.3c-14.7,8.5-16.4,21.3-3.9,28.5s34.7,6.2,49.4-2.3l37.5-21.7c14.7-8.5,16.4-21.3,3.9-28.5
					s-34.7-6.2-49.4,2.3L1105.5,321.3z"/>
				<path class="st35" d="M1105.5,318.4c-14.7,8.5-16.4,21.3-3.9,28.5s34.7,6.2,49.4-2.3l37.4-21.7c14.7-8.5,16.4-21.3,3.9-28.5
					s-34.7-6.2-49.4,2.3L1105.5,318.4z"/>
			</g>
		</g>
		<g>
			<polygon class="st36" points="1095.5,334.4 1111.7,325 1135.4,338.6 1119.4,348.2 			"/>
			<polygon class="st29" points="1098.1,334.4 1111.7,326.5 1132.8,338.7 1119.4,346.7 			"/>
			<polygon class="st37" points="1095.5,334.4 1119.4,348.2 1119.4,349 1095.5,335.1 			"/>
			<polygon class="st37" points="1119.4,348.2 1135.4,338.6 1135.4,339.3 1119.4,349 			"/>
			<polygon class="st37" points="1101.8,330.7 1104.3,332.1 1108.9,329.4 1106.5,328 			"/>
		</g>
		<g>
			<polygon class="st38" points="1122.6,328.6 1130.3,324.4 1115.4,315.8 1107.8,320.2 			"/>
			<polygon class="st39" points="1128.8,324.3 1116.7,317.4 1110.5,320.9 1122.6,327.8 			"/>
			<polygon class="st40" points="1130.3,324.4 1130.1,325.4 1122.7,329.7 1122.6,328.6 			"/>
			<polygon class="st41" points="1107.8,320.2 1107.8,321.1 1122.7,329.7 1122.6,328.6 			"/>
			<path class="st29" d="M1113.6,318.8c0.4-0.2,0.4-0.6,0-0.8c-0.4-0.2-1-0.2-1.4,0c-0.4,0.2-0.4,0.6,0,0.8
				C1112.6,319,1113.2,319,1113.6,318.8z"/>
		</g>
		<g>
			<polygon class="st38" points="1190.8,305.8 1198.4,301.6 1183.6,293 1175.9,297.4 			"/>
			<polygon class="st39" points="1196.9,301.5 1184.9,294.6 1178.7,298.1 1190.8,305 			"/>
			<polygon class="st40" points="1198.4,301.6 1198.3,302.6 1190.8,306.9 1190.8,305.8 			"/>
			<polygon class="st41" points="1175.9,297.4 1176,298.3 1190.8,306.9 1190.8,305.8 			"/>
			<path class="st29" d="M1181.8,296c0.4-0.2,0.4-0.6,0-0.8c-0.4-0.2-1-0.2-1.4,0s-0.4,0.6,0,0.8S1181.4,296.2,1181.8,296z"/>
		</g>
		<g>
			<path class="st42" d="M1136.8,336c-1.8,0-3.5-0.4-4.8-1.1c-1.2-0.7-1.9-1.6-1.9-2.5s0.7-1.9,1.9-2.5c1.3-0.7,3-1.1,4.8-1.1
				s3.5,0.4,4.8,1.1c1.2,0.7,1.9,1.6,1.9,2.5s-0.7,1.8-1.9,2.5C1140.4,335.6,1138.7,336,1136.8,336z"/>
			<path class="st43" d="M1136.8,335.6c-1.8,0-3.4-0.4-4.6-1.1c-1.2-0.7-1.8-1.5-1.8-2.4s0.6-1.8,1.8-2.4c1.2-0.7,2.9-1.1,4.6-1.1
				c1.8,0,3.4,0.4,4.6,1.1c1.2,0.7,1.8,1.5,1.8,2.4s-0.6,1.8-1.8,2.4C1140.2,335.2,1138.6,335.6,1136.8,335.6z"/>
			<path class="st42" d="M1136.8,334.1c-1.1,0-2.2-0.2-3-0.7c-0.7-0.4-1.1-1-1.1-1.6s0.4-1.1,1.1-1.6c0.8-0.5,1.8-0.7,3-0.7
				c1.1,0,2.2,0.2,3,0.7c0.7,0.4,1.1,1,1.1,1.6s-0.4,1.1-1.1,1.6C1139,333.9,1138,334.1,1136.8,334.1z"/>
			<path class="st42" d="M1143.1,327.1c-0.6-0.4-1.4-0.4-1.6-0.4c-0.1,0-0.6,0.3,0,0.7h0.1c0,0,0.5,0,0.9,0.2
				c0.3,0.2,0.5,0.6,0.5,1.1s-0.2,0.9-0.5,1.1c-0.4,0.3-1.5,0.3-1.5,0.3h-0.1c0,0-0.7,0.3,0,0.7h0.1c0.3,0,1.5-0.1,2.1-0.5
				c0.5-0.4,0.8-0.9,0.8-1.7C1143.9,328,1143.6,327.4,1143.1,327.1z"/>
			<path class="st44" d="M1134,332.7c-0.8-0.5-1.2-1.1-1.2-1.7s-1.2-2.2-0.7-4.4c0.4-1.8,9.3-1.5,9.6,0.3c0.3,2-0.7,3.6-0.7,4.2
				s-0.4,1.2-1.2,1.7C1138.1,333.6,1135.5,333.6,1134,332.7z"/>
			<path class="st45" d="M1133.4,328.8c-1.9-1.1-1.9-2.8,0-3.9s4.9-1.1,6.8,0c1.9,1.1,1.9,2.8,0,3.9
				C1138.4,329.9,1135.3,329.9,1133.4,328.8z"/>
			<path class="st43" d="M1136.8,329.3c-1.2,0-2.4-0.3-3.3-0.8c-0.8-0.5-1.3-1.1-1.3-1.7s0.4-1.3,1.3-1.7c0.9-0.5,2-0.8,3.3-0.8
				s2.4,0.3,3.3,0.8c0.8,0.5,1.3,1.1,1.3,1.7s-0.4,1.3-1.3,1.7C1139.2,329.1,1138.1,329.3,1136.8,329.3z"/>
			<path class="st46" d="M1136.8,329.4c1.2,0,2.4-0.3,3.3-0.8c0.3-0.2,0.6-0.4,0.8-0.6c-0.2-0.2-0.5-0.4-0.8-0.6
				c-0.9-0.5-2-0.8-3.3-0.8c-1.2,0-2.4,0.3-3.3,0.8c-0.3,0.2-0.6,0.4-0.8,0.6c0.2,0.2,0.5,0.4,0.8,0.6
				C1134.4,329.1,1135.6,329.4,1136.8,329.4z"/>
		</g>
		<g>
			<path class="st42" d="M1181.1,314.2c-1.8,0-3.5-0.4-4.8-1.1c-1.2-0.7-1.9-1.6-1.9-2.5s0.7-1.9,1.9-2.5c1.3-0.7,3-1.1,4.8-1.1
				c1.8,0,3.5,0.4,4.8,1.1c1.2,0.7,1.9,1.6,1.9,2.5s-0.7,1.8-1.9,2.5C1184.6,313.8,1182.9,314.2,1181.1,314.2z"/>
			<path class="st43" d="M1181.1,313.7c-1.8,0-3.4-0.4-4.6-1.1s-1.8-1.5-1.8-2.4s0.6-1.8,1.8-2.4c1.2-0.7,2.9-1.1,4.6-1.1
				c1.8,0,3.4,0.4,4.6,1.1c1.2,0.7,1.8,1.5,1.8,2.4s-0.6,1.8-1.8,2.4C1184.4,313.3,1182.8,313.7,1181.1,313.7z"/>
			<path class="st42" d="M1181.1,312.3c-1.1,0-2.2-0.2-3-0.7c-0.7-0.4-1.1-1-1.1-1.6s0.4-1.1,1.1-1.6c0.8-0.4,1.8-0.7,3-0.7
				c1.1,0,2.2,0.2,3,0.7c0.7,0.4,1.1,1,1.1,1.6s-0.4,1.1-1.1,1.6C1183.2,312.1,1182.2,312.3,1181.1,312.3z"/>
			<path class="st42" d="M1187.3,305.2c-0.6-0.4-1.4-0.4-1.6-0.4c-0.1,0-0.6,0.3,0,0.7h0.1c0,0,0.5,0,0.9,0.2
				c0.3,0.2,0.5,0.6,0.5,1.1s-0.2,0.9-0.5,1.1c-0.4,0.3-1.5,0.3-1.5,0.3h-0.1c0,0-0.7,0.3,0,0.7h0.1c0.3,0,1.5-0.1,2.1-0.5
				c0.5-0.4,0.8-0.9,0.8-1.7C1188.1,306.2,1187.8,305.6,1187.3,305.2z"/>
			<path class="st44" d="M1178.2,310.8c-0.8-0.5-1.2-1.1-1.2-1.7s-1.2-2.2-0.7-4.4c0.4-1.8,9.3-1.5,9.6,0.3c0.3,2-0.7,3.6-0.7,4.2
				s-0.4,1.2-1.2,1.7C1182.4,311.7,1179.8,311.7,1178.2,310.8z"/>
			<path class="st45" d="M1177.7,307c-1.9-1.1-1.9-2.8,0-3.9c1.9-1.1,4.9-1.1,6.8,0c1.9,1.1,1.9,2.8,0,3.9
				C1182.6,308,1179.5,308,1177.7,307z"/>
			<path class="st43" d="M1181.1,307.5c-1.2,0-2.4-0.3-3.3-0.8c-0.8-0.5-1.3-1.1-1.3-1.7s0.4-1.3,1.3-1.7c0.9-0.5,2-0.8,3.3-0.8
				c1.2,0,2.4,0.3,3.3,0.8c0.8,0.5,1.3,1.1,1.3,1.7s-0.5,1.3-1.3,1.7C1183.5,307.2,1182.3,307.5,1181.1,307.5z"/>
			<path class="st46" d="M1181.1,307.5c1.2,0,2.4-0.3,3.3-0.8c0.3-0.2,0.6-0.4,0.8-0.6c-0.2-0.2-0.4-0.4-0.8-0.6
				c-0.9-0.5-2-0.8-3.3-0.8c-1.2,0-2.4,0.3-3.3,0.8c-0.3,0.2-0.6,0.4-0.8,0.6c0.2,0.2,0.5,0.4,0.8,0.6
				C1178.7,307.2,1179.8,307.5,1181.1,307.5z"/>
		</g>
		<g>
			<path class="st42" d="M1163.7,303.8c1.8,0,3.5-0.4,4.8-1.1c1.2-0.7,1.9-1.6,1.9-2.5s-0.7-1.9-1.9-2.5c-1.3-0.7-3-1.1-4.8-1.1
				c-1.8,0-3.5,0.4-4.8,1.1c-1.2,0.7-1.9,1.6-1.9,2.5s0.7,1.8,1.9,2.5C1160.2,303.4,1161.9,303.8,1163.7,303.8z"/>
			<path class="st43" d="M1163.7,303.3c1.8,0,3.4-0.4,4.6-1.1s1.8-1.5,1.8-2.4s-0.6-1.8-1.8-2.4c-1.2-0.7-2.9-1.1-4.6-1.1
				c-1.8,0-3.4,0.4-4.6,1.1c-1.2,0.7-1.8,1.5-1.8,2.4s0.6,1.8,1.8,2.4C1160.3,302.9,1162,303.3,1163.7,303.3z"/>
			<path class="st42" d="M1163.7,301.9c1.1,0,2.2-0.2,3-0.7c0.7-0.4,1.1-1,1.1-1.6s-0.4-1.1-1.1-1.6c-0.8-0.4-1.8-0.7-3-0.7
				c-1.1,0-2.2,0.2-3,0.7c-0.7,0.4-1.1,1-1.1,1.6s0.4,1.1,1.1,1.6C1161.6,301.6,1162.6,301.9,1163.7,301.9z"/>
			<path class="st42" d="M1157.5,294.8c0.6-0.4,1.4-0.4,1.6-0.4c0.1,0,0.6,0.3,0,0.7h-0.1c0,0-0.5,0-0.9,0.2
				c-0.3,0.2-0.5,0.6-0.5,1.1s0.2,0.9,0.5,1.1c0.4,0.3,1.5,0.3,1.5,0.3h0.1c0,0,0.7,0.3,0,0.7h-0.1c-0.3,0-1.5-0.1-2.1-0.5
				c-0.5-0.4-0.8-0.9-0.8-1.7C1156.7,295.8,1157,295.2,1157.5,294.8z"/>
			<path class="st44" d="M1166.6,300.4c0.8-0.5,1.2-1.1,1.2-1.7s1.2-2.2,0.7-4.4c-0.4-1.8-9.3-1.5-9.6,0.3c-0.3,2,0.7,3.6,0.7,4.2
				s0.4,1.2,1.2,1.7C1162.4,301.3,1165,301.3,1166.6,300.4z"/>
			<path class="st45" d="M1167.1,296.5c1.9-1.1,1.9-2.8,0-3.9c-1.9-1.1-4.9-1.1-6.8,0c-1.9,1.1-1.9,2.8,0,3.9
				C1162.2,297.6,1165.3,297.6,1167.1,296.5z"/>
			<path class="st43" d="M1163.7,297.1c1.2,0,2.4-0.3,3.3-0.8c0.8-0.5,1.3-1.1,1.3-1.7s-0.4-1.3-1.3-1.7c-0.9-0.5-2-0.8-3.3-0.8
				c-1.2,0-2.4,0.3-3.3,0.8c-0.8,0.5-1.3,1.1-1.3,1.7s0.4,1.3,1.3,1.7C1161.3,296.8,1162.5,297.1,1163.7,297.1z"/>
			<path class="st46" d="M1163.7,297.1c-1.2,0-2.4-0.3-3.3-0.8c-0.3-0.2-0.6-0.4-0.8-0.6c0.2-0.2,0.4-0.4,0.8-0.6
				c0.9-0.5,2-0.8,3.3-0.8c1.2,0,2.4,0.3,3.3,0.8c0.3,0.2,0.6,0.4,0.8,0.6c-0.2,0.2-0.5,0.4-0.8,0.6
				C1166.1,296.8,1165,297.1,1163.7,297.1z"/>
		</g>
		<g>
			<path class="st42" d="M1128.9,318.4c1.8,0,3.5-0.4,4.8-1.1c1.2-0.7,1.9-1.6,1.9-2.5s-0.7-1.9-1.9-2.5c-1.3-0.7-3-1.1-4.8-1.1
				s-3.5,0.4-4.8,1.1c-1.2,0.7-1.9,1.6-1.9,2.5s0.7,1.8,1.9,2.5C1125.4,317.9,1127.1,318.4,1128.9,318.4z"/>
			<path class="st43" d="M1128.9,317.9c1.8,0,3.4-0.4,4.6-1.1s1.8-1.5,1.8-2.4s-0.6-1.8-1.8-2.4c-1.2-0.7-2.9-1.1-4.6-1.1
				c-1.8,0-3.4,0.4-4.6,1.1s-1.8,1.5-1.8,2.4s0.6,1.8,1.8,2.4C1125.6,317.5,1127.2,317.9,1128.9,317.9z"/>
			<path class="st42" d="M1128.9,316.5c1.1,0,2.2-0.2,3-0.7c0.7-0.4,1.1-1,1.1-1.6s-0.4-1.1-1.1-1.6c-0.8-0.4-1.8-0.7-3-0.7
				c-1.1,0-2.2,0.2-3,0.7c-0.7,0.4-1.1,1-1.1,1.6s0.4,1.1,1.1,1.6C1126.8,316.2,1127.8,316.5,1128.9,316.5z"/>
			<path class="st42" d="M1122.7,309.4c0.6-0.4,1.4-0.4,1.6-0.4c0.1,0,0.6,0.3,0,0.7h-0.1c0,0-0.5,0-0.9,0.2
				c-0.3,0.2-0.5,0.6-0.5,1.1s0.2,0.9,0.5,1.1c0.4,0.3,1.5,0.3,1.5,0.3h0.1c0,0,0.7,0.3,0,0.7h-0.1c-0.3,0-1.5-0.1-2.1-0.5
				c-0.5-0.4-0.8-0.9-0.8-1.7C1121.9,310.3,1122.2,309.8,1122.7,309.4z"/>
			<path class="st44" d="M1131.8,315c0.8-0.5,1.2-1.1,1.2-1.7s1.2-2.2,0.7-4.4c-0.4-1.8-9.3-1.5-9.6,0.3c-0.3,2,0.7,3.6,0.7,4.2
				s0.4,1.2,1.2,1.7C1127.6,315.9,1130.2,315.9,1131.8,315z"/>
			<path class="st45" d="M1132.3,311.1c1.9-1.1,1.9-2.8,0-3.9s-4.9-1.1-6.8,0c-1.9,1.1-1.9,2.8,0,3.9
				C1127.4,312.2,1130.5,312.2,1132.3,311.1z"/>
			<path class="st43" d="M1128.9,311.7c1.2,0,2.4-0.3,3.3-0.8c0.8-0.5,1.3-1.1,1.3-1.7s-0.4-1.3-1.3-1.7c-0.9-0.5-2-0.8-3.3-0.8
				c-1.2,0-2.4,0.3-3.3,0.8c-0.8,0.5-1.3,1.1-1.3,1.7s0.4,1.3,1.3,1.7C1126.6,311.4,1127.7,311.7,1128.9,311.7z"/>
			<path class="st46" d="M1128.9,311.7c-1.2,0-2.4-0.3-3.3-0.8c-0.3-0.2-0.6-0.4-0.8-0.6c0.2-0.2,0.5-0.4,0.8-0.6
				c0.9-0.5,2-0.8,3.3-0.8c1.2,0,2.4,0.3,3.3,0.8c0.3,0.2,0.6,0.4,0.8,0.6c-0.2,0.2-0.4,0.4-0.8,0.6
				C1131.3,311.4,1130.2,311.7,1128.9,311.7z"/>
		</g>
		<g>
			<path class="st47" d="M1189.8,353.8c0,0,0.7,2.1,0.6,4.5c-0.2,2.8-1.3,6.1-1.5,6.8c0,0-0.5,0.5-1.6,0.2l-0.1-3.5
				c0,0-2,2.3-3.4,3.1c-1.6,0.9-2.6,1.1-5.8,0.8c0,0-1.7-0.1-2.8-1.4c-1.3-1.4,0.3-1.9,2.4-2.5c4.8-1.3,7.2-7.5,7.6-8.7
				L1189.8,353.8z"/>
			<path class="st47" d="M1203.8,348.5c0,0,0.8,2.2,0.6,4.5c-0.2,2.8-1.2,5.4-1.4,6.1c0,0-0.6,0.7-1.7,0.3l-0.1-3.5
				c0,0-2,1.8-3.4,2.3c-1.6,0.6-2.6,0.7-5.8-0.3c0,0-1.7-0.4-2.8-1.9c-1.3-1.7,0.3-1.9,2.4-2c4.8-0.2,7.7-5.1,8.1-6.2L1203.8,348.5z
				"/>
			<path class="st17" d="M1198.5,348.4c-0.2,2,6.1,2.7,5.7,0.2c0,0-1.6-29.6-6.7-31.9c-3.2-1.4-1.5-4.7-3.7-4.3l0,0
				c-5.2,0-6.2,5-5,6.6C1193.4,325.2,1198.5,348.4,1198.5,348.4z"/>
			<path class="st18" d="M1184.5,353.6c0.1,2.6,6,2.9,5.9,0.3c0,0,4.1-26.6,0.1-33.7c-2.6-4.5-8.6-0.5-7.9,3.4
				C1184.6,334,1184.5,353.6,1184.5,353.6z"/>
		</g>
		<g>
			<path class="st48" d="M1152.4,371.7c0,0,0.4,5.7,0,7.4c0,0-3.5,1.3-6.6,0.5v-1.7c0,0-5.4,2.4-11.4,1.9c0,0-3.3-0.3-3.9-2.7
				c-0.6-2.3,2.6-2.5,5.3-3.1c2.7-0.6,6.1-2.5,6.6-3.9L1152.4,371.7z"/>
			<path class="st48" d="M1142.2,379.5c0,0,0.4,5.7,0,7.4c0,0-3.5,1.3-6.6,0.5v-1.7c0,0-5.4,2.4-11.4,1.9c0,0-3.3-0.3-3.9-2.7
				c-0.6-2.3,2.6-2.5,5.3-3.1s6.1-2.5,6.6-3.9L1142.2,379.5z"/>
			<path class="st49" d="M1142.4,371.4c0,3.2,10.2,3.2,10.2,0v-30.8c0-3.2-2.3-5.7-5.1-5.7l0,0c-2.8,0-5.1,2.6-5.1,5.7L1142.4,371.4
				L1142.4,371.4z"/>
			<path class="st50" d="M1131.6,379.2c0,3.2,10.8,3.2,10.8,0v-30.8c0-3.2-2.4-5.7-5.4-5.7l0,0c-3,0-5.4,2.6-5.4,5.7L1131.6,379.2
				L1131.6,379.2z"/>
		</g>
		<g>
			<polygon class="st8" points="1138,372.9 1129.1,398.4 1130.2,399.1 1143,377.3 			"/>
			<polygon class="st8" points="1257.3,339.6 1263.2,361.6 1262,362.3 1252.2,343.2 			"/>
			<polygon class="st8" points="1161.9,392.2 1163.4,418.1 1165.1,418.1 1168.3,392.2 			"/>
			<polygon class="st9" points="1130.2,365.5 1164.4,385.2 1263.2,327.8 1228.3,307.7 			"/>
			<polygon class="st10" points="1130.2,365.5 1130.2,376.8 1164.4,396.5 1164.4,385.2 			"/>
			<polygon class="st12" points="1164.4,396.5 1263.2,339.1 1263.2,327.8 1164.4,385.2 			"/>
		</g>
		<g>
			<path class="st51" d="M1182.5,276.2c0.2,2.6,1.9,4.1,4.4,3.9l20.5,0.7c2.6-0.2,5.8-1.1,5.6-5.5l0,0c-0.2-2.6-2.4-4.5-5-4.3
				l-22.2,1.6C1183.2,272.7,1182.4,273.6,1182.5,276.2L1182.5,276.2z"/>
			<g>
				<path class="st14" d="M1168.7,269.4l-1.8-0.5c0,0-4.6-2.4-6.4-2.2c-1.8,0.2-6.7,2.4-3.6,3.2c3.1,0.8,2.1,0,4.4,1.3
					c2.3,1.4,2.7,1.9,3.9,1.5l1.9,0.3L1168.7,269.4z"/>
				<path class="st52" d="M1171.7,269.9l-3.8-1.2c0,0-2.6,1.3-1.8,5l4,1.2C1170,275,1168.7,271.8,1171.7,269.9z"/>
				<path class="st51" d="M1169.6,275.1l12.5,4.3c5.4,1.9,5.1-0.5,5.8-2.9c0,0-1.4-3.3-3.6-4l-12.7-2.9
					C1169.4,268.9,1167.4,274.4,1169.6,275.1z"/>
			</g>
			<path class="st17" d="M1196.9,324.3c23.1,14.6,31.7,6.1,31.7,6.1c8.2-9.3,1.9-20-1-20.7l-6.2,2.2c-2.9-0.7-6.8-2.8-7.5-0.1
				l-0.5,6.8l-18.7-6.2C1194.1,315.2,1194.8,323,1196.9,324.3z"/>
			<path class="st18" d="M1190.1,330.6c26.4,10.8,34.9,2.2,34.9,2.2c8.2-9.3,3.1-17.9,0.2-18.6l-6.2,2.1c-2.9-0.7-6.8-2.8-7.5-0.1
				l-0.5,6.8l-23.8-4.7C1186.6,321,1187.8,329.6,1190.1,330.6z"/>
			<polygon class="st14" points="1208,270.3 1205.4,265.5 1200.8,271.9 1203.1,275.4 			"/>
			<path class="st51" d="M1209.1,269.1l-2-2.1c0,0-6.3,6.1-4.6,11.6L1209.1,269.1z"/>
			<path class="st52" d="M1209.1,269.1c0,0,12.7-1.4,12.4,19.4c-0.2,11.5,10.1,23,10.1,23s-3.2,8-10.6,8.5c0,0-8.7,0.8-11-2.2
				l-11.5-28.8C1198.6,289.1,1197.8,278.3,1209.1,269.1z"/>
			<g>
				<path class="st51" d="M1206.7,311c2.5-0.5,3.8-2.4,3.2-4.9l-2.1-20.4c-0.5-2.5-1.8-5.6-6.2-4.8l0,0c-2.5,0.5-4.1,3-3.6,5.5
					l4.6,21.8C1203.2,310.8,1204.2,311.6,1206.7,311L1206.7,311z"/>
				<g>
					<path class="st14" d="M1191.7,313.3l-1.6,0.9c0,0-5,1.5-6.1,2.9c-1.1,1.5-3,6.4-0.3,4.8c2.8-1.6,1.5-1.5,4.1-2.1
						c2.6-0.7,3.3-0.6,3.8-1.6l1.6-1.1L1191.7,313.3z"/>
					<path class="st52" d="M1194.2,311.6l-3.6,1.9c0,0-0.9,2.7,2.2,4.8l3.7-2C1196.6,316.3,1193.4,315,1194.2,311.6z"/>
					<path class="st51" d="M1196.4,316.7l11.9-5.8c2-1.1,2.2-2.7,1-4.9c0,0-2.3-2.6-4.3-1.5l-11.1,6.9
						C1191.8,312.5,1194.3,317.8,1196.4,316.7z"/>
				</g>
			</g>
			<path class="st14" d="M1199,250.4c0,0-3,3.1-2.9,9.1c0.2,6-0.9,15.4,5.4,12.9s11.2-2.9,12.6-13.5
				C1215.5,248.2,1203.5,245.6,1199,250.4z"/>
			<path class="st21" d="M1200.7,264c0,0,5.1,12.7,1.4,16.2c0,0,13.1,0.8,13.8-3.9c0,0,2.7-28.3-11.8-29.2
				C1204,247,1186.8,247.6,1200.7,264z"/>
		</g>
		<g>
			<path class="st53" d="M1137.7,310.9c0.6,2,2.7,3.4,4.8,3l17.7-1.3c2.1-0.4,3.6-4.3,3-6.3l0,0c-0.6-2-2.7-3.4-4.8-3l-18,3.2
				C1138.4,307,1137.1,308.9,1137.7,310.9L1137.7,310.9z"/>
			<path class="st14" d="M1155.7,303c0,0,0.9-5,3.6-8.9s3.4-12.3-3.8-14.9s-11.9,1.1-12.6,3.1c-0.7,2-0.7,7.7-1.1,10.3
				c-0.4,2.7-1.2,12.1,5.1,9.8l3.4,9.8L1155.7,303z"/>
			<path class="st31" d="M1150.9,300.5l5.4-0.3c0,0,4.6-6.3,6.5-7.9c0,0,3.7-11.6-6.6-15.2c-10.4-3.7-18.9,3.6-13.9,7.5
				c0,0,2.3,5,2.2,6.7c0,0,1.8-6.2,3.3-0.2C1149.3,296.9,1150.9,300.5,1150.9,300.5z"/>
			<g>
				<path class="st14" d="M1124.5,306.4l-1.7-0.6c0,0-3.1,0.1-4.9-0.6c0,0-3.8-0.3-1.2-1.3c0,0,0.3-0.1,1.7-0.2c0,0-1.1-2.4-3.1-1.9
					c-2,0.6-2.3-0.4-0.9-1.6c1.4-1.2,1.2-2.1,5.1-0.8c3.8,1.3,3.7,2.1,4.6,3l1.5,0.6L1124.5,306.4z"/>
				<path class="st54" d="M1128.9,303.6l-4-1.5c0,0-2.1,0.7-2.2,4.1l4.2,2C1127,308.2,1125.6,305.1,1128.9,303.6z"/>
				<path class="st53" d="M1126.3,308.1l11.2,5.7c2,0.7,6.6-0.3,7.2-2v-2c0.7-1.8-3.3-2.5-5.3-3.3l-11.1-3.5
					C1126.3,302.3,1124.3,307.3,1126.3,308.1z"/>
			</g>
			<path class="st49" d="M1143.1,338.8c-1.5,2.9-0.4,6.5,2.5,8l25.9,13.4c2.9,1.5,6.5,0.4,8-2.5l0,0c1.5-2.9,0.4-6.5-2.5-7.9
				l-25.9-13.4C1148.1,334.8,1144.5,335.9,1143.1,338.8L1143.1,338.8z"/>
			<path class="st50" d="M1180.5,348.1c0,0,3.4,9.1-4.1,14.3c-7.5,5.2-8.5,7.4-15.1,4.8V356L1180.5,348.1z"/>
			<path class="st54" d="M1158.4,302c0,0-1.3-1.1-2.1-1.7c0,0-9.4,6.1-6.9,14.2L1158.4,302z"/>
			<path class="st50" d="M1132.3,345.3c-1.6,2.9-0.6,6.4,2.3,8l26.5,14.5c2.9,1.6,8.2,1,9.4-1.6l0,0c1.6-2.9,1.4-7.2-1.4-8.8
				l-27.8-15.3C1138.4,340.6,1133.9,342.4,1132.3,345.3L1132.3,345.3z"/>
			<path class="st55" d="M1158.4,302c0,0,11.2,2.7,13.8,16.5c2.6,13.8,9.1,29.6,9.1,29.6s-6.7,10.2-15.8,10.4c0,0-5-0.2-7.5-4
				l-8.1-27.3C1149.8,327.3,1144,312.6,1158.4,302z"/>
			<g>
				<path class="st14" d="M1142.3,339.4l-2,0.4c0,0-5.7,0-7.4,1.2c-1.7,1.1-5.4,5.6-1.9,4.7c3.5-0.8,2-1.1,5-1s3.7,0.4,4.6-0.5
					l2.1-0.7L1142.3,339.4z"/>
				<g>
					<path class="st54" d="M1144.9,338l-4.2,0.8c0,0-1.9,3.1,0.6,6l4.4-0.9C1145.6,343.9,1142.9,341.1,1144.9,338z"/>
					<g>
						<path class="st53" d="M1160.2,341.9c2.3-1.1,3.8-3,2.6-5.4l-5.7-20.2c-1.1-1.7-4.1-5.4-8.1-3.5l0,0c-2.3,1.1-3.7,5.8-2.5,8.3
							l8,19.6C1155.6,343.1,1157.9,343.1,1160.2,341.9L1160.2,341.9z"/>
						<path class="st53" d="M1145.4,344.5l14.4-1.6c2.4-0.5,4-2.8,3.5-5.2l0,0c-0.5-2.4-2.8-4-5.2-3.5l-13.5,3.5
							C1142.1,338.2,1143,344.9,1145.4,344.5z"/>
					</g>
				</g>
			</g>
			<path class="st32" d="M1162.9,292.3c0,0,3.7-11.6-6.6-15.2c-10.4-3.7-18.9,3.6-13.9,7.5C1142.4,284.5,1154.9,293.7,1162.9,292.3z
				"/>
		</g>
		<g>
			<polygon class="st10" points="1159.3,382.4 1164.5,348.6 1169.4,351.4 1164.2,385.2 			"/>
			<polygon class="st11" points="1164.5,348.6 1263.3,291.2 1268.2,294 1169.4,351.4 			"/>
			<polygon class="st12" points="1268.2,294 1263.1,327.8 1164.2,385.2 1169.4,351.4 			"/>
		</g>
		<g>
			<polygon class="st56" points="1100.5,367.1 1100.5,388.4 1128.2,404.4 1128.2,383.1 			"/>
			<polygon class="st57" points="1100.5,367.1 1107.3,363 1134.9,379 1128.2,383.1 			"/>
			<polygon class="st58" points="1134.9,379 1134.9,400.3 1128.2,404.4 1128.2,383.1 			"/>
			<g>
				<polygon class="st59" points="1104.6,367.2 1108.2,365.1 1110,366.1 1106.4,368.2 				"/>
				<polygon class="st59" points="1126.4,379.7 1130,377.6 1131.8,378.6 1128.2,380.7 				"/>
				<polygon class="st59" points="1110.6,371.2 1114.3,369.1 1116.1,370.1 1112.5,372.2 				"/>
				<polygon class="st59" points="1119.9,376.5 1123.5,374.4 1125.3,375.5 1121.7,377.6 				"/>
				<g>
					<path class="st58" d="M1123.9,376l-1.3,0.8l-1.3-0.8v-3c0-1.6-1.2-3.6-2.5-4.4l-2.9-1.7c-0.5-0.3-0.8-0.3-0.9-0.2
						c-0.1,0.1-0.3,0.4-0.3,0.9v3l-1.3,0.8l-1.3-0.8v-3c0-1.4,0.6-2.6,1.6-3.2s2.3-0.5,3.5,0.2l2.9,1.7c2.1,1.2,3.8,4.1,3.8,6.6V376
						L1123.9,376z"/>
				</g>
			</g>
		</g>
	</g>
	<text transform="matrix(1 0 0 1 1025.9674 209.5)" class="st60 st61 st62">?</text>
	<g class="st4">
		<text transform="matrix(1 0 0 1 1226.9713 279.1826)" class="st5 st61 st63">?</text>
	</g>
	<text transform="matrix(1 0 0 1 868.2018 213.6406)" class="st60 st61 st64">?</text>
	<g>
		<path class="st65" d="M870.6,385.6c-11.4,6.6-30.1,6.6-41.5,0s-11.4-17.4,0.1-23.9c11.5-6.6,30.1-6.6,41.5,0
			C882.1,368.2,882,379,870.6,385.6z"/>
		<path class="st65" d="M922.8,416.9c-11.4,6.6-30.1,6.6-41.5,0s-11.4-17.4,0.1-23.9c11.5-6.6,30.1-6.6,41.5,0
			C934.2,399.6,934.2,410.4,922.8,416.9z"/>
		<path class="st65" d="M1004.5,398c-11.4,6.6-30.1,6.6-41.5,0s-11.4-17.4,0.1-23.9c11.5-6.6,30.1-6.6,41.5,0
			C1015.9,380.6,1015.9,391.4,1004.5,398z"/>
		<g>
			<path class="st66" d="M860.9,360.3c0,0,4.2,6.2,7.8,7.6s4.4,5.3-1.3,4.8c-5.6-0.5-8.1-0.8-11.5-4.3v1.1l-4.9-2.3l0.3-7l5.4-3.7
				L860.9,360.3z"/>
			<path class="st49" d="M850,324l-13.4-38.4c0-2.8,24-4.9,24-2.1l2.5,40.6C863.1,326.9,850,326.8,850,324z"/>
			<path class="st49" d="M862.5,359.4c0,2.8-12.6,2.7-12.6-0.1c0,0-5.2-21.4,0.1-35.3c2.3-6.1,14-3,13.1,0.1
				C859.9,335.3,862.5,359.4,862.5,359.4z"/>
			<path class="st47" d="M836.9,370.1c0,0,3.1,5.4,6.7,6.8s4.4,5.3-1.3,4.8c-5.6-0.5-7.8-1.3-11.2-4.8v1.1l-4.9-2.3l0.3-7l6.1-2.7
				L836.9,370.1z"/>
			<path class="st53" d="M867,252.8c1.4,2.2,1.7,7.3-0.5,8.6h-0.8c-2.2,1.4-5.2-1.4-6.6-3.6l-13.7-17c-1.4-2.2-2.3-7,2.2-9.8l0,0
				c2.2-1.4,5,0.1,6.4,1.4C859.5,237.6,867,252.8,867,252.8z"/>
			<path class="st50" d="M831.2,329.8l-3.9-44.5c0.4-2.8,26.7-1.4,26.3,1.4l-8.9,42C844.4,331.5,830.9,332.6,831.2,329.8z"/>
			<path class="st50" d="M838.8,370.2c-0.6,2.8-12.8,2.7-12.2-1.5c1.6-7.7-2.2-28.3,4.7-38.9c6.2-9.5,15-8.2,13.8-2.3
				C838.6,343.2,838.8,370.2,838.8,370.2z"/>
			<path class="st55" d="M826.5,291.4c0,0,1.9-10,1-25.5c-0.5-9.7-8.4-20.7-2.3-29c0,0,7.4-2.5,14.9-8.1c4.4-3.3,15.3,3.3,17.6,12.6
				c2.3,9.3,2.6,38,3.8,48.4C861.6,289.7,851.9,296.2,826.5,291.4z"/>
			<path class="st67" d="M838.3,230.5l0.4-9l3.5-3.3l5.5,6l0.7,11.8l-0.7,7.3C847.7,243.4,838.6,237.6,838.3,230.5z"/>
			<g>
				<path class="st68" d="M838.3,230.2c0,0,3.5,8.6,8.8,9.2c0,0,1.5-5.9-0.8-10.6l1.1,0.6c0,0,8.4,13.1,5.3,27.1
					c0,0-15.6-18.8-16-25.3L838.3,230.2z"/>
				<polygon class="st69" points="847,239.9 846.1,243.2 847.8,244.5 849,252.2 852.8,257.1 853.6,251.2 849.3,243.9 849.6,241.7 
									"/>
				<path class="st53" d="M833.2,233.4c0,0,7.7,18.1,20.1,27.6c0,0,5.4-17-1.1-27c0,0-2.3-3.4-5-4.5c0,0,8.2,13.6,5.3,27.1
					c0,0-14.6-17.7-16-25.5C836.6,231,833.9,232.5,833.2,233.4z"/>
			</g>
			<path class="st14" d="M859.9,213.3c0,0-0.6,6-1.4,9.4c-0.8,3.3-1.8,15.2-9,12.6c0,0-5.9-2-5.8-9.2l-4.6-3.6c0,0-1.7-12.7,4.7-15
				C850.2,205.1,856.2,205,859.9,213.3z"/>
			<path class="st70" d="M843.6,226.1c0,0-5-4.6-1.3-7.9c0,0,2.4-0.8,3.2,2.8v1.1h0.8c0,0,0.5-3.9,1.9-5.4c1.4-1.5,8.1,0.9,11.6-2.4
				c3.5-3.2-1.8-11.6-10.5-12.2c-6-0.4-13.9,1.5-12.7,12.4c0,0.1,1.9,11.3,1.9,11.3L843.6,226.1z"/>
			<path class="st14" d="M844.2,255.7c0,0-5-0.7-7.9,0.1c-2.9,0.8,1.1,6.9,1.1,6.9l5.5-1.2l0.8-2L844.2,255.7z"/>
			<path class="st53" d="M839.6,256.7c1.3,2.5,6.7,11.6,4.2,12.9c0,0-7.7,3.5-12.4-6.3l-5.8-10.1c-3.9-2.9-5.3-14.3-0.4-16.2
				c0,0,7.5,4.3,11,12.4L839.6,256.7z"/>
			<g>
				<path class="st68" d="M854,257.5l3.7-1.6c0,0,4.5,2.2,2.4,5.7l-4.3,1.5C855.7,263.1,856.5,258.8,854,257.5z"/>
				<path class="st53" d="M856.1,263.4l-11.5,5.8c-2.4,0.9-5.1,0.1-6.1-1.9l0,0c-1-1.9,0.5-6.1,4.8-6.7l10.8-3.6
					C856.5,256.1,858.5,262.5,856.1,263.4z"/>
			</g>
			<g>
				<path class="st68" d="M848.2,260.8l-5.2-0.1c0,0-1.9-3.5,0.2-5.5l5,0.1C848.3,255.3,847,258.7,848.2,260.8z"/>
				<path class="st71" d="M848.2,254.7l15.7-1c2.5,0.1,4.5,2.3,4.3,4.8l0,0c-0.1,2.5-2.3,4.5-4.8,4.3l-15.3-1.5
					C845.5,261.2,845.7,254.6,848.2,254.7z"/>
			</g>
		</g>
		<g>
			<g>
				<path class="st14" d="M925.6,250.2l1.3-1.2c0,0-0.1-2.2,0.6-3.6c0.6-1.4,1.2-2.9,2-2.2c0.9,0.7,0.2,2.2,0.2,2.2s2.6-1.3,3.4-2.9
					c0.8-1.6,1.6-4.3,3.3-2.1s2,4.4-0.3,6.9c-2.3,2.6-4.9,4.8-6.4,4.8l-1.9,1.2L925.6,250.2z"/>
				<path class="st66" d="M888.6,356.5c0,0-4.4-37.3-1.8-43.9c2.5-6.6,15.4-6,15.3-2.1l-0.7,46C901.3,360.4,888.5,360.4,888.6,356.5
					z"/>
				<g>
					<path class="st14" d="M892.3,251.4c0,0-0.9-6-4-10.6c-3.1-4.7-3.6-14.7,5-17.6c8.6-2.9,14.1,1.7,14.8,4.1
						c0.8,2.4,0.6,9.1,1,12.3s1.1,14.3-6.3,11.4l-1,8.5L892.3,251.4z"/>
					<path class="st72" d="M898,248.6l-6.4-0.5c0,0-5.2-7.6-7.5-9.6c0,0-4.1-13.8,8.3-17.9c12.4-4.1,22.3,4.9,16.2,9.3
						c0,0-2.8,7.5-2.8,9.5h-0.7c-0.2-2.7-2.2-6.7-3.6-1.8c-0.1,0.5,0.9,2.9,0.7,3.4C900.5,247.3,898,248.6,898,248.6z"/>
				</g>
				<path d="M887.9,394c0,0-0.5,6.7,0,8.8c0,0,4.1,1.5,7.8,0.6v-2c0,0,6.3,2.8,13.5,2.3c0,0,3.9-0.4,4.6-3.2
					c0.7-2.8-3.1-2.9-6.3-3.6s-7.2-2.9-7.8-4.6L887.9,394z"/>
				<path class="st66" d="M900.4,403.3c0,0-0.5,6.7,0,8.8c0,0,4.1,1.5,7.8,0.6v-2c0,0,6.3,2.8,13.5,2.3c0,0,3.9-0.4,4.6-3.2
					c0.7-2.8-3.1-2.9-6.3-3.7c-3.2-0.7-7.2-2.9-7.8-4.6L900.4,403.3z"/>
				<path class="st66" d="M899.8,392.9c0,3.8-12.1,3.8-12.1,0c0,0-5.5-26.6,0.9-36.4c3.7-5.8,13.6-7.2,12.8-0.7
					C900.5,362.3,899.8,392.9,899.8,392.9z"/>
				<g>
					<path class="st73" d="M921.9,251.4l4.2-2.8c0,0,2.6,0.2,3.6,4.2l-4.4,3.5C925.4,256.3,926.1,252.4,921.9,251.4z"/>
					<g>
						<path class="st74" d="M916.8,262.6c-0.6,2.4-3.1,4.1-5.6,3.7l-21-0.9c-2.5-0.4-4.4-4.9-3.8-7.4l0,0c0.6-2.4,3.1-4.1,5.6-3.7
							l21.4,3.2C915.9,257.9,917.4,260.1,916.8,262.6L916.8,262.6z"/>
						<path class="st74" d="M926.2,256l-11.4,9.5c-2.1,1.4-4.4-0.1-5.7-2l0,0c-1.2-1.9-0.6-4.5,1.5-5.9l12-7
							C924.6,249.3,928.2,254.6,926.2,256z"/>
					</g>
				</g>
				<path class="st75" d="M913.9,402.2c0,3.8-14.1,3.7-14.1-0.1c0,0-6.3-34.3,0-41.9c4.9-5.9,15.3-2.5,15-1.3
					C910.9,373.6,913.9,402.2,913.9,402.2z"/>
				<path class="st75" d="M914.8,310.3c0-0.4-0.3-0.7-0.8-1v-0.2l-28.4-3.2c0,0-3.6,12.7,5.7,18.4l0.9,0.6c0.9,9.5,7.5,36,7.5,36
					c-0.9,3.7,14.9,1.8,15-2L914.8,310.3L914.8,310.3z"/>
				<path class="st73" d="M890.5,253c0,0,0.9-1.8,1.5-2.8c0,0,13.1,2.4,14,12.5L890.5,253z"/>
				<path class="st76" d="M890.5,253c0,0-11,8-7.7,24.3c3.4,16.3,2.1,29.7,2.1,29.7s13.3,15,23.4,11.1c0,0,6.3,0.3,7.4-5l-4.4-36.3
					C911.3,276.8,911,258,890.5,253z"/>
				<path class="st14" d="M939.7,292.5l1.9,0.2c0,0,3.3-1.6,6.4-1.3c0.2,0,0.1,1,0.1,1.6c0,0,1.8,2.9,4.1,0.7c0.8-0.7,2.9-1.7,1.8,1
					c-0.6,1.6-3.4,4.5-5.2,4.6c-4.2,0.2-6.8-0.2-8-1.8l-2.6-0.8L939.7,292.5z"/>
				<g>
					<path class="st73" d="M936.2,290.3l4.9,1.2c0,0,2.1,3.8-1,7l-5.1-1.3C934.9,297.2,938.3,294,936.2,290.3z"/>
					<g>
						<path class="st77" d="M921.8,294.3c-2.6,1.6-6,0.7-7.6-1.9l-16.1-19.3c-1.6-2.6,0-8.1,4.4-11l0,0c2.6-1.6,6-0.7,7.6,1.9
							l13.6,22.7C925.2,289.3,924.4,292.7,921.8,294.3L921.8,294.3z"/>
						<path class="st77" d="M935.2,297.9l-16.9-2.8c-2.8-0.7-4.5-3.6-3.8-6.4l0,0c0.7-2.8,3.6-4.5,6.4-3.8l15.8,5
							C939.4,290.6,938,298.6,935.2,297.9z"/>
					</g>
				</g>
				<path class="st72" d="M909,247.4c0,0-1.7,1-2.4-1.2s-0.6-4-0.6-4h-1c0,0-0.1,8.3-1.7,9C903.3,251.2,908,253.6,909,247.4z"/>
			</g>
			<g>
				<path class="st66" d="M972.6,374.2c0,0-4.2,6.2-7.8,7.6s-4.4,5.3,1.3,4.8c5.6-0.5,8.1-0.8,11.5-4.3v1.1l4.9-2.3l-0.3-7l-5.4-3.7
					L972.6,374.2z"/>
				<path class="st78" d="M983.6,337.9l13.4-38.4c0-2.8-24-4.9-24-2.1l-2.5,40.6C970.5,340.8,983.6,340.7,983.6,337.9z"/>
				<path class="st78" d="M971.1,373.3c0,2.8,12.6,2.7,12.6-0.1c0,0,5.2-21.4-0.1-35.3c-2.3-6.1-14-3-13.1,0.1
					C973.7,349.1,971.1,373.3,971.1,373.3z"/>
				<path class="st47" d="M996.7,384c0,0-3.1,5.4-6.7,6.8c-3.6,1.4-4.4,5.3,1.3,4.8c5.6-0.5,7.8-1.3,11.2-4.8v1.1l4.9-2.3l-0.3-7
					l-6.1-2.7L996.7,384z"/>
				<g>
					<path class="st14" d="M953.1,287.3l-1.8,0.9c0,0-3.2,1.2-4.3,2.2c-1,1.1-2.3,3.1-2.6,5.4s1,3.4,1.3,3.5c0.2,0.1,2,1,3.3-0.3
						s0.5-2.7,1.6-3.8c1.1-1.1,3-1.5,3.7-3.4l1.3-1.2L953.1,287.3z"/>
					<g>
						<path class="st79" d="M967.6,276.3c0.6,0.9,0.6,2.5,3.1,3.1l0,0c2.5,0.6,5-0.9,5.7-3.4l7.6-20.4c0.6-2.5,5.4-7.4,0.3-8.7
							l-0.8-0.8c-2.5-0.6-5-1.5-11.8,15.7L967.6,276.3z"/>
						<g>
							<path class="st68" d="M955.9,284.5l-4.3,2.9c0,0,0.3,3.9,3.1,4.5l4.2-2.7C958.9,289.2,956,287,955.9,284.5z"/>
							<path class="st79" d="M959.1,289.7l13.8-7.5c2.1-1.5,2.6-4.3,1.1-6.4l0,0c-1.5-2.1-4.3-2.6-6.4-1.1l-12.1,9.5
								C953.4,285.7,957,291.2,959.1,289.7z"/>
						</g>
					</g>
				</g>
				<path class="st80" d="M1002.3,343.7l2-44.7c-0.4-2.8-24.8-1.2-24.4,1.6l8.9,42C989.2,345.4,1002.7,346.5,1002.3,343.7z"/>
				<path class="st80" d="M994.8,384.1c0.6,2.8,12.8,2.7,12.2-1.5c-1.6-7.7,2.2-28.3-4.7-38.9c-6.2-9.5-15-8.2-13.8-2.3
					C994.9,357.1,994.8,384.1,994.8,384.1z"/>
				<path class="st81" d="M1006.3,306.1c0,0-2.4-12.5-1.5-27.9c0.5-9.7,3.2-23.2,3.5-27.4c0,0-7.4-2.5-14.9-8.1
					c-4.4-3.3-15.3,3.3-17.6,12.6c-2.3,9.3-1.8,38.2-5.3,48.7C970.5,303.9,982.7,306.1,1006.3,306.1z"/>
				<path class="st14" d="M994.9,246.1l1.9-8.8l-2.6-4l-6.9,4.4l-2.7,11.5l1.6,7.3C986.3,256.6,992.8,252.9,994.9,246.1z"/>
				<g>
					<path class="st68" d="M995.3,244.1c0,0-3.5,8.6-8.8,9.2c0,0-1.5-5.9,0.8-10.6l-1.1,0.6c0,0-8.4,13.1-5.3,27.1
						c0,0,15.6-18.8,16-25.3L995.3,244.1z"/>
					<polygon class="st82" points="986.6,253.8 987.4,257.1 985.7,258.4 984.6,266.1 980.7,271 979.9,265.1 984.2,257.8 984,255.6 
											"/>
					<path class="st79" d="M1000.3,247.3c0,0-7.7,18.1-20.1,27.6c0,0-5.4-17,1.1-27c0,0,2.3-3.4,5-4.5c0,0-8.2,13.6-5.3,27.1
						c0,0,14.6-17.7,16-25.5C997,244.9,999.7,246.4,1000.3,247.3z"/>
				</g>
				<path class="st14" d="M977,223.8c0,0-0.3,6.1,0,9.5s-0.4,15.3,7.1,13.8c0,0,6.1-1.2,7.1-8.2l5.1-2.9c0,0,3.5-12.3-2.6-15.6
					C987.7,217.1,981.7,216.2,977,223.8z"/>
				<path class="st83" d="M991.2,238.9c0,0,5.6-3.8,2.4-7.6c0,0-2.2-1.1-3.6,2.3l-0.2,1l-0.8-0.1c0,0,0-3.9-1.1-5.6
					c-1.1-1.7-8.1-0.3-11.1-4s3.8-11.7,12.4-10.3c5.6,1,12.6,4.1,10.8,14.4c0,0.1-3.7,10.4-3.7,10.4L991.2,238.9z"/>
				<path class="st84" d="M1005.8,282c0.5,2.8,3.1,4.7,5.9,4.2l0.4-0.1c2.8-0.5,3.8-2.9,3.3-5.7l-3.8-20.5c1.3-4.7-1.1-10.5-6.3-9.1
					l-0.4,0.1c-2.8,0.5-6.9,7-6.2,10.9L1005.8,282z"/>
				<g>
					<g>
						<polygon class="st56" points="1015.7,308.1 1015.7,329.8 987.5,346.1 987.5,324.4 						"/>
						<polygon class="st57" points="1015.7,308.1 1008.7,304 980.5,320.3 987.5,324.4 						"/>
						<polygon class="st58" points="980.5,320.3 980.5,341.9 987.5,346.1 987.5,324.4 						"/>
						<polygon class="st85" points="1015.7,308.1 1015.7,319 987.5,335.2 987.5,324.4 						"/>
						<polygon class="st59" points="1011.6,319.2 1011.6,323.5 1009.4,324.8 1009.4,320.5 						"/>
						<polygon class="st59" points="993.9,329.4 993.9,333.6 991.7,334.9 991.7,330.7 						"/>
						<g>
							<polygon class="st59" points="1005.3,312 1001.6,309.8 999.8,310.9 1003.5,313 							"/>
							<polygon class="st59" points="995.9,317.4 992.3,315.3 990.4,316.3 994.1,318.5 							"/>
							<g>
								<path class="st58" d="M991.9,316.9l1.3,0.8l1.3-0.8v-3.1c0-1.6,1.2-3.7,2.6-4.5l2.9-1.7c0.5-0.3,0.8-0.3,1-0.2
									c0.1,0.1,0.3,0.4,0.3,1v3.1l1.3,0.8l1.3-0.8v-3.1c0-1.5-0.6-2.6-1.6-3.2s-2.3-0.5-3.6,0.2l-2.9,1.7
									c-2.2,1.3-3.9,4.2-3.9,6.7L991.9,316.9L991.9,316.9z"/>
							</g>
						</g>
					</g>
					<g>
						<path class="st14" d="M1001.7,301.5l-0.9,1.8c0,0-2.8,0.2-4.9,1.8c-2.1,1.6-3.1,1-2.1,2.3c0,0,1,1,3.2-0.3c0,0-0.6,1.1-1.9,3
							c0,0-0.8,1.5,1.7,1.2c2.5-0.2,5.5,1.6,6.8-1.5c1.3-3,1.1-2.3,1.1-4.9l0.2-2.4L1001.7,301.5z"/>
						<g>
							<path class="st68" d="M1007.6,300.8l-1.2,3.9c0,0-5.1,1.4-6.7-3l1.8-4.3C1001.4,297.5,1004.7,301.6,1007.6,300.8z"/>
							<path class="st84" d="M1000.9,297.6l4.9-17.5c0.9-2.4,3.6-3.7,6-2.8l0,0c2.4,0.9,5,5.3,2.5,8.9l-6.3,15.1
								C1007.1,303.7,1000,300,1000.9,297.6z"/>
						</g>
					</g>
				</g>
			</g>
		</g>
	</g>
</g>
</svg>
