<?xml version="1.0" encoding="utf-8"?>
<!-- Generator: Adobe Illustrator 23.0.5, SVG Export Plug-In . SVG Version: 6.00 Build 0)  -->
<svg version="1.1" id="Capa_1" xmlns="http://www.w3.org/2000/svg" xmlns:xlink="http://www.w3.org/1999/xlink" x="0px" y="0px"
	 viewBox="0 0 512 512" style="enable-background:new 0 0 512 512;" xml:space="preserve">
<style type="text/css">
	.st0{fill:#4675E4;}
</style>
<g>
	<g>
		<path class="st0" d="M236.07,356.91c-1.86-1.87-4.44-2.93-7.07-2.93s-5.21,1.06-7.07,2.93c-1.86,1.86-2.93,4.43-2.93,7.07
			c0,2.63,1.07,5.21,2.93,7.07c1.86,1.86,4.44,2.93,7.07,2.93s5.21-1.07,7.07-2.93c1.86-1.86,2.93-4.44,2.93-7.07
			S237.93,358.77,236.07,356.91z"/>
	</g>
</g>
<g>
	<g>
		<path class="st0" d="M448,268.01c-5.52,0-10,4.48-10,10v43.98H266v-24.68c0-38.03-28.59-69.48-65.4-74.04
			c7.27-8.98,11.65-20.4,11.65-32.83v-70.35c0-5.52-4.48-10-10-10h-52.32c-23.25,0-42.16,18.91-42.16,42.16v38.19
			c0,12.43,4.37,23.85,11.65,32.83C82.59,227.83,54,259.28,54,297.31v24.68H20V81.74c0-4.28,3.5-7.75,7.81-7.75h207.86
			c5.52,0,10-4.48,10-10s-4.48-10-10-10H27.81C12.47,53.99,0,66.44,0,81.74v296.49c0,15.3,12.47,27.75,27.81,27.75h152.17v46.19
			C154.75,454.74,135,476.1,135,501.99c0,5.52,4.48,10,10,10h168c5.52,0,10-4.48,10-10c0-25.89-19.75-47.25-44.98-49.81v-46.19
			H430.2c15.33,0,27.8-12.45,27.8-27.75V278.01C458,272.49,453.52,268.01,448,268.01z M127.76,152.24
			c0-12.22,9.94-22.16,22.16-22.16h42.32v15.97c0,7.93-6.45,14.38-14.39,14.38h-50.09V152.24z M127.76,180.44h50.1
			c5.13,0,10.01-1.14,14.39-3.17v13.16h0c0,17.78-14.46,32.24-32.24,32.24s-32.24-14.46-32.24-32.24
			C127.76,190.44,127.76,180.44,127.76,180.44z M171.67,242.68L160,254.35l-11.67-11.67L171.67,242.68L171.67,242.68z M74,297.31
			c0-27.41,20.29-50.16,46.64-54.04l32.29,32.29c1.95,1.95,4.51,2.93,7.07,2.93s5.12-0.98,7.07-2.93l32.29-32.29
			c26.35,3.88,46.64,26.63,46.64,54.04v24.68H74V297.31z M301.29,491.99H156.71c4.13-11.68,15.28-20.06,28.35-20.06h4.92h78.04h4.92
			C286.01,471.93,297.16,480.31,301.29,491.99z M199.98,451.93v-45.94h58.04v45.94H199.98z M438,378.24c0,4.27-3.5,7.75-7.8,7.75
			H27.81c-4.3,0-7.81-3.48-7.81-7.75v-36.25h418V378.24z"/>
	</g>
</g>
<g>
	<g>
		<path class="st0" d="M455.07,233.27c-1.86-1.86-4.44-2.93-7.07-2.93s-5.21,1.07-7.07,2.93c-1.86,1.87-2.93,4.44-2.93,7.07
			c0,2.64,1.07,5.21,2.93,7.07c1.86,1.87,4.44,2.93,7.07,2.93s5.21-1.06,7.07-2.93c1.86-1.86,2.93-4.43,2.93-7.07
			C458,237.71,456.93,235.13,455.07,233.27z"/>
	</g>
</g>
<g>
	<g>
		<path class="st0" d="M448,47.01h-75c-5.52,0-10,4.48-10,10s4.48,10,10,10h75c5.52,0,10-4.48,10-10S453.52,47.01,448,47.01z"/>
	</g>
</g>
<g>
	<g>
		<path class="st0" d="M339.07,49.94c-1.86-1.86-4.44-2.93-7.07-2.93s-5.21,1.07-7.07,2.93c-1.86,1.86-2.93,4.44-2.93,7.07
			s1.07,5.21,2.93,7.07c1.86,1.86,4.44,2.93,7.07,2.93s5.21-1.07,7.07-2.93c1.86-1.86,2.93-4.44,2.93-7.07S340.93,51.8,339.07,49.94
			z"/>
	</g>
</g>
<g>
	<g>
		<path class="st0" d="M448,91.01H332c-5.52,0-10,4.48-10,10s4.48,10,10,10h116c5.52,0,10-4.48,10-10S453.52,91.01,448,91.01z"/>
	</g>
</g>
<g>
	<g>
		<path class="st0" d="M448,135.01H332c-5.52,0-10,4.48-10,10s4.48,10,10,10h116c5.52,0,10-4.48,10-10S453.52,135.01,448,135.01z"/>
	</g>
</g>
<g>
	<g>
		<path class="st0" d="M462,0.01H318c-27.57,0-50,22.43-50,50v107c0,25.65,19.42,46.86,44.33,49.68v25.99
			c0,4.04,2.44,7.69,6.17,9.24c1.24,0.51,2.54,0.76,3.83,0.76c2.6,0,5.16-1.02,7.07-2.93l32.74-32.74H462c27.57,0,50-22.43,50-50
			v-107C512,22.44,489.57,0.01,462,0.01z M492,157.01c0,16.54-13.46,30-30,30H358c-2.65,0-5.2,1.05-7.07,2.93l-18.6,18.6v-11.53
			c0-5.52-4.48-10-10-10H318c-16.54,0-30-13.46-30-30v-107c0-16.54,13.46-30,30-30h144c16.54,0,30,13.46,30,30V157.01z"/>
	</g>
</g>
</svg>
