<?xml version="1.0" encoding="utf-8"?>
<!-- Generator: Adobe Illustrator 21.0.0, SVG Export Plug-In . SVG Version: 6.00 Build 0)  -->
<svg version="1.1" id="Layer_1" xmlns="http://www.w3.org/2000/svg" xmlns:xlink="http://www.w3.org/1999/xlink" x="0px" y="0px"
	 viewBox="0 0 50 50" style="enable-background:new 0 0 50 50;" xml:space="preserve">
<style type="text/css">
	.st0{fill:#5071E6;}
</style>
<path class="st0" d="M43.3,17.5l-9.5-3.7c1.7-4.9-0.8-10.2-5.7-12s-10.2,0.8-12,5.7c-0.7,2-0.7,4.2,0,6.2l-9.5,3.7
	C6.3,17.6,6,18,6,18.4v22.1c0,0.4,0.3,0.8,0.7,1l18,7c0.1,0,0.2,0.1,0.4,0.1c0.1,0,0.2,0,0.4-0.1l0,0l18-7c0.4-0.2,0.7-0.5,0.7-1
	V18.4C44,18,43.7,17.6,43.3,17.5L43.3,17.5z M40.1,18.4l-3.3,1.3l-5.5-2.1c0.6-0.6,1.2-1.2,1.6-2L40.1,18.4z M29.3,19l4.7,1.8
	l-2.6,1L26.5,20C27.5,19.8,28.4,19.5,29.3,19z M32.5,23.6l3.4-1.3v4.3l-0.6-0.4c-0.4-0.3-1-0.2-1.3,0.2L32.5,28V23.6z M25,3.4
	c4,0,7.3,3.3,7.3,7.3S29,18,25,18s-7.3-3.3-7.3-7.3l0,0C17.7,6.7,21,3.4,25,3.4z M17.6,16.5L16.3,16l0.8-0.3
	C17.2,15.9,17.4,16.2,17.6,16.5L17.6,16.5z M13.4,17l15.1,5.9L25,24.3L9.9,18.4L13.4,17z M8,39.8V19.9L24,26.1V46L8,39.8z M26,46
	V26.1l4.4-1.7v6.2c0,0.4,0.3,0.8,0.6,1c0.1,0,0.2,0.1,0.4,0.1c0.3,0,0.6-0.1,0.7-0.3l2.7-2.9l1.4,0.9c0.5,0.3,1.1,0.2,1.4-0.3
	c0.1-0.2,0.2-0.4,0.2-0.6v-6.9l4-1.5v19.9L26,46z"/>
<path class="st0" d="M25,6.6c-0.4,0-0.7,0.3-0.7,0.7v2.2H22c-0.4,0-0.7,0.3-0.7,0.7S21.7,11,22,11h2.2v2.2c0,0.4,0.3,0.7,0.7,0.7
	c0.4,0,0.7-0.3,0.7-0.7V11H28c0.4,0,0.7-0.3,0.7-0.7S28.3,9.6,28,9.6h-2.2V7.3C25.7,6.9,25.4,6.6,25,6.6z"/>
</svg>
