<?xml version="1.0" encoding="utf-8"?>
<!-- Generator: Adobe Illustrator 23.0.1, SVG Export Plug-In . SVG Version: 6.00 Build 0)  -->
<svg version="1.1" id="Layer_1" xmlns="http://www.w3.org/2000/svg" xmlns:xlink="http://www.w3.org/1999/xlink" x="0px" y="0px"
	 viewBox="0 0 1401 371.1" style="enable-background:new 0 0 1401 371.1;" xml:space="preserve">
<style type="text/css">
	.st0{fill:#F6F6F6;}
	.st1{fill:none;}
	.st2{fill:#4A73E5;}
	.st3{fill:url(#SVGID_1_);}
	.st4{fill:#DADCE1;}
	.st5{opacity:0.1;}
	.st6{fill:#0E0E0F;}
	.st7{fill:#3A3837;}
	.st8{fill:#DB6831;}
	.st9{fill:#C0512B;}
	.st10{fill:#F27E55;}
	.st11{fill:#B33726;}
	.st12{fill:#E9DAD8;}
	.st13{fill:#F3B37D;}
	.st14{fill:#D54829;}
	.st15{fill:#161112;}
	.st16{fill:#191818;}
	.st17{fill:#2D2D2D;}
	.st18{fill:#BF3928;}
	.st19{fill:#E2A073;}
	.st20{fill:#B8A030;}
	.st21{fill:#86762E;}
	.st22{fill:#921C1F;}
	.st23{fill:#E8A675;}
	.st24{fill:#7D1C1E;}
	.st25{fill:#343433;}
	.st26{fill:#AF2326;}
	.st27{fill:#D99E74;}
	.st28{fill:#FFFFFF;}
	.st29{fill:#A52425;}
	.st30{fill:#775221;}
	.st31{fill:#9E6C32;}
	.st32{fill:#CB454A;}
	.st33{fill:#686768;}
	.st34{opacity:0.3;fill:#50A19B;enable-background:new    ;}
	.st35{fill:#A9AAAA;}
	.st36{fill:#636666;}
	.st37{fill:#979372;}
	.st38{fill:#DDEAF7;}
	.st39{fill:#403D34;}
	.st40{fill:#7C7752;}
	.st41{fill:#B99C65;}
	.st42{fill:#ECDAB3;}
	.st43{fill:#EEEBE2;}
	.st44{fill:#C9C3B7;}
	.st45{fill:#9D6931;}
	.st46{fill:#21201F;}
	.st47{fill:#0D0D0D;}
	.st48{fill:#02353A;}
	.st49{fill:#064049;}
	.st50{fill:#585958;}
	.st51{fill:#EFE8EA;}
	.st52{fill:#053F49;}
	.st53{fill:#E6F5FB;}
	.st54{fill:#104D5E;}
	.st55{fill:#805321;}
	.st56{fill:#996026;}
	.st57{fill:#432816;}
	.st58{fill:#C1AA30;}
	.st59{opacity:0.1;fill:#0E0E0F;enable-background:new    ;}
	.st60{fill:#515352;}
	.st61{fill:#C6C6C6;}
	.st62{fill:#F9C41A;}
	.st63{fill:#BFBEBE;}
	.st64{fill:#31312F;}
	.st65{fill:#8B8B8B;}
	.st66{fill:#34AFA0;}
	.st67{fill:#9F2323;}
	.st68{fill:#4272A4;}
</style>
<polygon class="st0" points="1401,33.1 0,33.1 0,295.1 1029.8,371.1 1401,241.1 "/>
<polygon class="st1" points="1.1,0 1401,-53 1401,371.1 1.1,371.1 "/>
<polygon class="st2" points="0,40.1 1401,40.1 1401,235.1 1027,359.1 0,285.1 "/>
<polygon class="st1" points="1.1,0 1401,-53 1401,371.1 1.1,371.1 "/>
<linearGradient id="SVGID_1_" gradientUnits="userSpaceOnUse" x1="0" y1="239.5844" x2="1401" y2="239.5844" gradientTransform="matrix(1 0 0 1 0 -66.9844)">
	<stop  offset="0" style="stop-color:#4C73E6"/>
	<stop  offset="0.986" style="stop-color:#8A54E8"/>
</linearGradient>
<polygon class="st3" points="0,0.1 1401,0.1 1401,220.1 1024.7,345.1 0,275.1 "/>
<g id="People_1_">
	<g>
		<g id="gear-5-icon_2_">
			<path class="st4" d="M1191.2,139.4l-7.1-0.5l-1.6-5.7c-1.1-0.4-2.1-0.9-3.1-1.5l-5.6,2.1l-4.7-5.4l2.9-5.2
				c-0.5-1.1-0.8-2.1-1.1-3.4l-5.5-2.4l0.5-7.1l5.7-1.6c0.4-1.1,0.9-2.1,1.5-3.1l-2.1-5.6l5.4-4.7l5.2,2.9c1.1-0.5,2.2-0.8,3.4-1.1
				l2.4-5.5l7.1,0.5l1.6,5.7c1.1,0.4,2.1,0.9,3.1,1.5l5.6-2.1l4.7,5.4l-2.9,5.2c0.5,1.1,0.8,2.1,1.1,3.4l5.5,2.4l-0.5,7.1l-5.7,1.6
				c-0.4,1.1-0.9,2.1-1.5,3.1l2.1,5.6l-5.4,4.7l-5.2-2.9c-1.1,0.5-2.1,0.8-3.4,1.1L1191.2,139.4z M1185.2,137.6l5.2,0.4l2.2-5.2
				l0.3-0.1c1.3-0.3,2.5-0.7,3.7-1.2l0.3-0.1l5,2.8l4-3.5l-2-5.3l0.2-0.3c0.7-1.1,1.3-2.2,1.7-3.5l0.1-0.3l5.5-1.5l0.4-5.2l-5.2-2.2
				l-0.1-0.3c-0.3-1.3-0.7-2.5-1.2-3.7l-0.1-0.3l2.8-5l-3.5-4l-5.3,2l-0.3-0.2c-1.1-0.7-2.2-1.3-3.5-1.7l-0.3-0.1l-1.5-5.5l-5.2-0.4
				l-2.3,5.2l-0.3,0.1c-1.2,0.3-2.5,0.7-3.7,1.2l-0.3,0.1l-5-2.8l-4,3.5l2,5.3l-0.2,0.3c-0.7,1.1-1.3,2.2-1.7,3.5l-0.1,0.3l-5.5,1.5
				l-0.4,5.2l5.2,2.3l0.1,0.3c0.3,1.2,0.7,2.5,1.2,3.7l0.1,0.3l-2.8,5l3.5,4l5.3-2l0.3,0.2c1.1,0.7,2.2,1.3,3.5,1.7l0.3,0.1
				L1185.2,137.6z M1189.4,125.8c-0.2,0-0.5,0-0.7,0c-2.7-0.2-5.2-1.4-6.9-3.5c-1.7-2-2.6-4.7-2.4-7.4s1.4-5.2,3.5-6.9
				c2-1.7,4.7-2.6,7.4-2.4c5.6,0.4,9.9,5.3,9.4,10.9c-0.2,2.7-1.4,5.2-3.5,6.9C1194.2,125,1191.8,125.8,1189.4,125.8z M1189.3,106.8
				c-2.1,0-4.2,0.7-5.8,2.1c-1.8,1.5-2.8,3.7-3,6l0,0c-0.2,2.3,0.6,4.7,2.1,6.4c1.5,1.8,3.7,2.8,6,3s4.7-0.6,6.4-2.1
				c1.8-1.5,2.8-3.7,3-6c0.3-4.9-3.4-9-8.1-9.4C1189.8,106.8,1189.5,106.8,1189.3,106.8z"/>
		</g>
		<g id="gear-5-icon_1_">
			<path class="st4" d="M1154.6,115l-3.9-2.7l1.6-4.1c-0.4-0.7-0.7-1.3-1-2.1l-4.2-1.1l-0.4-5.4l4-1.7c0.2-0.7,0.4-1.5,0.7-2.2
				l-2.1-3.8l3.6-4.1l4,1.5c0.7-0.4,1.4-0.7,2.1-1l1.1-4.2l5.4-0.4l1.7,4c0.7,0.2,1.5,0.4,2.2,0.7l3.8-2.1l4.1,3.6l-1.7,4.3
				l-1.2-0.5l1.3-3.5l-2.6-2.2l-3.6,1.9l-0.3-0.1c-0.8-0.4-1.7-0.7-2.6-0.9l-0.3-0.1l-1.6-3.7l-3.5,0.2l-1.1,3.9l-0.3,0.1
				c-0.8,0.3-1.7,0.7-2.4,1.2l-0.3,0.2l-3.8-1.5l-2.2,2.6l1.9,3.6l-0.1,0.3c-0.4,0.8-0.7,1.7-0.9,2.6l-0.1,0.3l-3.7,1.6l0.2,3.5
				l3.9,1.1l0.1,0.3c0.3,0.8,0.7,1.7,1.2,2.4l0.2,0.3l-1.4,3.7l2.2,1.6l4-2.3l0.7,1.1L1154.6,115z M1163.1,108c-1.6,0-3-0.6-4.3-1.6
				c-1.3-1.1-2.1-2.7-2.2-4.5s0.4-3.5,1.6-4.8c1.1-1.3,2.7-2.1,4.5-2.2c3.6-0.2,6.7,2.4,7,6.1c0.1,1.7-0.4,3.5-1.6,4.8
				c-1.1,1.3-2.7,2.1-4.5,2.2C1163.4,108,1163.2,108,1163.1,108z M1163.1,96.2c-0.1,0-0.2,0-0.4,0c-1.4,0.1-2.6,0.7-3.6,1.7
				c-0.9,1-1.3,2.4-1.2,3.8l0,0c0.1,1.4,0.7,2.6,1.7,3.6c1,0.9,2.4,1.3,3.8,1.3c1.4-0.1,2.6-0.7,3.6-1.7c0.9-1,1.3-2.4,1.2-3.8
				C1168.1,98.4,1165.8,96.2,1163.1,96.2z"/>
		</g>
	</g>
	<g>
		<g>
			
				<rect x="994.4" y="67.5" transform="matrix(0.1417 -0.9899 0.9899 0.1417 784.9742 1045.022)" class="st4" width="1.4" height="4.6"/>
		</g>
		<g>
			
				<rect x="998" y="65.1" transform="matrix(0.1416 -0.9899 0.9899 0.1416 793.4677 1046.5741)" class="st4" width="4.5" height="1.4"/>
		</g>
		<g>
			
				<rect x="1003.6" y="69" transform="matrix(0.1417 -0.9899 0.9899 0.1417 791.558 1055.2861)" class="st4" width="1.4" height="4.3"/>
		</g>
		<g>
			
				<rect x="996.4" y="74.6" transform="matrix(0.1417 -0.9899 0.9899 0.1417 782.7083 1053.2377)" class="st4" width="4.7" height="1.4"/>
		</g>
	</g>
	<g>
		<path class="st4" d="M1018.8,48.8l-8.6-1.2l1.2-8.3l8.6,1.2L1018.8,48.8z M1011.9,46.3l5.7,0.8l0.8-5.5l-5.7-0.8L1011.9,46.3z"/>
	</g>
	<g>
		<g>
			
				<rect x="928.9" y="61.2" transform="matrix(0.1417 -0.9899 0.9899 0.1417 736.2038 973.7007)" class="st4" width="1.4" height="2.3"/>
		</g>
		<g>
			
				<rect x="931.1" y="59.4" transform="matrix(0.1416 -0.9899 0.9899 0.1416 740.7589 974.469)" class="st4" width="2.3" height="1.4"/>
		</g>
		<g>
			
				<rect x="933.8" y="61.9" transform="matrix(0.1417 -0.9899 0.9899 0.1417 739.6561 979.1661)" class="st4" width="1.4" height="2.2"/>
		</g>
		<g>
			
				<rect x="930.4" y="64.4" transform="matrix(0.1416 -0.9899 0.9899 0.1416 735.2497 978.0475)" class="st4" width="2.4" height="1.4"/>
		</g>
	</g>
	<g>
		<polygon class="st4" points="949.7,38.6 945.4,34.3 941,38.6 940,37.6 945.4,32.2 950.7,37.6 		"/>
	</g>
	<g>
		<path class="st4" d="M839.8,102.7c-1.2,0-1.8-0.4-2.3-0.8c-0.5-0.3-0.9-0.6-1.8-0.6s-1.3,0.3-1.8,0.6c-0.5,0.4-1.2,0.8-2.3,0.8
			c-1.2,0-1.8-0.4-2.3-0.8c-0.5-0.3-0.9-0.6-1.8-0.6s-1.3,0.3-1.8,0.6c-0.5,0.4-1.2,0.8-2.3,0.8H823V48.3h0.9v53.5
			c0.6-0.1,1-0.3,1.4-0.6c0.5-0.4,1.2-0.8,2.3-0.8c1.2,0,1.8,0.4,2.3,0.8c0.5,0.3,0.9,0.6,1.8,0.6s1.3-0.3,1.8-0.6
			c0.5-0.4,1.2-0.8,2.3-0.8c1.2,0,1.8,0.4,2.3,0.8c0.5,0.3,0.9,0.6,1.8,0.6c0.9,0,1.3-0.3,1.8-0.6c0.5-0.4,1.2-0.8,2.3-0.8v0.9
			c-0.9,0-1.3,0.3-1.8,0.6C841.6,102.3,841,102.7,839.8,102.7z"/>
	</g>
	<g>
		<rect x="864.2" y="48.3" class="st4" width="0.9" height="36.9"/>
	</g>
	<g>
		<polygon class="st4" points="856.9,108.9 818.2,108.9 818.2,47.8 831.2,47.8 831.2,48.7 819.1,48.7 819.1,108.1 856.9,108.1 		"/>
	</g>
	<g>
		<polygon class="st4" points="869.3,106.4 868.4,106.4 868.4,48.7 856,48.7 856,47.8 869.3,47.8 		"/>
	</g>
	<g>
		<path class="st4" d="M853,51.7h-18.3v-4.8c0-2.6,2.1-4.8,4.8-4.8h8.8c2.6,0,4.8,2.1,4.8,4.8L853,51.7L853,51.7z M835.5,50.7H852
			v-3.9c0-2.1-1.7-3.9-3.9-3.9h-8.8c-2.1,0-3.9,1.7-3.9,3.9L835.5,50.7L835.5,50.7z"/>
	</g>
	<g>
		<polygon class="st4" points="830.9,66.4 827.9,63.3 828.5,62.7 830.9,65.2 836.1,60 836.7,60.6 		"/>
	</g>
	<g>
		<polygon class="st4" points="830.9,79.7 827.9,76.6 828.5,76 830.9,78.5 836.1,73.3 836.7,73.9 		"/>
	</g>
	<g>
		<rect x="840.7" y="62.9" class="st4" width="17.7" height="0.9"/>
	</g>
	<g>
		<rect x="840.7" y="76.4" class="st4" width="8.3" height="0.9"/>
	</g>
	<g>
		<path class="st4" d="M832.3,92.9c-1.8,0-3.3-1.4-3.3-3.3c0-1.8,1.4-3.3,3.3-3.3c1.8,0,3.3,1.4,3.3,3.3
			C835.6,91.4,834.1,92.9,832.3,92.9z M832.3,87.3c-1.3,0-2.3,1-2.3,2.3s1,2.3,2.3,2.3s2.3-1,2.3-2.3
			C834.7,88.3,833.6,87.3,832.3,87.3z"/>
	</g>
	<g>
		<g>
			<rect x="1177.1" y="24.9" class="st4" width="1.3" height="41.3"/>
		</g>
		<g>
			<g>
				<polygon class="st4" points="1174.2,30.9 1173.1,30.1 1177.8,23.7 1182.3,30.1 1181.2,30.9 1177.7,26.1 				"/>
			</g>
		</g>
	</g>
	<g>
		<g>
			<path class="st4" d="M838.9,164.6c-1.8,0-3.7-0.2-5.5-0.6c-6.4-1.4-11.8-5.3-15.2-10.9c-7.1-11.4-3.7-26.5,7.7-33.7
				c11.4-7.1,26.5-3.7,33.7,7.7c3.5,5.5,4.6,12.1,3.1,18.5c-1.4,6.4-5.3,11.8-10.9,15.2C848,163.4,843.5,164.6,838.9,164.6z
				 M838.8,117c-4.3,0-8.5,1.2-12.3,3.6c-10.9,6.8-14.1,21.1-7.3,32c3.3,5.3,8.4,8.9,14.4,10.3s12.3,0.3,17.5-2.9
				c10.9-6.8,14.1-21.1,7.3-32c-3.3-5.3-8.4-8.9-14.4-10.3C842.4,117.2,840.6,117,838.8,117z"/>
		</g>
		<g>
			<path class="st4" d="M836.4,153.2c-3.6-0.8-6.6-2.9-8.5-6c-2-3-2.6-6.6-1.9-10.1l1.2,0.3c-0.7,3-0.1,6.3,1.7,9s4.6,4.7,7.8,5.5
				L836.4,153.2z"/>
		</g>
		<g>
			<path class="st4" d="M835.2,158.7c-5-1.1-9.2-4.2-12.1-8.4c-2.8-4.4-3.8-9.4-2.6-14.4l1.2,0.3c-1,4.6-0.2,9.3,2.5,13.4
				c2.6,4.1,6.7,6.9,11.3,7.9L835.2,158.7z"/>
		</g>
		<g>
			<path class="st4" d="M840,159.4c-0.9,0-1.7-0.1-2.6-0.2l0.2-1.2c0.9,0.1,1.8,0.2,2.7,0.2v1.2C840.2,159.4,840.1,159.4,840,159.4z
				 M843.2,159.1l-0.2-1.2c0.9-0.2,1.7-0.4,2.6-0.7l0.4,1.2C845,158.7,844.1,158.9,843.2,159.1z M848.6,157.2l-0.6-1.1
				c0.8-0.4,1.5-0.9,2.2-1.5l0.8,1C850.3,156.2,849.5,156.7,848.6,157.2z M853.2,153.6l-0.9-0.8c0.6-0.7,1.1-1.4,1.6-2.1l1.1,0.7
				C854.4,152.1,853.8,152.8,853.2,153.6z M856.3,148.7l-1.1-0.5c0.3-0.8,0.6-1.7,0.8-2.5l1.2,0.3
				C857,146.8,856.7,147.8,856.3,148.7z"/>
		</g>
		<g>
			<path class="st4" d="M857.4,144.4l-1.2-0.3c1-4.6,0.1-9.3-2.5-13.4c-2.6-4-6.8-6.9-11.4-7.9l0.3-1.2c4.9,1.1,9.3,4.3,12.1,8.5
				C857.6,134.3,858.5,139.6,857.4,144.4z"/>
		</g>
		<g>
			<path class="st4" d="M822.1,134.4l-1.2-0.3c0.2-0.9,0.5-1.8,0.9-2.7l1.2,0.5C822.6,132.7,822.3,133.6,822.1,134.4z M824.1,129.6
				l-1.1-0.7c0.5-0.8,1.1-1.6,1.7-2.3l0.9,0.8C825.1,127.9,824.6,128.8,824.1,129.6z M827.7,125.5l-0.8-1c0.7-0.6,1.6-1.1,2.4-1.6
				l0.6,1.1C829.2,124.4,828.4,124.9,827.7,125.5z M832.4,122.9l-0.4-1.2c0.9-0.3,1.8-0.5,2.8-0.7l0.2,1.2
				C834.2,122.4,833.3,122.6,832.4,122.9z M840.4,122.4c-0.9-0.2-1.8-0.2-2.7-0.2v-1.2c0.9,0,1.9,0.1,2.8,0.3L840.4,122.4z"/>
		</g>
		<g>
			
				<rect x="847.6" y="162.3" transform="matrix(0.8475 -0.5309 0.5309 0.8475 41.9641 475.4034)" class="st4" width="1.2" height="4.7"/>
		</g>
		<g>
			
				<rect x="856.6" y="156.5" transform="matrix(0.8317 -0.5552 0.5552 0.8317 56.0591 502.6641)" class="st4" width="1.2" height="4.8"/>
		</g>
		<g>
			<path class="st4" d="M850.3,175.1l-3.9-6.2l15.2-9.5l3.9,6.2L850.3,175.1z M848.2,169.3l2.5,4.1l13.1-8.2l-2.5-4.1L848.2,169.3z"
				/>
		</g>
		<g>
			
				<rect x="856.9" y="170.8" transform="matrix(0.8539 -0.5204 0.5204 0.8539 31.8213 472.4885)" class="st4" width="1.2" height="17.6"/>
		</g>
		<g>
			
				<rect x="871.7" y="163.5" transform="matrix(0.8596 -0.5109 0.5109 0.8596 28.8728 471.3742)" class="st4" width="1.2" height="39.2"/>
		</g>
	</g>
	<g>
		<g>
			<g class="st5">
				<path class="st6" d="M1138.4,206.1l-67.5,39.5c1.7-3.3,0.8-6.7-3.1-8.9c-6.1-3.5-16.9-3-23.9,1.1l-18.3,10.5
					c-7.1,4.1-7.9,10.4-1.9,13.8c4.2,2.4,10.5,2.8,16.4,1.6l-8,4.7l37.4,21.3l107.5-60.7L1138.4,206.1z"/>
				<path class="st6" d="M1052.5,232.9l40.9-23.6c15.9-9.2,17.9-23.2,4.3-31.1c-13.6-7.8-37.8-6.7-53.7,2.4l-27.4,15.8
					c-0.3-0.1-0.6-0.2-0.9-0.2l54.2-30.7l-38.5-23L925,204.8l37.4,21.5l11.1-6.3c0.6,1.3,1.7,2.5,3.5,3.6c3.5,2,8.4,2.6,13.3,2.1
					c1.1,3.7,3.9,6.9,8.4,9.5C1012.2,243.2,1036.5,242.1,1052.5,232.9z"/>
			</g>
			<g>
				<polygon class="st7" points="933.5,177.4 923.9,205.2 925,206.1 938.9,182.2 				"/>
				<polygon class="st7" points="1063.4,141.1 1069.9,165.1 1068.6,165.9 1058,145.1 				"/>
				<polygon class="st7" points="959.6,198.4 961.1,226.7 963.1,226.7 966.5,198.4 				"/>
				<polygon class="st8" points="925,169.4 962.3,190.8 1069.9,128.3 1031.9,106.3 				"/>
				<polygon class="st9" points="925,169.4 919.7,129.6 925,132.6 930.4,172.4 				"/>
				<polygon class="st8" points="919.7,129.6 1027.4,66.9 1032.8,69.9 925,132.6 				"/>
				<polygon class="st10" points="1032.8,69.9 1038.1,109.9 930.4,172.4 925,132.6 				"/>
				<polygon class="st9" points="925,169.4 925,181.7 962.3,203.1 962.3,190.8 				"/>
				<polygon class="st11" points="962.3,203.1 1069.9,140.6 1069.9,128.3 962.3,190.8 				"/>
			</g>
			<g>
				<g>
					<path class="st12" d="M999,140.4c-0.2,2.3-2.2,4.2-4.6,4l0,0c-2.3-0.2-4.2-2.2-4-4.6l-0.8-20c0.2-2.9-1.2-6.6,6.9-6l0,0
						c2.3,0.2,4.2,2.2,4,4.6L999,140.4z"/>
					<g>
						<path class="st13" d="M1004.4,154.3l1.3,1.4c0,0,1.1,3.3,2.5,4.8c0,0,1.7,3.8,1.8,0.6c0,0,0-0.4-0.5-1.8c0,0,2.8,1.8,2.9,4.2
							c0.1,2.3,1.3,2.1,2,0.2s1.4-3.8-1.4-7.1c-2.9-3.4-3-3.3-4.4-3.8l-1.2-1.2L1004.4,154.3z"/>
						<path class="st14" d="M1006.1,148.8l3.1,3.6c0,0-1.1,3.5-3.8,3.4l-3.1-3.4C1002.3,152.2,1005.4,151.1,1006.1,148.8z"/>
						<path class="st12" d="M1002,152.7l-10.6-9.9c-1.5-1.8,5-7.2,6.4-5.4l8.6,11.2C1008.1,150.4,1003.5,154.6,1002,152.7z"/>
					</g>
				</g>
				<path class="st15" d="M1012.3,195.3c0,0,3.9,5.7,7.1,7c3.4,1.2,4,4.9-1.2,4.5c-5.2-0.5-7.4-0.7-10.6-4v1l-4.5-2.1l0.3-6.4
					l4.9-3.4L1012.3,195.3z"/>
				<g>
					<path class="st16" d="M1011.1,166.1c-1.3,2.2-3.1,1.4-7.5,3.4c-4.4,1.8-38.7-4.3-38.7-4.3c-2.2-1.3,0.5-8.6,1.8-10.9l1.2-2.1
						c1.3-2.2,4.9-4.7,7.1-3.4l35.7,8.7c2.2,1.3,2.9,4.2,1.6,6.4L1011.1,166.1z"/>
					<path class="st16" d="M1013.1,194.4c0,2.6-9.9,2.5-9.9,0c0,0-4.5-25.9-2.1-27.7c2.7-2.1,3.1-9.1,5.7-9.1h1.5
						c2.6,0,5,2.9,4.7,4.7C1011.4,171.1,1013.1,194.4,1013.1,194.4z"/>
				</g>
				<g>
					<path class="st15" d="M989.5,212.2c0,0,2.8,5,6.2,6.2s4,4.9-1.2,4.5c-5.2-0.5-7.1-1.2-10.3-4.4v1l-4.5-2.1l0.3-6.4l5.6-2.4
						L989.5,212.2z"/>
					<g>
						<path class="st17" d="M981,183.1c-10.8-0.7-27.3-15.8-27.3-15.8c-4.5-2.9-4.3-10.1-2.9-12.3l6.3,1.1c1.3-2.2,9.1-1.9,11.4-0.6
							l21.8,19.5C994.8,184.3,984.5,183.3,981,183.1z"/>
						<path class="st17" d="M989.4,212.1c-0.2,2.5-10,1.9-9.8-0.6c0,0-5-26.1,0-31.4c1.8-1.9,12.3-4.6,11.5-0.3
							C989,190.6,989.4,212.1,989.4,212.1z"/>
					</g>
				</g>
				<path class="st18" d="M949.9,155.3c0,0,15.9-35.8,23.9-42.1c1.6-0.6,9.7-4.3,19.6-3.3c5.1,0.5,7.5,10.4,3.7,18.3
					c-3.9,7.9-13.9,19.5-17.7,28.8C979.3,157.1,969.7,165.4,949.9,155.3z"/>
				<path class="st19" d="M989.6,110.3l4-7.5l5.2-0.8l2.3,7.2l-4.8,9.8l-4.6,3.1C991.7,122.2,987.1,116.3,989.6,110.3z"/>
				<g>
					<path class="st12" d="M989.9,109.6c0,0-1.3,8.3,2,11.9c0,0,4.6-3.3,5.7-7.9l0.4,1c0,0-0.4,5.9-4,12c-0.1,0.3-2.3-4.4-2.3-4.4
						s-6,2.5-6,2.3c0.1-6,0.8-12.3,2.5-14.6L989.9,109.6z"/>
				</g>
				<path class="st13" d="M1014,100.1c0,0-1.2,5.5-2.2,8.4c-1.1,2.9-3.3,13.7-9.5,10.6c0,0-5.2-2.4-4.4-8.9l-3.9-3.8
					c0,0-0.2-11.8,5.9-13.2C1005.9,91.6,1011.5,92.2,1014,100.1z"/>
				<path class="st20" d="M996.4,108.1c0,0-2.7-2.7,1-5.4c0,0,2.2-0.4,2.6,2.8l-0.1,1l0.7,0.1c0,0,0.9-3.5,2.3-4.7
					c1.4-1.2,7.3,1.6,10.9-0.9c3.6-2.5-0.4-10.2-8.4-10.9c-5.2-0.5-11.6-0.8-12.4,8.7c0,0.1-2,8.6-2,8.6l1.9,1.9L996.4,108.1z"/>
				<path class="st21" d="M1010,113.6c0,0-10.2,1.5-9.4-6.1l-0.6-0.2l-2.5,5.3c0,0,0.8,6.6,7.6,7.3
					C1011.7,120.6,1009.8,116.2,1010,113.6z"/>
				<path class="st12" d="M992.8,146.6c1,3.1,2,5.6,0,7.2l-1.5,4.1c-5.1-1.4-5.9-5.3-7.8-8.8l-9.1-18.2c-0.7-0.3-5.4-10.1-4.1-12.3
					l0.3-0.2c2-1.6,11.9,5.4,14.1,8.1L992.8,146.6z"/>
				<g>
					<path class="st13" d="M1012,164.2l2,1.1c0,0,1.6,2.6,3.6,3.3c1.9,0.5,5.2,0.3,6.2-1.2s0.6-3.4-0.4-4.8c0,0-1.8-0.8-2.5-0.2
						c0,0-2.4-0.3-1.4-1.1c0,0,2.5-0.3,2.8-1.1c0,0-0.3-1.5-0.8-1.3c-0.6,0.3-1.5,0.5-3.1,0.5s-3,0.2-3.7,0.8l-1.2-0.4L1012,164.2z"
						/>
					<path class="st14" d="M1011.1,157.9l3.5,1.5c0,0,1.5,4.1-1.5,6.1l-3.3-1.5C1009.7,164.1,1012.2,160.1,1011.1,157.9z"/>
					<path class="st12" d="M1009.7,164.6l-18.4-6.6c-2-0.3-0.1-10.3,1.9-10l18.1,9.7C1013.4,157.9,1011.7,164.9,1009.7,164.6z"/>
				</g>
			</g>
			<g>
				<g>
					<path class="st22" d="M1054.1,110.1c-2.2,0.4-4.6-0.8-5.2-2.8l-10.4-19.4c-0.6-2,1.1-5.8,3.5-6.2l0,0c2.2-0.4,4.6,0.8,5.2,2.8
						l8.5,21.5C1056.3,108,1056.4,109.7,1054.1,110.1L1054.1,110.1z"/>
					<path class="st23" d="M1051.3,178.9c0,0,2.2,7.9,6.9,9.5c4.7,1.6,0.6,4-0.3,4.1s-5.5,0.5-8.4-2.5c-2.8-3-5.5-4.9-5.5-4.9
						s0.9-5.2,2.4-8.1l1.3-0.8L1051.3,178.9z"/>
					<path class="st24" d="M1057.9,192.7c-0.9,0.1-5.5,0.5-8.4-2.5c-2.8-2.9-5.5-4.9-5.5-4.9s-0.7-3.6,1-5.8
						c0.3,1.7-0.4,3.9,5.5,7.9c3.8,2.5,5.5,1.5,6.3,0.5c0.4,0.3,0.9,0.5,1.3,0.7C1062.7,190.2,1058.8,192.6,1057.9,192.7z"/>
					<path class="st23" d="M1051.3,178.9c-0.2,2.6-5,1.3-4.8-1.2c0,0-5.1-26.3,0-32.5c1.8-4.4,1-3,3.6-2.8l2-0.7
						c4-0.8,5.5,3.7,3.3,10.5C1051,164.9,1051.3,178.9,1051.3,178.9z"/>
					<path class="st13" d="M1044.5,181.3c-0.4,2.5-5.3,1.9-4.9-0.6c0,0-8.8-26.5-2-34.2c1.3-1.5,1.7-2.2,3.8-2.2h0.9
						c2.5,0.4,5.6,1.7,3.7,7.2C1042.3,161.3,1044.5,181.3,1044.5,181.3z"/>
					<path class="st25" d="M1012.8,118.9c0,0-11.6,11.7-1.9,21.6c6.3,6.6,24.2,13.2,24.2,13.2s14.8-11,19.9-11.5
						c0,0-9.1-8.4-21.9-14.5c0,0,0.5-5.3-0.4-8.2s-7.2-2.7-7.2-2.7L1012.8,118.9z"/>
					<path class="st26" d="M1041.9,79.1c0,0,3.6,2.9,4.4,12c1,11.6-0.5,13.4-5.9,16.4c0,0-7.4,13.7-7.1,16.5c0,0-10.6,3.3-20.4-4.9
						c0,0,5.4-5.7,6.9-12c2.3-9.8-0.3-22.2,4.2-24.5C1033.6,77.7,1041.9,79.1,1041.9,79.1z"/>
					<path class="st27" d="M1033.3,79.3l4.2-7.2l2.3-6l4.4,6.1l-1.9,10.8l-3,6.3C1039.3,89.1,1032.7,85.8,1033.3,79.3z"/>
					<g>
						<path class="st28" d="M1033.7,79.2c0,0,0.8,7.5,5.4,9.3c0,0,2.7-4.8,1.8-9.5l0.8,0.7c0,0,3.8,2.6-2.4,14.2
							c0,0-8.4-8.4-7.1-14.3L1033.7,79.2z"/>
					</g>
					<path class="st13" d="M1044.5,181.3c0,0,2.7,8.9,7.4,10.6c4.7,1.6,0.6,4-0.3,4.1s-5.5,0.5-8.4-2.5c-2.8-3-5.5-4.9-5.5-4.9
						s0.6-5.4,1.8-7.9l1.9-1L1044.5,181.3z"/>
					<path class="st29" d="M1051.6,196.1c-0.9,0.1-5.5,0.5-8.4-2.5c-2.8-3-5.5-4.9-5.5-4.9s-0.7-3.6,1-5.8c0.3,1.7-0.4,3.9,5.5,7.9
						c3.8,2.5,5.5,1.5,6.3,0.5c0.4,0.3,0.9,0.5,1.3,0.7C1056.4,193.6,1052.5,195.8,1051.6,196.1z"/>
					<path class="st30" d="M1037.5,59.5c0.2-1.1-0.3-2.7-0.6-3.8c-0.6-1.8-1.7-3-3.7-3.1c-4.1-0.3-7,2.6-8.4,6.2
						c-3.4,8.4,0.5,17.2,3.3,25.1c0.5,1.6,0.9,3.1,1.2,4.9c0.2,1.1,0.4,2.1,0.5,3.3c0.1,1,0.2,1.9,0.3,2.9c0,0.5,0,1,0.1,1.5
						c0,0.2,0.2,1.4,0,1.5c0,0,7-5.9,5.6-12.6c-1.4-6.7-3-10.3-1.3-13.4C1036.2,68.7,1035.8,68.1,1037.5,59.5z"/>
					<path class="st13" d="M1051,62.7c0,0,0.3,5.6,0,8.7c-0.2,3.1-3.3,12.2-5.4,11.9c0,0-7.3-0.6-8-8l-4.2-1.3
						c0,0-3.3-11.3,2.2-14.3C1041,56.6,1046.5,55.7,1051,62.7z"/>
					<path class="st31" d="M1049.6,63c0,0-4.8,5.7-10.4,7.2c0,0-0.9-2.7-2.8-0.8s-0.6,5.1,1.1,5.9c0,0-2,2.2-3.4,3.1
						c0,0-10.4-15.8,3.5-21.7c10.9-4.7,17.2,6.5,13.3,14.6C1051,71.5,1051.8,65.1,1049.6,63z"/>
				</g>
				<g>
					<path class="st13" d="M1061.5,93.3c0.6-0.6,1.6-1.7,2.4-2c1.1-0.5,1.8-0.5,2.8-1.2c0.7-0.4,1.8-1,2.2-1.8
						c0.3-0.7,1.2,0.8,0.2,1.7c-0.4,0.3-0.6,0.7-0.8,1c1.1,0.3,2.2,0.4,3.3-0.8c4.5-5.2,4.6-0.4,4.6-0.4c-1.6,4-2.8,4.1-4.3,4.8
						c-2.1,0.9-7.3,1.1-7.3,1.1l-1.3,2.2l-3.5-1.6c0.3-0.6,0.6-1.2,0.9-1.8C1061,93.9,1061.2,93.6,1061.5,93.3z"/>
					<path class="st28" d="M1057.7,97.5l3-3.6c0,0,2.3-0.5,4.3,2.7l-2.9,4.2C1062,100.8,1061.6,97.3,1057.7,97.5z"/>
					<path class="st22" d="M1062.5,100.4l-6.2,10c-1.5,1.7-4,1-5.5-0.3l0,0c-1.6-1.3-1.5-2.3-0.1-4.1l7.2-9.3
						C1059.5,94.8,1064.1,98.6,1062.5,100.4z"/>
				</g>
				<path class="st32" d="M1037.4,115.9c1,1.7,2.7,1.6,4.8,0.4l0.9-0.7c2-1.2,1.2-2.7,0.1-4.5l-12.3-23c-1-1.7-6-5.3-8-4.1l-0.9,1.3
					c-2,4.1-0.3,7.2,0.7,9L1037.4,115.9z"/>
				<g>
					<path class="st13" d="M1061.2,123.5c0.1,0,0.3,0,0.4-0.1c0.4,0,0.8-0.1,1.1,0c1.2,0,2.3,0.1,3.5,0.3c0.5,0.1,1-0.2,1.5-0.1
						c0.6,0.1,0.4,0.6,0.2,1c1,0.5,5.2,3.3,3,5.4c-1.4,1.4-6,1.1-7.7,0.3c-2.9-1.5-2.9-1.5-4-2.7l-1.5-0.8l1.7-4.1L1061.2,123.5z"/>
					<g>
						<path class="st28" d="M1058.6,121.4l-2.9,4.8l4.1,2.2c0,0,2.9-1.8,2.8-4.9L1058.6,121.4z"/>
						<path class="st32" d="M1037.4,113.3c-1.1,1.7,1.3,4.4,2.6,5.2l16.7,8.6c1.3,0.9,4.8-4.3,3.5-5.1l-15.9-9.8
							c-1.3-0.8-4.7-1.7-5.8,0L1037.4,113.3z"/>
					</g>
				</g>
			</g>
			<g>
				<g>
					<g>
						<polygon class="st7" points="1005.2,194.8 1007,222.1 1008,222.1 1011.2,195.4 						"/>
						<polygon class="st7" points="1026.4,207.3 1029.6,235.4 1030.4,235.4 1032.9,207.3 						"/>
						<path class="st33" d="M1027.6,208.9c-1.5-0.9-1.5-2.3,0-3.3c1.5-0.9,2.5-0.9,4.2,0c1.5,0.9,1.5,2.3,0,3.3
							C1030.1,209.8,1029.1,209.8,1027.6,208.9z"/>
						<path class="st33" d="M1006.5,196.6c-1.6-0.9-1.6-2.3,0-3.3c1.5-0.9,2.2-0.9,3.8,0s1.6,2.3,0,3.3
							C1008.6,197.4,1008,197.4,1006.5,196.6z"/>
					</g>
					<g>
						<polygon class="st7" points="1067.7,158.6 1069.4,185.7 1070.5,185.7 1073.7,159.1 						"/>
						<polygon class="st7" points="1088.8,170.9 1092.1,199.2 1092.9,199.2 1095.3,171.1 						"/>
						<path class="st33" d="M1090.1,172.6c-1.5-0.9-1.5-2.3,0-3.3c1.5-0.9,2.5-0.9,4.2,0c1.5,0.9,1.5,2.3,0,3.3
							C1092.6,173.6,1091.7,173.6,1090.1,172.6z"/>
						<path class="st33" d="M1068.9,160.2c-1.6-0.9-1.6-2.3,0-3.3c1.5-0.9,2.2-0.9,3.8,0c1.6,0.9,1.6,2.3,0,3.3
							C1071.2,161.1,1070.5,161.1,1068.9,160.2z"/>
					</g>
				</g>
				<g>
					<path class="st34" d="M1006.4,184.1c-15.9,9.2-17.9,23.2-4.3,31.1c13.6,7.8,37.8,6.7,53.7-2.4l40.9-23.6
						c15.9-9.2,17.9-23.2,4.3-31.1c-13.6-7.8-37.8-6.7-53.7,2.4L1006.4,184.1z"/>
					<path class="st34" d="M1006.4,181.1c-15.9,9.2-17.9,23.2-4.3,31.1c13.6,7.8,37.8,6.7,53.7-2.4l40.9-23.6
						c15.9-9.2,17.9-23.2,4.3-31.1c-13.6-7.8-37.8-6.7-53.7,2.4L1006.4,181.1z"/>
				</g>
			</g>
			<g>
				<polygon class="st35" points="995.4,198.4 1013.2,188.2 1038.9,203.1 1021.5,213.6 				"/>
				<polygon class="st28" points="998.2,198.4 1013.2,189.8 1036.1,203.1 1021.5,211.9 				"/>
				<polygon class="st36" points="995.4,198.4 1021.5,213.6 1021.5,214.3 995.4,199.3 				"/>
				<polygon class="st36" points="1021.5,213.6 1038.9,203.1 1038.9,203.8 1021.5,214.3 				"/>
				<polygon class="st36" points="1002.3,194.6 1005.1,195.9 1010.1,193.1 1007.5,191.4 				"/>
			</g>
			<g>
				<polygon class="st37" points="1024.9,192.1 1033.4,187.6 1017.1,178.1 1008.8,183.1 				"/>
				<polygon class="st38" points="1031.8,187.6 1018.5,179.9 1011.8,183.8 1024.9,191.2 				"/>
				<polygon class="st39" points="1033.4,187.6 1033.2,188.6 1025,193.3 1024.9,192.1 				"/>
				<polygon class="st40" points="1008.8,183.1 1008.9,183.9 1025,193.3 1024.9,192.1 				"/>
				<path class="st28" d="M1015.2,181.6c0.4-0.2,0.4-0.6,0-0.8s-1.1-0.2-1.5,0s-0.4,0.6,0,0.8S1014.8,181.7,1015.2,181.6z"/>
			</g>
			<g>
				<polygon class="st37" points="1099.3,167.4 1107.6,162.7 1091.4,153.3 1083.2,158.1 				"/>
				<polygon class="st38" points="1106,162.7 1092.8,155.1 1086.1,158.9 1099.3,166.3 				"/>
				<polygon class="st39" points="1107.6,162.7 1107.4,163.8 1099.3,168.6 1099.3,167.4 				"/>
				<polygon class="st40" points="1083.2,158.1 1083.2,159.1 1099.3,168.6 1099.3,167.4 				"/>
				<path class="st28" d="M1089.5,156.6c0.4-0.2,0.4-0.6,0-0.8s-1.1-0.2-1.5,0s-0.4,0.6,0,0.8S1089,156.8,1089.5,156.6z"/>
			</g>
			<g>
				<path class="st41" d="M1040.5,200.2c-2,0-3.9-0.4-5.3-1.2c-1.3-0.7-2-1.7-2-2.7s0.7-2,2-2.7c1.4-0.8,3.3-1.2,5.3-1.2
					s3.9,0.4,5.3,1.2c1.3,0.7,2,1.7,2,2.7s-0.7,2-2,2.7C1044.3,199.8,1042.5,200.2,1040.5,200.2z"/>
				<path class="st42" d="M1040.5,199.8c-1.9,0-3.7-0.4-5-1.2c-1.2-0.7-1.9-1.6-1.9-2.6s0.7-1.9,1.9-2.6c1.3-0.8,3.1-1.2,5-1.2
					s3.7,0.4,5,1.2c1.2,0.7,1.9,1.6,1.9,2.6s-0.7,1.9-1.9,2.6C1044.2,199.3,1042.4,199.8,1040.5,199.8z"/>
				<path class="st41" d="M1040.5,198.1c-1.2,0-2.3-0.3-3.3-0.8c-0.8-0.5-1.2-1.1-1.2-1.7s0.4-1.2,1.2-1.7c0.8-0.5,2-0.7,3.3-0.7
					s2.3,0.3,3.3,0.7c0.8,0.5,1.2,1.1,1.2,1.7s-0.4,1.2-1.2,1.7C1042.8,197.9,1041.7,198.1,1040.5,198.1z"/>
				<path class="st41" d="M1047.3,190.6c-0.7-0.5-1.5-0.5-1.8-0.5c-0.1,0-0.7,0.4,0,0.8h0.1c0,0,0.6,0,1,0.3
					c0.4,0.2,0.5,0.6,0.5,1.2s-0.2,1-0.5,1.2c-0.4,0.3-1.6,0.4-1.6,0.4h-0.1c0,0-0.7,0.3,0,0.8h0.1c0.3,0,1.6-0.2,2.2-0.6
					s0.9-1,0.9-1.8C1048.2,191.6,1047.9,190.8,1047.3,190.6z"/>
				<path class="st43" d="M1037.3,196.6c-0.9-0.5-1.3-1.2-1.3-1.8c0-0.6-1.3-2.4-0.7-4.8c0.5-1.9,10.2-1.6,10.5,0.3
					c0.3,2.2-0.8,3.9-0.8,4.6c0,0.6-0.4,1.3-1.3,1.8C1041.9,197.6,1039.1,197.6,1037.3,196.6z"/>
				<path class="st44" d="M1036.8,192.3c-2-1.2-2-3,0-4.3c2-1.2,5.4-1.2,7.4,0s2,3,0,4.3S1038.9,193.6,1036.8,192.3z"/>
				<path class="st42" d="M1040.5,193.1c-1.3,0-2.6-0.3-3.6-0.8c-0.9-0.5-1.4-1.2-1.4-1.9c0-0.7,0.5-1.3,1.4-1.9
					c0.9-0.5,2.2-0.8,3.6-0.8s2.6,0.3,3.6,0.8c0.9,0.5,1.4,1.2,1.4,1.9c0,0.7-0.5,1.3-1.4,1.8
					C1043.1,192.7,1041.8,193.1,1040.5,193.1z"/>
				<path class="st45" d="M1040.5,193.1c1.3,0,2.6-0.3,3.6-0.8c0.3-0.2,0.6-0.4,0.8-0.6c-0.2-0.2-0.5-0.4-0.8-0.6
					c-0.9-0.5-2.2-0.8-3.6-0.8s-2.6,0.3-3.6,0.8c-0.3,0.2-0.6,0.4-0.8,0.6c0.2,0.2,0.5,0.4,0.8,0.6
					C1037.8,192.7,1039.2,193.1,1040.5,193.1z"/>
			</g>
			<g>
				<path class="st41" d="M1088.6,176.4c-2,0-3.9-0.4-5.3-1.2c-1.3-0.7-2-1.7-2-2.7s0.7-2,2-2.7c1.4-0.8,3.3-1.2,5.3-1.2
					s3.9,0.4,5.3,1.2c1.3,0.7,2,1.7,2,2.7s-0.7,2-2,2.7C1092.5,176.1,1090.7,176.4,1088.6,176.4z"/>
				<path class="st42" d="M1088.6,175.9c-1.9,0-3.7-0.4-5-1.2c-1.2-0.7-1.9-1.6-1.9-2.6s0.7-1.9,1.9-2.6c1.3-0.8,3.1-1.2,5-1.2
					s3.7,0.4,5,1.2c1.2,0.7,1.9,1.6,1.9,2.6s-0.7,1.9-1.9,2.6C1092.4,175.6,1090.6,175.9,1088.6,175.9z"/>
				<path class="st41" d="M1088.6,174.4c-1.2,0-2.3-0.3-3.3-0.8c-0.8-0.5-1.2-1.1-1.2-1.7s0.4-1.2,1.2-1.7s2-0.7,3.3-0.7
					s2.3,0.3,3.3,0.7c0.8,0.5,1.2,1.1,1.2,1.7s-0.4,1.2-1.2,1.7C1091.1,174.1,1090,174.4,1088.6,174.4z"/>
				<path class="st41" d="M1095.4,166.6c-0.7-0.5-1.5-0.5-1.8-0.5c-0.1,0-0.7,0.4,0,0.8h0.1c0,0,0.6,0,1,0.3
					c0.4,0.2,0.5,0.6,0.5,1.2s-0.2,1-0.5,1.2c-0.4,0.3-1.6,0.4-1.6,0.4h-0.1c0,0-0.7,0.3,0,0.8h0.1c0.3,0,1.6-0.2,2.2-0.6
					s0.9-1,0.9-1.8C1096.4,167.7,1096.1,167.1,1095.4,166.6z"/>
				<path class="st43" d="M1085.6,172.7c-0.9-0.5-1.3-1.2-1.3-1.8c0-0.6-1.3-2.4-0.7-4.8c0.5-1.9,10.2-1.6,10.5,0.3
					c0.3,2.2-0.8,3.9-0.8,4.6c0,0.6-0.4,1.3-1.3,1.8C1090.1,173.8,1087.3,173.8,1085.6,172.7z"/>
				<path class="st44" d="M1085,168.6c-2-1.2-2-3,0-4.3s5.4-1.2,7.4,0s2,3,0,4.3C1090.4,169.7,1087,169.7,1085,168.6z"/>
				<path class="st42" d="M1088.6,169.1c-1.3,0-2.6-0.3-3.6-0.8c-0.9-0.5-1.4-1.2-1.4-1.9c0-0.7,0.5-1.3,1.4-1.8s2.2-0.8,3.6-0.8
					s2.6,0.3,3.6,0.8c0.9,0.5,1.4,1.2,1.4,1.9c0,0.7-0.5,1.3-1.4,1.9C1091.3,168.9,1090.1,169.1,1088.6,169.1z"/>
				<path class="st45" d="M1088.6,169.2c1.3,0,2.6-0.3,3.6-0.8c0.3-0.2,0.6-0.4,0.8-0.6c-0.2-0.2-0.5-0.4-0.8-0.6
					c-0.9-0.5-2.2-0.8-3.6-0.8s-2.6,0.3-3.6,0.8c-0.3,0.2-0.6,0.4-0.8,0.6c0.2,0.2,0.5,0.4,0.8,0.6
					C1086.1,168.9,1087.3,169.2,1088.6,169.2z"/>
			</g>
			<g>
				<path class="st41" d="M1069.8,165.1c2,0,3.9-0.4,5.3-1.2c1.3-0.7,2-1.7,2-2.7s-0.7-2-2-2.7c-1.4-0.8-3.3-1.2-5.3-1.2
					s-3.9,0.4-5.3,1.2c-1.3,0.7-2,1.7-2,2.7s0.7,2,2,2.7C1066,164.6,1067.8,165.1,1069.8,165.1z"/>
				<path class="st42" d="M1069.8,164.6c1.9,0,3.7-0.4,5-1.2c1.2-0.7,1.9-1.6,1.9-2.6s-0.7-1.9-1.9-2.6c-1.3-0.8-3.1-1.2-5-1.2
					s-3.7,0.4-5,1.2c-1.2,0.7-1.9,1.6-1.9,2.6s0.7,1.9,1.9,2.6C1066.1,164.1,1067.9,164.6,1069.8,164.6z"/>
				<path class="st41" d="M1069.8,163.1c1.2,0,2.3-0.3,3.3-0.8c0.8-0.5,1.2-1.1,1.2-1.7s-0.4-1.2-1.2-1.7c-0.8-0.5-2-0.7-3.3-0.7
					s-2.3,0.3-3.3,0.7c-0.8,0.5-1.2,1.1-1.2,1.7s0.4,1.2,1.2,1.7C1067.4,162.8,1068.5,163.1,1069.8,163.1z"/>
				<path class="st41" d="M1063,155.4c0.7-0.5,1.5-0.5,1.8-0.5c0.1,0,0.7,0.4,0,0.8h-0.1c0,0-0.6,0-1,0.3c-0.3,0.2-0.5,0.6-0.5,1.2
					s0.2,1,0.5,1.2c0.4,0.3,1.6,0.4,1.6,0.4h0.1c0,0,0.7,0.3,0,0.8h-0.1c-0.3,0-1.6-0.2-2.2-0.6s-0.9-1-0.9-1.8
					C1062.1,156.4,1062.4,155.7,1063,155.4z"/>
				<path class="st43" d="M1072.9,161.6c0.9-0.5,1.3-1.2,1.3-1.8c0-0.6,1.3-2.4,0.7-4.8c-0.5-1.9-10.2-1.6-10.5,0.3
					c-0.3,2.2,0.8,3.9,0.8,4.6c0,0.6,0.4,1.3,1.3,1.8C1068.4,162.4,1071.2,162.4,1072.9,161.6z"/>
				<path class="st44" d="M1073.5,157.2c2-1.2,2-3,0-4.3c-2-1.2-5.4-1.2-7.4,0s-2,3.1,0,4.3C1068.1,158.4,1071.5,158.4,1073.5,157.2
					z"/>
				<path class="st42" d="M1069.8,157.8c1.3,0,2.6-0.3,3.6-0.8c0.9-0.5,1.4-1.2,1.4-1.9c0-0.7-0.5-1.3-1.4-1.8s-2.2-0.8-3.6-0.8
					c-1.3,0-2.6,0.3-3.6,0.8c-0.9,0.5-1.4,1.2-1.4,1.9c0,0.7,0.5,1.3,1.4,1.8C1067.2,157.6,1068.4,157.8,1069.8,157.8z"/>
				<path class="st45" d="M1069.8,157.8c-1.3,0-2.6-0.3-3.6-0.8c-0.3-0.2-0.6-0.4-0.8-0.6c0.2-0.2,0.5-0.4,0.8-0.6
					c0.9-0.5,2.2-0.8,3.6-0.8c1.3,0,2.6,0.3,3.6,0.8c0.3,0.2,0.6,0.4,0.8,0.6c-0.2,0.2-0.5,0.4-0.8,0.6
					C1072.4,157.6,1071.2,157.8,1069.8,157.8z"/>
			</g>
			<g>
				<path class="st41" d="M1031.9,181.1c2,0,3.9-0.4,5.3-1.2c1.3-0.7,2-1.7,2-2.7s-0.7-2-2-2.7c-1.4-0.8-3.3-1.2-5.3-1.2
					s-3.9,0.4-5.3,1.2c-1.3,0.7-2,1.7-2,2.7s0.7,2,2,2.7C1028.1,180.6,1029.9,181.1,1031.9,181.1z"/>
				<path class="st42" d="M1031.9,180.6c1.9,0,3.7-0.4,5-1.2c1.2-0.7,1.9-1.6,1.9-2.6s-0.7-1.9-1.9-2.6c-1.3-0.8-3.1-1.2-5-1.2
					s-3.7,0.4-5,1.2c-1.2,0.7-1.9,1.6-1.9,2.6s0.7,1.9,1.9,2.6C1028.2,180.1,1030,180.6,1031.9,180.6z"/>
				<path class="st41" d="M1031.9,178.9c1.2,0,2.3-0.3,3.3-0.8c0.8-0.5,1.2-1.1,1.2-1.7s-0.4-1.2-1.2-1.7s-2-0.7-3.3-0.7
					s-2.3,0.3-3.3,0.7c-0.8,0.5-1.2,1.1-1.2,1.7s0.4,1.2,1.2,1.7C1029.5,178.6,1030.6,178.9,1031.9,178.9z"/>
				<path class="st41" d="M1025.1,171.2c0.7-0.5,1.5-0.5,1.8-0.5c0.1,0,0.7,0.4,0,0.8h-0.1c0,0-0.6,0-1,0.3
					c-0.4,0.2-0.5,0.6-0.5,1.2s0.2,1,0.5,1.2c0.4,0.3,1.6,0.4,1.6,0.4h0.1c0,0,0.7,0.3,0,0.8h-0.1c-0.3,0-1.6-0.2-2.2-0.6
					s-0.9-1-0.9-1.8C1024.2,172.2,1024.5,171.6,1025.1,171.2z"/>
				<path class="st43" d="M1035,177.3c0.9-0.5,1.3-1.2,1.3-1.8c0-0.6,1.3-2.4,0.7-4.8c-0.5-1.9-10.2-1.6-10.5,0.3
					c-0.3,2.2,0.8,3.9,0.8,4.6c0,0.6,0.4,1.3,1.3,1.8C1030.5,178.3,1033.3,178.3,1035,177.3z"/>
				<path class="st44" d="M1035.6,173.1c2-1.2,2-3,0-4.3c-2-1.2-5.4-1.2-7.4,0s-2,3,0,4.3C1030.2,174.3,1033.6,174.3,1035.6,173.1z"
					/>
				<path class="st42" d="M1031.9,173.7c1.3,0,2.6-0.3,3.6-0.8c0.9-0.5,1.4-1.2,1.4-1.9c0-0.7-0.5-1.3-1.4-1.8s-2.2-0.8-3.6-0.8
					s-2.6,0.3-3.6,0.8c-0.9,0.5-1.4,1.2-1.4,1.9c0,0.7,0.5,1.3,1.4,1.8C1029.3,173.3,1030.5,173.7,1031.9,173.7z"/>
				<path class="st45" d="M1031.9,173.7c-1.3,0-2.6-0.3-3.6-0.8c-0.3-0.2-0.6-0.4-0.8-0.6c0.2-0.2,0.5-0.4,0.8-0.6
					c0.9-0.5,2.2-0.8,3.6-0.8s2.6,0.3,3.6,0.8c0.3,0.2,0.6,0.4,0.8,0.6c-0.2,0.2-0.5,0.4-0.8,0.6
					C1034.5,173.3,1033.3,173.7,1031.9,173.7z"/>
			</g>
			<g>
				<path class="st46" d="M1098.2,219.7c0,0,0.8,2.3,0.6,4.9c-0.2,3-1.4,6.6-1.6,7.4c0,0-0.5,0.5-1.7,0.3l-0.1-3.9
					c0,0-2.2,2.5-3.7,3.4c-1.7,1-2.8,1.2-6.4,0.8c0,0-1.8-0.1-3-1.5c-1.3-1.5,0.3-2.1,2.6-2.7c5.3-1.4,7.8-8.2,8.2-9.4L1098.2,219.7
					z"/>
				<path class="st46" d="M1113.5,213.8c0,0,0.8,2.4,0.7,4.9c-0.2,3-1.3,5.8-1.5,6.6c0,0-0.6,0.8-1.9,0.3l-0.1-3.9
					c0,0-2.2,2-3.7,2.5c-1.7,0.6-2.8,0.8-6.4-0.3c0,0-1.9-0.5-3-2.1c-1.3-1.8,0.3-2,2.6-2.1c5.3-0.3,8.4-5.6,8.8-6.7L1113.5,213.8z"
					/>
				<path class="st16" d="M1107.6,213.8c-0.2,2.2,6.7,2.9,6.2,0.2c0,0-1.7-32.3-7.2-34.7c-3.5-1.5-1.7-5.2-4.1-4.7l0,0
					c-5.7,0-6.8,5.5-5.4,7.2C1102.1,188.4,1107.6,213.8,1107.6,213.8z"/>
				<path class="st17" d="M1092.4,219.4c0.1,2.8,6.5,3.1,6.4,0.3c0,0,4.5-29,0.1-36.7c-2.8-4.9-9.3-0.5-8.5,3.7
					C1092.5,198.1,1092.4,219.4,1092.4,219.4z"/>
			</g>
			<g>
				<path class="st47" d="M1057.5,239.1c0,0,0.4,6.2,0,8.1c0,0-3.8,1.4-7.2,0.5v-1.8c0,0-5.8,2.5-12.4,2.1c0,0-3.7-0.4-4.3-2.9
					c-0.6-2.5,2.8-2.6,5.8-3.4c2.9-0.7,6.6-2.6,7.2-4.3L1057.5,239.1z"/>
				<path class="st47" d="M1046.3,247.6c0,0,0.4,6.2,0,8.1c0,0-3.8,1.4-7.2,0.5v-1.8c0,0-5.8,2.5-12.4,2.1c0,0-3.7-0.4-4.3-2.9
					c-0.6-2.5,2.8-2.6,5.8-3.4c2.9-0.7,6.6-2.6,7.2-4.3L1046.3,247.6z"/>
				<path class="st48" d="M1046.5,238.8c0,3.5,11.1,3.5,11.1,0v-33.6c0-3.5-2.4-6.3-5.6-6.3l0,0c-3,0-5.6,2.8-5.6,6.3L1046.5,238.8
					L1046.5,238.8z"/>
				<path class="st49" d="M1034.7,247.3c0,3.5,11.8,3.5,11.8,0v-33.6c0-3.5-2.6-6.3-5.9-6.3l0,0c-3.3,0-5.9,2.8-5.9,6.3V247.3
					L1034.7,247.3z"/>
			</g>
			<g>
				<polygon class="st7" points="1041.7,240.4 1032.1,268.3 1033.3,269 1047.2,245.2 				"/>
				<polygon class="st7" points="1171.7,204.1 1178.2,228.1 1176.9,228.9 1166.2,208.1 				"/>
				<polygon class="st7" points="1067.8,261.5 1069.4,289.6 1071.3,289.6 1074.8,261.5 				"/>
				<polygon class="st8" points="1033.3,232.4 1070.5,253.8 1178.2,191.3 1140.1,169.3 				"/>
				<polygon class="st9" points="1033.3,232.4 1033.3,244.6 1070.5,266.1 1070.5,253.8 				"/>
				<polygon class="st11" points="1070.5,266.1 1178.2,203.6 1178.2,191.3 1070.5,253.8 				"/>
			</g>
			<g>
				<path class="st50" d="M1090.3,135.1c0.2,2.8,2,4.4,4.9,4.2l22.3,0.7c2.8-0.2,6.3-1.2,6.1-6l0,0c-0.2-2.8-2.6-4.9-5.5-4.7
					l-24.3,1.8C1091.1,131.3,1090.1,132.2,1090.3,135.1L1090.3,135.1z"/>
				<g>
					<path class="st13" d="M1075.2,127.6l-1.9-0.6c0,0-5-2.6-6.9-2.4c-1.9,0.3-7.3,2.6-3.9,3.6c3.4,0.8,2.2,0,4.8,1.4
						c2.5,1.5,2.9,2.1,4.2,1.6l2,0.4L1075.2,127.6z"/>
					<path class="st51" d="M1078.5,128.2l-4.2-1.2c0,0-2.7,1.4-1.9,5.4l4.4,1.3C1076.7,133.7,1075.2,130.2,1078.5,128.2z"/>
					<path class="st50" d="M1076.2,133.8l13.6,4.7c5.9,2,5.6-0.6,6.3-3.1c0,0-1.5-3.6-4-4.3l-13.9-3.3
						C1075.9,127.1,1073.8,133.1,1076.2,133.8z"/>
				</g>
				<path class="st16" d="M1105.9,187.6c25.2,15.8,34.5,6.7,34.5,6.7c8.9-10.1,2-21.8-1.1-22.6l-6.8,2.3c-3.1-0.7-7.4-3-8.1-0.1
					l-0.5,7.4l-20.4-6.7C1102.9,177.6,1103.7,186.1,1105.9,187.6z"/>
				<path class="st17" d="M1098.6,194.3c28.7,11.8,38,2.3,38,2.3c8.9-10.1,3.4-19.5,0.2-20.2l-6.8,2.3c-3.1-0.7-7.4-3-8.1-0.1
					l-0.5,7.4l-26-5.2C1094.7,183.9,1096.1,193.3,1098.6,194.3z"/>
				<polygon class="st13" points="1118,128.6 1115.2,123.4 1110.3,130.4 1112.6,134.1 				"/>
				<path class="st50" d="M1119.2,127.3l-2.1-2.2c0,0-6.8,6.6-5,12.7L1119.2,127.3z"/>
				<path class="st51" d="M1119.2,127.3c0,0,13.8-1.5,13.5,21.1c-0.2,12.6,11.1,25.1,11.1,25.1s-3.5,8.6-11.6,9.2
					c0,0-9.5,0.9-12-2.4l-12.4-31.3C1107.8,149.1,1106.9,137.3,1119.2,127.3z"/>
				<g>
					<path class="st50" d="M1116.7,172.9c2.7-0.6,4.1-2.6,3.6-5.4l-2.2-22.2c-0.6-2.7-2-6.1-6.8-5.2l0,0c-2.7,0.6-4.5,3.3-4,6
						l5,23.8C1112.8,172.7,1113.9,173.6,1116.7,172.9L1116.7,172.9z"/>
					<g>
						<path class="st13" d="M1100.2,175.6l-1.8,0.9c0,0-5.4,1.6-6.6,3.1c-1.2,1.6-3.4,7-0.3,5.3c3-1.8,1.6-1.6,4.5-2.3
							c2.8-0.7,3.6-0.6,4.2-1.8l1.7-1.2L1100.2,175.6z"/>
						<path class="st51" d="M1103,173.6l-3.9,2c0,0-1,2.9,2.4,5.3l4.1-2.1C1105.6,178.7,1102.1,177.3,1103,173.6z"/>
						<path class="st50" d="M1105.4,179.1l13-6.3c2.2-1.1,2.3-2.9,1.1-5.3c0,0-2.4-2.8-4.7-1.6l-12.1,7.5
							C1100.4,174.6,1103.2,180.4,1105.4,179.1z"/>
					</g>
				</g>
				<path class="st13" d="M1108.2,106.9c0,0-3.4,3.4-3.1,10c0.2,6.5-1,16.8,5.9,14c6.9-2.7,12.2-3.1,13.7-14.7
					C1126.1,104.5,1113.1,101.7,1108.2,106.9z"/>
				<path class="st20" d="M1110.1,121.6c0,0,5.6,13.8,1.5,17.6c0,0,14.3,0.9,15-4.2c0,0,2.9-30.9-12.9-31.8
					C1113.7,103.3,1095,103.9,1110.1,121.6z"/>
			</g>
			<g>
				<path class="st52" d="M1041.5,172.8c0.6,2.2,2.9,3.7,5.3,3.3l19.3-1.3c2.2-0.4,4-4.7,3.3-6.9l0,0c-0.6-2.2-2.9-3.7-5.3-3.3
					l-19.6,3.5C1042.1,168.6,1040.8,170.7,1041.5,172.8L1041.5,172.8z"/>
				<path class="st13" d="M1061,164.2c0,0,0.9-5.5,3.9-9.7c2.9-4.2,3.7-13.4-4.2-16.3c-7.8-2.8-12.9,1.2-13.7,3.5
					c-0.8,2.2-0.8,8.4-1.2,11.3s-1.3,13.1,5.5,10.7l3.7,10.7L1061,164.2z"/>
				<path class="st30" d="M1055.8,161.6l5.9-0.3c0,0,5-6.9,7.1-8.6c0,0,4.1-12.6-7.2-16.7c-11.3-4.1-20.6,4-15.1,8.2
					c0,0,2.4,5.5,2.3,7.3c0,0,1.9-6.7,3.6-0.3C1054.1,157.6,1055.8,161.6,1055.8,161.6z"/>
				<g>
					<path class="st13" d="M1027,168.1l-1.8-0.7c0,0-3.5,0.1-5.3-0.6c0,0-4.1-0.3-1.3-1.4c0,0,0.3-0.1,1.9-0.2c0,0-1.2-2.6-3.4-2
						c-2.1,0.6-2.4-0.4-1-1.7c1.5-1.3,1.3-2.3,5.6-0.9c4.2,1.4,4,2.2,5.1,3.3l1.6,0.6L1027,168.1z"/>
					<path class="st53" d="M1031.9,164.8l-4.4-1.6c0,0-2.2,0.7-2.3,4.5l4.6,2.2C1029.7,169.9,1028.3,166.6,1031.9,164.8z"/>
					<path class="st52" d="M1029,169.8l12.2,6.2c2.1,0.8,7.1-0.3,7.8-2.2v-2.1c0.7-1.9-3.7-2.7-5.8-3.6l-12.2-3.8
						C1029,163.6,1026.9,169.1,1029,169.8z"/>
				</g>
				<path class="st48" d="M1047.3,203.2c-1.6,3.1-0.4,7,2.7,8.6l28.2,14.5c3.1,1.6,7,0.4,8.6-2.7l0,0c1.6-3.1,0.4-7-2.7-8.6
					l-28.2-14.5C1052.8,198.8,1048.9,200.1,1047.3,203.2L1047.3,203.2z"/>
				<path class="st49" d="M1088,213.4c0,0,3.7,10-4.5,15.6c-8.1,5.7-9.3,8.1-16.5,5.3v-12.2L1088,213.4z"/>
				<path class="st53" d="M1064,163.2c0,0-1.4-1.2-2.2-1.9c0,0-10.3,6.7-7.5,15.5L1064,163.2z"/>
				<path class="st49" d="M1035.5,210.3c-1.7,3.1-0.6,7,2.5,8.7l28.8,15.8c3.1,1.7,8.9,1,10.3-1.7l0,0c1.7-3.1,1.5-7.8-1.5-9.5
					l-30.4-16.7C1042.1,205.2,1037.2,207.2,1035.5,210.3L1035.5,210.3z"/>
				<path class="st54" d="M1064,163.2c0,0,12.2,2.9,15,18c2.8,15,9.9,32.2,9.9,32.2s-7.3,11.2-17.3,11.4c0,0-5.5-0.2-8.2-4.3
					l-8.7-29.7C1054.6,190.7,1048.3,174.7,1064,163.2z"/>
				<g>
					<path class="st13" d="M1046.5,203.9l-2.2,0.4c0,0-6.3,0-8,1.3c-1.8,1.2-5.9,6.1-2,5.2c3.8-0.9,2.2-1.1,5.5-1s4.1,0.4,5-0.6
						l2.2-0.7L1046.5,203.9z"/>
					<g>
						<path class="st53" d="M1049.2,202.4l-4.6,0.9c0,0-2.1,3.4,0.6,6.5l4.8-0.9C1050,208.9,1047.1,205.7,1049.2,202.4z"/>
						<g>
							<path class="st52" d="M1066,206.7c2.5-1.2,4.2-3.3,2.8-5.9l-6.2-22c-1.1-1.8-4.5-5.9-8.8-3.9l0,0c-2.5,1.2-4.1,6.4-2.7,9
								l8.7,21.4C1060.9,207.9,1063.4,207.9,1066,206.7L1066,206.7z"/>
							<path class="st52" d="M1049.8,209.4l15.6-1.7c2.6-0.5,4.4-3,3.9-5.7l0,0c-0.5-2.6-3-4.4-5.7-3.9l-14.7,3.9
								C1046.3,202.6,1047.2,209.9,1049.8,209.4z"/>
						</g>
					</g>
				</g>
				<path class="st31" d="M1068.9,152.6c0,0,4.1-12.6-7.2-16.7c-11.3-4.1-20.6,4-15.1,8.2C1046.6,144.1,1060.2,154.2,1068.9,152.6z"
					/>
			</g>
			<g>
				<polygon class="st9" points="1065.1,250.8 1070.7,213.9 1075.9,216.9 1070.4,253.8 				"/>
				<polygon class="st10" points="1070.7,213.9 1178.3,151.4 1183.6,154.6 1075.9,216.9 				"/>
				<polygon class="st11" points="1183.6,154.6 1178,191.3 1070.4,253.8 1075.9,216.9 				"/>
			</g>
			<g>
				<polygon class="st55" points="1001,234.1 1001,257.3 1031,274.6 1031,251.6 				"/>
				<polygon class="st56" points="1001,234.1 1008.3,229.6 1038.5,247.1 1031,251.6 				"/>
				<polygon class="st57" points="1038.5,247.1 1038.5,270.3 1031,274.6 1031,251.6 				"/>
				<g>
					<polygon class="st58" points="1005.3,234.2 1009.3,231.9 1011.2,233.1 1007.3,235.3 					"/>
					<polygon class="st58" points="1029.1,247.8 1033.1,245.6 1035,246.6 1031,248.9 					"/>
					<polygon class="st58" points="1011.9,238.6 1015.9,236.2 1017.8,237.3 1014,239.7 					"/>
					<polygon class="st58" points="1022,244.4 1026,242.1 1027.9,243.2 1023.9,245.6 					"/>
					<g>
						<path class="st57" d="M1026.4,243.7l-1.4,0.8l-1.4-0.8v-3.3c0-1.7-1.3-4-2.7-4.8l-3.1-1.8c-0.5-0.3-0.9-0.3-1-0.2
							c-0.2,0.1-0.3,0.4-0.3,1v3.3l-1.4,0.9l-1.4-0.9v-3.3c0-1.5,0.6-2.8,1.7-3.5c1.1-0.6,2.5-0.5,3.9,0.2l3.1,1.8
							c2.3,1.3,4.2,4.5,4.2,7.2L1026.4,243.7L1026.4,243.7z"/>
					</g>
				</g>
			</g>
		</g>
		<g>
			<polygon class="st59" points="890.7,252.7 910.8,264.3 938.8,250.6 917.8,237.3 			"/>
			<g>
				<g>
					<polygon class="st46" points="896,221.6 890.7,252.7 891.6,253.2 899.4,223.4 					"/>
					<polygon class="st46" points="909.4,229.4 910.8,264.3 911.7,264.5 913.1,230.4 					"/>
					<polygon class="st46" points="932.8,216.1 938.8,250.6 939.8,250.6 936.6,216.6 					"/>
					<polygon class="st46" points="912.8,211.1 917.9,238.1 918.8,238.1 916.6,211.3 					"/>
				</g>
				<g>
					<polygon class="st60" points="911.5,187.1 938.7,171.3 938.7,219.4 911.4,235.1 					"/>
					<polygon class="st25" points="911.5,187.1 890.7,175.1 890.7,223.1 911.4,235.1 					"/>
					<polygon class="st61" points="890.7,175.1 917.9,159.3 938.7,171.3 911.5,187.1 					"/>
					<polygon class="st62" points="913.1,188.1 937,174.2 937,196.3 913.1,210.1 					"/>
					<polygon class="st63" points="913.1,212.1 937,198.1 937,218.3 913.1,232.1 					"/>
					<polygon class="st25" points="921.6,185.7 928.4,181.8 928.4,184.1 921.6,188.1 					"/>
				</g>
				<polygon class="st64" points="946.5,221.6 921.5,207.1 924.5,205.3 935.2,199.2 946.5,205.6 				"/>
				<polygon class="st36" points="933.5,200.2 935.2,199.2 946.7,205.6 944.8,206.6 				"/>
				<polygon class="st62" points="924.5,218.4 948.4,204.6 948.4,224.8 924.5,238.6 				"/>
				<polygon class="st65" points="948.4,204.6 946.8,203.6 922.5,217.6 924.5,218.4 				"/>
				<polygon class="st64" points="922.5,217.6 922.5,237.2 924.5,238.6 924.5,218.4 				"/>
				<polygon class="st25" points="933,215.6 939.8,211.6 939.8,213.9 933,217.8 				"/>
				<polygon class="st64" points="922.5,235.8 913.1,230.4 913.1,214.4 922.5,219.9 				"/>
				<polygon class="st36" points="913.1,214.4 913.1,212.4 922.5,217.7 922.5,219.9 				"/>
				<polygon class="st66" points="922.5,217.7 919.4,215.9 938.7,205.1 941.6,206.6 				"/>
				<polygon class="st67" points="916.8,214.6 935.7,204.1 938.1,205.3 919.4,215.9 				"/>
				<polygon class="st68" points="916.8,214.6 914.3,213.1 933,202.9 935.2,204.2 				"/>
			</g>
		</g>
	</g>
</g>
</svg>
