<?xml version="1.0" encoding="utf-8"?>
<!-- Generator: Adobe Illustrator 23.0.1, SVG Export Plug-In . SVG Version: 6.00 Build 0)  -->
<svg version="1.1" id="Layer_1" xmlns="http://www.w3.org/2000/svg" xmlns:xlink="http://www.w3.org/1999/xlink" x="0px" y="0px"
	 viewBox="0 0 1401 371.1" style="enable-background:new 0 0 1401 371.1;" xml:space="preserve">
<style type="text/css">
	.st0{fill:#F6F6F6;}
	.st1{fill:none;}
	.st2{fill:#4A73E5;}
	.st3{fill:url(#SVGID_1_);}
	.st4{fill:#CDCFD2;}
	.st5{fill:#DADCE1;}
	.st6{fill:#E3E3E9;}
	.st7{fill:#024456;}
	.st8{fill:#91C1F1;}
	.st9{fill:#FFFFFF;}
	.st10{fill:#00D8C8;}
	.st11{fill:#6486CE;}
	.st12{fill:#FF9F9F;}
	.st13{fill:#00A0A0;}
	.st14{fill:#0086D1;}
	.st15{fill:#D64441;}
	.st16{fill:#F79B94;}
	.st17{fill:#FCA89E;}
	.st18{fill:#F8564A;}
	.st19{clip-path:url(#SVGID_3_);}
	.st20{fill:#7F4D4E;}
	.st21{fill:#00A39B;}
	.st22{fill:#29266B;}
	.st23{clip-path:url(#SVGID_5_);}
</style>
<polygon class="st0" points="1401,33.1 0,33.1 0,295.1 1029.8,371.1 1401,241.1 "/>
<polygon class="st1" points="1.1,0 1401,-53 1401,371.1 1.1,371.1 "/>
<polygon class="st2" points="0,40.1 1401,40.1 1401,235.1 1027,359.1 0,285.1 "/>
<polygon class="st1" points="1.1,0 1401,-53 1401,371.1 1.1,371.1 "/>
<linearGradient id="SVGID_1_" gradientUnits="userSpaceOnUse" x1="0" y1="239.5844" x2="1401" y2="239.5844" gradientTransform="matrix(1 0 0 1 0 -66.9844)">
	<stop  offset="0" style="stop-color:#4C73E6"/>
	<stop  offset="0.986" style="stop-color:#8A54E8"/>
</linearGradient>
<polygon class="st3" points="0,0.1 1401,0.1 1401,220.1 1024.7,345.1 0,275.1 "/>
<g>
	<g>
		<rect x="802.6" y="266" class="st4" width="406.1" height="3.6"/>
	</g>
	<g>
		<g>
			<rect x="870.9" y="55.2" class="st5" width="1.2" height="36.5"/>
		</g>
		<g>
			<g>
				<polygon class="st5" points="868.4,60.6 867.4,59.8 871.6,54.2 875.6,59.8 874.5,60.5 871.6,56.2 				"/>
			</g>
		</g>
	</g>
	<g>
		<path class="st5" d="M1196.9,101c-1.1,0-2.3-0.2-3.4-0.4c-3.8-0.9-7.2-3.3-9.3-6.7c-4.4-6.9-2.3-16.2,4.7-20.6
			c6.9-4.4,16.2-2.3,20.6,4.7c2.1,3.4,2.8,7.4,1.9,11.3c-0.9,3.8-3.3,7.2-6.7,9.3C1202.3,100.3,1199.6,101,1196.9,101z M1196.8,71.9
			c-2.6,0-5.2,0.7-7.5,2.2c-6.6,4.2-8.7,13-4.5,19.5c2,3.2,5.2,5.4,8.8,6.3c3.7,0.8,7.5,0.3,10.7-1.8c6.6-4.2,8.7-13,4.5-19.5
			c-2-3.2-5.2-5.4-8.8-6.3C1199,72,1197.8,71.9,1196.8,71.9z"/>
	</g>
	<g>
		<path class="st5" d="M1195.2,94.1c-2.2-0.5-4-1.8-5.2-3.6c-1.3-1.8-1.6-4-1.2-6.1l0.8,0.2c-0.4,1.8-0.1,3.8,1.1,5.5
			c1.1,1.7,2.8,2.8,4.7,3.3L1195.2,94.1z"/>
	</g>
	<g>
		<path class="st5" d="M1194.4,97.5c-3-0.7-5.7-2.6-7.4-5.2c-1.7-2.7-2.3-5.8-1.6-8.8l0.8,0.2c-0.6,2.8-0.1,5.7,1.5,8.2
			c1.6,2.5,4.1,4.2,6.9,4.8L1194.4,97.5z"/>
	</g>
	<g>
		<path class="st5" d="M1197.4,97.8c-0.5,0-1.1,0-1.6-0.1l0.1-0.8c0.5,0.1,1.1,0.1,1.6,0.1L1197.4,97.8
			C1197.6,97.8,1197.5,97.8,1197.4,97.8z M1199.4,97.7l-0.2-0.8c0.5-0.1,1.1-0.3,1.6-0.4l0.3,0.7C1200.5,97.4,1200,97.6,1199.4,97.7
			z M1202.7,96.5l-0.4-0.7c0.5-0.3,0.9-0.6,1.4-0.9l0.5,0.6C1203.6,95.8,1203.2,96.2,1202.7,96.5z M1205.6,94.3l-0.6-0.5
			c0.4-0.4,0.7-0.8,1-1.3l0.6,0.4C1206.3,93.4,1205.9,93.8,1205.6,94.3z M1207.4,91.3l-0.7-0.3c0.3-0.5,0.4-1,0.5-1.6l0.8,0.3
			C1207.7,90.2,1207.7,90.7,1207.4,91.3z"/>
	</g>
	<g>
		<path class="st5" d="M1208.2,88.7l-0.8-0.2c0.6-2.8,0.1-5.7-1.5-8.2s-4.1-4.2-6.9-4.8l0.2-0.8c3,0.7,5.7,2.6,7.4,5.2
			C1208.2,82.6,1208.8,85.7,1208.2,88.7z"/>
	</g>
	<g>
		<path class="st5" d="M1186.4,82.6l-0.8-0.3c0.2-0.6,0.3-1.2,0.5-1.7l0.7,0.3C1186.8,81.5,1186.7,82.1,1186.4,82.6z M1187.8,79.6
			l-0.7-0.4c0.3-0.5,0.7-1,1.1-1.4l0.6,0.5C1188.4,78.7,1188.1,79.1,1187.8,79.6z M1190,77.1l-0.5-0.6c0.5-0.4,1-0.7,1.5-1l0.4,0.7
			C1190.9,76.5,1190.4,76.9,1190,77.1z M1192.8,75.6l-0.3-0.7c0.5-0.3,1.2-0.3,1.7-0.4l0.1,0.8C1193.9,75.3,1193.4,75.4,1192.8,75.6
			z M1197.7,75.2c-0.5-0.1-1.1-0.2-1.6-0.2v-0.8c0.6,0,1.2,0.1,1.8,0.2L1197.7,75.2z"/>
	</g>
	<g>
		
			<rect x="1202.1" y="99.7" transform="matrix(0.8475 -0.5309 0.5309 0.8475 129.7698 653.7838)" class="st5" width="0.8" height="2.8"/>
	</g>
	<g>
		
			<rect x="1207.5" y="96" transform="matrix(0.8317 -0.5552 0.5552 0.8317 149.1371 687.0045)" class="st5" width="0.8" height="2.9"/>
	</g>
	<g>
		<path class="st5" d="M1203.8,107.4l-2.4-3.8l9.3-5.8l2.4,3.8L1203.8,107.4z M1202.6,103.9l1.5,2.5l7.9-5l-1.5-2.5L1202.6,103.9z"
			/>
	</g>
	<g>
		
			<rect x="1207.8" y="104.8" transform="matrix(0.8539 -0.5204 0.5204 0.8539 119.1569 644.845)" class="st5" width="0.8" height="10.8"/>
	</g>
	<g>
		
			<rect x="1216.7" y="100.4" transform="matrix(0.8596 -0.5109 0.5109 0.8596 113.4374 637.6149)" class="st5" width="0.8" height="24"/>
	</g>
	<path class="st6" d="M816,105.4l-6.5-0.9l0.9-6.4l6.5,0.9L816,105.4z M811,103.4l4,0.6l0.6-3.8l-3.9-0.6L811,103.4z"/>
	<path class="st6" d="M1138.8,50.3L1138.8,50.3c0.2-0.3,0.5-0.5,0.8-0.3l0.5,0.3c0.3,0.2,0.5,0.5,0.3,0.8l0,0
		c-0.2,0.3-0.5,0.5-0.8,0.3l-0.5-0.3C1138.8,51,1138.7,50.6,1138.8,50.3z"/>
	<path class="st6" d="M1141.4,49.5l0.3-0.5c0.2-0.3,0.5-0.5,0.8-0.3l0,0c0.3,0.2,0.5,0.5,0.3,0.8l-0.3,0.5c-0.2,0.3-0.5,0.5-0.8,0.3
		l0,0C1141.6,50.3,1141.3,49.9,1141.4,49.5z"/>
	<path class="st6" d="M1142.6,51.9L1142.6,51.9c0.2-0.3,0.5-0.5,0.8-0.3l0.4,0.2c0.3,0.2,0.5,0.5,0.3,0.8l0,0
		c-0.2,0.3-0.5,0.5-0.8,0.3l-0.4-0.2C1142.6,52.6,1142.4,52.2,1142.6,51.9z"/>
	<path class="st6" d="M1140,53.2l0.3-0.6c0.2-0.3,0.5-0.5,0.8-0.3l0,0c0.3,0.2,0.5,0.5,0.3,0.8l-0.3,0.6c-0.2,0.3-0.5,0.5-0.8,0.3
		l0,0C1140,54,1139.7,53.6,1140,53.2z"/>
	<polygon class="st6" points="804.9,72.4 801.6,72.5 801.6,75.7 800.4,75.8 800.3,71.4 804.9,71.2 	"/>
	<path class="st6" d="M984.4,55l-1.8,4.9l-4.8-1.7l1.8-4.9L984.4,55z M981.9,58.2l0.8-2.4l-2.3-0.8l-0.8,2.4L981.9,58.2z"/>
	
		<rect x="1081.5" y="50.1" transform="matrix(0.9872 -0.1597 0.1597 0.9872 5.7921 173.5753)" class="st6" width="2.7" height="1.3"/>
	
		<rect x="1084.3" y="46.3" transform="matrix(0.9872 -0.1597 0.1597 0.9872 6.3253 173.8615)" class="st6" width="1.3" height="2.6"/>
	
		<rect x="1086.9" y="49.3" transform="matrix(0.9872 -0.1597 0.1597 0.9872 5.9939 174.4188)" class="st6" width="2.5" height="1.3"/>
	
		<rect x="1085.9" y="51.8" transform="matrix(0.9872 -0.1595 0.1595 0.9872 5.4272 173.9883)" class="st6" width="1.3" height="2.8"/>
	<polygon class="st7" points="879.8,72.9 879.8,201.6 1111.5,201.6 1111.5,92.5 1092.8,72.9 	"/>
	<polygon class="st8" points="1092.1,72.9 1092.1,92.5 1111.3,92.5 	"/>
	<rect x="1013.9" y="79.9" class="st9" width="70.1" height="2.3"/>
	<rect x="1013.9" y="169" class="st9" width="90.2" height="1.1"/>
	<rect x="1013.9" y="172.4" class="st9" width="90.2" height="1.1"/>
	<rect x="1013.9" y="175.7" class="st9" width="74.1" height="1.1"/>
	<rect x="1013.9" y="183.7" class="st9" width="90.2" height="1.1"/>
	<rect x="1013.9" y="187.1" class="st9" width="33.2" height="1.1"/>
	<rect x="1080.6" y="97" class="st9" width="23.6" height="1.1"/>
	<rect x="1080.6" y="101.1" class="st9" width="23.6" height="1.1"/>
	<rect x="1080.6" y="105.3" class="st9" width="23.6" height="1.1"/>
	<rect x="1080.6" y="109.4" class="st9" width="23.6" height="1.1"/>
	<rect x="1080.6" y="113.6" class="st9" width="15" height="1.1"/>
	<rect x="1080.6" y="135.2" class="st9" width="23.6" height="1.1"/>
	<rect x="1080.6" y="139.3" class="st9" width="23.6" height="1.1"/>
	<rect x="1080.6" y="143.5" class="st9" width="23.6" height="1.1"/>
	<rect x="1080.6" y="147.6" class="st9" width="16.5" height="1.1"/>
	<rect x="1013.9" y="84.8" class="st9" width="55.3" height="2.3"/>
	<rect x="1013.9" y="103.6" class="st10" width="8.1" height="15.6"/>
	<rect x="1024.2" y="97.5" class="st10" width="8.1" height="21.6"/>
	<rect x="1034.3" y="101.4" class="st10" width="8.1" height="17.8"/>
	<rect x="1044.6" y="92.8" class="st10" width="8.1" height="26.3"/>
	<rect x="1054.8" y="95.5" class="st10" width="8.1" height="23.6"/>
	<rect x="1065.1" y="99.1" class="st10" width="8.1" height="20.1"/>
	<rect x="1013.9" y="134.6" class="st9" width="15.9" height="22.9"/>
	<rect x="1057.2" y="134.6" class="st9" width="15.9" height="22.9"/>
	<rect x="1035.6" y="134.6" class="st9" width="15.9" height="22.9"/>
	<circle class="st11" cx="932.7" cy="133.7" r="39.5"/>
	<path class="st10" d="M946.2,96.5c-7.8-2.8-16.1-3.1-24.1-0.9l10.5,38.1L946.2,96.5z"/>
	<path class="st12" d="M922.1,95.6c-12.6,3.5-22.6,13-26.9,25.3l37.4,12.8L922.1,95.6z"/>
	<path class="st13" d="M895.2,121c-5.5,16.4,0.2,34.4,14.1,44.6l23.3-31.9L895.2,121z"/>
	<path class="st14" d="M927.8,172.9c1.6,0.2,3.2,0.3,4.8,0.3c8.3,0,16.3-2.6,23-7.4l-23-32.2L927.8,172.9z"/>
	<path class="st9" d="M932.7,133.7l-23.3,31.8c5.4,4,11.9,6.5,18.6,7.4L932.7,133.7z"/>
	<path class="st6" d="M916.7,35.2c-3.7,0-6.6,2.9-6.6,6.6s2.9,6.6,6.6,6.6s6.6-2.9,6.6-6.6C923.3,38.1,920.5,35.2,916.7,35.2
		L916.7,35.2z M916.7,46.7c-2.8,0-4.9-2.2-4.9-4.9c0-2.8,2.2-4.9,4.9-4.9c2.8,0,4.9,2.2,4.9,4.9l0,0
		C921.7,44.5,919.5,46.7,916.7,46.7L916.7,46.7z"/>
	<path class="st6" d="M927.6,51c0.3,0.4,0.3,1,0,1.3l0,0c-0.4,0.3-1,0.3-1.3,0l-6-5.8c-0.3-0.3-0.4-1,0-1.3l0,0l0,0
		c0.3-0.3,1-0.4,1.3,0l0,0L927.6,51z"/>
	<path class="st15" d="M1148,124.7c-7.9,3.3-22.6,18.6-22.6,18.6l-28.9-5.3l0.9,7.5l34.6,13.6c0,0,17.2-14.7,19.4-22.2
		C1153.7,129.3,1152.6,122.7,1148,124.7z"/>
	<path class="st16" d="M1166.9,132.1l-4.4-1.3c-1.4-0.5-2.2-2.1-1.7-3.6l1.7-5.4c0.3-1.5,1.8-2.4,3.3-2.1l4.4,1.3
		c1.4,0.5,2.2,2.1,1.7,3.6l-1.7,5.4C1170,131.5,1168.5,132.4,1166.9,132.1z"/>
	<path class="st17" d="M1100.7,139.1l-2.4,6.8c0,0-9.4-7.8-9.2-10.5s2.3-3.2,2.3-3.2l7.9,3.6
		C1100.6,136.3,1101.2,137.8,1100.7,139.1z"/>
	<path class="st18" d="M1165.4,182.6l-35.2-0.1l10.6-48.8c0.8-3.8,7.3-9.9,11-8.8l25.4,7.4c3.6,1.1,5.6,4.8,4.5,8.4
		c-0.1,0.2-0.1,0.3-0.2,0.5L1165.4,182.6z"/>
	<path class="st17" d="M1157.5,117.1c0,6.5,5.3,7.2,11.9,7.2c6.5,0.3,12-4.9,12.3-11.4c0.3-6.5-4.9-12-11.4-12.3c-0.3,0-0.5,0-0.8,0
		C1162.9,100.5,1157.5,110.5,1157.5,117.1z"/>
	<g>
		<g>
			<g>
				<defs>
					<path id="SVGID_2_" d="M1157.5,117.1c0,6.5,5.3,7.2,11.9,7.2c6.5,0.3,12-4.9,12.3-11.4c0.3-6.5-4.9-12-11.4-12.3
						c-0.3,0-0.5,0-0.8,0C1162.9,100.5,1157.5,110.5,1157.5,117.1z"/>
				</defs>
				<clipPath id="SVGID_3_">
					<use xlink:href="#SVGID_2_"  style="overflow:visible;"/>
				</clipPath>
				<g class="st19">
					<path class="st20" d="M1173.9,108c0,0-1.3,4-0.7,4.2c0.6,0.2,2.8,0,3.8,2.3c0.9,2.3-1.3,3.8-3.3,3.7c-1.9-0.2-2.1,4.9,2.4,5.4
						c4.5,0.5,9.1-9.2,8.1-13.8c-1.1-4.5-6.9-10.9-9.4-11.4c-2.6-0.5-29,1-29,1L1173.9,108z"/>
				</g>
			</g>
		</g>
	</g>
	<path class="st20" d="M1164.3,115.1c-3-0.9-6.3,0.8-7.2,3.8s0.8,6.3,3.8,7.2c3,0.9,6.3-0.8,7.2-3.8S1167.3,116.1,1164.3,115.1z
		 M1161.6,124.2c-2-0.6-3.1-2.7-2.5-4.6c0.6-2,2.7-3.1,4.6-2.5c2,0.6,3.1,2.7,2.5,4.6l0,0C1165.5,123.7,1163.4,124.8,1161.6,124.2
		L1161.6,124.2z"/>
	<path class="st20" d="M1157.5,118.2l10.9,3.3c0,0-1.8,16-10.5,12.9C1149.6,131.4,1157.5,118.2,1157.5,118.2z"/>
	<path class="st21" d="M1165.4,182.6l-35.2-0.1V262h6.9c0,0,5.3-39.2,7.3-60.9h4.8l-0.3,30.8l28.3,24.8l3.8-6.4l-18.8-24.4
		c0,0,3.5-31.5,3.4-36.9C1165.6,186.8,1165.5,184.7,1165.4,182.6z"/>
	<path class="st22" d="M1130,261.9h7.1v5.4h-14.4c-0.9,0-1.3-2.1-0.4-2.6L1130,261.9z"/>
	<path class="st22" d="M1177.2,256.3l3.9-5.9l4.5,3l-7.9,11.9c-0.5,0.8-2.5-0.1-2.4-1.1L1177.2,256.3z"/>
	<path class="st17" d="M890.8,168.7c1.1-0.2,1.8-1.2,1.7-2.3l0,0l-0.3-3.5c0-0.7-1.1-0.5-1.8-0.4l-1.8,0.5l0.6,6
		C889.1,169,890.4,168.7,890.8,168.7z"/>
	<g>
		<path class="st21" d="M849.8,188.7h34.3l-0.9,73.2h-6.5c0,0-4.9-36.9-6.9-57.2h-4.5l-1.3,57.2h-6.5c0,0-7.7-57.4-7.5-68.4
			C849.8,191.8,849.8,190.3,849.8,188.7z"/>
		<path class="st18" d="M849.8,188.7h34.3l4.3-45.5c0.4-3.7-3.2-6.9-7.8-6.9h-27.3c-4.6,0-8.1,3.2-7.8,6.9L849.8,188.7z"/>
		<path class="st16" d="M867.2,141.1c-6.1,0-6-4.2-6-5.1v-6.7c0-1.5,2.3-1.4,3.6-1.4h4.3c1.3,0,3.6,1.3,3.6,2.8v5.3
			c0,2.8-2.4,5.2-5.3,5.1C867.4,141.1,867.2,141.1,867.2,141.1z"/>
		<path class="st17" d="M876.6,127.8c-1.8,5.9-6.7,5-12.6,3.3c-5.9-1.6-9.5-7.7-7.9-13.6c1.6-5.9,7.7-9.5,13.6-7.9
			c0.3,0.1,0.4,0.1,0.7,0.2C876.2,111.5,878.3,122,876.6,127.8z"/>
		<g>
			<g>
				<g>
					<defs>
						<path id="SVGID_4_" d="M876.6,127.8c-1.8,5.9-6.7,5-12.6,3.3c-5.9-1.6-9.5-7.7-7.9-13.6c1.6-5.9,7.7-9.5,13.6-7.9
							c0.3,0.1,0.4,0.1,0.7,0.2C876.2,111.5,878.3,122,876.6,127.8z"/>
					</defs>
					<clipPath id="SVGID_5_">
						<use xlink:href="#SVGID_4_"  style="overflow:visible;"/>
					</clipPath>
					<g class="st23">
						<path class="st22" d="M864.3,115.2c0,0,0,3.9-0.5,3.9s-2.6-0.8-4.1,1c-1.5,1.8,0.2,3.8,1.9,4.2c1.8,0.4,0.5,5-3.7,4.2
							c-4.2-0.8-5.7-10.7-3.5-14.5c2.2-3.8,9.1-8,11.5-7.8c2.4,0.3,18.6,8.9,18.6,8.9L864.3,115.2z"/>
					</g>
				</g>
			</g>
		</g>
		<path class="st18" d="M888.5,141.7l8.8,16.8l13.5-15.6c0-0.6,6.3,1.8,5.5,3.1c-1.3,2.3-9.9,20-16.8,27.2c-3.8,4-15-10.7-15.6-11.8
			c-1-1.6-2.3-11.7-2.5-17.3c0-1.3,0.9-2.4,2.3-2.5l2-3.7C886.8,137.9,888.3,140.6,888.5,141.7z"/>
		<path class="st18" d="M848.4,137.8c0,0-15.9,16.9-21.4,22.2c-3.1,2.9,0,5.1,1.8,7.4c4.9,6.1,20.7,17,20.7,17l-0.9-9.3l-9.4-11.2
			c0,0,13.5-10.4,13.9-11.1c1.3-2.1,0.2-11,0.2-11L848.4,137.8z"/>
		<path class="st22" d="M883.3,261.8h-6.7v5.1h13.5c0.9,0,1.2-2,0.4-2.4L883.3,261.8z"/>
		<path class="st22" d="M863.8,261.8h-6.7v5.1h13.5c0.9,0,1.2-2,0.4-2.4L863.8,261.8z"/>
		<path class="st17" d="M911,142.5c0.7-3.4,3.6-7.1,7.5-5.3c3.9,1.8-2.6,9.4-2.6,9.4L911,142.5z"/>
	</g>
	<path class="st14" d="M1063,56.6c-26.2,0-47.4,21.2-47.4,47.4s21.2,47.4,47.4,47.4s47.4-21.2,47.4-47.4l0,0
		C1110.4,77.8,1089.1,56.6,1063,56.6z M1063,139.4c-19.6,0-35.4-15.9-35.4-35.4s15.9-35.4,35.4-35.4c19.6,0,35.4,15.9,35.4,35.4
		S1082.5,139.4,1063,139.4L1063,139.4z"/>
	<path class="st14" d="M1142.2,159.9c2.3,2.3,2.3,6.2,0,8.5l0,0c-2.3,2.3-6.2,2.3-8.5,0l-37.9-36.3c-2.3-2.3-2.3-6.2,0-8.5l0,0l0,0
		c2.3-2.3,6.2-2.3,8.5,0l0,0L1142.2,159.9z"/>
	<path class="st17" d="M1119.7,157.6l0.9,9.7c0,0-11.9-3-12.9-5.7c-0.9-2.6,0.7-3.8,0.7-3.8L1119.7,157.6z"/>
	<path class="st15" d="M1176.2,133.4l-24.1,24.7l-33.4-0.5l0.8,9.7l41.2,4.9c0,0,16.9-19.1,19.1-26.6
		C1181.9,138.1,1181.2,133.4,1176.2,133.4z"/>
</g>
</svg>
