<?xml version="1.0" encoding="utf-8"?>
<!-- Generator: Adobe Illustrator 21.0.0, SVG Export Plug-In . SVG Version: 6.00 Build 0)  -->
<svg version="1.1" id="Layer_5" xmlns="http://www.w3.org/2000/svg" xmlns:xlink="http://www.w3.org/1999/xlink" x="0px" y="0px"
	 viewBox="0 0 48 48" style="enable-background:new 0 0 48 48;" xml:space="preserve">
<style type="text/css">
	.st0{fill:#4775E5;}
</style>
<g>
	<path class="st0" d="M24.7,6.9c0.8,0,1.5,0.7,1.5,1.5h1.5c0-1.6-1.3-3-3-3c-1.6,0-3,1.3-3,3v1.5c0,1.6,1.3,3,3,3c1.6,0,3-1.3,3-3
		h-1.5c0,0.8-0.7,1.5-1.5,1.5c-0.8,0-1.5-0.7-1.5-1.5V8.4C23.3,7.6,23.9,6.9,24.7,6.9z"/>
	<path class="st0" d="M32.9,5.4h-3.7v7.4h1.5v-3h2.2c0.4,0,0.7,0.3,0.7,0.7v2.2h1.5v-2.2c0-0.6-0.2-1.1-0.6-1.5
		c0.4-0.4,0.6-0.9,0.6-1.5C35.1,6.4,34.1,5.4,32.9,5.4z M30.7,8.4V6.9h2.2c0.4,0,0.7,0.3,0.7,0.7c0,0.4-0.3,0.7-0.7,0.7H30.7z"/>
	<path class="st0" d="M40.6,9.9h-0.4l-1.5-4.5h-2v7.4h1.5V8.5l1,2.9h2.6l1-2.9v4.3h1.5V5.4h-2L40.6,9.9z"/>
	<path class="st0" d="M3.9,15.8h1.5v1.5H3.9V15.8z"/>
	<path class="st0" d="M6.9,15.8h1.5v1.5H6.9V15.8z"/>
	<path class="st0" d="M9.9,15.8h1.5v1.5H9.9V15.8z"/>
	<path class="st0" d="M38.9,23.3H27c-1.2,0-2.2,1-2.2,2.2V27c0,1.2,1,2.2,2.2,2.2v1.5c-1.2,0-2.2,1-2.2,2.2v1.5c0,1.2,1,2.2,2.2,2.2
		v1.5c-1.2,0-2.2,1-2.2,2.2v1.5c0,1.2,1,2.2,2.2,2.2h11.9c1.2,0,2.2-1,2.2-2.2v-1.5c0-1.2-1-2.2-2.2-2.2v-1.5c1.2,0,2.2-1,2.2-2.2
		v-1.5c0-1.2-1-2.2-2.2-2.2v-1.5c1.2,0,2.2-1,2.2-2.2v-1.5C41.1,24.3,40.1,23.3,38.9,23.3z M39.6,40.4v1.5c0,0.4-0.3,0.7-0.7,0.7H27
		c-0.4,0-0.7-0.3-0.7-0.7v-1.5c0-0.4,0.3-0.7,0.7-0.7h11.9C39.3,39.6,39.6,39.9,39.6,40.4z M37.4,38.1h-8.9v-1.5h8.9V38.1z
		 M39.6,32.9v1.5c0,0.4-0.3,0.7-0.7,0.7H27c-0.4,0-0.7-0.3-0.7-0.7v-1.5c0-0.4,0.3-0.7,0.7-0.7h11.9C39.3,32.2,39.6,32.5,39.6,32.9z
		 M37.4,30.7h-8.9v-1.5h8.9V30.7z M39.6,27c0,0.4-0.3,0.7-0.7,0.7H27c-0.4,0-0.7-0.3-0.7-0.7v-1.5c0-0.4,0.3-0.7,0.7-0.7h11.9
		c0.4,0,0.7,0.3,0.7,0.7V27z"/>
	<path class="st0" d="M43.3,1H22.5c-2,0-3.7,1.7-3.7,3.7v8.2H3.2c-1.2,0-2.2,1-2.2,2.2v29.7C1,46,2,47,3.2,47h38.6
		c1.2,0,2.2-1,2.2-2.2V17.2c1.7-0.3,3-1.8,3-3.6V4.7C47,2.6,45.4,1,43.3,1L43.3,1z M3.2,14.3h15.7c0.3,1.7,1.8,3,3.6,3h2.6l1.2,1.5
		H2.4v-3.7C2.4,14.7,2.8,14.3,3.2,14.3z M41.8,45.6H3.2c-0.4,0-0.7-0.3-0.7-0.7V20.3h25.2l0.6,0.7c0.4,0.5,1.1,0.8,1.7,0.8
		c1,0,1.8-0.6,2.1-1.5h10.6v24.5C42.6,45.2,42.2,45.6,41.8,45.6L41.8,45.6z M32.2,18.8v-1.5h10.4v1.5H32.2z M45.6,13.6
		c0,1.2-1,2.2-2.2,2.2H30.7v3.7c0,0.4-0.3,0.8-0.8,0.8c-0.2,0-0.4-0.1-0.6-0.3l-3.5-4.2h-3.3c-1.2,0-2.2-1-2.2-2.2V4.7
		c0-1.2,1-2.2,2.2-2.2h20.8c1.2,0,2.2,1,2.2,2.2V13.6z"/>
	<path class="st0" d="M13.6,38.1c4.5,0,8.2-3.7,8.2-8.2s-3.7-8.2-8.2-8.2s-8.2,3.7-8.2,8.2S9.1,38.1,13.6,38.1z M13.6,36.6
		c-1.6,0-3-0.6-4.2-1.5l4.5-4.5h6.3C19.9,34,17,36.6,13.6,36.6z M18.8,25.8c0.8,1,1.3,2.1,1.4,3.4h-4.9L18.8,25.8z M17.8,24.7
		l-4.2,4.2l-4.2-4.2c1.1-0.9,2.6-1.5,4.2-1.5S16.6,23.8,17.8,24.7z M8.4,25.8l4.2,4.2l-4.2,4.2c-0.9-1.1-1.5-2.6-1.5-4.2
		S7.5,26.9,8.4,25.8z"/>
	<path class="st0" d="M3.9,39.6h1.5v1.5H3.9V39.6z"/>
	<path class="st0" d="M6.9,39.6h16.4v1.5H6.9V39.6z"/>
	<path class="st0" d="M3.9,42.6h4.5v1.5H3.9V42.6z"/>
	<path class="st0" d="M9.9,42.6h13.4v1.5H9.9V42.6z"/>
</g>
</svg>
