<?xml version="1.0" encoding="utf-8"?>
<!-- Generator: Adobe Illustrator 23.0.1, SVG Export Plug-In . SVG Version: 6.00 Build 0)  -->
<svg version="1.1" id="Layer_1" xmlns="http://www.w3.org/2000/svg" xmlns:xlink="http://www.w3.org/1999/xlink" x="0px" y="0px"
	 viewBox="0 0 48 48" style="enable-background:new 0 0 48 48;" xml:space="preserve">
<style type="text/css">
	.st0{fill:#4775E5;}
</style>
<g id="XMLID_816_">
	<g id="XMLID_1663_">
		<g id="XMLID_709_">
			<path id="XMLID_710_" class="st0" d="M22.7,33.2c-0.2,0-0.4,0.1-0.6,0.3s-0.3,0.4-0.3,0.6c0,0.2,0.1,0.4,0.3,0.6s0.4,0.3,0.6,0.3
				s0.4-0.1,0.6-0.3s0.3-0.4,0.3-0.6c0-0.2-0.1-0.4-0.3-0.6S23,33.2,22.7,33.2z"/>
			<path id="XMLID_734_" class="st0" d="M38.8,30.7c-0.2,0-0.4,0.1-0.6,0.3S38,31.3,38,31.5c0,0.2,0.1,0.4,0.3,0.6s0.4,0.3,0.6,0.3
				c0.2,0,0.4-0.1,0.6-0.3s0.3-0.4,0.3-0.6s-0.1-0.4-0.3-0.6C39.2,30.8,39,30.7,38.8,30.7z"/>
			<path id="XMLID_735_" class="st0" d="M13.9,26.6c-0.2,0-0.4,0.1-0.6,0.3C13.1,27,13,27.2,13,27.5s0.1,0.4,0.3,0.6
				s0.4,0.3,0.6,0.3s0.4-0.1,0.6-0.3c0.2-0.2,0.3-0.4,0.3-0.6s-0.1-0.4-0.3-0.6C14.3,26.7,14.1,26.6,13.9,26.6z"/>
			<path id="XMLID_744_" class="st0" d="M45.6,11.6c0-0.5-0.4-0.8-0.8-0.8h-1.3C43.2,10.1,43,9.6,42.7,9l0.9-0.9
				c0.3-0.3,0.3-0.9,0-1.2l-2.6-2.6c-0.3-0.3-0.9-0.3-1.2,0L39,5.3c-0.5-0.3-1.1-0.5-1.7-0.7V3.3c0-0.5-0.4-0.8-0.8-0.8h-3.6
				c-0.5,0-0.8,0.4-0.8,0.8v1.3c-0.6,0.2-1.2,0.4-1.7,0.7l-0.9-0.9C29,4,28.5,4,28.1,4.4l-2.6,2.6c-0.2,0.2-0.3,0.5-0.2,0.7H5.8
				c-1.9,0-3.4,1.5-3.4,3.4v23.2c0,1.9,1.5,3.4,3.4,3.4h13.4v2.9h-2c-1.7,0-3,1.4-3,3v1.2c0,0.5,0.4,0.8,0.8,0.8h15.5
				c0.5,0,0.8-0.4,0.8-0.8v-1.2c0-1.7-1.4-3-3-3h-2v-2.9h13.4c1.9,0,3.4-1.5,3.4-3.4V20.5l0.6-0.6c0.2-0.2,0.3-0.4,0.3-0.6
				s-0.1-0.4-0.3-0.6l-0.9-0.9c0.3-0.5,0.5-1.1,0.7-1.7h1.3c0.2,0,0.4-0.1,0.6-0.3s0.3-0.4,0.3-0.6L45.6,11.6z M29.6,43.5v0.3H15.8
				v-0.3c0-0.7,0.6-1.3,1.4-1.3h11.1C29,42.2,29.6,42.8,29.6,43.5z M24.6,40.5h-3.7v-2.9h3.7C24.6,37.6,24.6,40.5,24.6,40.5z
				 M41.3,34.3c0,0.9-0.8,1.7-1.7,1.7H5.8c-0.9,0-1.7-0.8-1.7-1.7v-1.9h31.3c0.5,0,0.8-0.4,0.8-0.8c0-0.5-0.4-0.8-0.8-0.8H4.1v-2.4
				h6.4c0.5,0,0.8-0.4,0.8-0.8c0-0.5-0.4-0.8-0.8-0.8H4.1V11c0-0.9,0.8-1.7,1.7-1.7h20.5c-0.2,0.4-0.4,0.9-0.5,1.4h-1.3
				c-0.2,0-0.4,0.1-0.6,0.3s-0.3,0.4-0.3,0.6v3.6c0,0.5,0.4,0.8,0.8,0.8h1.3c0.2,0.6,0.4,1.1,0.7,1.7l-0.9,0.9
				c-0.3,0.3-0.3,0.9,0,1.2l2.6,2.6c0.3,0.3,0.9,0.3,1.2,0l0.9-0.9c0.5,0.3,1.1,0.5,1.7,0.7v1.3c0,0.5,0.4,0.8,0.8,0.8h3.6
				c0.5,0,0.8-0.4,0.8-0.8v-1.3c0.6-0.2,1.2-0.4,1.7-0.7l0.9,0.9c0.2,0.2,0.4,0.3,0.6,0.3s0.4-0.1,0.6-0.3l0.3-0.3L41.3,34.3
				L41.3,34.3z M43.9,14.4h-1.1c-0.4,0-0.7,0.3-0.8,0.7c-0.2,0.9-0.5,1.7-1,2.4c-0.2,0.3-0.2,0.8,0.1,1l0.8,0.8l-1.4,1.4l-0.8-0.8
				c-0.3-0.3-0.7-0.3-1-0.2c0,0,0,0-0.1,0c-0.7,0.5-1.5,0.8-2.4,1c-0.4,0.1-0.7,0.4-0.7,0.8v1.1h-1.9v-1.1c0-0.4-0.3-0.7-0.7-0.8
				c-0.8-0.2-1.7-0.5-2.4-1c-0.1-0.1-0.3-0.1-0.5-0.1c-0.2,0-0.4,0.1-0.6,0.3l-0.8,0.8l-1.4-1.4l0.8-0.8c0.3-0.3,0.3-0.7,0.1-1
				c-0.5-0.7-0.8-1.6-1-2.4c-0.1-0.4-0.4-0.7-0.8-0.7h-1.1v-1.9h1.1c0.4,0,0.7-0.3,0.8-0.7c0.2-0.9,0.5-1.7,1-2.4
				c0.2-0.3,0.2-0.8-0.1-1.1l-0.8-0.8l1.4-1.4l0.8,0.8c0.3,0.3,0.7,0.3,1.1,0.1c0.7-0.5,1.5-0.8,2.4-1c0.4-0.1,0.7-0.4,0.7-0.8V4.1
				h1.9v1.1c0,0.4,0.3,0.7,0.7,0.8c0.9,0.2,1.7,0.5,2.4,1c0,0,0,0,0.1,0c0.3,0.2,0.7,0.1,1-0.2l0.8-0.8l1.4,1.4l-0.8,0.8
				c0,0-0.1,0.1-0.1,0.1c-0.2,0.3-0.2,0.6,0,0.9c0.5,0.7,0.8,1.6,1,2.4c0.1,0.4,0.4,0.7,0.8,0.7h1.1L43.9,14.4L43.9,14.4z"/>
			<path id="XMLID_999_" class="st0" d="M34.6,8.2c-2.9,0-5.2,2.3-5.2,5.2s2.3,5.2,5.2,5.2s5.2-2.3,5.2-5.2S37.5,8.2,34.6,8.2z
				 M34.6,16.9c-2,0-3.5-1.6-3.5-3.5s1.6-3.5,3.5-3.5s3.5,1.6,3.5,3.5S36.6,16.9,34.6,16.9z"/>
			<path id="XMLID_1012_" class="st0" d="M16.2,18.2c-0.2,0-0.4,0.1-0.6,0.3c-0.2,0.2-0.3,0.4-0.3,0.6c0,0.2,0.1,0.4,0.3,0.6
				s0.4,0.3,0.6,0.3c0.2,0,0.4-0.1,0.6-0.3s0.3-0.4,0.3-0.6c0-0.2-0.1-0.4-0.3-0.6S16.5,18.2,16.2,18.2z"/>
			<path id="XMLID_1094_" class="st0" d="M22.8,17.6c0.1-0.2,0-0.5-0.1-0.6l-1.4-2.5c-0.2-0.4-0.8-0.5-1.1-0.3l-0.8,0.5
				c-0.3-0.2-0.5-0.4-0.8-0.5v-0.9c0-0.5-0.4-0.8-0.8-0.8h-2.9c-0.5,0-0.8,0.4-0.8,0.8v0.9c-0.3,0.1-0.6,0.3-0.8,0.5l-0.8-0.5
				c-0.2-0.1-0.4-0.1-0.6-0.1s-0.4,0.2-0.5,0.4l-1.4,2.5c-0.2,0.4-0.1,0.9,0.3,1.1l0.8,0.5c0,0.2,0,0.3,0,0.5s0,0.3,0,0.5L10,20
				c-0.4,0.2-0.5,0.8-0.3,1.1l1.4,2.5c0.1,0.2,0.3,0.3,0.5,0.4c0.2,0.1,0.4,0,0.6-0.1l0.8-0.5c0.3,0.2,0.6,0.4,0.8,0.5v0.9
				c0,0.5,0.4,0.8,0.8,0.8h2.8c0.5,0,0.8-0.4,0.8-0.8v-0.9c0.3-0.1,0.6-0.3,0.8-0.5l0.8,0.5c0.4,0.2,0.9,0.1,1.1-0.3l1.4-2.5
				c0.1-0.2,0.1-0.4,0.1-0.6s-0.2-0.4-0.4-0.5l-0.8-0.5c0-0.2,0-0.3,0-0.5s0-0.3,0-0.5l0.8-0.5C22.6,18,22.7,17.8,22.8,17.6z
				 M19.9,18.3c0,0.3,0.1,0.5,0.1,0.8s0,0.5-0.1,0.8c-0.1,0.4,0.1,0.7,0.4,0.9l0.6,0.3l-0.6,1l-0.6-0.3c-0.3-0.2-0.7-0.1-1,0.1
				c-0.4,0.3-0.8,0.6-1.3,0.8c-0.4,0.1-0.6,0.4-0.6,0.8V24h-1.2v-0.7c0-0.4-0.2-0.7-0.6-0.8c-0.5-0.2-0.9-0.4-1.3-0.8
				c-0.3-0.2-0.7-0.3-1-0.1L12.2,22l-0.6-1l0.6-0.3c0.3-0.2,0.5-0.5,0.4-0.9c-0.1-0.3-0.1-0.5-0.1-0.8s0-0.5,0.1-0.8
				c0.1-0.4-0.1-0.7-0.4-0.9l-0.6-0.3l0.6-1l0.6,0.3c0.3,0.2,0.7,0.1,1-0.1c0.4-0.3,0.8-0.6,1.3-0.8c0.4-0.1,0.6-0.4,0.6-0.8v-0.7
				h1.2v0.7c0,0.4,0.2,0.7,0.6,0.8c0.5,0.2,0.9,0.4,1.3,0.8c0.3,0.2,0.7,0.3,1,0.1l0.6-0.3l0.6,1l-0.6,0.3
				C19.9,17.6,19.8,17.9,19.9,18.3z"/>
		</g>
	</g>
</g>
</svg>
