<?xml version="1.0" encoding="utf-8"?>
<!-- Generator: Adobe Illustrator 23.0.1, SVG Export Plug-In . SVG Version: 6.00 Build 0)  -->
<svg version="1.1" id="Capa_1" xmlns="http://www.w3.org/2000/svg" xmlns:xlink="http://www.w3.org/1999/xlink" x="0px" y="0px"
	 viewBox="0 0 512 512" style="enable-background:new 0 0 512 512;" xml:space="preserve">
<style type="text/css">
	.st0{fill:#4775E5;}
</style>
<g>
	<g>
		<g>
			<path class="st0" d="M352.78,441.04h2.15c-22.46-2.81-34.44-11.79-40.81-20.87H197.87c-6.37,9.08-18.34,18.06-40.81,20.87h1.4
				c-7.02,0-12.64,5.71-12.64,12.64c0,7.02,5.71,12.64,12.64,12.64h194.31c7.02,0,12.64-5.71,12.64-12.64
				C365.51,446.66,359.8,441.04,352.78,441.04z"/>
			<path class="st0" d="M483.35,316.74V78.72c0-18.25-14.79-33.04-33.04-33.04H61.69c-18.25,0-33.04,14.79-33.04,33.04v243.83
				c0,0.09,0,0.28,0,0.38v44.18c0,0.19,0,0.38,0,0.56v2.44c0,0.19,0,0.38,0,0.56v0.66l0,0c0.56,15.54,13.39,27.99,29.11,27.99
				h134.13h13.39h101.36h8.24h139.28c15.72,0,28.45-12.45,29.11-27.99l0,0L483.35,316.74L483.35,316.74z M282.39,367.57
				c0,4.02-3.27,7.3-7.3,7.3H236.8c-4.02,0-7.3-3.27-7.3-7.3v-5.06c0-4.02,3.27-7.3,7.3-7.3h38.28c4.02,0,7.3,3.27,7.3,7.3V367.57z
				 M450.31,328.35H61.69c-3.18,0-5.8-2.62-5.8-5.8V78.72c0-3.18,2.62-5.8,5.8-5.8h388.53c3.18,0,5.8,2.62,5.8,5.8v243.83l0,0
				C456.02,325.73,453.5,328.35,450.31,328.35z"/>
			<path class="st0" d="M350.81,190.85h14.6l0.47-0.47c0-4.49-0.38-9.08-1.03-13.57L350.81,190.85z"/>
			<path class="st0" d="M317.3,107.92l-46.34,46.34v14.6l55.22-55.22C323.3,111.48,320.3,109.6,317.3,107.92z"/>
			<path class="st0" d="M296.71,99.4l-25.74,25.74v14.6l36.5-36.5C304.02,101.65,300.37,100.44,296.71,99.4z"/>
			<path class="st0" d="M284.73,96.88c-4.49-0.66-8.99-1.03-13.57-1.03l-0.19,0.19v14.6L284.73,96.88z"/>
			<path class="st0" d="M307.2,190.85l46.52-46.52c-1.68-3-3.55-5.99-5.71-8.89l-55.41,55.41L307.2,190.85L307.2,190.85z"/>
			<path class="st0" d="M341.55,127.3c-1.12-1.21-2.25-2.44-3.46-3.65c-1.21-1.21-2.53-2.44-3.84-3.65l-63.27,63.36v7.39h7.12
				L341.55,127.3z"/>
			<path class="st0" d="M336.31,190.85l26.02-26.02c-1.03-3.65-2.34-7.21-3.74-10.77l-36.78,36.78L336.31,190.85L336.31,190.85z"/>
			<path class="st0" d="M254.41,112.23c-52.61,0-95.29,42.68-95.29,95.29s42.68,95.29,95.29,95.29s95.29-42.68,95.29-95.29h-95.29
				V112.23z"/>
		</g>
	</g>
</g>
</svg>
