<?xml version="1.0" encoding="utf-8"?>
<!-- Generator: Adobe Illustrator 23.0.1, SVG Export Plug-In . SVG Version: 6.00 Build 0)  -->
<svg version="1.1" id="Layer_1" xmlns="http://www.w3.org/2000/svg" xmlns:xlink="http://www.w3.org/1999/xlink" x="0px" y="0px"
	 viewBox="0 0 1401 371.1" style="enable-background:new 0 0 1401 371.1;" xml:space="preserve">
<style type="text/css">
	.st0{fill:#F6F6F6;}
	.st1{fill:none;}
	.st2{fill:#4A73E5;}
	.st3{fill:url(#SVGID_1_);}
	.st4{opacity:0.35;fill:#D3E2F9;enable-background:new    ;}
	.st5{fill:#D3E2F9;}
	.st6{fill:#4367C7;}
	.st7{fill:#FFFFFF;}
	.st8{fill:#EBD265;}
	.st9{fill:#A8C4E5;}
	.st10{fill:#FF5C97;}
	.st11{fill:url(#SVGID_2_);}
	.st12{opacity:0.5;fill:#FFFFFF;enable-background:new    ;}
	.st13{fill:none;stroke:#2C4482;stroke-width:5;stroke-linecap:round;stroke-linejoin:round;stroke-miterlimit:10;}
	.st14{fill:#DAEBFF;}
	.st15{fill:#DCF1FF;}
	.st16{fill:#2C4482;}
	.st17{fill:#D1E3FF;}
	.st18{fill:#E3EEFF;}
	.st19{fill:#F5FCFF;}
	.st20{fill:#E2EEFF;}
	.st21{fill:#0C1B3D;}
	.st22{fill:#243B5B;}
	.st23{fill:#EBF5FF;}
	.st24{fill:#7BBDFF;}
	.st25{fill:#054AA9;}
	.st26{fill:none;stroke:#DE4D30;stroke-width:2;stroke-linecap:round;stroke-linejoin:round;stroke-miterlimit:10;}
	.st27{fill:#EA756C;}
	.st28{fill:#9E6C32;}
	.st29{clip-path:url(#SVGID_6_);fill:#775221;}
	.st30{fill:#062F51;}
	.st31{fill:#21201F;}
	.st32{fill:#06437F;}
	.st33{fill:#153077;}
	.st34{fill:#FFACA6;}
	.st35{fill:#2D2D2D;}
	.st36{fill:#212121;}
	.st37{fill:#6BBE68;}
	.st38{clip-path:url(#SVGID_10_);fill:#52974C;}
	.st39{fill:#0E2354;}
	.st40{clip-path:url(#SVGID_14_);fill:#EA756C;}
	.st41{fill:#F5B47E;}
	.st42{clip-path:url(#SVGID_17_);fill:#F5B47E;}
	.st43{clip-path:url(#SVGID_19_);fill:#212121;}
	.st44{clip-path:url(#SVGID_21_);fill:#2D2D2D;}
	.st45{fill:#FFF27A;}
	.st46{clip-path:url(#SVGID_23_);fill:#FFF27A;}
	.st47{clip-path:url(#SVGID_25_);fill:#FFF27A;}
	.st48{clip-path:url(#SVGID_27_);fill:#EA756C;}
	.st49{fill:#DBC425;}
	.st50{fill:#AE9A4F;}
	.st51{fill:#88C9FF;}
	.st52{fill:#006DFE;}
</style>
<polygon class="st0" points="1401,33.1 0,33.1 0,295.1 1029.8,371.1 1401,241.1 "/>
<polygon class="st1" points="1.1,0 1401,-53 1401,371.1 1.1,371.1 "/>
<polygon class="st2" points="0,40.1 1401,40.1 1401,235.1 1027,359.1 0,285.1 "/>
<polygon class="st1" points="1.1,0 1401,-53 1401,371.1 1.1,371.1 "/>
<linearGradient id="SVGID_1_" gradientUnits="userSpaceOnUse" x1="0" y1="239.5844" x2="1401" y2="239.5844" gradientTransform="matrix(1 0 0 1 0 -66.9844)">
	<stop  offset="0" style="stop-color:#4C73E6"/>
	<stop  offset="0.986" style="stop-color:#8A54E8"/>
</linearGradient>
<polygon class="st3" points="0,0.1 1401,0.1 1401,220.1 1024.7,345.1 0,275.1 "/>
<g>
	<ellipse class="st4" cx="1029.3" cy="278.6" rx="29.1" ry="10.3"/>
	<rect x="807.1" y="249.3" class="st5" width="399.4" height="2.5"/>
	<path class="st6" d="M1118.9,54.9c0-6.4-5.2-11.6-11.6-11.6H904.8c-6.4,0-11.6,5.2-11.6,11.6V61H1119L1118.9,54.9L1118.9,54.9z"/>
	<path class="st7" d="M893.2,61v141.7c0,6.4,5.2,11.6,11.6,11.6h202.5c6.4,0,11.6-5.2,11.6-11.6V61H893.2z"/>
	<rect x="909.7" y="151" class="st8" width="10.6" height="40"/>
	<rect x="928.3" y="156.2" class="st8" width="10.6" height="34.8"/>
	<rect x="947" y="166.6" class="st9" width="10.6" height="24.4"/>
	<rect x="965.7" y="158.9" class="st9" width="10.6" height="32.2"/>
	<rect x="984.4" y="166.6" class="st10" width="10.6" height="24.4"/>
	<rect x="1003.1" y="158.9" class="st10" width="10.6" height="32.2"/>
	<rect x="905.8" y="194.4" class="st9" width="112.2" height="1.5"/>
	
		<linearGradient id="SVGID_2_" gradientUnits="userSpaceOnUse" x1="993.324" y1="488.1348" x2="1109.8241" y2="488.1348" gradientTransform="matrix(1 0 0 -1 0 586)">
		<stop  offset="0" style="stop-color:#B0D8FF"/>
		<stop  offset="1.537955e-02" style="stop-color:#B3D9FF"/>
		<stop  offset="0.145" style="stop-color:#C4E1FF"/>
		<stop  offset="0.3014" style="stop-color:#D1E7FF"/>
		<stop  offset="0.5117" style="stop-color:#D8EAFF"/>
		<stop  offset="1" style="stop-color:#DAEBFF"/>
	</linearGradient>
	<path class="st11" d="M1100.3,122.8h-97.5c-5.2,0-9.5-4.3-9.5-9.5V82.5c0-5.2,4.3-9.5,9.5-9.5h97.5c5.2,0,9.5,4.3,9.5,9.5v30.8
		C1109.8,118.6,1105.5,122.8,1100.3,122.8z"/>
	<path class="st12" d="M1106.7,99.7v18.9c0,0.9-0.7,1.5-1.5,1.5H997.5c-0.9,0-1.5-0.7-1.5-1.5V77c10,0,14.9,3.7,17.8,8.6
		c0.2,0.3,0.3,0.6,0.5,0.9c4.9,9.3,3.4,22.1,14.2,22.1c0.4,0,0.8-0.1,1.1-0.2c0.3-0.1,0.4-0.1,0.7-0.3c7.2-3.1,6.1-24.8,19.1-24.6
		c2.7,0,4.9,1.1,6.5,2.8c0.2,0.2,0.3,0.3,0.4,0.5c5.8,6.8,5.9,21.9,14.7,24.6c3.2,1,6-0.3,8.9-2.6c0.2-0.2,0.3-0.3,0.5-0.4
		c5.9-4.9,11.8-13.3,20.9-11.2c0.3,0.1,0.5,0.2,0.8,0.2C1103.5,98,1105,98.7,1106.7,99.7z"/>
	<path class="st13" d="M1106.7,95.9c-2,0-3.4,0.7-4.6,1.7c-2.2,2-3.4,5.3-4.5,8.5c-1.7,4.9-3.5,9.9-8.7,9.9c-0.3,0-0.6,0-0.9,0
		c-3.4-0.3-5.9-3.1-8.1-6.9c-1.4-2.4-2.6-5.1-3.9-7.9c-3.6-7.9-7.3-16.1-14.2-16.3c-0.1,0-0.2,0-0.3,0c-2,0-3.7,0.8-5.2,2.1
		c-2.9,2.6-4.8,7.4-6.6,12.1c-2.6,6.9-5.5,14.1-11.7,14.2c-4.5,0.1-6.6-1.6-8.3-4.9c-0.7-1.3-1.4-2.7-2.1-4.4
		c-1.4-3.1-3.2-6.9-6-11.4c-2-3-4.4-4.9-7.2-6c-7.2-3.2-15.7-0.9-18.3,0v-0.7c2.8-0.9,10.7-2.9,17.8-0.3c3.1,1.2,6,3.2,8.2,6.6
		c3,4.5,4.7,8.3,6.1,11.5c0.8,1.8,1.4,3.2,2.2,4.5c1.7,3,3.6,4.4,7.7,4.3c5.8-0.2,8.3-6.7,11.1-13.8c1.9-4.8,3.7-9.6,6.7-12.4
		c1.6-1.4,3.5-2.3,6-2.3c7.3,0.2,11.2,8.6,14.8,16.7c1.3,2.7,2.5,5.5,3.8,7.8c2.1,3.7,4.5,6.3,7.7,6.6c5.4,0.5,7.1-4.3,8.9-9.4
		c1.1-3.2,2.3-6.4,4.3-8.5c1.4-1.4,3.1-2.1,5.4-2.2L1106.7,95.9z"/>
	<g>
		<path class="st9" d="M974.6,79.2h-68.2c-1.5,0-2.7-1.2-2.7-2.7l0,0c0-1.5,1.2-2.7,2.7-2.7h68.2c1.5,0,2.7,1.2,2.7,2.7l0,0
			C977.3,77.9,976.1,79.2,974.6,79.2z"/>
		<path class="st9" d="M974.6,90.9h-68.2c-1.5,0-2.7-1.2-2.7-2.7l0,0c0-1.5,1.2-2.7,2.7-2.7h68.2c1.5,0,2.7,1.2,2.7,2.7l0,0
			C977.3,89.7,976.1,90.9,974.6,90.9z"/>
		<path class="st9" d="M976.3,102.6h-71.6c-0.6,0-1-0.4-1-1v-3.3c0-0.6,0.4-1,1-1h71.6c0.6,0,1,0.4,1,1v3.3
			C977.3,102.2,976.9,102.6,976.3,102.6z"/>
		<path class="st9" d="M976.3,114.4h-71.6c-0.6,0-1-0.4-1-1V110c0-0.6,0.4-1,1-1h71.6c0.6,0,1,0.4,1,1v3.3
			C977.3,113.9,976.9,114.4,976.3,114.4z"/>
		<path class="st9" d="M976.3,126.1h-71.6c-0.6,0-1-0.4-1-1v-3.3c0-0.6,0.4-1,1-1h71.6c0.6,0,1,0.4,1,1v3.3
			C977.3,125.6,976.9,126.1,976.3,126.1z"/>
	</g>
	<path class="st10" d="M1092.9,166.4c-2.7-12.3-13.7-21.5-26.8-21.5v27.5L1092.9,166.4z"/>
	<path class="st9" d="M1066.1,172.6v-27.5c-15.2,0-27.5,12.4-27.5,27.5c0,15.2,12.4,27.5,27.5,27.5c15.2,0,27.5-12.4,27.5-27.5
		c0-2.1-0.3-4.1-0.7-6L1066.1,172.6z"/>
	<circle class="st14" cx="1066.1" cy="173" r="21"/>
	<circle class="st15" cx="1072.7" cy="52.1" r="3.1"/>
	<circle class="st8" cx="1087.1" cy="52.1" r="3.1"/>
	<circle class="st16" cx="1101.5" cy="52.1" r="3.1"/>
	<g>
		<rect x="1129.2" y="60.5" class="st17" width="86.1" height="110.2"/>
		<rect x="1131.1" y="60.5" class="st18" width="88.2" height="110.2"/>
		<rect x="1129.2" y="170.7" class="st17" width="86.1" height="7.8"/>
		<rect x="1137.7" y="170.7" class="st18" width="88.2" height="7.8"/>
		<rect x="1136.6" y="66.4" class="st19" width="77.2" height="98.3"/>
		<polygon class="st7" points="1146.1,164.8 1178.5,66.5 1193.7,66.5 1161.3,164.8 		"/>
		<path class="st20" d="M1139.1,131.4c-0.3,0-0.4-0.2-0.4-0.4V70.3c0-0.3,0.2-0.4,0.4-0.4s0.4,0.2,0.4,0.4V131
			C1139.5,131.3,1139.4,131.4,1139.1,131.4z"/>
		<polygon class="st7" points="1164.7,164.8 1197,66.5 1202.9,66.5 1170.5,164.8 		"/>
		<rect x="1213.1" y="66.5" class="st17" width="0.7" height="98.3"/>
		<polygon class="st17" points="1220.6,74.1 1134.5,74.1 1134,68.8 1220,68.8 		"/>
		<polygon class="st17" points="1220.6,77.9 1134.5,77.9 1134,72.6 1220,72.6 		"/>
		<polygon class="st17" points="1220.6,82.5 1134.5,82.5 1134,77.2 1220,77.2 		"/>
		<polygon class="st17" points="1220.6,87.6 1134.5,87.6 1134,82.4 1220,82.4 		"/>
		<polygon class="st17" points="1220.6,93.9 1134.5,93.9 1134,88.6 1220,88.6 		"/>
		<polygon class="st17" points="1220.6,100.8 1134.5,100.8 1134,95.5 1220,95.5 		"/>
	</g>
	<path class="st21" d="M925.5,194.2h-95.9c-2,0-3.7-1.6-3.7-3.7v-11.8c0-2,1.6-3.7,3.7-3.7h95.9c2,0,3.7,1.6,3.7,3.7v11.8
		C929.2,192.6,927.6,194.2,925.5,194.2z"/>
	<ellipse class="st7" cx="836.3" cy="184.7" rx="2.2" ry="2.6"/>
	<ellipse class="st7" cx="845.4" cy="184.7" rx="2.2" ry="2.6"/>
	<g>
		<path class="st7" d="M904.4,189.5h-1.5c-0.3,0-0.5-0.3-0.5-0.5v-8.8c0-0.3,0.3-0.5,0.5-0.5h1.5c0.3,0,0.5,0.3,0.5,0.5v8.8
			C904.9,189.4,904.7,189.5,904.4,189.5z"/>
		<path class="st7" d="M908.6,189.5h-1.5c-0.3,0-0.5-0.3-0.5-0.5v-8.8c0-0.3,0.3-0.5,0.5-0.5h1.5c0.3,0,0.5,0.3,0.5,0.5v8.8
			C909,189.4,908.8,189.5,908.6,189.5z"/>
		<path class="st7" d="M912.7,189.5h-1.5c-0.3,0-0.5-0.3-0.5-0.5v-8.8c0-0.3,0.3-0.5,0.5-0.5h1.5c0.3,0,0.5,0.3,0.5,0.5v8.8
			C913.2,189.4,912.9,189.5,912.7,189.5z"/>
		<path class="st7" d="M916.8,189.5h-1.5c-0.3,0-0.5-0.3-0.5-0.5v-8.8c0-0.3,0.3-0.5,0.5-0.5h1.5c0.3,0,0.5,0.3,0.5,0.5v8.8
			C917.3,189.4,917.1,189.5,916.8,189.5z"/>
	</g>
	<rect x="830" y="194.2" class="st22" width="94.9" height="3.5"/>
	<path class="st21" d="M925.5,216.8h-95.9c-2,0-3.7-1.6-3.7-3.7v-11.8c0-2,1.6-3.7,3.7-3.7h95.9c2,0,3.7,1.6,3.7,3.7v11.8
		C929.2,215.2,927.6,216.8,925.5,216.8z"/>
	<ellipse class="st7" cx="836.3" cy="207.2" rx="2.2" ry="2.6"/>
	<g>
		<path class="st7" d="M904.5,212.1H903c-0.3,0-0.5-0.3-0.5-0.5v-8.8c0-0.3,0.3-0.5,0.5-0.5h1.5c0.3,0,0.5,0.3,0.5,0.5v8.8
			C904.9,211.8,904.7,212.1,904.5,212.1z"/>
		<path class="st7" d="M908.6,212.1h-1.5c-0.3,0-0.5-0.3-0.5-0.5v-8.8c0-0.3,0.3-0.5,0.5-0.5h1.5c0.3,0,0.5,0.3,0.5,0.5v8.8
			C909.1,211.8,908.8,212.1,908.6,212.1z"/>
		<path class="st7" d="M912.7,212.1h-1.5c-0.3,0-0.5-0.3-0.5-0.5v-8.8c0-0.3,0.3-0.5,0.5-0.5h1.5c0.3,0,0.5,0.3,0.5,0.5v8.8
			C913.3,211.8,913,212.1,912.7,212.1z"/>
		<path class="st7" d="M916.8,212.2h-1.5c-0.3,0-0.5-0.3-0.5-0.5v-8.8c0-0.3,0.3-0.5,0.5-0.5h1.5c0.3,0,0.5,0.3,0.5,0.5v8.8
			C917.3,211.9,917.1,212.2,916.8,212.2z"/>
	</g>
	<rect x="830" y="216.8" class="st22" width="94.9" height="3.5"/>
	<path class="st21" d="M925.5,239.5h-95.9c-2,0-3.7-1.6-3.7-3.7V224c0-2,1.6-3.7,3.7-3.7h95.9c2,0,3.7,1.6,3.7,3.7v11.8
		C929.2,237.7,927.6,239.5,925.5,239.5z"/>
	<ellipse class="st7" cx="836.3" cy="229.8" rx="2.2" ry="2.6"/>
	<ellipse class="st7" cx="845.4" cy="229.8" rx="2.2" ry="2.6"/>
	<g>
		<path class="st7" d="M904.5,234.7H903c-0.3,0-0.5-0.3-0.5-0.5v-8.8c0-0.3,0.3-0.5,0.5-0.5h1.5c0.3,0,0.5,0.3,0.5,0.5v8.8
			C904.9,234.5,904.7,234.7,904.5,234.7z"/>
		<path class="st7" d="M908.6,234.7h-1.5c-0.3,0-0.5-0.3-0.5-0.5v-8.8c0-0.3,0.3-0.5,0.5-0.5h1.5c0.3,0,0.5,0.3,0.5,0.5v8.8
			C909.1,234.5,908.8,234.7,908.6,234.7z"/>
		<path class="st7" d="M912.7,234.7h-1.5c-0.3,0-0.5-0.3-0.5-0.5v-8.8c0-0.3,0.3-0.5,0.5-0.5h1.5c0.3,0,0.5,0.3,0.5,0.5v8.8
			C913.3,234.5,913,234.7,912.7,234.7z"/>
		<path class="st7" d="M916.9,234.7h-1.5c-0.3,0-0.5-0.3-0.5-0.5v-8.8c0-0.3,0.3-0.5,0.5-0.5h1.5c0.3,0,0.5,0.3,0.5,0.5v8.8
			C917.3,234.5,917.2,234.7,916.9,234.7z"/>
	</g>
	<rect x="830" y="239.5" class="st22" width="94.9" height="3.5"/>
	<path class="st21" d="M925.5,262h-95.9c-2,0-3.7-1.6-3.7-3.7v-11.8c0-2,1.6-3.7,3.7-3.7h95.9c2,0,3.7,1.6,3.7,3.7v11.8
		C929.2,260.4,927.6,262,925.5,262z"/>
	<ellipse class="st7" cx="836.3" cy="252.4" rx="2.2" ry="2.6"/>
	<ellipse class="st7" cx="845.4" cy="252.4" rx="2.2" ry="2.6"/>
	<g>
		<ellipse class="st8" cx="854.6" cy="184.7" rx="2.2" ry="2.6"/>
		<ellipse class="st8" cx="845.4" cy="207.2" rx="2.2" ry="2.6"/>
		<ellipse class="st8" cx="854.6" cy="207.2" rx="2.2" ry="2.6"/>
		<ellipse class="st8" cx="854.6" cy="229.8" rx="2.2" ry="2.6"/>
		<ellipse class="st8" cx="854.6" cy="252.4" rx="2.2" ry="2.6"/>
	</g>
	<g>
		<path class="st7" d="M904.5,257.3H903c-0.3,0-0.5-0.3-0.5-0.5v-8.9c0-0.3,0.3-0.5,0.5-0.5h1.5c0.3,0,0.5,0.3,0.5,0.5v8.8
			C904.9,257.1,904.7,257.3,904.5,257.3z"/>
		<path class="st7" d="M908.6,257.3h-1.5c-0.3,0-0.5-0.3-0.5-0.5v-8.9c0-0.3,0.3-0.5,0.5-0.5h1.5c0.3,0,0.5,0.3,0.5,0.5v8.8
			C909.1,257.1,908.8,257.3,908.6,257.3z"/>
		<path class="st7" d="M912.7,257.3h-1.5c-0.3,0-0.5-0.3-0.5-0.5v-8.9c0-0.3,0.3-0.5,0.5-0.5h1.5c0.3,0,0.5,0.3,0.5,0.5v8.8
			C913.3,257.1,913,257.3,912.7,257.3z"/>
		<path class="st7" d="M916.9,257.3h-1.5c-0.3,0-0.5-0.3-0.5-0.5v-8.9c0-0.3,0.3-0.5,0.5-0.5h1.5c0.3,0,0.5,0.3,0.5,0.5v8.8
			C917.3,257.1,917.2,257.3,916.9,257.3z"/>
	</g>
	<rect x="830" y="262" class="st22" width="94.9" height="3.5"/>
	<rect x="1161.2" y="202.5" class="st14" width="26.6" height="11.8"/>
	<rect x="1172" y="214.2" class="st23" width="26.6" height="11.8"/>
	<circle class="st24" cx="838.5" cy="82.9" r="32.7"/>
	<circle class="st7" cx="838.5" cy="82.9" r="30"/>
	<path class="st6" d="M838.5,83.9c-0.3,0-0.4-0.1-0.6-0.3l-16.3-14.8c-0.3-0.3-0.4-0.9-0.1-1.4c0.3-0.3,0.9-0.4,1.4-0.1l15.7,14.2
		l12-10.5c0.4-0.3,1-0.3,1.4,0.1c0.3,0.4,0.3,1-0.1,1.4l-12.7,11.1C839,83.9,838.7,83.9,838.5,83.9z"/>
	<rect x="837.4" y="106" class="st6" width="2" height="5.2"/>
	<rect x="837.4" y="54.9" class="st6" width="2" height="5.2"/>
	<rect x="810.3" y="82" class="st6" width="5.2" height="2"/>
	<rect x="861.4" y="82" class="st25" width="5.2" height="2"/>
	<line class="st26" x1="838.5" y1="83.5" x2="846.5" y2="107.5"/>
	<circle class="st24" cx="838.5" cy="82.9" r="3.5"/>
	<circle class="st8" cx="838.5" cy="82.9" r="2"/>
	<path class="st27" d="M859.4,147.9L859.4,147.9c-2-0.7-3.2-2.8-2.5-4.9l8-24.7c0.7-2,2.8-3.2,4.9-2.5l0,0c2,0.7,3.2,2.8,2.5,4.9
		l-8,24.7C863.7,147.4,861.5,148.5,859.4,147.9z"/>
	<path class="st27" d="M858.9,140.8c0,0-20.7,5.7-22.4,5.1s-7.3-2.4-10.6,0.9c-3.3,3.2-2.3,5.5,2.8,4.3c5.1-1.1,4.9,0.7,8.5-1.4
		c0,0,13,0.9,24.5-1.9L858.9,140.8z"/>
	<path class="st27" d="M864.4,102.8l4.3,1.4c0,0-0.1,1.2,0.3,2.7c-1.1,0.3-2.7,1.3-3.9,4c-0.3-1.2-0.9-3-2.3-4.4L864.4,102.8z"/>
	<g>
		<g>
			<path id="XMLID_108_" class="st28" d="M855.1,92.3c0,0-7.1-1.1-7.6-8.9c0,0,3.3,0.9,7,0.4s14.1-8.1,20.6,4.3s-7.6,17.8-7.6,17.8
				l-4.1-2.9L855.1,92.3z"/>
		</g>
		<g>
			<g>
				<g>
					<defs>
						<path id="SVGID_4_" d="M855.1,92.3c0,0-7.1-1.1-7.6-8.9c0,0,3.3,0.9,7,0.4s14.1-8.1,20.6,4.3s-7.6,17.8-7.6,17.8l-4.1-2.9
							L855.1,92.3z"/>
					</defs>
					<clipPath id="SVGID_6_">
						<use xlink:href="#SVGID_4_"  style="overflow:visible;"/>
					</clipPath>
					<path class="st29" d="M852.9,92.2c0,0-1.5-4,2.9-3.7s7.4,4.1,8.9,7c1.4,2.9,5.8,7.2,9.5,6.2l-3.7,4.4l-11.3,0.6l-4.9-10.6
						L852.9,92.2z"/>
				</g>
			</g>
		</g>
	</g>
	<path class="st30" d="M826.1,155.5l-2-0.5c0,0-1.3,2.9-1.1,7.6s2.6,8.5,2.6,8.5s3-3.8,3.1-6.4C828.6,162.1,826.1,155.5,826.1,155.5
		z"/>
	<path class="st27" d="M795.3,188.5c1-0.5,1.9-1.6,3-2.6c6-5.6,13.4-25.2,17-27.7c3.6-2.6,11-2,11-2l3.1,6.4c0,0-7.9,7.4-14.2,15.3
		c-6.6,8.3-13.5,15.5-13.5,15.5C799.9,193.2,796.9,192.6,795.3,188.5z"/>
	<path class="st31" d="M780.5,190.6c1-2.1,2.7-2.3,5.4-1.8c2.1,0.4,5.5,1.8,9.4-0.3c1.6,4.1,4.6,4.8,6.2,4.9l0,0l-4.1,7.2
		c-0.8,1.4-2.6,2.2-4,1.4c-3.2-1.8-7.7-4-10.4-5.2C779,195,779.4,192.7,780.5,190.6z"/>
	<path class="st32" d="M858.8,157.8l-4.3-3.4L824,155c0,0,5.6,3.7,1.4,16.1c0,0,11.2,3.2,19.3,3.5c8,0.3,24.1-0.3,27.3-5.1
		L858.8,157.8z"/>
	<path class="st33" d="M831,157.5l-1.1-0.3c0,0-1.4,2.3-1.4,6.3s1,8.4,2.9,9.8l4-7l-2.2-7.1L831,157.5z"/>
	<path class="st34" d="M806.4,199.7c0.1-0.1,0.2-0.1,0.3-0.2c3.2-2,5.5-23.8,6.9-30.2c1.3-6.4,5.4-9.7,10.6-10.5s10.1-0.6,10.1-0.6
		v14.2c0,0-9.9-2-10.2,0.5c-0.9,6-11.3,29.3-11.3,29.3l-0.3,0.9C810.8,203.2,808.4,202.4,806.4,199.7z"/>
	<path class="st35" d="M791.4,204.2c1.3-3.3,3.3-3.5,6.3-2.9c2.9,0.6,5.6,0.2,8.7-1.6c2,2.7,4.3,3.5,6,3.7l-2.6,8.3
		c-0.4,1.2-1.7,1.9-2.9,1.4c-2.5-0.9-6.5-2.5-8.5-2.7C795.3,209.7,790.1,207.5,791.4,204.2z"/>
	<path class="st36" d="M859.6,159.9l-4.3-3.4l-25.4,0.6c0,0,5.6,3.7,1.4,16.1c0,0,11.4,2.4,19.4,2.7c8,0.3,18.7,0.4,22.1-4.3
		L859.6,159.9z"/>
	<g>
		<g>
			<path id="SVGID_3_" class="st37" d="M870.2,111.2l0.7-0.7c0,0,2.8-0.8,5.5,4.5c2.7,5.4,8.9,21,5.7,35.7s-9.2,20.9-9.2,20.9
				s-18.3,0-18.3-17.3c0,0,10-3.8,9.2-16.6s-1.7-13.6,1.4-25.2L870.2,111.2z"/>
		</g>
		<g>
			<g>
				<g>
					<defs>
						<path id="SVGID_8_" d="M870.2,111.2l0.7-0.7c0,0,2.8-0.8,5.5,4.5c2.7,5.4,8.9,21,5.7,35.7s-9.2,20.9-9.2,20.9
							s-18.3,0-18.3-17.3c0,0,10-3.8,9.2-16.6s-1.7-13.6,1.4-25.2L870.2,111.2z"/>
					</defs>
					<clipPath id="SVGID_10_">
						<use xlink:href="#SVGID_8_"  style="overflow:visible;"/>
					</clipPath>
					<path class="st38" d="M859,133.1l6.4-0.9l7.9-10.6c0,0,3.5,18-2.5,30.1c-6,12.1-16.3,13.5-16.3,13.5l-3.2-14.3L859,133.1z"/>
				</g>
			</g>
		</g>
	</g>
	<path class="st34" d="M860.4,149.7L860.4,149.7c-2-0.7-3.2-2.8-2.5-4.9l8-24.7c0.7-2,2.8-3.2,4.9-2.5l0,0c2,0.7,3.2,2.8,2.5,4.9
		l-8,24.7C864.5,149.3,862.4,150.4,860.4,149.7z"/>
	<path class="st34" d="M860.8,142.5c0,0-20.7,5.7-22.4,5.1s-7.3-2.4-10.6,0.9c-3.2,3.3-2.3,5.5,2.8,4.3c5.1-1.1,4.9,0.7,8.5-1.4
		c0,0,12,1.2,23.5-1.6L860.8,142.5z"/>
	<path class="st39" d="M824.4,156.7h27.9c0.3,0,0.6-0.3,0.6-0.6v-2c0-0.3-0.3-0.6-0.6-0.6h-27.9c-0.3,0-0.6,0.3-0.6,0.6v2
		C823.8,156.5,824.1,156.7,824.4,156.7z"/>
	<path class="st39" d="M824.2,152.9l-12-24.6c-0.2-0.4-0.7-0.6-1.1-0.4l-0.3,0.2c-0.4,0.2-0.6,0.7-0.4,1.1l12,24.6
		c0.2,0.4,0.7,0.6,1.1,0.4l0.3-0.2C824.3,153.8,824.5,153.3,824.2,152.9z"/>
	<g>
		<g>
			<g>
				<path class="st34" d="M868.9,106.9c0.3,1.1,0.9,2.5,2,3.6c0,0,0.3,2.2-2,2.6c-2.3,0.5-3.6-0.7-3.6-0.7s0-0.6-0.3-1.5
					C866.1,108.2,867.8,107.2,868.9,106.9z"/>
			</g>
		</g>
	</g>
	<g>
		<g>
			<path id="SVGID_5_" class="st34" d="M854.4,91.8c0,0-1.7,19,4,18.7s6.6-6.5,6.6-6.5s2-0.6,1.6-3.4c-0.4-2.9-2.5-1.9-2.6-1.5
				C863.8,99.1,860.1,89.9,854.4,91.8z"/>
		</g>
		<g>
			<g>
				<g>
					<defs>
						<path id="SVGID_12_" d="M854.4,91.8c0,0-1.7,19,4,18.7s6.6-6.5,6.6-6.5s2-0.6,1.6-3.4c-0.4-2.9-2.5-1.9-2.6-1.5
							C863.8,99.1,860.1,89.9,854.4,91.8z"/>
					</defs>
					<clipPath id="SVGID_14_">
						<use xlink:href="#SVGID_12_"  style="overflow:visible;"/>
					</clipPath>
					<path class="st40" d="M866.4,104c0,0,0.5-2.7-1.8-2.5c-2.4,0.3-2.6-2.3-4.4-4.5c-1.9-2.3-3.3-4.6-6.3-3.4l-0.1-2.8l7,0.5
						l6.1,7.2l0.1,4.4L866.4,104z"/>
				</g>
			</g>
		</g>
	</g>
	<path class="st36" d="M1018.5,274.5c0,0-0.9,2.5-2.3,3.7c-7.7-3.2-14.7-8.1-17.3-10.1c0.2-0.6,0.4-1.3,0.9-2c0.8-1.3,3-5.1,4.5-7.8
		c0.6,1.3,2.3,3.4,6.6,4.8c-1.4,3.3,3.1,6.6,5.5,8.2C1019.1,273.2,1018.5,274.5,1018.5,274.5z"/>
	<path class="st27" d="M1013,259.5c0,0-0.1,0.2-1.9,3.6c-0.1,0.1-0.1,0.2-0.1,0.3c-4.3-1.3-6-3.5-6.6-4.8c0.9-1.5,1.5-2.6,1.5-2.6
		L1013,259.5z"/>
	<path class="st39" d="M1016.2,278.3c-0.3,0.3-0.7,0.5-1.1,0.7c-2,0.6-13.4-6.6-15.1-7.8c-1.1-0.9-1.4-1.8-1.1-2.9
		C1001.5,270.2,1008.5,275.1,1016.2,278.3z"/>
	<path class="st36" d="M1054.3,273.9c0,0,0.3,2.6-0.4,4.4c-8.3,0.6-16.8-0.8-19.9-1.4c-0.1-0.6-0.2-1.3-0.1-2.1
		c0.2-1.5,0.4-6,0.7-8.9c1.1,0.9,3.6,2,8.1,1.4c0.2,3.6,5.6,4.5,8.6,4.9C1054.3,272.4,1054.3,273.9,1054.3,273.9z"/>
	<path class="st34" d="M1042.8,262.9c0,0,0,0.2-0.1,4c0,0.1,0,0.2,0,0.3c-4.5,0.8-6.9-0.4-8.1-1.4c0.1-1.8,0.2-3.1,0.2-3.1
		L1042.8,262.9z"/>
	<path class="st39" d="M1053.9,278.3c-0.2,0.4-0.3,0.8-0.7,1.1c-1.4,1.4-14.9,0.1-17-0.3c-1.4-0.3-2-0.9-2.3-2.1
		C1037.2,277.5,1045.7,278.9,1053.9,278.3z"/>
	<polygon class="st6" points="1067.5,123.6 1050.1,116.9 1041.3,148.8 1057.2,156.1 	"/>
	<g>
		<g>
			<path id="SVGID_7_" class="st41" d="M1036.2,98.2c0,0,0.3,10.6-1.4,13.5s-4.2,1.9-5.2-1.3V100L1036.2,98.2z"/>
		</g>
		<g>
			<g>
				<g>
					<defs>
						<path id="SVGID_16_" d="M1036.2,98.2c0,0,0.3,10.6-1.4,13.5s-4.2,1.9-5.2-1.3V100L1036.2,98.2z"/>
					</defs>
					<clipPath id="SVGID_17_">
						<use xlink:href="#SVGID_16_"  style="overflow:visible;"/>
					</clipPath>
					<path class="st42" d="M1036.7,99.2c0,0-3.8,2.8-5.2,4.9c-1,1.6-0.6,8.5-0.6,8.5l-2.6-1.2c0,0-0.1-4.8,0-7.2
						c0.1-2.5,1.8-5.8,1.8-5.8s2.3-2.6,3.6-2.9c1.3-0.3,2.1,0,2.1,0L1036.7,99.2z"/>
				</g>
			</g>
		</g>
	</g>
	<path class="st41" d="M1030.9,111.6c0,0-0.9,5.1,0.4,8.9c0,0-1.1,2-3.4,2.1c-2.3,0.2-3.5-1.7-3.5-1.7s0.6-2.4,0-6.4L1030.9,111.6z"
		/>
	<path class="st27" d="M1014,143.8c0,0-4.3,4.5-2.5,7.4s3.7,6.5,3.7,6.5l-0.3,7.9c0,0-9.8-10.6-10.5-14.1s1.6-7.9,3.7-11.2
		L1014,143.8z"/>
	<g>
		<g>
			<path id="SVGID_9_" class="st36" d="M1029.9,197.4v22.4c0,0-3.7,16.6-9.2,28.6c-5.5,11.9-6.5,12.9-6.5,12.9s-7.1,0.6-10.7-4.5
				c0,0,11.2-28.5,11.3-39c0.2-10.6-2.4-26.9,0-35.4c0.3-1.5,1-2.9,1-2.9l10.9,1.1L1029.9,197.4z"/>
		</g>
		<g>
			<g>
				<g>
					<defs>
						<path id="SVGID_18_" d="M1029.9,197.4v22.4c0,0-3.7,16.6-9.2,28.6c-5.5,11.9-6.5,12.9-6.5,12.9s-7.1,0.6-10.7-4.5
							c0,0,11.2-28.5,11.3-39c0.2-10.6-2.4-26.9,0-35.4c0.3-1.5,1-2.9,1-2.9l10.9,1.1L1029.9,197.4z"/>
					</defs>
					<clipPath id="SVGID_19_">
						<use xlink:href="#SVGID_18_"  style="overflow:visible;"/>
					</clipPath>
					<path class="st43" d="M1012.5,183.1c0,0,6.6,17.1,7.4,27.9c0.8,10.8,1.7,28.1-1.8,44.4l14.4-33v-28.5l-5.8-13.5l-12.5-2.4
						L1012.5,183.1z"/>
				</g>
			</g>
		</g>
	</g>
	<g>
		<g>
			<path id="SVGID_11_" class="st35" d="M1040.5,180.4l2,0.7c0,0,2.1,18.3,2.9,31.9s-1,49.6-1,49.6s-6.4,4.3-11.9,0
				c0,0,0.8-22.5-1-32.4s-12.6-44.6-12.1-49L1040.5,180.4z"/>
		</g>
		<g>
			<g>
				<g>
					<defs>
						<path id="SVGID_20_" d="M1040.5,180.4l2,0.7c0,0,2.1,18.3,2.9,31.9s-1,49.6-1,49.6s-6.4,4.3-11.9,0c0,0,0.8-22.5-1-32.4
							s-12.6-44.6-12.1-49L1040.5,180.4z"/>
					</defs>
					<clipPath id="SVGID_21_">
						<use xlink:href="#SVGID_20_"  style="overflow:visible;"/>
					</clipPath>
					<path class="st44" d="M1031.3,181.6c0,0-1.4,5.9,1.8,18.8c3.2,12.9,4.7,22.7,4.9,33.3c0.2,10.6-1.8,34-1.8,34l-4.9-0.8
						l-16-82.2l6.6-11.9L1031.3,181.6z"/>
				</g>
			</g>
		</g>
	</g>
	<g>
		<g>
			<path id="SVGID_13_" class="st45" d="M1031.3,120.4c0,0,9,3.5,10,8.2c0.9,4.7,1.2,52.6,1.2,52.6s-6.4,4.9-16.6,3.8
				c-10.3-1.1-10.9-4.9-10.9-4.9s-0.1-32.2,0.5-34.7c0,0-5.3,0-8-4.8c0,0,5.7-13.6,7.8-17.4c2.6-4.7,9-3.4,9-3.4
				S1026.6,123.7,1031.3,120.4z"/>
		</g>
		<g>
			<g>
				<g>
					<defs>
						<path id="SVGID_22_" d="M1031.3,120.4c0,0,9,3.5,10,8.2c0.9,4.7,1.2,52.6,1.2,52.6s-6.4,4.9-16.6,3.8
							c-10.3-1.1-10.9-4.9-10.9-4.9s-0.1-32.2,0.5-34.7c0,0-5.3,0-8-4.8c0,0,5.7-13.6,7.8-17.4c2.6-4.7,9-3.4,9-3.4
							S1026.6,123.7,1031.3,120.4z"/>
					</defs>
					<clipPath id="SVGID_23_">
						<use xlink:href="#SVGID_22_"  style="overflow:visible;"/>
					</clipPath>
					<path class="st46" d="M1036.2,128.3c0,0-2.6-1.4-3.2,1c-0.6,2.5-3.9,21.2,2.2,28.9c6.2,7.8,8,5.2,9.6,0.9
						C1046.5,154.7,1040.5,130.7,1036.2,128.3z"/>
				</g>
			</g>
		</g>
		<g>
			<g>
				<g>
					<defs>
						<path id="SVGID_24_" d="M1031.3,120.4c0,0,9,3.5,10,8.2c0.9,4.7,1.2,52.6,1.2,52.6s-6.4,4.9-16.6,3.8
							c-10.3-1.1-10.9-4.9-10.9-4.9s-0.1-32.2,0.5-34.7c0,0-5.3,0-8-4.8c0,0,5.7-13.6,7.8-17.4c2.6-4.7,9-3.4,9-3.4
							S1026.6,123.7,1031.3,120.4z"/>
					</defs>
					<clipPath id="SVGID_25_">
						<use xlink:href="#SVGID_24_"  style="overflow:visible;"/>
					</clipPath>
					<path class="st47" d="M1025.8,119.6c0,0-2.9-0.5-3.3,7.9c-0.4,8.5,0.5,59.6,1.4,61s-10.9-5-10.9-5s-18.1-46.6-17.1-47.9
						c0.9-1.3,28-19.1,28-19.1L1025.8,119.6z"/>
				</g>
			</g>
		</g>
	</g>
	<g>
		<g>
			<path id="SVGID_15_" class="st34" d="M1044.8,144.7c0,0,0.8,6.7,2.3,8.8s13.6-7.5,13.6-7.5s-0.3-8.1,4.9-11.3
				c5.1-3.2,1.4,9.5-0.7,12.9c0,0-7.7,10.6-15.1,13.8c-7.3,3.2-8.2-0.3-9.5-2.2c-1.3-1.9-3.3-12.6-3.3-12.6L1044.8,144.7z"/>
		</g>
		<g>
			<g>
				<g>
					<defs>
						<path id="SVGID_26_" d="M1044.8,144.7c0,0,0.8,6.7,2.3,8.8s13.6-7.5,13.6-7.5s-0.3-8.1,4.9-11.3c5.1-3.2,1.4,9.5-0.7,12.9
							c0,0-7.7,10.6-15.1,13.8c-7.3,3.2-8.2-0.3-9.5-2.2c-1.3-1.9-3.3-12.6-3.3-12.6L1044.8,144.7z"/>
					</defs>
					<clipPath id="SVGID_27_">
						<use xlink:href="#SVGID_26_"  style="overflow:visible;"/>
					</clipPath>
					<path class="st48" d="M1045.7,147.7c0,0-5.5,0.5-4.8,3.9c0.7,3.5,0.3,8.4,5.9,8.4s9.5-3,9.5-3l-5,6.3h-7.7l-5.1-2.3
						c0,0-3.3-8.2-3.3-8.7s1.1-6.8,1.1-6.8l8.3-1.9l1.3,2.8L1045.7,147.7z"/>
				</g>
			</g>
		</g>
	</g>
	<path class="st49" d="M1045.2,144.4c0,0-1.5-12.8-3.5-16.8c-2-4-6.6-3.7-8,0c-1.4,3.7-1.2,19.7-1.2,19.7S1040.3,151.1,1045.2,144.4
		z"/>
	<path class="st50" d="M1035.9,98.7c0,0,1.8-1.6,2.2-4.7c0.4-3.1,1-8.5-3.5-9.2c-4.4-0.7-4.9,1.4-6.8,1.7c-2,0.3-12-0.2-15,8.8
		c-2,6.1,2.4,12.2,6,15.8c3.6,3.7,3.9,3.7,3.9,3.7s2.6,0.9,5.8-0.4l1.7-2.6c0,0,0.6-0.8-0.1-2.7c-0.7-2-0.8-3.7,0-4.9
		c0.9-1.1,1.8-3.1,1.9-4.7C1032.1,99.6,1033.8,100.3,1035.9,98.7z"/>
	<path class="st51" d="M1179.3,169.3h-85.5c-8.5,0-15.4-6.9-15.4-15.4v-50.2c0-8.5,6.9-15.4,15.4-15.4h85.5
		c8.5,0,15.4,6.9,15.4,15.4v50.2C1194.8,162.4,1187.9,169.3,1179.3,169.3z"/>
	<path class="st6" d="M1194.8,95.1c0-3.8-3.2-7-7-7h-100.7c-3.8,0-7,3.2-7,7v4.2h114.6L1194.8,95.1L1194.8,95.1z"/>
	<path class="st7" d="M1080.1,99.3v61.4c0,3.8,3.2,7,7,7h100.8c3.8,0,7-3.2,7-7V99.3H1080.1z"/>
	<circle class="st15" cx="1160.7" cy="93.8" r="2.3"/>
	<circle class="st8" cx="1171.7" cy="93.8" r="2.3"/>
	<circle class="st16" cx="1182.8" cy="93.8" r="2.3"/>
	<g>
		<path class="st8" d="M1121.3,116.3h-21.8c-0.4,0-0.8-0.4-0.8-0.9l0,0c0-0.5,0.3-0.9,0.8-0.9h21.8c0.4,0,0.8,0.4,0.8,0.9l0,0
			C1122.1,115.9,1121.7,116.3,1121.3,116.3z"/>
	</g>
	<g>
		<path class="st8" d="M1143.7,124.9H1122c-0.4,0-0.8-0.4-0.8-0.9l0,0c0-0.5,0.3-0.9,0.8-0.9h21.8c0.4,0,0.8,0.4,0.8,0.9l0,0
			C1144.6,124.4,1144.2,124.9,1143.7,124.9z"/>
	</g>
	<g>
		<path class="st52" d="M1151.1,141.7h-40.8c-0.4,0-0.8-0.4-0.8-0.9l0,0c0-0.5,0.3-0.9,0.8-0.9h40.8c0.4,0,0.8,0.4,0.8,0.9l0,0
			C1151.9,141.3,1151.6,141.7,1151.1,141.7z"/>
	</g>
	<g>
		<path class="st8" d="M1147.6,150.2h-21.8c-0.4,0-0.8-0.4-0.8-0.9l0,0c0-0.5,0.3-0.9,0.8-0.9h21.8c0.4,0,0.8,0.4,0.8,0.9l0,0
			C1148.4,149.7,1148.1,150.2,1147.6,150.2z"/>
	</g>
	<g>
		<g>
			<path class="st10" d="M1124.9,107.9h-21.8c-0.4,0-0.8-0.4-0.8-0.9l0,0c0-0.5,0.3-0.9,0.8-0.9h21.8c0.4,0,0.8,0.4,0.8,0.9l0,0
				C1125.7,107.5,1125.3,107.9,1124.9,107.9z"/>
		</g>
		<g>
			<path class="st10" d="M1167,117.1h-36.7c-0.4,0-0.8-0.4-0.8-0.9l0,0c0-0.5,0.3-0.9,0.8-0.9h36.7c0.4,0,0.8,0.4,0.8,0.9l0,0
				C1167.8,116.7,1167.4,117.1,1167,117.1z"/>
		</g>
		<g>
			<path class="st10" d="M1143.7,107.9h-11c-0.4,0-0.8-0.4-0.8-0.9l0,0c0-0.5,0.3-0.9,0.8-0.9h11c0.4,0,0.8,0.4,0.8,0.9l0,0
				C1144.5,107.5,1144.1,107.9,1143.7,107.9z"/>
		</g>
		<g>
			<path class="st10" d="M1162.6,108.8h-10.8c-0.4,0-0.8-0.4-0.8-0.9l0,0c0-0.5,0.3-0.9,0.8-0.9h10.8c0.4,0,0.8,0.4,0.8,0.9l0,0
				C1163.4,108.4,1163.1,108.8,1162.6,108.8z"/>
		</g>
		<g>
			<path class="st10" d="M1114.5,125.5h-14.1c-0.4,0-0.8-0.4-0.8-0.9l0,0c0-0.5,0.3-0.9,0.8-0.9h14.1c0.4,0,0.8,0.4,0.8,0.9l0,0
				C1115.3,125,1115,125.5,1114.5,125.5z"/>
		</g>
		<g>
			<path class="st10" d="M1159.3,125.5h-8c-0.4,0-0.8-0.4-0.8-0.9l0,0c0-0.5,0.3-0.9,0.8-0.9h8c0.4,0,0.8,0.4,0.8,0.9l0,0
				C1160.1,125,1159.7,125.5,1159.3,125.5z"/>
		</g>
		<g>
			<path class="st10" d="M1127.8,133.7h-12.5c-0.4,0-0.8-0.4-0.8-0.9l0,0c0-0.5,0.3-0.9,0.8-0.9h12.5c0.4,0,0.8,0.4,0.8,0.9l0,0
				C1128.5,133.3,1128.2,133.7,1127.8,133.7z"/>
		</g>
		<g>
			<path class="st10" d="M1157.8,133.7h-21.4c-0.4,0-0.8-0.4-0.8-0.9l0,0c0-0.5,0.3-0.9,0.8-0.9h21.4c0.4,0,0.8,0.4,0.8,0.9l0,0
				C1158.5,133.3,1158.2,133.7,1157.8,133.7z"/>
		</g>
		<g>
			<path class="st10" d="M1180.9,142.1h-24.2c-0.4,0-0.8-0.4-0.8-0.9l0,0c0-0.5,0.3-0.9,0.8-0.9h24.2c0.4,0,0.8,0.4,0.8,0.9l0,0
				C1181.7,141.6,1181.3,142.1,1180.9,142.1z"/>
		</g>
		<g>
			<path class="st10" d="M1121.6,150.3h-21.4c-0.4,0-0.8-0.4-0.8-0.9l0,0c0-0.5,0.3-0.9,0.8-0.9h21.4c0.4,0,0.8,0.4,0.8,0.9l0,0
				C1122.4,149.9,1122.1,150.3,1121.6,150.3z"/>
		</g>
		<g>
			<path class="st10" d="M1149.6,158.7h-32.5c-0.4,0-0.8-0.4-0.8-0.9l0,0c0-0.5,0.3-0.9,0.8-0.9h32.5c0.4,0,0.8,0.4,0.8,0.9l0,0
				C1150.4,158.3,1150,158.7,1149.6,158.7z"/>
		</g>
	</g>
	<g>
		<g>
			<rect x="1088" y="106" class="st9" width="1.6" height="1.9"/>
		</g>
		<g>
			<rect x="1088" y="114.5" class="st9" width="1.6" height="1.9"/>
		</g>
		<g>
			<rect x="1088" y="122.9" class="st9" width="1.6" height="1.9"/>
		</g>
		<g>
			<rect x="1088" y="131.4" class="st9" width="1.6" height="1.9"/>
		</g>
		<g>
			<rect x="1088" y="139.9" class="st9" width="1.6" height="1.9"/>
		</g>
		<g>
			<rect x="1088" y="148.3" class="st9" width="1.6" height="1.9"/>
		</g>
		<g>
			<rect x="1088" y="156.8" class="st9" width="1.6" height="1.9"/>
		</g>
	</g>
	<g>
		<g>
			<path class="st52" d="M1173.2,162.5l-5.9-2.9c-0.2-0.1-0.3-0.3-0.3-0.5v-0.6c0-0.3,0.1-0.4,0.3-0.5l5.9-2.9
				c0.3-0.2,0.7,0.1,0.7,0.5v0.3c0,0.3-0.1,0.4-0.3,0.5l-4,2c-0.4,0.2-0.4,0.9,0,1.1l4,2c0.2,0.1,0.3,0.3,0.3,0.5v0.3
				C1173.9,162.4,1173.5,162.7,1173.2,162.5z"/>
		</g>
		<g>
			<path class="st52" d="M1178.5,153.3l-2.7,11c-0.1,0.3-0.3,0.4-0.5,0.4l0,0c-0.3,0-0.6-0.3-0.5-0.8l2.7-11
				c0.1-0.3,0.3-0.4,0.5-0.4l0,0C1178.4,152.6,1178.6,153,1178.5,153.3z"/>
		</g>
		<g>
			<path class="st52" d="M1186,159.6l-5.9,2.9c-0.3,0.2-0.7-0.1-0.7-0.5v-0.3c0-0.3,0.1-0.4,0.3-0.5l4-2c0.4-0.2,0.4-0.9,0-1.1l-4-2
				c-0.2-0.1-0.3-0.3-0.3-0.5v-0.3c0-0.4,0.3-0.7,0.7-0.5l5.9,2.9c0.2,0.1,0.3,0.3,0.3,0.5v0.6
				C1186.3,159.3,1186.2,159.5,1186,159.6z"/>
		</g>
	</g>
</g>
</svg>
