<?xml version="1.0" encoding="utf-8"?>
<!-- Generator: Adobe Illustrator 17.0.0, SVG Export Plug-In . SVG Version: 6.00 Build 0)  -->
<!DOCTYPE svg PUBLIC "-//W3C//DTD SVG 1.1//EN" "http://www.w3.org/Graphics/SVG/1.1/DTD/svg11.dtd">
<svg version="1.1" id="Layer_1" xmlns="http://www.w3.org/2000/svg" xmlns:xlink="http://www.w3.org/1999/xlink" x="0px" y="0px"
	 width="27.93px" height="27.489px" viewBox="0 0 27.93 27.489" enable-background="new 0 0 27.93 27.489" xml:space="preserve">
<g>
	<defs>
		<rect id="SVGID_1_" y="0" width="27.93" height="27.489"/>
	</defs>
	<clipPath id="SVGID_2_">
		<use xlink:href="#SVGID_1_"  overflow="visible"/>
	</clipPath>
	<path clip-path="url(#SVGID_2_)" fill="#5341EF" d="M25.297,26.055h-0.006c-0.369-0.002-0.697-0.239-0.815-0.589L22.78,20.45
		c-0.03-0.089-0.046-0.183-0.046-0.277V3.97c0-1.433,1.166-2.598,2.598-2.598c1.432,0,2.598,1.166,2.598,2.598v16.203
		c0,0.098-0.017,0.195-0.049,0.288l-1.768,5.016C25.992,25.823,25.664,26.055,25.297,26.055 M24.467,20.03l0.847,2.505l0.885-2.511
		V3.969c0-0.478-0.389-0.866-0.866-0.866s-0.866,0.389-0.866,0.866V20.03z"/>
	<path clip-path="url(#SVGID_2_)" fill="#5341EF" d="M14.562,24.279c-0.389-0.193-0.785-0.388-1.139-0.643
		c-0.335-0.242-0.695-0.547-1.129-0.332c-0.265,0.131-0.499-0.266-0.232-0.398c0.02-0.01,0.04-0.018,0.06-0.027H2.489
		c-0.478,0-0.866-0.388-0.866-0.866V2.489c0-0.478,0.388-0.866,0.866-0.866h12.997c0.001-0.049,0.004-0.098,0.004-0.144
		c0.001-0.198,0.005-0.396,0.009-0.594c-0.036-0.036-0.06-0.086-0.063-0.15C15.425,0.489,15.42,0.244,15.431,0H2.49
		C1.115,0,0,1.115,0,2.49v19.451c0,1.375,1.115,2.49,2.49,2.49h12.371C14.76,24.379,14.66,24.328,14.562,24.279"/>
	<path clip-path="url(#SVGID_2_)" fill="#5341EF" d="M20.354,4.944c-0.234-0.172-0.473-0.336-0.687-0.525v17.594
		c0,0.478-0.388,0.866-0.866,0.866h-1.665c-0.006,0.326-0.042,0.68-0.168,0.989c0.237,0.067,0.484,0.234,0.447,0.511
		c-0.002,0.018-0.006,0.035-0.01,0.052h1.396c1.375,0,2.49-1.115,2.49-2.49V5.753C20.955,5.52,20.689,5.19,20.354,4.944"/>
	<path clip-path="url(#SVGID_2_)" fill="#5341EF" d="M16.084,13.395c-0.003-0.274-0.025-0.548-0.072-0.811
		c0.386-0.311,1.161-0.931,1.161-0.931l0.042-1.3l-1.786-2.225l-1.303-0.042c0,0-0.633,0.509-0.95,0.763
		c-0.33-0.172-0.679-0.317-1.044-0.43c-0.018-0.367-0.055-1.103-0.055-1.103l-0.89-0.948L8.34,6.507l-0.95,0.89
		c0,0,0.047,0.968,0.069,1.451c-0.282,0.149-0.551,0.32-0.803,0.51C6.263,9.162,5.474,8.77,5.474,8.77L4.205,9.06l-1.272,2.555
		L2.886,11.79l0.337,1.093c0,0,0.915,0.453,1.372,0.681c0.01,0.307,0.048,0.607,0.114,0.897c-0.364,0.287-1.092,0.868-1.092,0.868
		l-0.042,1.298l1.772,2.235c0,0,1.067,0.162,1.125,0.132c0.059-0.03,0.176-0.089,0.176-0.089s0.693-0.549,1.038-0.823
		c0.279,0.138,0.571,0.254,0.878,0.346c0.022,0.384,0.067,1.151,0.067,1.151l0.89,0.948l2.843-0.167l0.95-0.888
		c0,0-0.057-0.988-0.086-1.483c0.235-0.126,0.464-0.265,0.679-0.419c0.361,0.225,1.087,0.676,1.087,0.676l1.269-0.291l1.507-2.42
		l-0.291-1.27C17.484,14.264,16.551,13.684,16.084,13.395 M10.071,16.954c-1.94-0.062-3.463-1.686-3.399-3.624
		c0.062-1.944,1.687-3.464,3.625-3.403c1.942,0.063,3.463,1.686,3.402,3.628C13.635,15.496,12.013,17.016,10.071,16.954"/>
	<path clip-path="url(#SVGID_2_)" fill="#5341EF" d="M10.234,11.421c1.119,0,2.026,0.907,2.026,2.026s-0.907,2.026-2.026,2.026
		s-2.026-0.907-2.026-2.026S9.115,11.421,10.234,11.421"/>
	<rect x="23.89" y="6.495" clip-path="url(#SVGID_2_)" fill="#5341EF" width="2.995" height="1.624"/>
	<rect x="24.133" y="19.595" clip-path="url(#SVGID_2_)" fill="#5341EF" width="2.508" height="1.588"/>
	<path clip-path="url(#SVGID_2_)" fill="#5341EF" d="M20.525,6.631h-0.001h-5.115c-0.419,0-0.758-0.339-0.758-0.758V0.758
		c0-0.307,0.185-0.583,0.468-0.7s0.609-0.052,0.826,0.164l5.092,5.092c0.152,0.139,0.247,0.338,0.247,0.559
		C21.283,6.291,20.944,6.631,20.525,6.631 M16.167,5.115h2.528l-2.528-2.528V5.115z"/>
	<path clip-path="url(#SVGID_2_)" fill="#5341EF" d="M17.105,27.489c-0.144,0-0.288-0.04-0.415-0.119l-4.717-2.94h-1.472
		c-0.433,0-0.785-0.351-0.785-0.785c0-0.433,0.351-0.785,0.785-0.785h1.696c0.147,0,0.291,0.041,0.415,0.119l3.708,2.311v-1.635
		c0-0.433,0.351-0.785,0.785-0.785h1.263c0.434,0,0.785,0.351,0.785,0.785c0,0.433-0.351,0.785-0.785,0.785H17.89v2.264
		c0,0.285-0.155,0.548-0.404,0.686C17.367,27.457,17.236,27.489,17.105,27.489"/>
</g>
</svg>
