<?xml version="1.0" encoding="utf-8"?>
<!-- Generator: Adobe Illustrator 17.0.0, SVG Export Plug-In . SVG Version: 6.00 Build 0)  -->
<!DOCTYPE svg PUBLIC "-//W3C//DTD SVG 1.1//EN" "http://www.w3.org/Graphics/SVG/1.1/DTD/svg11.dtd">
<svg version="1.1" id="Layer_1" xmlns="http://www.w3.org/2000/svg" xmlns:xlink="http://www.w3.org/1999/xlink" x="0px" y="0px"
	 width="25.4px" height="25.2px" viewBox="0 0 25.4 25.2" enable-background="new 0 0 25.4 25.2" xml:space="preserve">
<g>
	<g>
		<defs>
			<rect id="SVGID_1_" x="0" y="0" width="25.4" height="25.2"/>
		</defs>
		<use xlink:href="#SVGID_1_"  overflow="visible" fill="#FFFFFF"/>
		<clipPath id="SVGID_2_">
			<use xlink:href="#SVGID_1_"  overflow="visible"/>
		</clipPath>
		<path clip-path="url(#SVGID_2_)" fill="#FFFFFF" d="M23.7,18.5c0-0.2,0-0.5-0.1-0.7c0.3-0.3,1-0.8,1-0.8v-1.1L23.1,14H22
			c0,0-0.5,0.4-0.8,0.7c-0.3-0.1-0.6-0.3-0.9-0.4v-1l-0.8-0.8L17,12.6l-0.8,0.8c0,0,0,0.8,0.1,1.2c-0.2,0.1-0.5,0.3-0.7,0.4
			c-0.3-0.2-1-0.5-1-0.5l-1.1,0.3L12.4,17v0.2l0.3,0.9c0,0,0.8,0.4,1.2,0.6c0,0.3,0,0.5,0.1,0.8c-0.3,0.2-0.9,0.7-0.9,0.7v1.1
			l1.5,1.9c0,0,0.9,0.1,1,0.1s0.2-0.1,0.2-0.1s0.6-0.5,0.9-0.7c0.2,0.1,0.5,0.2,0.8,0.3c0,0.3,0.1,1,0.1,1l0.8,0.8l2.4-0.1l0.8-0.8
			c0,0,0-0.9-0.1-1.3c0.2-0.1,0.4-0.2,0.6-0.4c0.3,0.2,0.9,0.6,0.9,0.6l1.1-0.3l1.3-2.1l-0.5-0.9C24.9,19.3,24.1,18.8,23.7,18.5
			 M18.5,21.6c-1.7-0.1-3-1.5-2.9-3.1c0.1-1.7,1.5-3,3.1-2.9c1.7,0.1,3,1.5,2.9,3.1C21.6,20.3,20.2,21.7,18.5,21.6"/>
	</g>
	<g>
		<defs>
			<rect id="SVGID_3_" x="0" y="0" width="25.4" height="25.2"/>
		</defs>
		<use xlink:href="#SVGID_3_"  overflow="visible" fill="#FFFFFF"/>
		<clipPath id="SVGID_4_">
			<use xlink:href="#SVGID_3_"  overflow="visible"/>
		</clipPath>
		<path clip-path="url(#SVGID_4_)" fill="#FFFFFF" d="M18.7,16.9c0.938,0,1.7,0.761,1.7,1.7c0,0.939-0.762,1.7-1.7,1.7
			c-0.939,0-1.7-0.761-1.7-1.7S17.761,16.9,18.7,16.9"/>
	</g>
	<g>
		<defs>
			<rect id="SVGID_5_" x="0" y="0" width="25.4" height="25.2"/>
		</defs>
		<use xlink:href="#SVGID_5_"  overflow="visible" fill="#FFFFFF"/>
		<clipPath id="SVGID_6_">
			<use xlink:href="#SVGID_5_"  overflow="visible"/>
		</clipPath>
		<path clip-path="url(#SVGID_6_)" fill="#FFFFFF" d="M16.1,24.4C16.1,24.4,16,24.5,16.1,24.4c-0.3,0.1-0.5,0.2-0.7,0.2
			c-0.1,0-0.3,0-1.1-0.1l-0.5-0.1l-0.7-0.9H2.5c-0.4,0-0.8-0.4-0.8-0.8V2.5c0-0.4,0.4-0.8,0.8-0.8h14c0.4,0,0.8,0.4,0.8,0.8v8.8
			l1.7-0.1V2.3C19,1,18,0,16.7,0H2.3C1,0,0,1.1,0,2.3v20.6c0,1.3,1,2.3,2.3,2.3h14.4h0.1L16.1,24.4z"/>
	</g>
	<g>
		<defs>
			<rect id="SVGID_7_" x="0" y="0" width="25.4" height="25.2"/>
		</defs>
		<use xlink:href="#SVGID_7_"  overflow="visible" fill="#FFFFFF"/>
		<clipPath id="SVGID_8_">
			<use xlink:href="#SVGID_7_"  overflow="visible"/>
		</clipPath>
		<path clip-path="url(#SVGID_8_)" fill="#FFFFFF" d="M12,6.5c0,0.4-0.4,0.8-0.8,0.8H5.3c-0.4,0-0.8-0.4-0.8-0.8s0.4-0.8,0.8-0.8
			h5.9C11.6,5.7,12,6.1,12,6.5"/>
	</g>
	<g>
		<defs>
			<rect id="SVGID_9_" x="0" y="0" width="25.4" height="25.2"/>
		</defs>
		<use xlink:href="#SVGID_9_"  overflow="visible" fill="#FFFFFF"/>
		<clipPath id="SVGID_10_">
			<use xlink:href="#SVGID_9_"  overflow="visible"/>
		</clipPath>
		<path clip-path="url(#SVGID_10_)" fill="#FFFFFF" d="M13.8,10.9c0,0.4-0.4,0.8-0.8,0.8H5.4c-0.4,0-0.8-0.4-0.8-0.8
			c0-0.4,0.4-0.8,0.8-0.8H13C13.4,10.1,13.8,10.4,13.8,10.9"/>
	</g>
	<g>
		<defs>
			<rect id="SVGID_11_" x="0" y="0" width="25.4" height="25.2"/>
		</defs>
		<use xlink:href="#SVGID_11_"  overflow="visible" fill="#FFFFFF"/>
		<clipPath id="SVGID_12_">
			<use xlink:href="#SVGID_11_"  overflow="visible"/>
		</clipPath>
		<path clip-path="url(#SVGID_12_)" fill="#FFFFFF" d="M12.3,14.4H5.4c-0.4,0-0.8,0.4-0.8,0.8S5,16,5.4,16h6.1L12.3,14.4z"/>
	</g>
	<g>
		<defs>
			<rect id="SVGID_13_" x="0" y="0" width="25.4" height="25.2"/>
		</defs>
		<use xlink:href="#SVGID_13_"  overflow="visible" fill="#FFFFFF"/>
		<clipPath id="SVGID_14_">
			<use xlink:href="#SVGID_13_"  overflow="visible"/>
		</clipPath>
		<path clip-path="url(#SVGID_14_)" fill="#FFFFFF" d="M11.7,19.6L11.6,19l-0.1-0.2H5.3c-0.4,0-0.8,0.4-0.8,0.8s0.4,0.8,0.8,0.8h6.3
			L11.7,19.6z"/>
	</g>
</g>
</svg>
