<?xml version="1.0" encoding="utf-8"?>
<!-- Generator: Adobe Illustrator 21.0.0, SVG Export Plug-In . SVG Version: 6.00 Build 0)  -->
<svg version="1.1" id="Capa_1" xmlns="http://www.w3.org/2000/svg" xmlns:xlink="http://www.w3.org/1999/xlink" x="0px" y="0px"
	 viewBox="0 0 60 50" style="enable-background:new 0 0 60 50;" xml:space="preserve">
<style type="text/css">
	.st0{fill:#4775E5;}
</style>
<g>
	<path class="st0" d="M46.5,13c-2.3-7.2-8.9-12-16.5-12c-9,0-16.3,6.8-17.2,15.5C6.2,15.9,0.6,21.1,0.6,27.6c0,6.2,5,11.2,11.2,11.2
		H18v8.6c0,1,0.8,1.7,1.7,1.7h20.6c1,0,1.7-0.8,1.7-1.7v-8.6h4.3c7.1,0,13-5.8,13-12.9C59.4,18.8,53.6,13,46.5,13z M38.6,45.7H21.5
		V31.9h17.2V45.7z M46.4,35.3h-4.3v-5.2c0-1-0.8-1.7-1.7-1.7H24.9v-6.3c0-2.8,2.3-5,5.1-5s5.1,2.3,5.1,5v1.1c0,1,0.8,1.7,1.7,1.7
		s1.7-0.8,1.7-1.7v-1.1c0-4.7-3.8-8.5-8.5-8.5s-8.5,3.8-8.5,8.5v6.3h-1.7c-1,0-1.7,0.8-1.7,1.7v5.2h-6.2c-4.3,0-7.8-3.5-7.8-7.7
		c0-5.1,4.9-8.9,9.9-7.5c0.9,0.2,2.2-0.1,2.2-2c0-7.6,6.2-13.8,13.8-13.8c6.4,0,12.1,4.5,13.5,10.8c0.2,0.9,1,1.4,1.9,1.3
		c5.6-0.6,10.5,3.8,10.5,9.4C55.9,31.1,51.7,35.3,46.4,35.3z"/>
	<path class="st0" d="M30,35.3c-1,0-1.7,0.8-1.7,1.7v3.4c0,1,0.8,1.7,1.7,1.7c1,0,1.7-0.8,1.7-1.7V37C31.7,36.1,31,35.3,30,35.3z"/>
</g>
</svg>
